labels,timestamp,value
{consumergroup=__strimzi-topic-operator-kstreams},1650357563,2
{consumergroup=__strimzi-topic-operator-kstreams},1650357568,2
{consumergroup=__strimzi-topic-operator-kstreams},1650357573,2
{consumergroup=__strimzi-topic-operator-kstreams},1650357578,0
{consumergroup=__strimzi-topic-operator-kstreams},1650357583,0
{consumergroup=__strimzi-topic-operator-kstreams},1650357588,0
{consumergroup=__strimzi-topic-operator-kstreams},1650357593,0
{consumergroup=__strimzi-topic-operator-kstreams},1650357598,0
{consumergroup=__strimzi-topic-operator-kstreams},1650357603,0
{consumergroup=__strimzi-topic-operator-kstreams},1650357608,0
{consumergroup=__strimzi-topic-operator-kstreams},1650357613,0
{consumergroup=__strimzi-topic-operator-kstreams},1650357618,0
{consumergroup=__strimzi-topic-operator-kstreams},1650357623,0
{consumergroup=__strimzi-topic-operator-kstreams},1650357628,0
{consumergroup=__strimzi-topic-operator-kstreams},1650357633,0
{consumergroup=__strimzi-topic-operator-kstreams},1650357638,0
{consumergroup=__strimzi-topic-operator-kstreams},1650357643,0
{consumergroup=__strimzi-topic-operator-kstreams},1650357648,0
{consumergroup=__strimzi-topic-operator-kstreams},1650357653,0
{consumergroup=__strimzi-topic-operator-kstreams},1650357658,0
{consumergroup=__strimzi-topic-operator-kstreams},1650357663,0
{consumergroup=__strimzi-topic-operator-kstreams},1650357668,0
{consumergroup=__strimzi-topic-operator-kstreams},1650357673,0
{consumergroup=__strimzi-topic-operator-kstreams},1650357678,0
{consumergroup=__strimzi-topic-operator-kstreams},1650357683,0
{consumergroup=__strimzi-topic-operator-kstreams},1650357688,0
{consumergroup=__strimzi-topic-operator-kstreams},1650357693,0
{consumergroup=__strimzi-topic-operator-kstreams},1650357698,0
{consumergroup=__strimzi-topic-operator-kstreams},1650357703,0
{consumergroup=__strimzi-topic-operator-kstreams},1650357708,0
{consumergroup=__strimzi-topic-operator-kstreams},1650357713,0
{consumergroup=__strimzi-topic-operator-kstreams},1650357718,0
{consumergroup=__strimzi-topic-operator-kstreams},1650357723,0
{consumergroup=__strimzi-topic-operator-kstreams},1650357728,0
{consumergroup=__strimzi-topic-operator-kstreams},1650357733,0
{consumergroup=__strimzi-topic-operator-kstreams},1650357738,0
{consumergroup=__strimzi-topic-operator-kstreams},1650357743,0
{consumergroup=__strimzi-topic-operator-kstreams},1650357748,0
{consumergroup=__strimzi-topic-operator-kstreams},1650357753,0
{consumergroup=__strimzi-topic-operator-kstreams},1650357758,0
{consumergroup=__strimzi-topic-operator-kstreams},1650357763,0
{consumergroup=__strimzi-topic-operator-kstreams},1650357768,0
{consumergroup=__strimzi-topic-operator-kstreams},1650357773,0
{consumergroup=__strimzi-topic-operator-kstreams},1650357778,0
{consumergroup=__strimzi-topic-operator-kstreams},1650357783,0
{consumergroup=__strimzi-topic-operator-kstreams},1650357788,0
{consumergroup=__strimzi-topic-operator-kstreams},1650357793,0
{consumergroup=__strimzi-topic-operator-kstreams},1650357798,0
{consumergroup=__strimzi-topic-operator-kstreams},1650357803,0
{consumergroup=__strimzi-topic-operator-kstreams},1650357808,0
{consumergroup=__strimzi-topic-operator-kstreams},1650357813,0
{consumergroup=__strimzi-topic-operator-kstreams},1650357818,0
{consumergroup=__strimzi-topic-operator-kstreams},1650357823,0
