labels,timestamp,value
{consumergroup=__strimzi-topic-operator-kstreams},1650443858,0
{consumergroup=__strimzi-topic-operator-kstreams},1650443863,0
{consumergroup=__strimzi-topic-operator-kstreams},1650443868,0
{consumergroup=__strimzi-topic-operator-kstreams},1650443873,0
{consumergroup=__strimzi-topic-operator-kstreams},1650443878,8
{consumergroup=__strimzi-topic-operator-kstreams},1650443883,8
{consumergroup=__strimzi-topic-operator-kstreams},1650443888,8
{consumergroup=__strimzi-topic-operator-kstreams},1650443893,0
{consumergroup=__strimzi-topic-operator-kstreams},1650443898,0
{consumergroup=__strimzi-topic-operator-kstreams},1650443903,0
{consumergroup=__strimzi-topic-operator-kstreams},1650443908,0
{consumergroup=__strimzi-topic-operator-kstreams},1650443913,0
{consumergroup=__strimzi-topic-operator-kstreams},1650443918,0
{consumergroup=__strimzi-topic-operator-kstreams},1650443923,0
{consumergroup=__strimzi-topic-operator-kstreams},1650443928,0
{consumergroup=__strimzi-topic-operator-kstreams},1650443933,0
{consumergroup=__strimzi-topic-operator-kstreams},1650443938,0
{consumergroup=__strimzi-topic-operator-kstreams},1650443943,0
{consumergroup=__strimzi-topic-operator-kstreams},1650443948,0
{consumergroup=__strimzi-topic-operator-kstreams},1650443953,0
{consumergroup=__strimzi-topic-operator-kstreams},1650443958,0
{consumergroup=__strimzi-topic-operator-kstreams},1650443963,0
{consumergroup=__strimzi-topic-operator-kstreams},1650443968,0
{consumergroup=__strimzi-topic-operator-kstreams},1650443973,0
{consumergroup=__strimzi-topic-operator-kstreams},1650443978,0
{consumergroup=__strimzi-topic-operator-kstreams},1650443983,0
{consumergroup=__strimzi-topic-operator-kstreams},1650443988,0
{consumergroup=__strimzi-topic-operator-kstreams},1650443993,0
{consumergroup=__strimzi-topic-operator-kstreams},1650443998,0
{consumergroup=__strimzi-topic-operator-kstreams},1650444003,0
{consumergroup=__strimzi-topic-operator-kstreams},1650444008,0
{consumergroup=__strimzi-topic-operator-kstreams},1650444013,0
{consumergroup=__strimzi-topic-operator-kstreams},1650444018,0
{consumergroup=__strimzi-topic-operator-kstreams},1650444023,0
{consumergroup=__strimzi-topic-operator-kstreams},1650444028,0
{consumergroup=__strimzi-topic-operator-kstreams},1650444033,0
{consumergroup=__strimzi-topic-operator-kstreams},1650444038,0
{consumergroup=__strimzi-topic-operator-kstreams},1650444043,0
{consumergroup=__strimzi-topic-operator-kstreams},1650444048,0
{consumergroup=__strimzi-topic-operator-kstreams},1650444053,0
{consumergroup=__strimzi-topic-operator-kstreams},1650444058,0
{consumergroup=__strimzi-topic-operator-kstreams},1650444063,0
{consumergroup=__strimzi-topic-operator-kstreams},1650444068,0
{consumergroup=__strimzi-topic-operator-kstreams},1650444073,0
{consumergroup=__strimzi-topic-operator-kstreams},1650444078,0
{consumergroup=__strimzi-topic-operator-kstreams},1650444083,0
{consumergroup=__strimzi-topic-operator-kstreams},1650444088,0
{consumergroup=__strimzi-topic-operator-kstreams},1650444093,0
{consumergroup=__strimzi-topic-operator-kstreams},1650444098,0
{consumergroup=__strimzi-topic-operator-kstreams},1650444103,0
{consumergroup=__strimzi-topic-operator-kstreams},1650444108,0
{consumergroup=__strimzi-topic-operator-kstreams},1650444113,0
{consumergroup=__strimzi-topic-operator-kstreams},1650444118,0
