labels,timestamp,value
{consumergroup=__strimzi-topic-operator-kstreams},1650405047,0
{consumergroup=__strimzi-topic-operator-kstreams},1650405052,0
{consumergroup=__strimzi-topic-operator-kstreams},1650405057,0
{consumergroup=__strimzi-topic-operator-kstreams},1650405062,0
{consumergroup=__strimzi-topic-operator-kstreams},1650405067,0
{consumergroup=__strimzi-topic-operator-kstreams},1650405072,0
{consumergroup=__strimzi-topic-operator-kstreams},1650405077,0
{consumergroup=__strimzi-topic-operator-kstreams},1650405082,0
{consumergroup=__strimzi-topic-operator-kstreams},1650405087,0
{consumergroup=__strimzi-topic-operator-kstreams},1650405092,0
{consumergroup=__strimzi-topic-operator-kstreams},1650405097,0
{consumergroup=__strimzi-topic-operator-kstreams},1650405102,0
{consumergroup=__strimzi-topic-operator-kstreams},1650405107,0
{consumergroup=__strimzi-topic-operator-kstreams},1650405112,0
{consumergroup=__strimzi-topic-operator-kstreams},1650405117,0
{consumergroup=__strimzi-topic-operator-kstreams},1650405122,0
{consumergroup=__strimzi-topic-operator-kstreams},1650405127,0
{consumergroup=__strimzi-topic-operator-kstreams},1650405132,0
{consumergroup=__strimzi-topic-operator-kstreams},1650405137,0
{consumergroup=__strimzi-topic-operator-kstreams},1650405142,0
{consumergroup=__strimzi-topic-operator-kstreams},1650405147,0
{consumergroup=__strimzi-topic-operator-kstreams},1650405152,0
{consumergroup=__strimzi-topic-operator-kstreams},1650405157,0
{consumergroup=__strimzi-topic-operator-kstreams},1650405162,0
{consumergroup=__strimzi-topic-operator-kstreams},1650405167,0
{consumergroup=__strimzi-topic-operator-kstreams},1650405172,0
{consumergroup=__strimzi-topic-operator-kstreams},1650405177,0
{consumergroup=__strimzi-topic-operator-kstreams},1650405182,0
{consumergroup=__strimzi-topic-operator-kstreams},1650405187,0
{consumergroup=__strimzi-topic-operator-kstreams},1650405192,0
{consumergroup=__strimzi-topic-operator-kstreams},1650405197,0
{consumergroup=__strimzi-topic-operator-kstreams},1650405202,0
{consumergroup=__strimzi-topic-operator-kstreams},1650405207,0
{consumergroup=__strimzi-topic-operator-kstreams},1650405212,0
{consumergroup=__strimzi-topic-operator-kstreams},1650405217,0
{consumergroup=__strimzi-topic-operator-kstreams},1650405222,0
{consumergroup=__strimzi-topic-operator-kstreams},1650405227,0
{consumergroup=__strimzi-topic-operator-kstreams},1650405232,0
{consumergroup=__strimzi-topic-operator-kstreams},1650405237,0
{consumergroup=__strimzi-topic-operator-kstreams},1650405242,0
{consumergroup=__strimzi-topic-operator-kstreams},1650405247,0
{consumergroup=__strimzi-topic-operator-kstreams},1650405252,0
{consumergroup=__strimzi-topic-operator-kstreams},1650405257,0
{consumergroup=__strimzi-topic-operator-kstreams},1650405262,0
{consumergroup=__strimzi-topic-operator-kstreams},1650405267,0
{consumergroup=__strimzi-topic-operator-kstreams},1650405272,0
{consumergroup=__strimzi-topic-operator-kstreams},1650405277,0
{consumergroup=__strimzi-topic-operator-kstreams},1650405282,0
{consumergroup=__strimzi-topic-operator-kstreams},1650405287,0
{consumergroup=__strimzi-topic-operator-kstreams},1650405292,0
{consumergroup=__strimzi-topic-operator-kstreams},1650405297,0
{consumergroup=__strimzi-topic-operator-kstreams},1650405302,0
{consumergroup=__strimzi-topic-operator-kstreams},1650405307,0
{consumergroup=__strimzi-topic-operator-kstreams},1650405312,0
{consumergroup=__strimzi-topic-operator-kstreams},1650405317,0
{consumergroup=__strimzi-topic-operator-kstreams},1650405322,0
{consumergroup=__strimzi-topic-operator-kstreams},1650405327,0
{consumergroup=__strimzi-topic-operator-kstreams},1650405332,0
{consumergroup=__strimzi-topic-operator-kstreams},1650405337,0
{consumergroup=__strimzi-topic-operator-kstreams},1650405342,0
{consumergroup=__strimzi-topic-operator-kstreams},1650405347,0
{consumergroup=__strimzi-topic-operator-kstreams},1650405352,0
{consumergroup=__strimzi-topic-operator-kstreams},1650405357,0
{consumergroup=__strimzi-topic-operator-kstreams},1650405362,0
{consumergroup=__strimzi-topic-operator-kstreams},1650405367,0
{consumergroup=__strimzi-topic-operator-kstreams},1650405372,0
{consumergroup=__strimzi-topic-operator-kstreams},1650405377,0
{consumergroup=__strimzi-topic-operator-kstreams},1650405382,0
{consumergroup=__strimzi-topic-operator-kstreams},1650405387,0
{consumergroup=__strimzi-topic-operator-kstreams},1650405392,0
{consumergroup=__strimzi-topic-operator-kstreams},1650405397,0
{consumergroup=__strimzi-topic-operator-kstreams},1650405402,0
{consumergroup=__strimzi-topic-operator-kstreams},1650405407,0
{consumergroup=__strimzi-topic-operator-kstreams},1650405412,0
{consumergroup=__strimzi-topic-operator-kstreams},1650405417,0
{consumergroup=__strimzi-topic-operator-kstreams},1650405422,0
{consumergroup=__strimzi-topic-operator-kstreams},1650405427,0
{consumergroup=__strimzi-topic-operator-kstreams},1650405432,0
{consumergroup=__strimzi-topic-operator-kstreams},1650405437,0
{consumergroup=__strimzi-topic-operator-kstreams},1650405442,0
{consumergroup=__strimzi-topic-operator-kstreams},1650405447,0
{consumergroup=__strimzi-topic-operator-kstreams},1650405452,0
{consumergroup=__strimzi-topic-operator-kstreams},1650405457,0
{consumergroup=__strimzi-topic-operator-kstreams},1650405462,0
{consumergroup=__strimzi-topic-operator-kstreams},1650405467,0
{consumergroup=__strimzi-topic-operator-kstreams},1650405472,0
{consumergroup=__strimzi-topic-operator-kstreams},1650405477,0
{consumergroup=__strimzi-topic-operator-kstreams},1650405482,0
{consumergroup=__strimzi-topic-operator-kstreams},1650405487,0
{consumergroup=__strimzi-topic-operator-kstreams},1650405492,0
{consumergroup=__strimzi-topic-operator-kstreams},1650405497,0
{consumergroup=__strimzi-topic-operator-kstreams},1650405502,0
{consumergroup=__strimzi-topic-operator-kstreams},1650405507,0
{consumergroup=__strimzi-topic-operator-kstreams},1650405512,0
{consumergroup=__strimzi-topic-operator-kstreams},1650405517,0
{consumergroup=__strimzi-topic-operator-kstreams},1650405522,0
{consumergroup=__strimzi-topic-operator-kstreams},1650405527,0
{consumergroup=__strimzi-topic-operator-kstreams},1650405532,0
