labels,timestamp,value
{consumergroup=__strimzi-topic-operator-kstreams},1650402795,8
{consumergroup=__strimzi-topic-operator-kstreams},1650402800,8
{consumergroup=__strimzi-topic-operator-kstreams},1650402805,8
{consumergroup=__strimzi-topic-operator-kstreams},1650402810,8
{consumergroup=__strimzi-topic-operator-kstreams},1650402815,8
{consumergroup=__strimzi-topic-operator-kstreams},1650402820,8
{consumergroup=__strimzi-topic-operator-kstreams},1650402825,0
{consumergroup=__strimzi-topic-operator-kstreams},1650402830,0
{consumergroup=__strimzi-topic-operator-kstreams},1650402835,0
{consumergroup=__strimzi-topic-operator-kstreams},1650402840,0
{consumergroup=__strimzi-topic-operator-kstreams},1650402845,0
{consumergroup=__strimzi-topic-operator-kstreams},1650402850,0
{consumergroup=__strimzi-topic-operator-kstreams},1650402855,0
{consumergroup=__strimzi-topic-operator-kstreams},1650402860,0
{consumergroup=__strimzi-topic-operator-kstreams},1650402865,0
{consumergroup=__strimzi-topic-operator-kstreams},1650402870,0
{consumergroup=__strimzi-topic-operator-kstreams},1650402875,0
{consumergroup=__strimzi-topic-operator-kstreams},1650402880,0
{consumergroup=__strimzi-topic-operator-kstreams},1650402885,0
{consumergroup=__strimzi-topic-operator-kstreams},1650402890,0
{consumergroup=__strimzi-topic-operator-kstreams},1650402895,0
{consumergroup=__strimzi-topic-operator-kstreams},1650402900,0
{consumergroup=__strimzi-topic-operator-kstreams},1650402905,0
{consumergroup=__strimzi-topic-operator-kstreams},1650402910,0
{consumergroup=__strimzi-topic-operator-kstreams},1650402915,0
{consumergroup=__strimzi-topic-operator-kstreams},1650402920,0
{consumergroup=__strimzi-topic-operator-kstreams},1650402925,0
{consumergroup=__strimzi-topic-operator-kstreams},1650402930,0
{consumergroup=__strimzi-topic-operator-kstreams},1650402935,0
{consumergroup=__strimzi-topic-operator-kstreams},1650402940,0
{consumergroup=__strimzi-topic-operator-kstreams},1650402945,0
{consumergroup=__strimzi-topic-operator-kstreams},1650402950,0
{consumergroup=__strimzi-topic-operator-kstreams},1650402955,0
{consumergroup=__strimzi-topic-operator-kstreams},1650402960,0
{consumergroup=__strimzi-topic-operator-kstreams},1650402965,0
{consumergroup=__strimzi-topic-operator-kstreams},1650402970,0
{consumergroup=__strimzi-topic-operator-kstreams},1650402975,0
{consumergroup=__strimzi-topic-operator-kstreams},1650402980,0
{consumergroup=__strimzi-topic-operator-kstreams},1650402985,0
{consumergroup=__strimzi-topic-operator-kstreams},1650402990,0
{consumergroup=__strimzi-topic-operator-kstreams},1650402995,0
{consumergroup=__strimzi-topic-operator-kstreams},1650403000,0
{consumergroup=__strimzi-topic-operator-kstreams},1650403005,0
{consumergroup=__strimzi-topic-operator-kstreams},1650403010,0
{consumergroup=__strimzi-topic-operator-kstreams},1650403015,0
{consumergroup=__strimzi-topic-operator-kstreams},1650403020,0
{consumergroup=__strimzi-topic-operator-kstreams},1650403025,0
{consumergroup=__strimzi-topic-operator-kstreams},1650403030,0
{consumergroup=__strimzi-topic-operator-kstreams},1650403035,0
{consumergroup=__strimzi-topic-operator-kstreams},1650403040,0
{consumergroup=__strimzi-topic-operator-kstreams},1650403045,0
{consumergroup=__strimzi-topic-operator-kstreams},1650403050,0
{consumergroup=__strimzi-topic-operator-kstreams},1650403055,0
{consumergroup=__strimzi-topic-operator-kstreams},1650403060,0
{consumergroup=__strimzi-topic-operator-kstreams},1650403065,0
{consumergroup=__strimzi-topic-operator-kstreams},1650403070,0
{consumergroup=__strimzi-topic-operator-kstreams},1650403075,0
{consumergroup=__strimzi-topic-operator-kstreams},1650403080,0
{consumergroup=__strimzi-topic-operator-kstreams},1650403085,0
{consumergroup=__strimzi-topic-operator-kstreams},1650403090,0
{consumergroup=__strimzi-topic-operator-kstreams},1650403095,0
{consumergroup=__strimzi-topic-operator-kstreams},1650403100,0
{consumergroup=__strimzi-topic-operator-kstreams},1650403105,0
{consumergroup=__strimzi-topic-operator-kstreams},1650403110,0
{consumergroup=__strimzi-topic-operator-kstreams},1650403115,0
{consumergroup=__strimzi-topic-operator-kstreams},1650403120,0
{consumergroup=__strimzi-topic-operator-kstreams},1650403125,0
{consumergroup=__strimzi-topic-operator-kstreams},1650403130,0
{consumergroup=__strimzi-topic-operator-kstreams},1650403135,0
{consumergroup=__strimzi-topic-operator-kstreams},1650403140,0
{consumergroup=__strimzi-topic-operator-kstreams},1650403145,0
{consumergroup=__strimzi-topic-operator-kstreams},1650403150,0
{consumergroup=__strimzi-topic-operator-kstreams},1650403155,0
{consumergroup=__strimzi-topic-operator-kstreams},1650403160,0
{consumergroup=__strimzi-topic-operator-kstreams},1650403165,0
{consumergroup=__strimzi-topic-operator-kstreams},1650403170,0
{consumergroup=__strimzi-topic-operator-kstreams},1650403175,0
{consumergroup=__strimzi-topic-operator-kstreams},1650403180,0
{consumergroup=__strimzi-topic-operator-kstreams},1650403185,0
{consumergroup=__strimzi-topic-operator-kstreams},1650403190,0
{consumergroup=__strimzi-topic-operator-kstreams},1650403195,0
{consumergroup=__strimzi-topic-operator-kstreams},1650403200,0
{consumergroup=__strimzi-topic-operator-kstreams},1650403205,0
{consumergroup=__strimzi-topic-operator-kstreams},1650403210,0
{consumergroup=__strimzi-topic-operator-kstreams},1650403215,0
{consumergroup=__strimzi-topic-operator-kstreams},1650403220,0
{consumergroup=__strimzi-topic-operator-kstreams},1650403225,0
{consumergroup=__strimzi-topic-operator-kstreams},1650403230,0
{consumergroup=__strimzi-topic-operator-kstreams},1650403235,0
{consumergroup=__strimzi-topic-operator-kstreams},1650403240,0
{consumergroup=__strimzi-topic-operator-kstreams},1650403245,0
{consumergroup=__strimzi-topic-operator-kstreams},1650403250,0
{consumergroup=__strimzi-topic-operator-kstreams},1650403255,0
{consumergroup=__strimzi-topic-operator-kstreams},1650403260,0
{consumergroup=__strimzi-topic-operator-kstreams},1650403265,0
{consumergroup=__strimzi-topic-operator-kstreams},1650403270,0
{consumergroup=__strimzi-topic-operator-kstreams},1650403275,0
{consumergroup=__strimzi-topic-operator-kstreams},1650403280,0
{consumergroup=__strimzi-topic-operator-kstreams},1650403285,0
