labels,timestamp,value
{consumergroup=__strimzi-topic-operator-kstreams},1650428775,2
{consumergroup=__strimzi-topic-operator-kstreams},1650428780,2
{consumergroup=__strimzi-topic-operator-kstreams},1650428785,2
{consumergroup=__strimzi-topic-operator-kstreams},1650428790,8
{consumergroup=__strimzi-topic-operator-kstreams},1650428795,8
{consumergroup=__strimzi-topic-operator-kstreams},1650428800,8
{consumergroup=__strimzi-topic-operator-kstreams},1650428805,8
{consumergroup=__strimzi-topic-operator-kstreams},1650428810,8
{consumergroup=__strimzi-topic-operator-kstreams},1650428815,8
{consumergroup=__strimzi-topic-operator-kstreams},1650428820,0
{consumergroup=__strimzi-topic-operator-kstreams},1650428825,0
{consumergroup=__strimzi-topic-operator-kstreams},1650428830,0
{consumergroup=__strimzi-topic-operator-kstreams},1650428835,0
{consumergroup=__strimzi-topic-operator-kstreams},1650428840,0
{consumergroup=__strimzi-topic-operator-kstreams},1650428845,0
{consumergroup=__strimzi-topic-operator-kstreams},1650428850,0
{consumergroup=__strimzi-topic-operator-kstreams},1650428855,0
{consumergroup=__strimzi-topic-operator-kstreams},1650428860,0
{consumergroup=__strimzi-topic-operator-kstreams},1650428865,0
{consumergroup=__strimzi-topic-operator-kstreams},1650428870,0
{consumergroup=__strimzi-topic-operator-kstreams},1650428875,0
{consumergroup=__strimzi-topic-operator-kstreams},1650428880,0
{consumergroup=__strimzi-topic-operator-kstreams},1650428885,0
{consumergroup=__strimzi-topic-operator-kstreams},1650428890,0
{consumergroup=__strimzi-topic-operator-kstreams},1650428895,0
{consumergroup=__strimzi-topic-operator-kstreams},1650428900,0
{consumergroup=__strimzi-topic-operator-kstreams},1650428905,0
{consumergroup=__strimzi-topic-operator-kstreams},1650428910,0
{consumergroup=__strimzi-topic-operator-kstreams},1650428915,0
{consumergroup=__strimzi-topic-operator-kstreams},1650428920,0
{consumergroup=__strimzi-topic-operator-kstreams},1650428925,0
{consumergroup=__strimzi-topic-operator-kstreams},1650428930,0
{consumergroup=__strimzi-topic-operator-kstreams},1650428935,0
{consumergroup=__strimzi-topic-operator-kstreams},1650428940,0
{consumergroup=__strimzi-topic-operator-kstreams},1650428945,0
{consumergroup=__strimzi-topic-operator-kstreams},1650428950,0
{consumergroup=__strimzi-topic-operator-kstreams},1650428955,0
{consumergroup=__strimzi-topic-operator-kstreams},1650428960,0
{consumergroup=__strimzi-topic-operator-kstreams},1650428965,0
{consumergroup=__strimzi-topic-operator-kstreams},1650428970,0
{consumergroup=__strimzi-topic-operator-kstreams},1650428975,0
{consumergroup=__strimzi-topic-operator-kstreams},1650428980,0
{consumergroup=__strimzi-topic-operator-kstreams},1650428985,0
{consumergroup=__strimzi-topic-operator-kstreams},1650428990,0
{consumergroup=__strimzi-topic-operator-kstreams},1650428995,0
{consumergroup=__strimzi-topic-operator-kstreams},1650429000,0
{consumergroup=__strimzi-topic-operator-kstreams},1650429005,0
{consumergroup=__strimzi-topic-operator-kstreams},1650429010,0
{consumergroup=__strimzi-topic-operator-kstreams},1650429015,0
{consumergroup=__strimzi-topic-operator-kstreams},1650429020,0
{consumergroup=__strimzi-topic-operator-kstreams},1650429025,0
{consumergroup=__strimzi-topic-operator-kstreams},1650429030,0
{consumergroup=__strimzi-topic-operator-kstreams},1650429035,0
{consumergroup=__strimzi-topic-operator-kstreams},1650429040,0
{consumergroup=__strimzi-topic-operator-kstreams},1650429045,0
{consumergroup=__strimzi-topic-operator-kstreams},1650429050,0
{consumergroup=__strimzi-topic-operator-kstreams},1650429055,0
{consumergroup=__strimzi-topic-operator-kstreams},1650429060,0
{consumergroup=__strimzi-topic-operator-kstreams},1650429065,0
{consumergroup=__strimzi-topic-operator-kstreams},1650429070,0
{consumergroup=__strimzi-topic-operator-kstreams},1650429075,0
{consumergroup=__strimzi-topic-operator-kstreams},1650429080,0
{consumergroup=__strimzi-topic-operator-kstreams},1650429085,0
{consumergroup=__strimzi-topic-operator-kstreams},1650429090,0
{consumergroup=__strimzi-topic-operator-kstreams},1650429095,0
{consumergroup=__strimzi-topic-operator-kstreams},1650429100,0
{consumergroup=__strimzi-topic-operator-kstreams},1650429105,0
{consumergroup=__strimzi-topic-operator-kstreams},1650429110,0
{consumergroup=__strimzi-topic-operator-kstreams},1650429115,0
{consumergroup=__strimzi-topic-operator-kstreams},1650429120,0
{consumergroup=__strimzi-topic-operator-kstreams},1650429125,0
{consumergroup=__strimzi-topic-operator-kstreams},1650429130,0
{consumergroup=__strimzi-topic-operator-kstreams},1650429135,0
{consumergroup=__strimzi-topic-operator-kstreams},1650429140,0
{consumergroup=__strimzi-topic-operator-kstreams},1650429145,0
{consumergroup=__strimzi-topic-operator-kstreams},1650429150,0
{consumergroup=__strimzi-topic-operator-kstreams},1650429155,0
{consumergroup=__strimzi-topic-operator-kstreams},1650429160,0
{consumergroup=__strimzi-topic-operator-kstreams},1650429165,0
{consumergroup=__strimzi-topic-operator-kstreams},1650429170,0
{consumergroup=__strimzi-topic-operator-kstreams},1650429175,0
{consumergroup=__strimzi-topic-operator-kstreams},1650429180,0
{consumergroup=__strimzi-topic-operator-kstreams},1650429185,0
{consumergroup=__strimzi-topic-operator-kstreams},1650429190,0
{consumergroup=__strimzi-topic-operator-kstreams},1650429195,0
{consumergroup=__strimzi-topic-operator-kstreams},1650429200,0
{consumergroup=__strimzi-topic-operator-kstreams},1650429205,0
{consumergroup=__strimzi-topic-operator-kstreams},1650429210,0
{consumergroup=__strimzi-topic-operator-kstreams},1650429215,0
{consumergroup=__strimzi-topic-operator-kstreams},1650429220,0
{consumergroup=__strimzi-topic-operator-kstreams},1650429225,0
{consumergroup=__strimzi-topic-operator-kstreams},1650429230,0
{consumergroup=__strimzi-topic-operator-kstreams},1650429235,0
{consumergroup=__strimzi-topic-operator-kstreams},1650429240,0
{consumergroup=__strimzi-topic-operator-kstreams},1650429245,0
{consumergroup=__strimzi-topic-operator-kstreams},1650429250,0
{consumergroup=__strimzi-topic-operator-kstreams},1650429255,0
{consumergroup=__strimzi-topic-operator-kstreams},1650429260,0
{consumergroup=__strimzi-topic-operator-kstreams},1650429265,0
{consumergroup=__strimzi-topic-operator-kstreams},1650429270,0
{consumergroup=__strimzi-topic-operator-kstreams},1650429275,0
