labels,timestamp,value
{consumergroup=__strimzi-topic-operator-kstreams},1650439855,8
{consumergroup=__strimzi-topic-operator-kstreams},1650439860,8
{consumergroup=__strimzi-topic-operator-kstreams},1650439865,8
{consumergroup=__strimzi-topic-operator-kstreams},1650439870,8
{consumergroup=__strimzi-topic-operator-kstreams},1650439875,8
{consumergroup=__strimzi-topic-operator-kstreams},1650439880,8
{consumergroup=__strimzi-topic-operator-kstreams},1650439885,0
{consumergroup=__strimzi-topic-operator-kstreams},1650439890,0
{consumergroup=__strimzi-topic-operator-kstreams},1650439895,0
{consumergroup=__strimzi-topic-operator-kstreams},1650439900,0
{consumergroup=__strimzi-topic-operator-kstreams},1650439905,0
{consumergroup=__strimzi-topic-operator-kstreams},1650439910,0
{consumergroup=__strimzi-topic-operator-kstreams},1650439915,0
{consumergroup=__strimzi-topic-operator-kstreams},1650439920,0
{consumergroup=__strimzi-topic-operator-kstreams},1650439925,0
{consumergroup=__strimzi-topic-operator-kstreams},1650439930,0
{consumergroup=__strimzi-topic-operator-kstreams},1650439935,0
{consumergroup=__strimzi-topic-operator-kstreams},1650439940,0
{consumergroup=__strimzi-topic-operator-kstreams},1650439945,0
{consumergroup=__strimzi-topic-operator-kstreams},1650439950,0
{consumergroup=__strimzi-topic-operator-kstreams},1650439955,0
{consumergroup=__strimzi-topic-operator-kstreams},1650439960,0
{consumergroup=__strimzi-topic-operator-kstreams},1650439965,0
{consumergroup=__strimzi-topic-operator-kstreams},1650439970,0
{consumergroup=__strimzi-topic-operator-kstreams},1650439975,0
{consumergroup=__strimzi-topic-operator-kstreams},1650439980,0
{consumergroup=__strimzi-topic-operator-kstreams},1650439985,0
{consumergroup=__strimzi-topic-operator-kstreams},1650439990,0
{consumergroup=__strimzi-topic-operator-kstreams},1650439995,0
{consumergroup=__strimzi-topic-operator-kstreams},1650440000,0
{consumergroup=__strimzi-topic-operator-kstreams},1650440005,0
{consumergroup=__strimzi-topic-operator-kstreams},1650440010,0
{consumergroup=__strimzi-topic-operator-kstreams},1650440015,0
{consumergroup=__strimzi-topic-operator-kstreams},1650440020,0
{consumergroup=__strimzi-topic-operator-kstreams},1650440025,0
{consumergroup=__strimzi-topic-operator-kstreams},1650440030,0
{consumergroup=__strimzi-topic-operator-kstreams},1650440035,0
{consumergroup=__strimzi-topic-operator-kstreams},1650440040,0
{consumergroup=__strimzi-topic-operator-kstreams},1650440045,0
{consumergroup=__strimzi-topic-operator-kstreams},1650440050,0
{consumergroup=__strimzi-topic-operator-kstreams},1650440055,0
{consumergroup=__strimzi-topic-operator-kstreams},1650440060,0
{consumergroup=__strimzi-topic-operator-kstreams},1650440065,0
{consumergroup=__strimzi-topic-operator-kstreams},1650440070,0
{consumergroup=__strimzi-topic-operator-kstreams},1650440075,0
{consumergroup=__strimzi-topic-operator-kstreams},1650440080,0
{consumergroup=__strimzi-topic-operator-kstreams},1650440085,0
{consumergroup=__strimzi-topic-operator-kstreams},1650440090,0
{consumergroup=__strimzi-topic-operator-kstreams},1650440095,0
{consumergroup=__strimzi-topic-operator-kstreams},1650440100,0
{consumergroup=__strimzi-topic-operator-kstreams},1650440105,0
{consumergroup=__strimzi-topic-operator-kstreams},1650440110,0
{consumergroup=__strimzi-topic-operator-kstreams},1650440115,0
{consumergroup=__strimzi-topic-operator-kstreams},1650440120,0
{consumergroup=__strimzi-topic-operator-kstreams},1650440125,0
{consumergroup=__strimzi-topic-operator-kstreams},1650440130,0
{consumergroup=__strimzi-topic-operator-kstreams},1650440135,0
{consumergroup=__strimzi-topic-operator-kstreams},1650440140,0
{consumergroup=__strimzi-topic-operator-kstreams},1650440145,0
{consumergroup=__strimzi-topic-operator-kstreams},1650440150,0
{consumergroup=__strimzi-topic-operator-kstreams},1650440155,0
{consumergroup=__strimzi-topic-operator-kstreams},1650440160,0
{consumergroup=__strimzi-topic-operator-kstreams},1650440165,0
{consumergroup=__strimzi-topic-operator-kstreams},1650440170,0
{consumergroup=__strimzi-topic-operator-kstreams},1650440175,0
{consumergroup=__strimzi-topic-operator-kstreams},1650440180,0
{consumergroup=__strimzi-topic-operator-kstreams},1650440185,0
{consumergroup=__strimzi-topic-operator-kstreams},1650440190,0
{consumergroup=__strimzi-topic-operator-kstreams},1650440195,0
{consumergroup=__strimzi-topic-operator-kstreams},1650440200,0
{consumergroup=__strimzi-topic-operator-kstreams},1650440205,0
{consumergroup=__strimzi-topic-operator-kstreams},1650440210,0
{consumergroup=__strimzi-topic-operator-kstreams},1650440215,0
{consumergroup=__strimzi-topic-operator-kstreams},1650440220,0
{consumergroup=__strimzi-topic-operator-kstreams},1650440225,0
{consumergroup=__strimzi-topic-operator-kstreams},1650440230,0
{consumergroup=__strimzi-topic-operator-kstreams},1650440235,0
{consumergroup=__strimzi-topic-operator-kstreams},1650440240,0
{consumergroup=__strimzi-topic-operator-kstreams},1650440245,0
{consumergroup=__strimzi-topic-operator-kstreams},1650440250,0
{consumergroup=__strimzi-topic-operator-kstreams},1650440255,0
{consumergroup=__strimzi-topic-operator-kstreams},1650440260,0
{consumergroup=__strimzi-topic-operator-kstreams},1650440265,0
{consumergroup=__strimzi-topic-operator-kstreams},1650440270,0
{consumergroup=__strimzi-topic-operator-kstreams},1650440275,0
{consumergroup=__strimzi-topic-operator-kstreams},1650440280,0
{consumergroup=__strimzi-topic-operator-kstreams},1650440285,0
{consumergroup=__strimzi-topic-operator-kstreams},1650440290,0
{consumergroup=__strimzi-topic-operator-kstreams},1650440295,0
{consumergroup=__strimzi-topic-operator-kstreams},1650440300,0
{consumergroup=__strimzi-topic-operator-kstreams},1650440305,0
{consumergroup=__strimzi-topic-operator-kstreams},1650440310,0
{consumergroup=__strimzi-topic-operator-kstreams},1650440315,0
{consumergroup=__strimzi-topic-operator-kstreams},1650440320,0
{consumergroup=__strimzi-topic-operator-kstreams},1650440325,0
{consumergroup=__strimzi-topic-operator-kstreams},1650440330,0
{consumergroup=__strimzi-topic-operator-kstreams},1650440335,0
{consumergroup=__strimzi-topic-operator-kstreams},1650440340,0
{consumergroup=__strimzi-topic-operator-kstreams},1650440345,0
