labels,timestamp,value
{consumergroup=__strimzi-topic-operator-kstreams},1650437064,0
{consumergroup=__strimzi-topic-operator-kstreams},1650437069,0
{consumergroup=__strimzi-topic-operator-kstreams},1650437074,0
{consumergroup=__strimzi-topic-operator-kstreams},1650437079,8
{consumergroup=__strimzi-topic-operator-kstreams},1650437084,8
{consumergroup=__strimzi-topic-operator-kstreams},1650437089,8
{consumergroup=__strimzi-topic-operator-kstreams},1650437094,0
{consumergroup=__strimzi-topic-operator-kstreams},1650437099,0
{consumergroup=__strimzi-topic-operator-kstreams},1650437104,0
{consumergroup=__strimzi-topic-operator-kstreams},1650437109,0
{consumergroup=__strimzi-topic-operator-kstreams},1650437114,0
{consumergroup=__strimzi-topic-operator-kstreams},1650437119,0
{consumergroup=__strimzi-topic-operator-kstreams},1650437124,0
{consumergroup=__strimzi-topic-operator-kstreams},1650437129,0
{consumergroup=__strimzi-topic-operator-kstreams},1650437134,0
{consumergroup=__strimzi-topic-operator-kstreams},1650437139,0
{consumergroup=__strimzi-topic-operator-kstreams},1650437144,0
{consumergroup=__strimzi-topic-operator-kstreams},1650437149,0
{consumergroup=__strimzi-topic-operator-kstreams},1650437154,0
{consumergroup=__strimzi-topic-operator-kstreams},1650437159,0
{consumergroup=__strimzi-topic-operator-kstreams},1650437164,0
{consumergroup=__strimzi-topic-operator-kstreams},1650437169,0
{consumergroup=__strimzi-topic-operator-kstreams},1650437174,0
{consumergroup=__strimzi-topic-operator-kstreams},1650437179,0
{consumergroup=__strimzi-topic-operator-kstreams},1650437184,0
{consumergroup=__strimzi-topic-operator-kstreams},1650437189,0
{consumergroup=__strimzi-topic-operator-kstreams},1650437194,0
{consumergroup=__strimzi-topic-operator-kstreams},1650437199,0
{consumergroup=__strimzi-topic-operator-kstreams},1650437204,0
{consumergroup=__strimzi-topic-operator-kstreams},1650437209,0
{consumergroup=__strimzi-topic-operator-kstreams},1650437214,0
{consumergroup=__strimzi-topic-operator-kstreams},1650437219,0
{consumergroup=__strimzi-topic-operator-kstreams},1650437224,0
{consumergroup=__strimzi-topic-operator-kstreams},1650437229,0
{consumergroup=__strimzi-topic-operator-kstreams},1650437234,0
{consumergroup=__strimzi-topic-operator-kstreams},1650437239,0
{consumergroup=__strimzi-topic-operator-kstreams},1650437244,0
{consumergroup=__strimzi-topic-operator-kstreams},1650437249,0
{consumergroup=__strimzi-topic-operator-kstreams},1650437254,0
{consumergroup=__strimzi-topic-operator-kstreams},1650437259,0
{consumergroup=__strimzi-topic-operator-kstreams},1650437264,0
{consumergroup=__strimzi-topic-operator-kstreams},1650437269,0
{consumergroup=__strimzi-topic-operator-kstreams},1650437274,0
{consumergroup=__strimzi-topic-operator-kstreams},1650437279,0
{consumergroup=__strimzi-topic-operator-kstreams},1650437284,0
{consumergroup=__strimzi-topic-operator-kstreams},1650437289,0
{consumergroup=__strimzi-topic-operator-kstreams},1650437294,0
{consumergroup=__strimzi-topic-operator-kstreams},1650437299,0
{consumergroup=__strimzi-topic-operator-kstreams},1650437304,0
{consumergroup=__strimzi-topic-operator-kstreams},1650437309,0
{consumergroup=__strimzi-topic-operator-kstreams},1650437314,0
{consumergroup=__strimzi-topic-operator-kstreams},1650437319,0
{consumergroup=__strimzi-topic-operator-kstreams},1650437324,0
{consumergroup=__strimzi-topic-operator-kstreams},1650437329,0
{consumergroup=__strimzi-topic-operator-kstreams},1650437334,0
{consumergroup=__strimzi-topic-operator-kstreams},1650437339,0
{consumergroup=__strimzi-topic-operator-kstreams},1650437344,0
{consumergroup=__strimzi-topic-operator-kstreams},1650437349,0
{consumergroup=__strimzi-topic-operator-kstreams},1650437354,0
{consumergroup=__strimzi-topic-operator-kstreams},1650437359,0
{consumergroup=__strimzi-topic-operator-kstreams},1650437364,0
{consumergroup=__strimzi-topic-operator-kstreams},1650437369,0
{consumergroup=__strimzi-topic-operator-kstreams},1650437374,0
{consumergroup=__strimzi-topic-operator-kstreams},1650437379,0
{consumergroup=__strimzi-topic-operator-kstreams},1650437384,0
{consumergroup=__strimzi-topic-operator-kstreams},1650437389,0
{consumergroup=__strimzi-topic-operator-kstreams},1650437394,0
{consumergroup=__strimzi-topic-operator-kstreams},1650437399,0
{consumergroup=__strimzi-topic-operator-kstreams},1650437404,0
{consumergroup=__strimzi-topic-operator-kstreams},1650437409,0
{consumergroup=__strimzi-topic-operator-kstreams},1650437414,0
{consumergroup=__strimzi-topic-operator-kstreams},1650437419,0
{consumergroup=__strimzi-topic-operator-kstreams},1650437424,0
{consumergroup=__strimzi-topic-operator-kstreams},1650437429,0
{consumergroup=__strimzi-topic-operator-kstreams},1650437434,0
{consumergroup=__strimzi-topic-operator-kstreams},1650437439,0
{consumergroup=__strimzi-topic-operator-kstreams},1650437444,0
{consumergroup=__strimzi-topic-operator-kstreams},1650437449,0
{consumergroup=__strimzi-topic-operator-kstreams},1650437454,0
{consumergroup=__strimzi-topic-operator-kstreams},1650437459,0
{consumergroup=__strimzi-topic-operator-kstreams},1650437464,0
{consumergroup=__strimzi-topic-operator-kstreams},1650437469,0
{consumergroup=__strimzi-topic-operator-kstreams},1650437474,0
{consumergroup=__strimzi-topic-operator-kstreams},1650437479,0
{consumergroup=__strimzi-topic-operator-kstreams},1650437484,0
{consumergroup=__strimzi-topic-operator-kstreams},1650437489,0
{consumergroup=__strimzi-topic-operator-kstreams},1650437494,0
{consumergroup=__strimzi-topic-operator-kstreams},1650437499,0
{consumergroup=__strimzi-topic-operator-kstreams},1650437504,0
{consumergroup=__strimzi-topic-operator-kstreams},1650437509,0
{consumergroup=__strimzi-topic-operator-kstreams},1650437514,0
{consumergroup=__strimzi-topic-operator-kstreams},1650437519,0
{consumergroup=__strimzi-topic-operator-kstreams},1650437524,0
{consumergroup=__strimzi-topic-operator-kstreams},1650437529,0
{consumergroup=__strimzi-topic-operator-kstreams},1650437534,0
{consumergroup=__strimzi-topic-operator-kstreams},1650437539,0
{consumergroup=__strimzi-topic-operator-kstreams},1650437544,0
{consumergroup=__strimzi-topic-operator-kstreams},1650437549,0
{consumergroup=__strimzi-topic-operator-kstreams},1650437554,0
{consumergroup=__strimzi-topic-operator-kstreams},1650437559,0
