labels,timestamp,value
{consumergroup=__strimzi-topic-operator-kstreams},1650424330,0
{consumergroup=__strimzi-topic-operator-kstreams},1650424335,0
{consumergroup=__strimzi-topic-operator-kstreams},1650424340,0
{consumergroup=__strimzi-topic-operator-kstreams},1650424345,0
{consumergroup=__strimzi-topic-operator-kstreams},1650424350,0
{consumergroup=__strimzi-topic-operator-kstreams},1650424355,0
{consumergroup=__strimzi-topic-operator-kstreams},1650424360,0
{consumergroup=__strimzi-topic-operator-kstreams},1650424365,0
{consumergroup=__strimzi-topic-operator-kstreams},1650424370,0
{consumergroup=__strimzi-topic-operator-kstreams},1650424375,0
{consumergroup=__strimzi-topic-operator-kstreams},1650424380,0
{consumergroup=__strimzi-topic-operator-kstreams},1650424385,0
{consumergroup=__strimzi-topic-operator-kstreams},1650424390,0
{consumergroup=__strimzi-topic-operator-kstreams},1650424395,0
{consumergroup=__strimzi-topic-operator-kstreams},1650424400,0
{consumergroup=__strimzi-topic-operator-kstreams},1650424405,0
{consumergroup=__strimzi-topic-operator-kstreams},1650424410,0
{consumergroup=__strimzi-topic-operator-kstreams},1650424415,0
{consumergroup=__strimzi-topic-operator-kstreams},1650424420,0
{consumergroup=__strimzi-topic-operator-kstreams},1650424425,0
{consumergroup=__strimzi-topic-operator-kstreams},1650424430,0
{consumergroup=__strimzi-topic-operator-kstreams},1650424435,0
{consumergroup=__strimzi-topic-operator-kstreams},1650424440,0
{consumergroup=__strimzi-topic-operator-kstreams},1650424445,0
{consumergroup=__strimzi-topic-operator-kstreams},1650424450,0
{consumergroup=__strimzi-topic-operator-kstreams},1650424455,0
{consumergroup=__strimzi-topic-operator-kstreams},1650424460,0
{consumergroup=__strimzi-topic-operator-kstreams},1650424465,0
{consumergroup=__strimzi-topic-operator-kstreams},1650424470,0
{consumergroup=__strimzi-topic-operator-kstreams},1650424475,0
{consumergroup=__strimzi-topic-operator-kstreams},1650424480,0
{consumergroup=__strimzi-topic-operator-kstreams},1650424485,0
{consumergroup=__strimzi-topic-operator-kstreams},1650424490,0
{consumergroup=__strimzi-topic-operator-kstreams},1650424495,0
{consumergroup=__strimzi-topic-operator-kstreams},1650424500,0
{consumergroup=__strimzi-topic-operator-kstreams},1650424505,0
{consumergroup=__strimzi-topic-operator-kstreams},1650424510,0
{consumergroup=__strimzi-topic-operator-kstreams},1650424515,0
{consumergroup=__strimzi-topic-operator-kstreams},1650424520,0
{consumergroup=__strimzi-topic-operator-kstreams},1650424525,0
{consumergroup=__strimzi-topic-operator-kstreams},1650424530,0
{consumergroup=__strimzi-topic-operator-kstreams},1650424535,0
{consumergroup=__strimzi-topic-operator-kstreams},1650424540,0
{consumergroup=__strimzi-topic-operator-kstreams},1650424545,0
{consumergroup=__strimzi-topic-operator-kstreams},1650424550,0
{consumergroup=__strimzi-topic-operator-kstreams},1650424555,0
{consumergroup=__strimzi-topic-operator-kstreams},1650424560,0
{consumergroup=__strimzi-topic-operator-kstreams},1650424565,0
{consumergroup=__strimzi-topic-operator-kstreams},1650424570,0
{consumergroup=__strimzi-topic-operator-kstreams},1650424575,0
{consumergroup=__strimzi-topic-operator-kstreams},1650424580,0
{consumergroup=__strimzi-topic-operator-kstreams},1650424585,0
{consumergroup=__strimzi-topic-operator-kstreams},1650424590,0
{consumergroup=__strimzi-topic-operator-kstreams},1650424595,0
{consumergroup=__strimzi-topic-operator-kstreams},1650424600,0
{consumergroup=__strimzi-topic-operator-kstreams},1650424605,0
{consumergroup=__strimzi-topic-operator-kstreams},1650424610,0
{consumergroup=__strimzi-topic-operator-kstreams},1650424615,0
{consumergroup=__strimzi-topic-operator-kstreams},1650424620,0
{consumergroup=__strimzi-topic-operator-kstreams},1650424625,0
{consumergroup=__strimzi-topic-operator-kstreams},1650424630,0
{consumergroup=__strimzi-topic-operator-kstreams},1650424635,0
{consumergroup=__strimzi-topic-operator-kstreams},1650424640,0
{consumergroup=__strimzi-topic-operator-kstreams},1650424645,0
{consumergroup=__strimzi-topic-operator-kstreams},1650424650,0
{consumergroup=__strimzi-topic-operator-kstreams},1650424655,0
{consumergroup=__strimzi-topic-operator-kstreams},1650424660,0
{consumergroup=__strimzi-topic-operator-kstreams},1650424665,0
{consumergroup=__strimzi-topic-operator-kstreams},1650424670,0
{consumergroup=__strimzi-topic-operator-kstreams},1650424675,0
{consumergroup=__strimzi-topic-operator-kstreams},1650424680,0
{consumergroup=__strimzi-topic-operator-kstreams},1650424685,0
{consumergroup=__strimzi-topic-operator-kstreams},1650424690,0
{consumergroup=__strimzi-topic-operator-kstreams},1650424695,0
{consumergroup=__strimzi-topic-operator-kstreams},1650424700,0
{consumergroup=__strimzi-topic-operator-kstreams},1650424705,0
{consumergroup=__strimzi-topic-operator-kstreams},1650424710,0
{consumergroup=__strimzi-topic-operator-kstreams},1650424715,0
{consumergroup=__strimzi-topic-operator-kstreams},1650424720,0
{consumergroup=__strimzi-topic-operator-kstreams},1650424725,0
{consumergroup=__strimzi-topic-operator-kstreams},1650424730,0
{consumergroup=__strimzi-topic-operator-kstreams},1650424735,0
{consumergroup=__strimzi-topic-operator-kstreams},1650424740,0
{consumergroup=__strimzi-topic-operator-kstreams},1650424745,0
{consumergroup=__strimzi-topic-operator-kstreams},1650424750,0
{consumergroup=__strimzi-topic-operator-kstreams},1650424755,0
{consumergroup=__strimzi-topic-operator-kstreams},1650424760,0
{consumergroup=__strimzi-topic-operator-kstreams},1650424765,0
{consumergroup=__strimzi-topic-operator-kstreams},1650424770,0
{consumergroup=__strimzi-topic-operator-kstreams},1650424775,0
{consumergroup=__strimzi-topic-operator-kstreams},1650424780,0
{consumergroup=__strimzi-topic-operator-kstreams},1650424785,0
{consumergroup=__strimzi-topic-operator-kstreams},1650424790,0
{consumergroup=__strimzi-topic-operator-kstreams},1650424795,0
{consumergroup=__strimzi-topic-operator-kstreams},1650424800,0
{consumergroup=__strimzi-topic-operator-kstreams},1650424805,0
{consumergroup=__strimzi-topic-operator-kstreams},1650424810,0
{consumergroup=__strimzi-topic-operator-kstreams},1650424815,0
{consumergroup=__strimzi-topic-operator-kstreams},1650424820,0
