labels,timestamp,value
{consumergroup=__strimzi-topic-operator-kstreams},1650426010,0
{consumergroup=__strimzi-topic-operator-kstreams},1650426015,0
{consumergroup=__strimzi-topic-operator-kstreams},1650426020,0
{consumergroup=__strimzi-topic-operator-kstreams},1650426025,8
{consumergroup=__strimzi-topic-operator-kstreams},1650426030,8
{consumergroup=__strimzi-topic-operator-kstreams},1650426035,8
{consumergroup=__strimzi-topic-operator-kstreams},1650426040,0
{consumergroup=__strimzi-topic-operator-kstreams},1650426045,0
{consumergroup=__strimzi-topic-operator-kstreams},1650426050,0
{consumergroup=__strimzi-topic-operator-kstreams},1650426055,0
{consumergroup=__strimzi-topic-operator-kstreams},1650426060,0
{consumergroup=__strimzi-topic-operator-kstreams},1650426065,0
{consumergroup=__strimzi-topic-operator-kstreams},1650426070,0
{consumergroup=__strimzi-topic-operator-kstreams},1650426075,0
{consumergroup=__strimzi-topic-operator-kstreams},1650426080,0
{consumergroup=__strimzi-topic-operator-kstreams},1650426085,0
{consumergroup=__strimzi-topic-operator-kstreams},1650426090,0
{consumergroup=__strimzi-topic-operator-kstreams},1650426095,0
{consumergroup=__strimzi-topic-operator-kstreams},1650426100,0
{consumergroup=__strimzi-topic-operator-kstreams},1650426105,0
{consumergroup=__strimzi-topic-operator-kstreams},1650426110,0
{consumergroup=__strimzi-topic-operator-kstreams},1650426115,0
{consumergroup=__strimzi-topic-operator-kstreams},1650426120,0
{consumergroup=__strimzi-topic-operator-kstreams},1650426125,0
{consumergroup=__strimzi-topic-operator-kstreams},1650426130,0
{consumergroup=__strimzi-topic-operator-kstreams},1650426135,0
{consumergroup=__strimzi-topic-operator-kstreams},1650426140,0
{consumergroup=__strimzi-topic-operator-kstreams},1650426145,0
{consumergroup=__strimzi-topic-operator-kstreams},1650426150,0
{consumergroup=__strimzi-topic-operator-kstreams},1650426155,0
{consumergroup=__strimzi-topic-operator-kstreams},1650426160,0
{consumergroup=__strimzi-topic-operator-kstreams},1650426165,0
{consumergroup=__strimzi-topic-operator-kstreams},1650426170,0
{consumergroup=__strimzi-topic-operator-kstreams},1650426175,0
{consumergroup=__strimzi-topic-operator-kstreams},1650426180,0
{consumergroup=__strimzi-topic-operator-kstreams},1650426185,0
{consumergroup=__strimzi-topic-operator-kstreams},1650426190,0
{consumergroup=__strimzi-topic-operator-kstreams},1650426195,0
{consumergroup=__strimzi-topic-operator-kstreams},1650426200,0
{consumergroup=__strimzi-topic-operator-kstreams},1650426205,0
{consumergroup=__strimzi-topic-operator-kstreams},1650426210,0
{consumergroup=__strimzi-topic-operator-kstreams},1650426215,0
{consumergroup=__strimzi-topic-operator-kstreams},1650426220,0
{consumergroup=__strimzi-topic-operator-kstreams},1650426225,0
{consumergroup=__strimzi-topic-operator-kstreams},1650426230,0
{consumergroup=__strimzi-topic-operator-kstreams},1650426235,0
{consumergroup=__strimzi-topic-operator-kstreams},1650426240,0
{consumergroup=__strimzi-topic-operator-kstreams},1650426245,0
{consumergroup=__strimzi-topic-operator-kstreams},1650426250,0
{consumergroup=__strimzi-topic-operator-kstreams},1650426255,0
{consumergroup=__strimzi-topic-operator-kstreams},1650426260,0
{consumergroup=__strimzi-topic-operator-kstreams},1650426265,0
{consumergroup=__strimzi-topic-operator-kstreams},1650426270,0
{consumergroup=__strimzi-topic-operator-kstreams},1650426275,0
{consumergroup=__strimzi-topic-operator-kstreams},1650426280,0
{consumergroup=__strimzi-topic-operator-kstreams},1650426285,0
{consumergroup=__strimzi-topic-operator-kstreams},1650426290,0
{consumergroup=__strimzi-topic-operator-kstreams},1650426295,0
{consumergroup=__strimzi-topic-operator-kstreams},1650426300,0
{consumergroup=__strimzi-topic-operator-kstreams},1650426305,0
{consumergroup=__strimzi-topic-operator-kstreams},1650426310,0
{consumergroup=__strimzi-topic-operator-kstreams},1650426315,0
{consumergroup=__strimzi-topic-operator-kstreams},1650426320,0
{consumergroup=__strimzi-topic-operator-kstreams},1650426325,0
{consumergroup=__strimzi-topic-operator-kstreams},1650426330,0
{consumergroup=__strimzi-topic-operator-kstreams},1650426335,0
{consumergroup=__strimzi-topic-operator-kstreams},1650426340,0
{consumergroup=__strimzi-topic-operator-kstreams},1650426345,0
{consumergroup=__strimzi-topic-operator-kstreams},1650426350,0
{consumergroup=__strimzi-topic-operator-kstreams},1650426355,0
{consumergroup=__strimzi-topic-operator-kstreams},1650426360,0
{consumergroup=__strimzi-topic-operator-kstreams},1650426365,0
{consumergroup=__strimzi-topic-operator-kstreams},1650426370,0
{consumergroup=__strimzi-topic-operator-kstreams},1650426375,0
{consumergroup=__strimzi-topic-operator-kstreams},1650426380,0
{consumergroup=__strimzi-topic-operator-kstreams},1650426385,0
{consumergroup=__strimzi-topic-operator-kstreams},1650426390,0
{consumergroup=__strimzi-topic-operator-kstreams},1650426395,0
{consumergroup=__strimzi-topic-operator-kstreams},1650426400,0
{consumergroup=__strimzi-topic-operator-kstreams},1650426405,0
{consumergroup=__strimzi-topic-operator-kstreams},1650426410,0
{consumergroup=__strimzi-topic-operator-kstreams},1650426415,0
{consumergroup=__strimzi-topic-operator-kstreams},1650426420,0
{consumergroup=__strimzi-topic-operator-kstreams},1650426425,0
{consumergroup=__strimzi-topic-operator-kstreams},1650426430,0
{consumergroup=__strimzi-topic-operator-kstreams},1650426435,0
{consumergroup=__strimzi-topic-operator-kstreams},1650426440,0
{consumergroup=__strimzi-topic-operator-kstreams},1650426445,0
{consumergroup=__strimzi-topic-operator-kstreams},1650426450,0
{consumergroup=__strimzi-topic-operator-kstreams},1650426455,0
{consumergroup=__strimzi-topic-operator-kstreams},1650426460,0
{consumergroup=__strimzi-topic-operator-kstreams},1650426465,0
{consumergroup=__strimzi-topic-operator-kstreams},1650426470,0
{consumergroup=__strimzi-topic-operator-kstreams},1650426475,0
{consumergroup=__strimzi-topic-operator-kstreams},1650426480,0
{consumergroup=__strimzi-topic-operator-kstreams},1650426485,0
{consumergroup=__strimzi-topic-operator-kstreams},1650426490,0
{consumergroup=__strimzi-topic-operator-kstreams},1650426495,0
{consumergroup=__strimzi-topic-operator-kstreams},1650426500,0
{consumergroup=__strimzi-topic-operator-kstreams},1650426505,0
{consumergroup=__strimzi-topic-operator-kstreams},1650426510,0
