labels,timestamp,value
{consumergroup=__strimzi-topic-operator-kstreams},1650423783,2
{consumergroup=__strimzi-topic-operator-kstreams},1650423788,2
{consumergroup=__strimzi-topic-operator-kstreams},1650423793,2
{consumergroup=__strimzi-topic-operator-kstreams},1650423798,0
{consumergroup=__strimzi-topic-operator-kstreams},1650423803,0
{consumergroup=__strimzi-topic-operator-kstreams},1650423808,0
{consumergroup=__strimzi-topic-operator-kstreams},1650423813,0
{consumergroup=__strimzi-topic-operator-kstreams},1650423818,0
{consumergroup=__strimzi-topic-operator-kstreams},1650423823,0
{consumergroup=__strimzi-topic-operator-kstreams},1650423828,0
{consumergroup=__strimzi-topic-operator-kstreams},1650423833,0
{consumergroup=__strimzi-topic-operator-kstreams},1650423838,0
{consumergroup=__strimzi-topic-operator-kstreams},1650423843,0
{consumergroup=__strimzi-topic-operator-kstreams},1650423848,0
{consumergroup=__strimzi-topic-operator-kstreams},1650423853,0
{consumergroup=__strimzi-topic-operator-kstreams},1650423858,0
{consumergroup=__strimzi-topic-operator-kstreams},1650423863,0
{consumergroup=__strimzi-topic-operator-kstreams},1650423868,0
{consumergroup=__strimzi-topic-operator-kstreams},1650423873,0
{consumergroup=__strimzi-topic-operator-kstreams},1650423878,0
{consumergroup=__strimzi-topic-operator-kstreams},1650423883,0
{consumergroup=__strimzi-topic-operator-kstreams},1650423888,0
{consumergroup=__strimzi-topic-operator-kstreams},1650423893,0
{consumergroup=__strimzi-topic-operator-kstreams},1650423898,0
{consumergroup=__strimzi-topic-operator-kstreams},1650423903,0
{consumergroup=__strimzi-topic-operator-kstreams},1650423908,0
{consumergroup=__strimzi-topic-operator-kstreams},1650423913,0
{consumergroup=__strimzi-topic-operator-kstreams},1650423918,0
{consumergroup=__strimzi-topic-operator-kstreams},1650423923,0
{consumergroup=__strimzi-topic-operator-kstreams},1650423928,0
{consumergroup=__strimzi-topic-operator-kstreams},1650423933,0
{consumergroup=__strimzi-topic-operator-kstreams},1650423938,0
{consumergroup=__strimzi-topic-operator-kstreams},1650423943,0
{consumergroup=__strimzi-topic-operator-kstreams},1650423948,0
{consumergroup=__strimzi-topic-operator-kstreams},1650423953,0
{consumergroup=__strimzi-topic-operator-kstreams},1650423958,0
{consumergroup=__strimzi-topic-operator-kstreams},1650423963,0
{consumergroup=__strimzi-topic-operator-kstreams},1650423968,0
{consumergroup=__strimzi-topic-operator-kstreams},1650423973,0
{consumergroup=__strimzi-topic-operator-kstreams},1650423978,0
{consumergroup=__strimzi-topic-operator-kstreams},1650423983,0
{consumergroup=__strimzi-topic-operator-kstreams},1650423988,0
{consumergroup=__strimzi-topic-operator-kstreams},1650423993,0
{consumergroup=__strimzi-topic-operator-kstreams},1650423998,0
{consumergroup=__strimzi-topic-operator-kstreams},1650424003,0
{consumergroup=__strimzi-topic-operator-kstreams},1650424008,0
{consumergroup=__strimzi-topic-operator-kstreams},1650424013,0
{consumergroup=__strimzi-topic-operator-kstreams},1650424018,0
{consumergroup=__strimzi-topic-operator-kstreams},1650424023,0
{consumergroup=__strimzi-topic-operator-kstreams},1650424028,0
{consumergroup=__strimzi-topic-operator-kstreams},1650424033,0
{consumergroup=__strimzi-topic-operator-kstreams},1650424038,0
{consumergroup=__strimzi-topic-operator-kstreams},1650424043,0
{consumergroup=__strimzi-topic-operator-kstreams},1650424048,0
{consumergroup=__strimzi-topic-operator-kstreams},1650424053,0
{consumergroup=__strimzi-topic-operator-kstreams},1650424058,0
{consumergroup=__strimzi-topic-operator-kstreams},1650424063,0
{consumergroup=__strimzi-topic-operator-kstreams},1650424068,0
{consumergroup=__strimzi-topic-operator-kstreams},1650424073,0
{consumergroup=__strimzi-topic-operator-kstreams},1650424078,0
{consumergroup=__strimzi-topic-operator-kstreams},1650424083,0
{consumergroup=__strimzi-topic-operator-kstreams},1650424088,0
{consumergroup=__strimzi-topic-operator-kstreams},1650424093,0
{consumergroup=__strimzi-topic-operator-kstreams},1650424098,0
{consumergroup=__strimzi-topic-operator-kstreams},1650424103,0
{consumergroup=__strimzi-topic-operator-kstreams},1650424108,0
{consumergroup=__strimzi-topic-operator-kstreams},1650424113,0
{consumergroup=__strimzi-topic-operator-kstreams},1650424118,0
{consumergroup=__strimzi-topic-operator-kstreams},1650424123,0
{consumergroup=__strimzi-topic-operator-kstreams},1650424128,0
{consumergroup=__strimzi-topic-operator-kstreams},1650424133,0
{consumergroup=__strimzi-topic-operator-kstreams},1650424138,0
{consumergroup=__strimzi-topic-operator-kstreams},1650424143,0
{consumergroup=__strimzi-topic-operator-kstreams},1650424148,0
{consumergroup=__strimzi-topic-operator-kstreams},1650424153,0
{consumergroup=__strimzi-topic-operator-kstreams},1650424158,0
{consumergroup=__strimzi-topic-operator-kstreams},1650424163,0
{consumergroup=__strimzi-topic-operator-kstreams},1650424168,0
{consumergroup=__strimzi-topic-operator-kstreams},1650424173,0
{consumergroup=__strimzi-topic-operator-kstreams},1650424178,0
{consumergroup=__strimzi-topic-operator-kstreams},1650424183,0
{consumergroup=__strimzi-topic-operator-kstreams},1650424188,0
{consumergroup=__strimzi-topic-operator-kstreams},1650424193,0
{consumergroup=__strimzi-topic-operator-kstreams},1650424198,0
{consumergroup=__strimzi-topic-operator-kstreams},1650424203,0
{consumergroup=__strimzi-topic-operator-kstreams},1650424208,0
{consumergroup=__strimzi-topic-operator-kstreams},1650424213,0
{consumergroup=__strimzi-topic-operator-kstreams},1650424218,0
{consumergroup=__strimzi-topic-operator-kstreams},1650424223,0
{consumergroup=__strimzi-topic-operator-kstreams},1650424228,0
{consumergroup=__strimzi-topic-operator-kstreams},1650424233,0
{consumergroup=__strimzi-topic-operator-kstreams},1650424238,0
{consumergroup=__strimzi-topic-operator-kstreams},1650424243,0
{consumergroup=__strimzi-topic-operator-kstreams},1650424248,0
{consumergroup=__strimzi-topic-operator-kstreams},1650424253,0
{consumergroup=__strimzi-topic-operator-kstreams},1650424258,0
{consumergroup=__strimzi-topic-operator-kstreams},1650424263,0
{consumergroup=__strimzi-topic-operator-kstreams},1650424268,0
{consumergroup=__strimzi-topic-operator-kstreams},1650424273,0
{consumergroup=__strimzi-topic-operator-kstreams},1650424278,0
