labels,timestamp,value
{consumergroup=__strimzi-topic-operator-kstreams},1650414397,0
{consumergroup=__strimzi-topic-operator-kstreams},1650414402,0
{consumergroup=__strimzi-topic-operator-kstreams},1650414407,0
{consumergroup=__strimzi-topic-operator-kstreams},1650414412,0
{consumergroup=__strimzi-topic-operator-kstreams},1650414417,0
{consumergroup=__strimzi-topic-operator-kstreams},1650414422,0
{consumergroup=__strimzi-topic-operator-kstreams},1650414427,0
{consumergroup=__strimzi-topic-operator-kstreams},1650414432,0
{consumergroup=__strimzi-topic-operator-kstreams},1650414437,0
{consumergroup=__strimzi-topic-operator-kstreams},1650414442,0
{consumergroup=__strimzi-topic-operator-kstreams},1650414447,0
{consumergroup=__strimzi-topic-operator-kstreams},1650414452,0
{consumergroup=__strimzi-topic-operator-kstreams},1650414457,0
{consumergroup=__strimzi-topic-operator-kstreams},1650414462,0
{consumergroup=__strimzi-topic-operator-kstreams},1650414467,0
{consumergroup=__strimzi-topic-operator-kstreams},1650414472,0
{consumergroup=__strimzi-topic-operator-kstreams},1650414477,0
{consumergroup=__strimzi-topic-operator-kstreams},1650414482,0
{consumergroup=__strimzi-topic-operator-kstreams},1650414487,0
{consumergroup=__strimzi-topic-operator-kstreams},1650414492,0
{consumergroup=__strimzi-topic-operator-kstreams},1650414497,0
{consumergroup=__strimzi-topic-operator-kstreams},1650414502,0
{consumergroup=__strimzi-topic-operator-kstreams},1650414507,0
{consumergroup=__strimzi-topic-operator-kstreams},1650414512,0
{consumergroup=__strimzi-topic-operator-kstreams},1650414517,0
{consumergroup=__strimzi-topic-operator-kstreams},1650414522,0
{consumergroup=__strimzi-topic-operator-kstreams},1650414527,0
{consumergroup=__strimzi-topic-operator-kstreams},1650414532,0
{consumergroup=__strimzi-topic-operator-kstreams},1650414537,0
{consumergroup=__strimzi-topic-operator-kstreams},1650414542,0
{consumergroup=__strimzi-topic-operator-kstreams},1650414547,0
{consumergroup=__strimzi-topic-operator-kstreams},1650414552,0
{consumergroup=__strimzi-topic-operator-kstreams},1650414557,0
{consumergroup=__strimzi-topic-operator-kstreams},1650414562,0
{consumergroup=__strimzi-topic-operator-kstreams},1650414567,0
{consumergroup=__strimzi-topic-operator-kstreams},1650414572,0
{consumergroup=__strimzi-topic-operator-kstreams},1650414577,0
{consumergroup=__strimzi-topic-operator-kstreams},1650414582,0
{consumergroup=__strimzi-topic-operator-kstreams},1650414587,0
{consumergroup=__strimzi-topic-operator-kstreams},1650414592,0
{consumergroup=__strimzi-topic-operator-kstreams},1650414597,0
{consumergroup=__strimzi-topic-operator-kstreams},1650414602,0
{consumergroup=__strimzi-topic-operator-kstreams},1650414607,0
{consumergroup=__strimzi-topic-operator-kstreams},1650414612,0
{consumergroup=__strimzi-topic-operator-kstreams},1650414617,0
{consumergroup=__strimzi-topic-operator-kstreams},1650414622,0
{consumergroup=__strimzi-topic-operator-kstreams},1650414627,0
{consumergroup=__strimzi-topic-operator-kstreams},1650414632,0
{consumergroup=__strimzi-topic-operator-kstreams},1650414637,0
{consumergroup=__strimzi-topic-operator-kstreams},1650414642,0
{consumergroup=__strimzi-topic-operator-kstreams},1650414647,0
{consumergroup=__strimzi-topic-operator-kstreams},1650414652,0
{consumergroup=__strimzi-topic-operator-kstreams},1650414657,0
{consumergroup=__strimzi-topic-operator-kstreams},1650414662,0
{consumergroup=__strimzi-topic-operator-kstreams},1650414667,0
{consumergroup=__strimzi-topic-operator-kstreams},1650414672,0
{consumergroup=__strimzi-topic-operator-kstreams},1650414677,0
{consumergroup=__strimzi-topic-operator-kstreams},1650414682,0
{consumergroup=__strimzi-topic-operator-kstreams},1650414687,0
{consumergroup=__strimzi-topic-operator-kstreams},1650414692,0
{consumergroup=__strimzi-topic-operator-kstreams},1650414697,0
{consumergroup=__strimzi-topic-operator-kstreams},1650414702,0
{consumergroup=__strimzi-topic-operator-kstreams},1650414707,0
{consumergroup=__strimzi-topic-operator-kstreams},1650414712,0
{consumergroup=__strimzi-topic-operator-kstreams},1650414717,0
{consumergroup=__strimzi-topic-operator-kstreams},1650414722,0
{consumergroup=__strimzi-topic-operator-kstreams},1650414727,0
{consumergroup=__strimzi-topic-operator-kstreams},1650414732,0
{consumergroup=__strimzi-topic-operator-kstreams},1650414737,0
{consumergroup=__strimzi-topic-operator-kstreams},1650414742,0
{consumergroup=__strimzi-topic-operator-kstreams},1650414747,0
{consumergroup=__strimzi-topic-operator-kstreams},1650414752,0
{consumergroup=__strimzi-topic-operator-kstreams},1650414757,0
{consumergroup=__strimzi-topic-operator-kstreams},1650414762,0
{consumergroup=__strimzi-topic-operator-kstreams},1650414767,0
{consumergroup=__strimzi-topic-operator-kstreams},1650414772,0
{consumergroup=__strimzi-topic-operator-kstreams},1650414777,0
{consumergroup=__strimzi-topic-operator-kstreams},1650414782,0
{consumergroup=__strimzi-topic-operator-kstreams},1650414787,0
{consumergroup=__strimzi-topic-operator-kstreams},1650414792,0
{consumergroup=__strimzi-topic-operator-kstreams},1650414797,0
{consumergroup=__strimzi-topic-operator-kstreams},1650414802,0
{consumergroup=__strimzi-topic-operator-kstreams},1650414807,0
{consumergroup=__strimzi-topic-operator-kstreams},1650414812,0
{consumergroup=__strimzi-topic-operator-kstreams},1650414817,0
{consumergroup=__strimzi-topic-operator-kstreams},1650414822,0
{consumergroup=__strimzi-topic-operator-kstreams},1650414827,0
{consumergroup=__strimzi-topic-operator-kstreams},1650414832,0
{consumergroup=__strimzi-topic-operator-kstreams},1650414837,0
{consumergroup=__strimzi-topic-operator-kstreams},1650414842,0
{consumergroup=__strimzi-topic-operator-kstreams},1650414847,0
{consumergroup=__strimzi-topic-operator-kstreams},1650414852,0
{consumergroup=__strimzi-topic-operator-kstreams},1650414857,0
{consumergroup=__strimzi-topic-operator-kstreams},1650414862,0
{consumergroup=__strimzi-topic-operator-kstreams},1650414867,0
{consumergroup=__strimzi-topic-operator-kstreams},1650414872,0
{consumergroup=__strimzi-topic-operator-kstreams},1650414877,0
{consumergroup=__strimzi-topic-operator-kstreams},1650414882,0
{consumergroup=__strimzi-topic-operator-kstreams},1650414887,0
