labels,timestamp,value
{consumergroup=__strimzi-topic-operator-kstreams},1650439281,0
{consumergroup=__strimzi-topic-operator-kstreams},1650439286,0
{consumergroup=__strimzi-topic-operator-kstreams},1650439291,0
{consumergroup=__strimzi-topic-operator-kstreams},1650439296,8
{consumergroup=__strimzi-topic-operator-kstreams},1650439301,8
{consumergroup=__strimzi-topic-operator-kstreams},1650439306,8
{consumergroup=__strimzi-topic-operator-kstreams},1650439311,0
{consumergroup=__strimzi-topic-operator-kstreams},1650439316,0
{consumergroup=__strimzi-topic-operator-kstreams},1650439321,0
{consumergroup=__strimzi-topic-operator-kstreams},1650439326,0
{consumergroup=__strimzi-topic-operator-kstreams},1650439331,0
{consumergroup=__strimzi-topic-operator-kstreams},1650439336,0
{consumergroup=__strimzi-topic-operator-kstreams},1650439341,0
{consumergroup=__strimzi-topic-operator-kstreams},1650439346,0
{consumergroup=__strimzi-topic-operator-kstreams},1650439351,0
{consumergroup=__strimzi-topic-operator-kstreams},1650439356,0
{consumergroup=__strimzi-topic-operator-kstreams},1650439361,0
{consumergroup=__strimzi-topic-operator-kstreams},1650439366,0
{consumergroup=__strimzi-topic-operator-kstreams},1650439371,0
{consumergroup=__strimzi-topic-operator-kstreams},1650439376,0
{consumergroup=__strimzi-topic-operator-kstreams},1650439381,0
{consumergroup=__strimzi-topic-operator-kstreams},1650439386,0
{consumergroup=__strimzi-topic-operator-kstreams},1650439391,0
{consumergroup=__strimzi-topic-operator-kstreams},1650439396,0
{consumergroup=__strimzi-topic-operator-kstreams},1650439401,0
{consumergroup=__strimzi-topic-operator-kstreams},1650439406,0
{consumergroup=__strimzi-topic-operator-kstreams},1650439411,0
{consumergroup=__strimzi-topic-operator-kstreams},1650439416,0
{consumergroup=__strimzi-topic-operator-kstreams},1650439421,0
{consumergroup=__strimzi-topic-operator-kstreams},1650439426,0
{consumergroup=__strimzi-topic-operator-kstreams},1650439431,0
{consumergroup=__strimzi-topic-operator-kstreams},1650439436,0
{consumergroup=__strimzi-topic-operator-kstreams},1650439441,0
{consumergroup=__strimzi-topic-operator-kstreams},1650439446,0
{consumergroup=__strimzi-topic-operator-kstreams},1650439451,0
{consumergroup=__strimzi-topic-operator-kstreams},1650439456,0
{consumergroup=__strimzi-topic-operator-kstreams},1650439461,0
{consumergroup=__strimzi-topic-operator-kstreams},1650439466,0
{consumergroup=__strimzi-topic-operator-kstreams},1650439471,0
{consumergroup=__strimzi-topic-operator-kstreams},1650439476,0
{consumergroup=__strimzi-topic-operator-kstreams},1650439481,0
{consumergroup=__strimzi-topic-operator-kstreams},1650439486,0
{consumergroup=__strimzi-topic-operator-kstreams},1650439491,0
{consumergroup=__strimzi-topic-operator-kstreams},1650439496,0
{consumergroup=__strimzi-topic-operator-kstreams},1650439501,0
{consumergroup=__strimzi-topic-operator-kstreams},1650439506,0
{consumergroup=__strimzi-topic-operator-kstreams},1650439511,0
{consumergroup=__strimzi-topic-operator-kstreams},1650439516,0
{consumergroup=__strimzi-topic-operator-kstreams},1650439521,0
{consumergroup=__strimzi-topic-operator-kstreams},1650439526,0
{consumergroup=__strimzi-topic-operator-kstreams},1650439531,0
{consumergroup=__strimzi-topic-operator-kstreams},1650439536,0
{consumergroup=__strimzi-topic-operator-kstreams},1650439541,0
{consumergroup=__strimzi-topic-operator-kstreams},1650439546,0
{consumergroup=__strimzi-topic-operator-kstreams},1650439551,0
{consumergroup=__strimzi-topic-operator-kstreams},1650439556,0
{consumergroup=__strimzi-topic-operator-kstreams},1650439561,0
{consumergroup=__strimzi-topic-operator-kstreams},1650439566,0
{consumergroup=__strimzi-topic-operator-kstreams},1650439571,0
{consumergroup=__strimzi-topic-operator-kstreams},1650439576,0
{consumergroup=__strimzi-topic-operator-kstreams},1650439581,0
{consumergroup=__strimzi-topic-operator-kstreams},1650439586,0
{consumergroup=__strimzi-topic-operator-kstreams},1650439591,0
{consumergroup=__strimzi-topic-operator-kstreams},1650439596,0
{consumergroup=__strimzi-topic-operator-kstreams},1650439601,0
{consumergroup=__strimzi-topic-operator-kstreams},1650439606,0
{consumergroup=__strimzi-topic-operator-kstreams},1650439611,0
{consumergroup=__strimzi-topic-operator-kstreams},1650439616,0
{consumergroup=__strimzi-topic-operator-kstreams},1650439621,0
{consumergroup=__strimzi-topic-operator-kstreams},1650439626,0
{consumergroup=__strimzi-topic-operator-kstreams},1650439631,0
{consumergroup=__strimzi-topic-operator-kstreams},1650439636,0
{consumergroup=__strimzi-topic-operator-kstreams},1650439641,0
{consumergroup=__strimzi-topic-operator-kstreams},1650439646,0
{consumergroup=__strimzi-topic-operator-kstreams},1650439651,0
{consumergroup=__strimzi-topic-operator-kstreams},1650439656,0
{consumergroup=__strimzi-topic-operator-kstreams},1650439661,0
{consumergroup=__strimzi-topic-operator-kstreams},1650439666,0
{consumergroup=__strimzi-topic-operator-kstreams},1650439671,0
{consumergroup=__strimzi-topic-operator-kstreams},1650439676,0
{consumergroup=__strimzi-topic-operator-kstreams},1650439681,0
{consumergroup=__strimzi-topic-operator-kstreams},1650439686,0
{consumergroup=__strimzi-topic-operator-kstreams},1650439691,0
{consumergroup=__strimzi-topic-operator-kstreams},1650439696,0
{consumergroup=__strimzi-topic-operator-kstreams},1650439701,0
{consumergroup=__strimzi-topic-operator-kstreams},1650439706,0
{consumergroup=__strimzi-topic-operator-kstreams},1650439711,0
{consumergroup=__strimzi-topic-operator-kstreams},1650439716,0
{consumergroup=__strimzi-topic-operator-kstreams},1650439721,0
{consumergroup=__strimzi-topic-operator-kstreams},1650439726,0
{consumergroup=__strimzi-topic-operator-kstreams},1650439731,0
{consumergroup=__strimzi-topic-operator-kstreams},1650439736,0
{consumergroup=__strimzi-topic-operator-kstreams},1650439741,0
{consumergroup=__strimzi-topic-operator-kstreams},1650439746,0
{consumergroup=__strimzi-topic-operator-kstreams},1650439751,0
{consumergroup=__strimzi-topic-operator-kstreams},1650439756,0
{consumergroup=__strimzi-topic-operator-kstreams},1650439761,0
{consumergroup=__strimzi-topic-operator-kstreams},1650439766,0
{consumergroup=__strimzi-topic-operator-kstreams},1650439771,0
{consumergroup=__strimzi-topic-operator-kstreams},1650439776,0
{consumergroup=__strimzi-topic-operator-kstreams},1650439781,0
