labels,timestamp,value
{consumergroup=__strimzi-topic-operator-kstreams},1650417140,0
{consumergroup=__strimzi-topic-operator-kstreams},1650417145,0
{consumergroup=__strimzi-topic-operator-kstreams},1650417150,0
{consumergroup=__strimzi-topic-operator-kstreams},1650417155,8
{consumergroup=__strimzi-topic-operator-kstreams},1650417160,8
{consumergroup=__strimzi-topic-operator-kstreams},1650417165,8
{consumergroup=__strimzi-topic-operator-kstreams},1650417170,0
{consumergroup=__strimzi-topic-operator-kstreams},1650417175,0
{consumergroup=__strimzi-topic-operator-kstreams},1650417180,0
{consumergroup=__strimzi-topic-operator-kstreams},1650417185,0
{consumergroup=__strimzi-topic-operator-kstreams},1650417190,0
{consumergroup=__strimzi-topic-operator-kstreams},1650417195,0
{consumergroup=__strimzi-topic-operator-kstreams},1650417200,0
{consumergroup=__strimzi-topic-operator-kstreams},1650417205,0
{consumergroup=__strimzi-topic-operator-kstreams},1650417210,0
{consumergroup=__strimzi-topic-operator-kstreams},1650417215,0
{consumergroup=__strimzi-topic-operator-kstreams},1650417220,0
{consumergroup=__strimzi-topic-operator-kstreams},1650417225,0
{consumergroup=__strimzi-topic-operator-kstreams},1650417230,0
{consumergroup=__strimzi-topic-operator-kstreams},1650417235,0
{consumergroup=__strimzi-topic-operator-kstreams},1650417240,0
{consumergroup=__strimzi-topic-operator-kstreams},1650417245,0
{consumergroup=__strimzi-topic-operator-kstreams},1650417250,0
{consumergroup=__strimzi-topic-operator-kstreams},1650417255,0
{consumergroup=__strimzi-topic-operator-kstreams},1650417260,0
{consumergroup=__strimzi-topic-operator-kstreams},1650417265,0
{consumergroup=__strimzi-topic-operator-kstreams},1650417270,0
{consumergroup=__strimzi-topic-operator-kstreams},1650417275,0
{consumergroup=__strimzi-topic-operator-kstreams},1650417280,0
{consumergroup=__strimzi-topic-operator-kstreams},1650417285,0
{consumergroup=__strimzi-topic-operator-kstreams},1650417290,0
{consumergroup=__strimzi-topic-operator-kstreams},1650417295,0
{consumergroup=__strimzi-topic-operator-kstreams},1650417300,0
{consumergroup=__strimzi-topic-operator-kstreams},1650417305,0
{consumergroup=__strimzi-topic-operator-kstreams},1650417310,0
{consumergroup=__strimzi-topic-operator-kstreams},1650417315,0
{consumergroup=__strimzi-topic-operator-kstreams},1650417320,0
{consumergroup=__strimzi-topic-operator-kstreams},1650417325,0
{consumergroup=__strimzi-topic-operator-kstreams},1650417330,0
{consumergroup=__strimzi-topic-operator-kstreams},1650417335,0
{consumergroup=__strimzi-topic-operator-kstreams},1650417340,0
{consumergroup=__strimzi-topic-operator-kstreams},1650417345,0
{consumergroup=__strimzi-topic-operator-kstreams},1650417350,0
{consumergroup=__strimzi-topic-operator-kstreams},1650417355,0
{consumergroup=__strimzi-topic-operator-kstreams},1650417360,0
{consumergroup=__strimzi-topic-operator-kstreams},1650417365,0
{consumergroup=__strimzi-topic-operator-kstreams},1650417370,0
{consumergroup=__strimzi-topic-operator-kstreams},1650417375,0
{consumergroup=__strimzi-topic-operator-kstreams},1650417380,0
{consumergroup=__strimzi-topic-operator-kstreams},1650417385,0
{consumergroup=__strimzi-topic-operator-kstreams},1650417390,0
{consumergroup=__strimzi-topic-operator-kstreams},1650417395,0
{consumergroup=__strimzi-topic-operator-kstreams},1650417400,0
{consumergroup=__strimzi-topic-operator-kstreams},1650417405,0
{consumergroup=__strimzi-topic-operator-kstreams},1650417410,0
{consumergroup=__strimzi-topic-operator-kstreams},1650417415,0
{consumergroup=__strimzi-topic-operator-kstreams},1650417420,0
{consumergroup=__strimzi-topic-operator-kstreams},1650417425,0
{consumergroup=__strimzi-topic-operator-kstreams},1650417430,0
{consumergroup=__strimzi-topic-operator-kstreams},1650417435,0
{consumergroup=__strimzi-topic-operator-kstreams},1650417440,0
{consumergroup=__strimzi-topic-operator-kstreams},1650417445,0
{consumergroup=__strimzi-topic-operator-kstreams},1650417450,0
{consumergroup=__strimzi-topic-operator-kstreams},1650417455,0
{consumergroup=__strimzi-topic-operator-kstreams},1650417460,0
{consumergroup=__strimzi-topic-operator-kstreams},1650417465,0
{consumergroup=__strimzi-topic-operator-kstreams},1650417470,0
{consumergroup=__strimzi-topic-operator-kstreams},1650417475,0
{consumergroup=__strimzi-topic-operator-kstreams},1650417480,0
{consumergroup=__strimzi-topic-operator-kstreams},1650417485,0
{consumergroup=__strimzi-topic-operator-kstreams},1650417490,0
{consumergroup=__strimzi-topic-operator-kstreams},1650417495,0
{consumergroup=__strimzi-topic-operator-kstreams},1650417500,0
{consumergroup=__strimzi-topic-operator-kstreams},1650417505,0
{consumergroup=__strimzi-topic-operator-kstreams},1650417510,0
{consumergroup=__strimzi-topic-operator-kstreams},1650417515,0
{consumergroup=__strimzi-topic-operator-kstreams},1650417520,0
{consumergroup=__strimzi-topic-operator-kstreams},1650417525,0
{consumergroup=__strimzi-topic-operator-kstreams},1650417530,0
{consumergroup=__strimzi-topic-operator-kstreams},1650417535,0
{consumergroup=__strimzi-topic-operator-kstreams},1650417540,0
{consumergroup=__strimzi-topic-operator-kstreams},1650417545,0
{consumergroup=__strimzi-topic-operator-kstreams},1650417550,0
{consumergroup=__strimzi-topic-operator-kstreams},1650417555,0
{consumergroup=__strimzi-topic-operator-kstreams},1650417560,0
{consumergroup=__strimzi-topic-operator-kstreams},1650417565,0
{consumergroup=__strimzi-topic-operator-kstreams},1650417570,0
{consumergroup=__strimzi-topic-operator-kstreams},1650417575,0
{consumergroup=__strimzi-topic-operator-kstreams},1650417580,0
{consumergroup=__strimzi-topic-operator-kstreams},1650417585,0
{consumergroup=__strimzi-topic-operator-kstreams},1650417590,0
{consumergroup=__strimzi-topic-operator-kstreams},1650417595,0
{consumergroup=__strimzi-topic-operator-kstreams},1650417600,0
{consumergroup=__strimzi-topic-operator-kstreams},1650417605,0
{consumergroup=__strimzi-topic-operator-kstreams},1650417610,0
{consumergroup=__strimzi-topic-operator-kstreams},1650417615,0
{consumergroup=__strimzi-topic-operator-kstreams},1650417620,0
{consumergroup=__strimzi-topic-operator-kstreams},1650417625,0
{consumergroup=__strimzi-topic-operator-kstreams},1650417630,0
{consumergroup=__strimzi-topic-operator-kstreams},1650417635,0
{consumergroup=__strimzi-topic-operator-kstreams},1650417640,0
