labels,timestamp,value
{consumergroup=__strimzi-topic-operator-kstreams},1650411681,8
{consumergroup=__strimzi-topic-operator-kstreams},1650411686,8
{consumergroup=__strimzi-topic-operator-kstreams},1650411691,8
{consumergroup=__strimzi-topic-operator-kstreams},1650411696,0
{consumergroup=__strimzi-topic-operator-kstreams},1650411701,0
{consumergroup=__strimzi-topic-operator-kstreams},1650411706,0
{consumergroup=__strimzi-topic-operator-kstreams},1650411711,0
{consumergroup=__strimzi-topic-operator-kstreams},1650411716,0
{consumergroup=__strimzi-topic-operator-kstreams},1650411721,0
{consumergroup=__strimzi-topic-operator-kstreams},1650411726,0
{consumergroup=__strimzi-topic-operator-kstreams},1650411731,0
{consumergroup=__strimzi-topic-operator-kstreams},1650411736,0
{consumergroup=__strimzi-topic-operator-kstreams},1650411741,0
{consumergroup=__strimzi-topic-operator-kstreams},1650411746,0
{consumergroup=__strimzi-topic-operator-kstreams},1650411751,0
{consumergroup=__strimzi-topic-operator-kstreams},1650411756,0
{consumergroup=__strimzi-topic-operator-kstreams},1650411761,0
{consumergroup=__strimzi-topic-operator-kstreams},1650411766,0
{consumergroup=__strimzi-topic-operator-kstreams},1650411771,0
{consumergroup=__strimzi-topic-operator-kstreams},1650411776,0
{consumergroup=__strimzi-topic-operator-kstreams},1650411781,0
{consumergroup=__strimzi-topic-operator-kstreams},1650411786,0
{consumergroup=__strimzi-topic-operator-kstreams},1650411791,0
{consumergroup=__strimzi-topic-operator-kstreams},1650411796,0
{consumergroup=__strimzi-topic-operator-kstreams},1650411801,0
{consumergroup=__strimzi-topic-operator-kstreams},1650411806,0
{consumergroup=__strimzi-topic-operator-kstreams},1650411811,0
{consumergroup=__strimzi-topic-operator-kstreams},1650411816,0
{consumergroup=__strimzi-topic-operator-kstreams},1650411821,0
{consumergroup=__strimzi-topic-operator-kstreams},1650411826,0
{consumergroup=__strimzi-topic-operator-kstreams},1650411831,0
{consumergroup=__strimzi-topic-operator-kstreams},1650411836,0
{consumergroup=__strimzi-topic-operator-kstreams},1650411841,0
{consumergroup=__strimzi-topic-operator-kstreams},1650411846,0
{consumergroup=__strimzi-topic-operator-kstreams},1650411851,0
{consumergroup=__strimzi-topic-operator-kstreams},1650411856,0
{consumergroup=__strimzi-topic-operator-kstreams},1650411861,0
{consumergroup=__strimzi-topic-operator-kstreams},1650411866,0
{consumergroup=__strimzi-topic-operator-kstreams},1650411871,0
{consumergroup=__strimzi-topic-operator-kstreams},1650411876,0
{consumergroup=__strimzi-topic-operator-kstreams},1650411881,0
{consumergroup=__strimzi-topic-operator-kstreams},1650411886,0
{consumergroup=__strimzi-topic-operator-kstreams},1650411891,0
{consumergroup=__strimzi-topic-operator-kstreams},1650411896,0
{consumergroup=__strimzi-topic-operator-kstreams},1650411901,0
{consumergroup=__strimzi-topic-operator-kstreams},1650411906,0
{consumergroup=__strimzi-topic-operator-kstreams},1650411911,0
{consumergroup=__strimzi-topic-operator-kstreams},1650411916,0
{consumergroup=__strimzi-topic-operator-kstreams},1650411921,0
{consumergroup=__strimzi-topic-operator-kstreams},1650411926,0
{consumergroup=__strimzi-topic-operator-kstreams},1650411931,0
{consumergroup=__strimzi-topic-operator-kstreams},1650411936,0
{consumergroup=__strimzi-topic-operator-kstreams},1650411941,0
{consumergroup=__strimzi-topic-operator-kstreams},1650411946,0
{consumergroup=__strimzi-topic-operator-kstreams},1650411951,0
{consumergroup=__strimzi-topic-operator-kstreams},1650411956,0
{consumergroup=__strimzi-topic-operator-kstreams},1650411961,0
{consumergroup=__strimzi-topic-operator-kstreams},1650411966,0
{consumergroup=__strimzi-topic-operator-kstreams},1650411971,0
{consumergroup=__strimzi-topic-operator-kstreams},1650411976,0
{consumergroup=__strimzi-topic-operator-kstreams},1650411981,0
{consumergroup=__strimzi-topic-operator-kstreams},1650411986,0
{consumergroup=__strimzi-topic-operator-kstreams},1650411991,0
{consumergroup=__strimzi-topic-operator-kstreams},1650411996,0
{consumergroup=__strimzi-topic-operator-kstreams},1650412001,0
{consumergroup=__strimzi-topic-operator-kstreams},1650412006,0
{consumergroup=__strimzi-topic-operator-kstreams},1650412011,0
{consumergroup=__strimzi-topic-operator-kstreams},1650412016,0
{consumergroup=__strimzi-topic-operator-kstreams},1650412021,0
{consumergroup=__strimzi-topic-operator-kstreams},1650412026,0
{consumergroup=__strimzi-topic-operator-kstreams},1650412031,0
{consumergroup=__strimzi-topic-operator-kstreams},1650412036,0
{consumergroup=__strimzi-topic-operator-kstreams},1650412041,0
{consumergroup=__strimzi-topic-operator-kstreams},1650412046,0
{consumergroup=__strimzi-topic-operator-kstreams},1650412051,0
{consumergroup=__strimzi-topic-operator-kstreams},1650412056,0
{consumergroup=__strimzi-topic-operator-kstreams},1650412061,0
{consumergroup=__strimzi-topic-operator-kstreams},1650412066,0
{consumergroup=__strimzi-topic-operator-kstreams},1650412071,0
{consumergroup=__strimzi-topic-operator-kstreams},1650412076,0
{consumergroup=__strimzi-topic-operator-kstreams},1650412081,0
{consumergroup=__strimzi-topic-operator-kstreams},1650412086,0
{consumergroup=__strimzi-topic-operator-kstreams},1650412091,0
{consumergroup=__strimzi-topic-operator-kstreams},1650412096,0
{consumergroup=__strimzi-topic-operator-kstreams},1650412101,0
{consumergroup=__strimzi-topic-operator-kstreams},1650412106,0
{consumergroup=__strimzi-topic-operator-kstreams},1650412111,0
{consumergroup=__strimzi-topic-operator-kstreams},1650412116,0
{consumergroup=__strimzi-topic-operator-kstreams},1650412121,0
{consumergroup=__strimzi-topic-operator-kstreams},1650412126,0
{consumergroup=__strimzi-topic-operator-kstreams},1650412131,0
{consumergroup=__strimzi-topic-operator-kstreams},1650412136,0
{consumergroup=__strimzi-topic-operator-kstreams},1650412141,0
{consumergroup=__strimzi-topic-operator-kstreams},1650412146,0
{consumergroup=__strimzi-topic-operator-kstreams},1650412151,0
{consumergroup=__strimzi-topic-operator-kstreams},1650412156,0
{consumergroup=__strimzi-topic-operator-kstreams},1650412161,0
{consumergroup=__strimzi-topic-operator-kstreams},1650412166,0
{consumergroup=__strimzi-topic-operator-kstreams},1650412171,0
{consumergroup=__strimzi-topic-operator-kstreams},1650412176,0
