labels,timestamp,value
{consumergroup=__strimzi-topic-operator-kstreams},1650433747,0
{consumergroup=__strimzi-topic-operator-kstreams},1650433752,0
{consumergroup=__strimzi-topic-operator-kstreams},1650433757,0
{consumergroup=__strimzi-topic-operator-kstreams},1650433762,0
{consumergroup=__strimzi-topic-operator-kstreams},1650433767,0
{consumergroup=__strimzi-topic-operator-kstreams},1650433772,0
{consumergroup=__strimzi-topic-operator-kstreams},1650433777,0
{consumergroup=__strimzi-topic-operator-kstreams},1650433782,0
{consumergroup=__strimzi-topic-operator-kstreams},1650433787,0
{consumergroup=__strimzi-topic-operator-kstreams},1650433792,0
{consumergroup=__strimzi-topic-operator-kstreams},1650433797,0
{consumergroup=__strimzi-topic-operator-kstreams},1650433802,0
{consumergroup=__strimzi-topic-operator-kstreams},1650433807,0
{consumergroup=__strimzi-topic-operator-kstreams},1650433812,0
{consumergroup=__strimzi-topic-operator-kstreams},1650433817,0
{consumergroup=__strimzi-topic-operator-kstreams},1650433822,0
{consumergroup=__strimzi-topic-operator-kstreams},1650433827,0
{consumergroup=__strimzi-topic-operator-kstreams},1650433832,0
{consumergroup=__strimzi-topic-operator-kstreams},1650433837,0
{consumergroup=__strimzi-topic-operator-kstreams},1650433842,0
{consumergroup=__strimzi-topic-operator-kstreams},1650433847,0
{consumergroup=__strimzi-topic-operator-kstreams},1650433852,0
{consumergroup=__strimzi-topic-operator-kstreams},1650433857,0
{consumergroup=__strimzi-topic-operator-kstreams},1650433862,0
{consumergroup=__strimzi-topic-operator-kstreams},1650433867,0
{consumergroup=__strimzi-topic-operator-kstreams},1650433872,0
{consumergroup=__strimzi-topic-operator-kstreams},1650433877,0
{consumergroup=__strimzi-topic-operator-kstreams},1650433882,0
{consumergroup=__strimzi-topic-operator-kstreams},1650433887,0
{consumergroup=__strimzi-topic-operator-kstreams},1650433892,0
{consumergroup=__strimzi-topic-operator-kstreams},1650433897,0
{consumergroup=__strimzi-topic-operator-kstreams},1650433902,0
{consumergroup=__strimzi-topic-operator-kstreams},1650433907,0
{consumergroup=__strimzi-topic-operator-kstreams},1650433912,0
{consumergroup=__strimzi-topic-operator-kstreams},1650433917,0
{consumergroup=__strimzi-topic-operator-kstreams},1650433922,0
{consumergroup=__strimzi-topic-operator-kstreams},1650433927,0
{consumergroup=__strimzi-topic-operator-kstreams},1650433932,0
{consumergroup=__strimzi-topic-operator-kstreams},1650433937,0
{consumergroup=__strimzi-topic-operator-kstreams},1650433942,0
{consumergroup=__strimzi-topic-operator-kstreams},1650433947,0
{consumergroup=__strimzi-topic-operator-kstreams},1650433952,0
{consumergroup=__strimzi-topic-operator-kstreams},1650433957,0
{consumergroup=__strimzi-topic-operator-kstreams},1650433962,0
{consumergroup=__strimzi-topic-operator-kstreams},1650433967,0
{consumergroup=__strimzi-topic-operator-kstreams},1650433972,0
{consumergroup=__strimzi-topic-operator-kstreams},1650433977,0
{consumergroup=__strimzi-topic-operator-kstreams},1650433982,0
{consumergroup=__strimzi-topic-operator-kstreams},1650433987,0
{consumergroup=__strimzi-topic-operator-kstreams},1650433992,0
{consumergroup=__strimzi-topic-operator-kstreams},1650433997,0
{consumergroup=__strimzi-topic-operator-kstreams},1650434002,0
{consumergroup=__strimzi-topic-operator-kstreams},1650434007,0
{consumergroup=__strimzi-topic-operator-kstreams},1650434012,0
{consumergroup=__strimzi-topic-operator-kstreams},1650434017,0
{consumergroup=__strimzi-topic-operator-kstreams},1650434022,0
{consumergroup=__strimzi-topic-operator-kstreams},1650434027,0
{consumergroup=__strimzi-topic-operator-kstreams},1650434032,0
{consumergroup=__strimzi-topic-operator-kstreams},1650434037,0
{consumergroup=__strimzi-topic-operator-kstreams},1650434042,0
{consumergroup=__strimzi-topic-operator-kstreams},1650434047,0
{consumergroup=__strimzi-topic-operator-kstreams},1650434052,0
{consumergroup=__strimzi-topic-operator-kstreams},1650434057,0
{consumergroup=__strimzi-topic-operator-kstreams},1650434062,0
{consumergroup=__strimzi-topic-operator-kstreams},1650434067,0
{consumergroup=__strimzi-topic-operator-kstreams},1650434072,0
{consumergroup=__strimzi-topic-operator-kstreams},1650434077,0
{consumergroup=__strimzi-topic-operator-kstreams},1650434082,0
{consumergroup=__strimzi-topic-operator-kstreams},1650434087,0
{consumergroup=__strimzi-topic-operator-kstreams},1650434092,0
{consumergroup=__strimzi-topic-operator-kstreams},1650434097,0
{consumergroup=__strimzi-topic-operator-kstreams},1650434102,0
{consumergroup=__strimzi-topic-operator-kstreams},1650434107,0
{consumergroup=__strimzi-topic-operator-kstreams},1650434112,0
{consumergroup=__strimzi-topic-operator-kstreams},1650434117,0
{consumergroup=__strimzi-topic-operator-kstreams},1650434122,0
{consumergroup=__strimzi-topic-operator-kstreams},1650434127,0
{consumergroup=__strimzi-topic-operator-kstreams},1650434132,0
{consumergroup=__strimzi-topic-operator-kstreams},1650434137,0
{consumergroup=__strimzi-topic-operator-kstreams},1650434142,0
{consumergroup=__strimzi-topic-operator-kstreams},1650434147,0
{consumergroup=__strimzi-topic-operator-kstreams},1650434152,0
{consumergroup=__strimzi-topic-operator-kstreams},1650434157,0
{consumergroup=__strimzi-topic-operator-kstreams},1650434162,0
{consumergroup=__strimzi-topic-operator-kstreams},1650434167,0
{consumergroup=__strimzi-topic-operator-kstreams},1650434172,0
{consumergroup=__strimzi-topic-operator-kstreams},1650434177,0
{consumergroup=__strimzi-topic-operator-kstreams},1650434182,0
{consumergroup=__strimzi-topic-operator-kstreams},1650434187,0
{consumergroup=__strimzi-topic-operator-kstreams},1650434192,0
{consumergroup=__strimzi-topic-operator-kstreams},1650434197,0
{consumergroup=__strimzi-topic-operator-kstreams},1650434202,0
{consumergroup=__strimzi-topic-operator-kstreams},1650434207,0
{consumergroup=__strimzi-topic-operator-kstreams},1650434212,0
{consumergroup=__strimzi-topic-operator-kstreams},1650434217,0
{consumergroup=__strimzi-topic-operator-kstreams},1650434222,0
{consumergroup=__strimzi-topic-operator-kstreams},1650434227,0
{consumergroup=__strimzi-topic-operator-kstreams},1650434232,0
