labels,timestamp,value
{consumergroup=__strimzi-topic-operator-kstreams},1650456987,8
{consumergroup=__strimzi-topic-operator-kstreams},1650456992,8
{consumergroup=__strimzi-topic-operator-kstreams},1650456997,8
{consumergroup=__strimzi-topic-operator-kstreams},1650457002,0
{consumergroup=__strimzi-topic-operator-kstreams},1650457007,0
{consumergroup=__strimzi-topic-operator-kstreams},1650457012,0
{consumergroup=__strimzi-topic-operator-kstreams},1650457017,0
{consumergroup=__strimzi-topic-operator-kstreams},1650457022,0
{consumergroup=__strimzi-topic-operator-kstreams},1650457027,0
{consumergroup=__strimzi-topic-operator-kstreams},1650457032,0
{consumergroup=__strimzi-topic-operator-kstreams},1650457037,0
{consumergroup=__strimzi-topic-operator-kstreams},1650457042,0
{consumergroup=__strimzi-topic-operator-kstreams},1650457047,0
{consumergroup=__strimzi-topic-operator-kstreams},1650457052,0
{consumergroup=__strimzi-topic-operator-kstreams},1650457057,0
{consumergroup=__strimzi-topic-operator-kstreams},1650457062,0
{consumergroup=__strimzi-topic-operator-kstreams},1650457067,0
{consumergroup=__strimzi-topic-operator-kstreams},1650457072,0
{consumergroup=__strimzi-topic-operator-kstreams},1650457077,0
{consumergroup=__strimzi-topic-operator-kstreams},1650457082,0
{consumergroup=__strimzi-topic-operator-kstreams},1650457087,0
{consumergroup=__strimzi-topic-operator-kstreams},1650457092,0
{consumergroup=__strimzi-topic-operator-kstreams},1650457097,0
{consumergroup=__strimzi-topic-operator-kstreams},1650457102,0
{consumergroup=__strimzi-topic-operator-kstreams},1650457107,0
{consumergroup=__strimzi-topic-operator-kstreams},1650457112,0
{consumergroup=__strimzi-topic-operator-kstreams},1650457117,0
{consumergroup=__strimzi-topic-operator-kstreams},1650457122,0
{consumergroup=__strimzi-topic-operator-kstreams},1650457127,0
{consumergroup=__strimzi-topic-operator-kstreams},1650457132,0
{consumergroup=__strimzi-topic-operator-kstreams},1650457137,0
{consumergroup=__strimzi-topic-operator-kstreams},1650457142,0
{consumergroup=__strimzi-topic-operator-kstreams},1650457147,0
{consumergroup=__strimzi-topic-operator-kstreams},1650457152,0
{consumergroup=__strimzi-topic-operator-kstreams},1650457157,0
{consumergroup=__strimzi-topic-operator-kstreams},1650457162,0
{consumergroup=__strimzi-topic-operator-kstreams},1650457167,0
{consumergroup=__strimzi-topic-operator-kstreams},1650457172,0
{consumergroup=__strimzi-topic-operator-kstreams},1650457177,0
{consumergroup=__strimzi-topic-operator-kstreams},1650457182,0
{consumergroup=__strimzi-topic-operator-kstreams},1650457187,0
{consumergroup=__strimzi-topic-operator-kstreams},1650457192,0
{consumergroup=__strimzi-topic-operator-kstreams},1650457197,0
{consumergroup=__strimzi-topic-operator-kstreams},1650457202,0
{consumergroup=__strimzi-topic-operator-kstreams},1650457207,0
{consumergroup=__strimzi-topic-operator-kstreams},1650457212,0
{consumergroup=__strimzi-topic-operator-kstreams},1650457217,0
{consumergroup=__strimzi-topic-operator-kstreams},1650457222,0
{consumergroup=__strimzi-topic-operator-kstreams},1650457227,0
{consumergroup=__strimzi-topic-operator-kstreams},1650457232,0
{consumergroup=__strimzi-topic-operator-kstreams},1650457237,0
{consumergroup=__strimzi-topic-operator-kstreams},1650457242,0
{consumergroup=__strimzi-topic-operator-kstreams},1650457247,0
{consumergroup=__strimzi-topic-operator-kstreams},1650457252,0
{consumergroup=__strimzi-topic-operator-kstreams},1650457257,0
{consumergroup=__strimzi-topic-operator-kstreams},1650457262,0
{consumergroup=__strimzi-topic-operator-kstreams},1650457267,0
{consumergroup=__strimzi-topic-operator-kstreams},1650457272,0
{consumergroup=__strimzi-topic-operator-kstreams},1650457277,0
{consumergroup=__strimzi-topic-operator-kstreams},1650457282,0
{consumergroup=__strimzi-topic-operator-kstreams},1650457287,0
{consumergroup=__strimzi-topic-operator-kstreams},1650457292,0
{consumergroup=__strimzi-topic-operator-kstreams},1650457297,0
{consumergroup=__strimzi-topic-operator-kstreams},1650457302,0
{consumergroup=__strimzi-topic-operator-kstreams},1650457307,0
{consumergroup=__strimzi-topic-operator-kstreams},1650457312,0
{consumergroup=__strimzi-topic-operator-kstreams},1650457317,0
{consumergroup=__strimzi-topic-operator-kstreams},1650457322,0
{consumergroup=__strimzi-topic-operator-kstreams},1650457327,0
{consumergroup=__strimzi-topic-operator-kstreams},1650457332,0
{consumergroup=__strimzi-topic-operator-kstreams},1650457337,0
{consumergroup=__strimzi-topic-operator-kstreams},1650457342,0
{consumergroup=__strimzi-topic-operator-kstreams},1650457347,0
{consumergroup=__strimzi-topic-operator-kstreams},1650457352,0
{consumergroup=__strimzi-topic-operator-kstreams},1650457357,0
{consumergroup=__strimzi-topic-operator-kstreams},1650457362,0
{consumergroup=__strimzi-topic-operator-kstreams},1650457367,0
{consumergroup=__strimzi-topic-operator-kstreams},1650457372,0
{consumergroup=__strimzi-topic-operator-kstreams},1650457377,0
{consumergroup=__strimzi-topic-operator-kstreams},1650457382,0
{consumergroup=__strimzi-topic-operator-kstreams},1650457387,0
{consumergroup=__strimzi-topic-operator-kstreams},1650457392,0
{consumergroup=__strimzi-topic-operator-kstreams},1650457397,0
{consumergroup=__strimzi-topic-operator-kstreams},1650457402,0
{consumergroup=__strimzi-topic-operator-kstreams},1650457407,0
{consumergroup=__strimzi-topic-operator-kstreams},1650457412,0
{consumergroup=__strimzi-topic-operator-kstreams},1650457417,0
{consumergroup=__strimzi-topic-operator-kstreams},1650457422,0
{consumergroup=__strimzi-topic-operator-kstreams},1650457427,0
{consumergroup=__strimzi-topic-operator-kstreams},1650457432,0
{consumergroup=__strimzi-topic-operator-kstreams},1650457437,0
{consumergroup=__strimzi-topic-operator-kstreams},1650457442,0
{consumergroup=__strimzi-topic-operator-kstreams},1650457447,0
{consumergroup=__strimzi-topic-operator-kstreams},1650457452,0
{consumergroup=__strimzi-topic-operator-kstreams},1650457457,0
{consumergroup=__strimzi-topic-operator-kstreams},1650457462,0
{consumergroup=__strimzi-topic-operator-kstreams},1650457467,0
{consumergroup=__strimzi-topic-operator-kstreams},1650457472,0
{consumergroup=__strimzi-topic-operator-kstreams},1650457477,0
{consumergroup=__strimzi-topic-operator-kstreams},1650457482,0
{consumergroup=__strimzi-topic-operator-kstreams},1650457487,0
