labels,timestamp,value
{consumergroup=__strimzi-topic-operator-kstreams},1650455943,0
{consumergroup=__strimzi-topic-operator-kstreams},1650455948,0
{consumergroup=__strimzi-topic-operator-kstreams},1650455953,0
{consumergroup=__strimzi-topic-operator-kstreams},1650455958,0
{consumergroup=__strimzi-topic-operator-kstreams},1650455963,0
{consumergroup=__strimzi-topic-operator-kstreams},1650455968,0
{consumergroup=__strimzi-topic-operator-kstreams},1650455973,0
{consumergroup=__strimzi-topic-operator-kstreams},1650455978,0
{consumergroup=__strimzi-topic-operator-kstreams},1650455983,0
{consumergroup=__strimzi-topic-operator-kstreams},1650455988,0
{consumergroup=__strimzi-topic-operator-kstreams},1650455993,0
{consumergroup=__strimzi-topic-operator-kstreams},1650455998,0
{consumergroup=__strimzi-topic-operator-kstreams},1650456003,0
{consumergroup=__strimzi-topic-operator-kstreams},1650456008,0
{consumergroup=__strimzi-topic-operator-kstreams},1650456013,0
{consumergroup=__strimzi-topic-operator-kstreams},1650456018,0
{consumergroup=__strimzi-topic-operator-kstreams},1650456023,0
{consumergroup=__strimzi-topic-operator-kstreams},1650456028,0
{consumergroup=__strimzi-topic-operator-kstreams},1650456033,0
{consumergroup=__strimzi-topic-operator-kstreams},1650456038,0
{consumergroup=__strimzi-topic-operator-kstreams},1650456043,0
{consumergroup=__strimzi-topic-operator-kstreams},1650456048,0
{consumergroup=__strimzi-topic-operator-kstreams},1650456053,0
{consumergroup=__strimzi-topic-operator-kstreams},1650456058,0
{consumergroup=__strimzi-topic-operator-kstreams},1650456063,0
{consumergroup=__strimzi-topic-operator-kstreams},1650456068,0
{consumergroup=__strimzi-topic-operator-kstreams},1650456073,0
{consumergroup=__strimzi-topic-operator-kstreams},1650456078,0
{consumergroup=__strimzi-topic-operator-kstreams},1650456083,0
{consumergroup=__strimzi-topic-operator-kstreams},1650456088,0
{consumergroup=__strimzi-topic-operator-kstreams},1650456093,0
{consumergroup=__strimzi-topic-operator-kstreams},1650456098,0
{consumergroup=__strimzi-topic-operator-kstreams},1650456103,0
{consumergroup=__strimzi-topic-operator-kstreams},1650456108,0
{consumergroup=__strimzi-topic-operator-kstreams},1650456113,0
{consumergroup=__strimzi-topic-operator-kstreams},1650456118,0
{consumergroup=__strimzi-topic-operator-kstreams},1650456123,0
{consumergroup=__strimzi-topic-operator-kstreams},1650456128,0
{consumergroup=__strimzi-topic-operator-kstreams},1650456133,0
{consumergroup=__strimzi-topic-operator-kstreams},1650456138,0
{consumergroup=__strimzi-topic-operator-kstreams},1650456143,0
{consumergroup=__strimzi-topic-operator-kstreams},1650456148,0
{consumergroup=__strimzi-topic-operator-kstreams},1650456153,0
{consumergroup=__strimzi-topic-operator-kstreams},1650456158,0
{consumergroup=__strimzi-topic-operator-kstreams},1650456163,0
{consumergroup=__strimzi-topic-operator-kstreams},1650456168,0
{consumergroup=__strimzi-topic-operator-kstreams},1650456173,0
{consumergroup=__strimzi-topic-operator-kstreams},1650456178,0
{consumergroup=__strimzi-topic-operator-kstreams},1650456183,0
{consumergroup=__strimzi-topic-operator-kstreams},1650456188,0
{consumergroup=__strimzi-topic-operator-kstreams},1650456193,0
{consumergroup=__strimzi-topic-operator-kstreams},1650456198,0
{consumergroup=__strimzi-topic-operator-kstreams},1650456203,0
{consumergroup=__strimzi-topic-operator-kstreams},1650456208,0
{consumergroup=__strimzi-topic-operator-kstreams},1650456213,0
{consumergroup=__strimzi-topic-operator-kstreams},1650456218,0
{consumergroup=__strimzi-topic-operator-kstreams},1650456223,0
{consumergroup=__strimzi-topic-operator-kstreams},1650456228,0
{consumergroup=__strimzi-topic-operator-kstreams},1650456233,0
{consumergroup=__strimzi-topic-operator-kstreams},1650456238,0
{consumergroup=__strimzi-topic-operator-kstreams},1650456243,0
{consumergroup=__strimzi-topic-operator-kstreams},1650456248,0
{consumergroup=__strimzi-topic-operator-kstreams},1650456253,0
{consumergroup=__strimzi-topic-operator-kstreams},1650456258,0
{consumergroup=__strimzi-topic-operator-kstreams},1650456263,0
{consumergroup=__strimzi-topic-operator-kstreams},1650456268,0
{consumergroup=__strimzi-topic-operator-kstreams},1650456273,0
{consumergroup=__strimzi-topic-operator-kstreams},1650456278,0
{consumergroup=__strimzi-topic-operator-kstreams},1650456283,0
{consumergroup=__strimzi-topic-operator-kstreams},1650456288,0
{consumergroup=__strimzi-topic-operator-kstreams},1650456293,0
{consumergroup=__strimzi-topic-operator-kstreams},1650456298,0
{consumergroup=__strimzi-topic-operator-kstreams},1650456303,0
{consumergroup=__strimzi-topic-operator-kstreams},1650456308,0
{consumergroup=__strimzi-topic-operator-kstreams},1650456313,0
{consumergroup=__strimzi-topic-operator-kstreams},1650456318,0
{consumergroup=__strimzi-topic-operator-kstreams},1650456323,0
{consumergroup=__strimzi-topic-operator-kstreams},1650456328,0
{consumergroup=__strimzi-topic-operator-kstreams},1650456333,0
{consumergroup=__strimzi-topic-operator-kstreams},1650456338,0
{consumergroup=__strimzi-topic-operator-kstreams},1650456343,0
{consumergroup=__strimzi-topic-operator-kstreams},1650456348,0
{consumergroup=__strimzi-topic-operator-kstreams},1650456353,0
{consumergroup=__strimzi-topic-operator-kstreams},1650456358,0
{consumergroup=__strimzi-topic-operator-kstreams},1650456363,0
{consumergroup=__strimzi-topic-operator-kstreams},1650456368,0
{consumergroup=__strimzi-topic-operator-kstreams},1650456373,0
{consumergroup=__strimzi-topic-operator-kstreams},1650456378,0
{consumergroup=__strimzi-topic-operator-kstreams},1650456383,0
{consumergroup=__strimzi-topic-operator-kstreams},1650456388,0
{consumergroup=__strimzi-topic-operator-kstreams},1650456393,0
{consumergroup=__strimzi-topic-operator-kstreams},1650456398,0
{consumergroup=__strimzi-topic-operator-kstreams},1650456403,0
{consumergroup=__strimzi-topic-operator-kstreams},1650456408,0
{consumergroup=__strimzi-topic-operator-kstreams},1650456413,0
{consumergroup=__strimzi-topic-operator-kstreams},1650456418,0
{consumergroup=__strimzi-topic-operator-kstreams},1650456423,0
{consumergroup=__strimzi-topic-operator-kstreams},1650456428,0
