labels,timestamp,value
{},1650555126,0
{},1650555131,0
{},1650555136,0
{},1650555141,0
{},1650555146,0
{},1650555151,0
{},1650555156,0
{},1650555161,0
{},1650555166,0
{},1650555171,0
{},1650555176,0
{},1650555181,0
{},1650555186,0
{},1650555191,0
{},1650555196,0
