labels,timestamp,value
{},1650551154,0
{},1650551159,0
{},1650551164,0
{},1650551169,0
{},1650551174,0
{},1650551179,0
{},1650551184,0
{},1650551189,0
{},1650551194,0
{},1650551199,0
{},1650551204,0
{},1650551209,0
{},1650551214,0
{},1650551219,0
