labels,timestamp,value
{consumergroup=__strimzi-topic-operator-kstreams},1650561953,0
{consumergroup=__strimzi-topic-operator-kstreams},1650561958,0
{consumergroup=__strimzi-topic-operator-kstreams},1650561963,0
{consumergroup=__strimzi-topic-operator-kstreams},1650561968,2
{consumergroup=__strimzi-topic-operator-kstreams},1650561973,2
{consumergroup=__strimzi-topic-operator-kstreams},1650561978,2
{consumergroup=__strimzi-topic-operator-kstreams},1650561983,0
{consumergroup=__strimzi-topic-operator-kstreams},1650561988,0
{consumergroup=__strimzi-topic-operator-kstreams},1650561993,0
{consumergroup=__strimzi-topic-operator-kstreams},1650561998,0
{consumergroup=__strimzi-topic-operator-kstreams},1650562003,0
{consumergroup=__strimzi-topic-operator-kstreams},1650562008,0
{consumergroup=__strimzi-topic-operator-kstreams},1650562013,0
{consumergroup=__strimzi-topic-operator-kstreams},1650562018,0
{consumergroup=__strimzi-topic-operator-kstreams},1650562023,0
{consumergroup=__strimzi-topic-operator-kstreams},1650562028,0
{consumergroup=__strimzi-topic-operator-kstreams},1650562033,0
{consumergroup=__strimzi-topic-operator-kstreams},1650562038,0
{consumergroup=__strimzi-topic-operator-kstreams},1650562043,0
{consumergroup=__strimzi-topic-operator-kstreams},1650562048,0
{consumergroup=__strimzi-topic-operator-kstreams},1650562053,0
{consumergroup=__strimzi-topic-operator-kstreams},1650562058,0
{consumergroup=__strimzi-topic-operator-kstreams},1650562063,0
{consumergroup=__strimzi-topic-operator-kstreams},1650562068,0
{consumergroup=__strimzi-topic-operator-kstreams},1650562073,0
{consumergroup=__strimzi-topic-operator-kstreams},1650562078,0
{consumergroup=__strimzi-topic-operator-kstreams},1650562083,0
{consumergroup=__strimzi-topic-operator-kstreams},1650562088,0
{consumergroup=__strimzi-topic-operator-kstreams},1650562093,0
{consumergroup=__strimzi-topic-operator-kstreams},1650562098,0
{consumergroup=__strimzi-topic-operator-kstreams},1650562103,0
{consumergroup=__strimzi-topic-operator-kstreams},1650562108,0
{consumergroup=__strimzi-topic-operator-kstreams},1650562113,0
{consumergroup=__strimzi-topic-operator-kstreams},1650562118,0
{consumergroup=__strimzi-topic-operator-kstreams},1650562123,0
{consumergroup=__strimzi-topic-operator-kstreams},1650562128,0
{consumergroup=__strimzi-topic-operator-kstreams},1650562133,0
{consumergroup=__strimzi-topic-operator-kstreams},1650562138,0
{consumergroup=__strimzi-topic-operator-kstreams},1650562143,0
{consumergroup=__strimzi-topic-operator-kstreams},1650562148,0
{consumergroup=__strimzi-topic-operator-kstreams},1650562153,0
{consumergroup=__strimzi-topic-operator-kstreams},1650562158,0
{consumergroup=__strimzi-topic-operator-kstreams},1650562163,0
{consumergroup=__strimzi-topic-operator-kstreams},1650562168,0
{consumergroup=__strimzi-topic-operator-kstreams},1650562173,0
{consumergroup=__strimzi-topic-operator-kstreams},1650562178,0
{consumergroup=__strimzi-topic-operator-kstreams},1650562183,0
{consumergroup=__strimzi-topic-operator-kstreams},1650562188,0
{consumergroup=__strimzi-topic-operator-kstreams},1650562193,0
{consumergroup=__strimzi-topic-operator-kstreams},1650562198,0
{consumergroup=__strimzi-topic-operator-kstreams},1650562203,0
{consumergroup=__strimzi-topic-operator-kstreams},1650562208,0
{consumergroup=__strimzi-topic-operator-kstreams},1650562213,0
{consumergroup=__strimzi-topic-operator-kstreams},1650562218,0
{consumergroup=__strimzi-topic-operator-kstreams},1650562223,0
{consumergroup=__strimzi-topic-operator-kstreams},1650562228,0
{consumergroup=__strimzi-topic-operator-kstreams},1650562233,0
{consumergroup=__strimzi-topic-operator-kstreams},1650562238,0
{consumergroup=__strimzi-topic-operator-kstreams},1650562243,0
{consumergroup=__strimzi-topic-operator-kstreams},1650562248,0
{consumergroup=__strimzi-topic-operator-kstreams},1650562253,0
{consumergroup=__strimzi-topic-operator-kstreams},1650562258,0
{consumergroup=__strimzi-topic-operator-kstreams},1650562263,0
{consumergroup=__strimzi-topic-operator-kstreams},1650562268,0
{consumergroup=__strimzi-topic-operator-kstreams},1650562273,0
{consumergroup=__strimzi-topic-operator-kstreams},1650562278,0
{consumergroup=__strimzi-topic-operator-kstreams},1650562283,0
{consumergroup=__strimzi-topic-operator-kstreams},1650562288,0
{consumergroup=__strimzi-topic-operator-kstreams},1650562293,0
{consumergroup=__strimzi-topic-operator-kstreams},1650562298,0
{consumergroup=__strimzi-topic-operator-kstreams},1650562303,0
{consumergroup=__strimzi-topic-operator-kstreams},1650562308,0
{consumergroup=__strimzi-topic-operator-kstreams},1650562313,0
{consumergroup=__strimzi-topic-operator-kstreams},1650562318,0
{consumergroup=__strimzi-topic-operator-kstreams},1650562323,0
{consumergroup=__strimzi-topic-operator-kstreams},1650562328,0
{consumergroup=__strimzi-topic-operator-kstreams},1650562333,0
{consumergroup=__strimzi-topic-operator-kstreams},1650562338,0
{consumergroup=__strimzi-topic-operator-kstreams},1650562343,0
{consumergroup=__strimzi-topic-operator-kstreams},1650562348,0
{consumergroup=__strimzi-topic-operator-kstreams},1650562353,0
{consumergroup=__strimzi-topic-operator-kstreams},1650562358,0
{consumergroup=__strimzi-topic-operator-kstreams},1650562363,0
{consumergroup=__strimzi-topic-operator-kstreams},1650562368,0
{consumergroup=__strimzi-topic-operator-kstreams},1650562373,0
{consumergroup=__strimzi-topic-operator-kstreams},1650562378,0
{consumergroup=__strimzi-topic-operator-kstreams},1650562383,0
{consumergroup=__strimzi-topic-operator-kstreams},1650562388,0
{consumergroup=__strimzi-topic-operator-kstreams},1650562393,0
{consumergroup=__strimzi-topic-operator-kstreams},1650562398,0
{consumergroup=__strimzi-topic-operator-kstreams},1650562403,0
{consumergroup=__strimzi-topic-operator-kstreams},1650562408,0
{consumergroup=__strimzi-topic-operator-kstreams},1650562413,0
{consumergroup=__strimzi-topic-operator-kstreams},1650562418,0
{consumergroup=__strimzi-topic-operator-kstreams},1650562423,0
{consumergroup=__strimzi-topic-operator-kstreams},1650562428,0
{consumergroup=__strimzi-topic-operator-kstreams},1650562433,0
{consumergroup=__strimzi-topic-operator-kstreams},1650562438,0
{consumergroup=__strimzi-topic-operator-kstreams},1650562443,0
