labels,timestamp,value
{consumergroup=__strimzi-topic-operator-kstreams},1650488834,0
{consumergroup=__strimzi-topic-operator-kstreams},1650488844,19
{consumergroup=__strimzi-topic-operator-kstreams},1650488849,19
{consumergroup=__strimzi-topic-operator-kstreams},1650488854,19
{consumergroup=__strimzi-topic-operator-kstreams},1650488859,0
{consumergroup=__strimzi-topic-operator-kstreams},1650488864,0
{consumergroup=__strimzi-topic-operator-kstreams},1650488869,0
{consumergroup=__strimzi-topic-operator-kstreams},1650488874,0
{consumergroup=__strimzi-topic-operator-kstreams},1650488879,0
{consumergroup=__strimzi-topic-operator-kstreams},1650488884,0
{consumergroup=__strimzi-topic-operator-kstreams},1650488889,0
{consumergroup=__strimzi-topic-operator-kstreams},1650488894,0
{consumergroup=__strimzi-topic-operator-kstreams},1650488899,0
{consumergroup=__strimzi-topic-operator-kstreams},1650488904,0
{consumergroup=__strimzi-topic-operator-kstreams},1650488909,0
{consumergroup=__strimzi-topic-operator-kstreams},1650488914,0
{consumergroup=__strimzi-topic-operator-kstreams},1650488919,0
{consumergroup=__strimzi-topic-operator-kstreams},1650488924,0
{consumergroup=__strimzi-topic-operator-kstreams},1650488929,0
{consumergroup=__strimzi-topic-operator-kstreams},1650488934,0
{consumergroup=__strimzi-topic-operator-kstreams},1650488939,0
{consumergroup=__strimzi-topic-operator-kstreams},1650488944,0
{consumergroup=__strimzi-topic-operator-kstreams},1650488949,0
{consumergroup=__strimzi-topic-operator-kstreams},1650488954,0
{consumergroup=__strimzi-topic-operator-kstreams},1650488959,0
{consumergroup=__strimzi-topic-operator-kstreams},1650488964,0
{consumergroup=__strimzi-topic-operator-kstreams},1650488969,0
{consumergroup=__strimzi-topic-operator-kstreams},1650488974,0
{consumergroup=__strimzi-topic-operator-kstreams},1650488979,0
{consumergroup=__strimzi-topic-operator-kstreams},1650488984,0
{consumergroup=__strimzi-topic-operator-kstreams},1650488989,0
{consumergroup=__strimzi-topic-operator-kstreams},1650488994,0
{consumergroup=__strimzi-topic-operator-kstreams},1650488999,0
{consumergroup=__strimzi-topic-operator-kstreams},1650489004,0
{consumergroup=__strimzi-topic-operator-kstreams},1650489009,0
{consumergroup=__strimzi-topic-operator-kstreams},1650489014,0
{consumergroup=__strimzi-topic-operator-kstreams},1650489019,0
{consumergroup=__strimzi-topic-operator-kstreams},1650489024,0
{consumergroup=__strimzi-topic-operator-kstreams},1650489029,0
{consumergroup=__strimzi-topic-operator-kstreams},1650489034,0
{consumergroup=__strimzi-topic-operator-kstreams},1650489039,0
{consumergroup=__strimzi-topic-operator-kstreams},1650489044,0
{consumergroup=__strimzi-topic-operator-kstreams},1650489049,0
{consumergroup=__strimzi-topic-operator-kstreams},1650489054,0
{consumergroup=__strimzi-topic-operator-kstreams},1650489059,0
{consumergroup=__strimzi-topic-operator-kstreams},1650489064,0
{consumergroup=__strimzi-topic-operator-kstreams},1650489069,0
{consumergroup=__strimzi-topic-operator-kstreams},1650489074,0
{consumergroup=__strimzi-topic-operator-kstreams},1650489079,0
{consumergroup=__strimzi-topic-operator-kstreams},1650489084,0
{consumergroup=__strimzi-topic-operator-kstreams},1650489089,0
{consumergroup=__strimzi-topic-operator-kstreams},1650489094,0
{consumergroup=__strimzi-topic-operator-kstreams},1650489099,0
{consumergroup=__strimzi-topic-operator-kstreams},1650489104,0
{consumergroup=__strimzi-topic-operator-kstreams},1650489109,0
{consumergroup=__strimzi-topic-operator-kstreams},1650489114,0
{consumergroup=__strimzi-topic-operator-kstreams},1650489119,0
{consumergroup=__strimzi-topic-operator-kstreams},1650489124,0
{consumergroup=__strimzi-topic-operator-kstreams},1650489129,0
{consumergroup=__strimzi-topic-operator-kstreams},1650489134,0
{consumergroup=__strimzi-topic-operator-kstreams},1650489139,0
{consumergroup=__strimzi-topic-operator-kstreams},1650489144,0
{consumergroup=__strimzi-topic-operator-kstreams},1650489149,0
{consumergroup=__strimzi-topic-operator-kstreams},1650489154,0
{consumergroup=__strimzi-topic-operator-kstreams},1650489159,0
{consumergroup=__strimzi-topic-operator-kstreams},1650489164,0
{consumergroup=__strimzi-topic-operator-kstreams},1650489169,0
{consumergroup=__strimzi-topic-operator-kstreams},1650489174,0
{consumergroup=__strimzi-topic-operator-kstreams},1650489179,0
{consumergroup=__strimzi-topic-operator-kstreams},1650489184,0
{consumergroup=__strimzi-topic-operator-kstreams},1650489189,0
{consumergroup=__strimzi-topic-operator-kstreams},1650489194,0
{consumergroup=__strimzi-topic-operator-kstreams},1650489199,0
{consumergroup=__strimzi-topic-operator-kstreams},1650489204,0
{consumergroup=__strimzi-topic-operator-kstreams},1650489209,0
{consumergroup=__strimzi-topic-operator-kstreams},1650489214,0
{consumergroup=__strimzi-topic-operator-kstreams},1650489219,0
{consumergroup=__strimzi-topic-operator-kstreams},1650489224,0
{consumergroup=__strimzi-topic-operator-kstreams},1650489229,0
{consumergroup=__strimzi-topic-operator-kstreams},1650489234,0
{consumergroup=__strimzi-topic-operator-kstreams},1650489239,0
{consumergroup=__strimzi-topic-operator-kstreams},1650489244,0
{consumergroup=__strimzi-topic-operator-kstreams},1650489249,0
{consumergroup=__strimzi-topic-operator-kstreams},1650489254,0
{consumergroup=__strimzi-topic-operator-kstreams},1650489259,0
{consumergroup=__strimzi-topic-operator-kstreams},1650489264,0
{consumergroup=__strimzi-topic-operator-kstreams},1650489269,0
{consumergroup=__strimzi-topic-operator-kstreams},1650489274,0
{consumergroup=__strimzi-topic-operator-kstreams},1650489279,0
{consumergroup=__strimzi-topic-operator-kstreams},1650489284,0
{consumergroup=__strimzi-topic-operator-kstreams},1650489289,0
{consumergroup=__strimzi-topic-operator-kstreams},1650489294,0
{consumergroup=__strimzi-topic-operator-kstreams},1650489299,0
{consumergroup=__strimzi-topic-operator-kstreams},1650489304,0
{consumergroup=__strimzi-topic-operator-kstreams},1650489309,0
{consumergroup=__strimzi-topic-operator-kstreams},1650489314,0
{consumergroup=__strimzi-topic-operator-kstreams},1650489319,0
{consumergroup=__strimzi-topic-operator-kstreams},1650489324,0
{consumergroup=__strimzi-topic-operator-kstreams},1650489329,0
{consumergroup=__strimzi-topic-operator-kstreams},1650489334,0
