labels,timestamp,value
{consumergroup=__strimzi-topic-operator-kstreams},1650371650,8
{consumergroup=__strimzi-topic-operator-kstreams},1650371655,8
{consumergroup=__strimzi-topic-operator-kstreams},1650371660,8
{consumergroup=__strimzi-topic-operator-kstreams},1650371665,0
{consumergroup=__strimzi-topic-operator-kstreams},1650371670,0
{consumergroup=__strimzi-topic-operator-kstreams},1650371675,0
{consumergroup=__strimzi-topic-operator-kstreams},1650371680,0
{consumergroup=__strimzi-topic-operator-kstreams},1650371685,0
{consumergroup=__strimzi-topic-operator-kstreams},1650371690,0
{consumergroup=__strimzi-topic-operator-kstreams},1650371695,0
{consumergroup=__strimzi-topic-operator-kstreams},1650371700,0
{consumergroup=__strimzi-topic-operator-kstreams},1650371705,0
{consumergroup=__strimzi-topic-operator-kstreams},1650371710,0
{consumergroup=__strimzi-topic-operator-kstreams},1650371715,0
{consumergroup=__strimzi-topic-operator-kstreams},1650371720,0
{consumergroup=__strimzi-topic-operator-kstreams},1650371725,0
{consumergroup=__strimzi-topic-operator-kstreams},1650371730,0
{consumergroup=__strimzi-topic-operator-kstreams},1650371735,0
{consumergroup=__strimzi-topic-operator-kstreams},1650371740,0
{consumergroup=__strimzi-topic-operator-kstreams},1650371745,0
{consumergroup=__strimzi-topic-operator-kstreams},1650371750,0
{consumergroup=__strimzi-topic-operator-kstreams},1650371755,0
{consumergroup=__strimzi-topic-operator-kstreams},1650371760,0
{consumergroup=__strimzi-topic-operator-kstreams},1650371765,0
{consumergroup=__strimzi-topic-operator-kstreams},1650371770,0
{consumergroup=__strimzi-topic-operator-kstreams},1650371775,0
{consumergroup=__strimzi-topic-operator-kstreams},1650371780,0
{consumergroup=__strimzi-topic-operator-kstreams},1650371785,0
{consumergroup=__strimzi-topic-operator-kstreams},1650371790,0
{consumergroup=__strimzi-topic-operator-kstreams},1650371795,0
{consumergroup=__strimzi-topic-operator-kstreams},1650371800,0
{consumergroup=__strimzi-topic-operator-kstreams},1650371805,0
{consumergroup=__strimzi-topic-operator-kstreams},1650371810,0
{consumergroup=__strimzi-topic-operator-kstreams},1650371815,0
{consumergroup=__strimzi-topic-operator-kstreams},1650371820,0
{consumergroup=__strimzi-topic-operator-kstreams},1650371825,0
{consumergroup=__strimzi-topic-operator-kstreams},1650371830,0
{consumergroup=__strimzi-topic-operator-kstreams},1650371835,0
{consumergroup=__strimzi-topic-operator-kstreams},1650371840,0
{consumergroup=__strimzi-topic-operator-kstreams},1650371845,0
{consumergroup=__strimzi-topic-operator-kstreams},1650371850,0
{consumergroup=__strimzi-topic-operator-kstreams},1650371855,0
{consumergroup=__strimzi-topic-operator-kstreams},1650371860,0
{consumergroup=__strimzi-topic-operator-kstreams},1650371865,0
{consumergroup=__strimzi-topic-operator-kstreams},1650371870,0
{consumergroup=__strimzi-topic-operator-kstreams},1650371875,0
{consumergroup=__strimzi-topic-operator-kstreams},1650371880,0
{consumergroup=__strimzi-topic-operator-kstreams},1650371885,0
{consumergroup=__strimzi-topic-operator-kstreams},1650371890,0
{consumergroup=__strimzi-topic-operator-kstreams},1650371895,0
