labels,timestamp,value
{consumergroup=__strimzi-topic-operator-kstreams},1650557961,3
{consumergroup=__strimzi-topic-operator-kstreams},1650557966,3
{consumergroup=__strimzi-topic-operator-kstreams},1650557971,3
{consumergroup=__strimzi-topic-operator-kstreams},1650557976,11
{consumergroup=__strimzi-topic-operator-kstreams},1650557981,11
{consumergroup=__strimzi-topic-operator-kstreams},1650557986,11
{consumergroup=__strimzi-topic-operator-kstreams},1650557991,3
{consumergroup=__strimzi-topic-operator-kstreams},1650557996,3
{consumergroup=__strimzi-topic-operator-kstreams},1650558001,3
{consumergroup=__strimzi-topic-operator-kstreams},1650558006,3
{consumergroup=__strimzi-topic-operator-kstreams},1650558011,3
{consumergroup=__strimzi-topic-operator-kstreams},1650558016,3
{consumergroup=__strimzi-topic-operator-kstreams},1650558021,0
{consumergroup=__strimzi-topic-operator-kstreams},1650558026,0
{consumergroup=__strimzi-topic-operator-kstreams},1650558031,0
{consumergroup=__strimzi-topic-operator-kstreams},1650558036,0
{consumergroup=__strimzi-topic-operator-kstreams},1650558041,0
{consumergroup=__strimzi-topic-operator-kstreams},1650558046,0
{consumergroup=__strimzi-topic-operator-kstreams},1650558051,0
{consumergroup=__strimzi-topic-operator-kstreams},1650558056,0
{consumergroup=__strimzi-topic-operator-kstreams},1650558061,0
{consumergroup=__strimzi-topic-operator-kstreams},1650558066,0
{consumergroup=__strimzi-topic-operator-kstreams},1650558071,0
{consumergroup=__strimzi-topic-operator-kstreams},1650558076,0
{consumergroup=__strimzi-topic-operator-kstreams},1650558081,0
{consumergroup=__strimzi-topic-operator-kstreams},1650558086,0
{consumergroup=__strimzi-topic-operator-kstreams},1650558091,0
{consumergroup=__strimzi-topic-operator-kstreams},1650558096,0
{consumergroup=__strimzi-topic-operator-kstreams},1650558101,0
{consumergroup=__strimzi-topic-operator-kstreams},1650558106,0
{consumergroup=__strimzi-topic-operator-kstreams},1650558111,0
{consumergroup=__strimzi-topic-operator-kstreams},1650558116,0
{consumergroup=__strimzi-topic-operator-kstreams},1650558121,0
{consumergroup=__strimzi-topic-operator-kstreams},1650558126,0
{consumergroup=__strimzi-topic-operator-kstreams},1650558131,0
{consumergroup=__strimzi-topic-operator-kstreams},1650558136,0
{consumergroup=__strimzi-topic-operator-kstreams},1650558141,0
{consumergroup=__strimzi-topic-operator-kstreams},1650558146,0
{consumergroup=__strimzi-topic-operator-kstreams},1650558151,0
{consumergroup=__strimzi-topic-operator-kstreams},1650558156,0
{consumergroup=__strimzi-topic-operator-kstreams},1650558161,0
{consumergroup=__strimzi-topic-operator-kstreams},1650558166,0
{consumergroup=__strimzi-topic-operator-kstreams},1650558171,0
{consumergroup=__strimzi-topic-operator-kstreams},1650558176,0
{consumergroup=__strimzi-topic-operator-kstreams},1650558181,0
{consumergroup=__strimzi-topic-operator-kstreams},1650558186,0
{consumergroup=__strimzi-topic-operator-kstreams},1650558191,0
{consumergroup=__strimzi-topic-operator-kstreams},1650558196,0
{consumergroup=__strimzi-topic-operator-kstreams},1650558201,0
{consumergroup=__strimzi-topic-operator-kstreams},1650558206,0
{consumergroup=__strimzi-topic-operator-kstreams},1650558211,0
{consumergroup=__strimzi-topic-operator-kstreams},1650558216,0
{consumergroup=__strimzi-topic-operator-kstreams},1650558221,0
{consumergroup=__strimzi-topic-operator-kstreams},1650558226,0
{consumergroup=__strimzi-topic-operator-kstreams},1650558231,0
{consumergroup=__strimzi-topic-operator-kstreams},1650558236,0
{consumergroup=__strimzi-topic-operator-kstreams},1650558241,0
{consumergroup=__strimzi-topic-operator-kstreams},1650558246,0
{consumergroup=__strimzi-topic-operator-kstreams},1650558251,0
{consumergroup=__strimzi-topic-operator-kstreams},1650558256,0
{consumergroup=__strimzi-topic-operator-kstreams},1650558261,0
{consumergroup=__strimzi-topic-operator-kstreams},1650558266,0
{consumergroup=__strimzi-topic-operator-kstreams},1650558271,0
{consumergroup=__strimzi-topic-operator-kstreams},1650558276,0
{consumergroup=__strimzi-topic-operator-kstreams},1650558281,0
{consumergroup=__strimzi-topic-operator-kstreams},1650558286,0
{consumergroup=__strimzi-topic-operator-kstreams},1650558291,0
{consumergroup=__strimzi-topic-operator-kstreams},1650558296,0
{consumergroup=__strimzi-topic-operator-kstreams},1650558301,0
{consumergroup=__strimzi-topic-operator-kstreams},1650558306,0
{consumergroup=__strimzi-topic-operator-kstreams},1650558311,0
{consumergroup=__strimzi-topic-operator-kstreams},1650558316,0
{consumergroup=__strimzi-topic-operator-kstreams},1650558321,0
{consumergroup=__strimzi-topic-operator-kstreams},1650558326,0
{consumergroup=__strimzi-topic-operator-kstreams},1650558331,0
{consumergroup=__strimzi-topic-operator-kstreams},1650558336,0
{consumergroup=__strimzi-topic-operator-kstreams},1650558341,0
{consumergroup=__strimzi-topic-operator-kstreams},1650558346,0
{consumergroup=__strimzi-topic-operator-kstreams},1650558351,0
{consumergroup=__strimzi-topic-operator-kstreams},1650558356,0
{consumergroup=__strimzi-topic-operator-kstreams},1650558361,0
{consumergroup=__strimzi-topic-operator-kstreams},1650558366,0
{consumergroup=__strimzi-topic-operator-kstreams},1650558371,0
{consumergroup=__strimzi-topic-operator-kstreams},1650558376,0
{consumergroup=__strimzi-topic-operator-kstreams},1650558381,0
{consumergroup=__strimzi-topic-operator-kstreams},1650558386,0
{consumergroup=__strimzi-topic-operator-kstreams},1650558391,0
{consumergroup=__strimzi-topic-operator-kstreams},1650558396,0
{consumergroup=__strimzi-topic-operator-kstreams},1650558401,0
{consumergroup=__strimzi-topic-operator-kstreams},1650558406,0
{consumergroup=__strimzi-topic-operator-kstreams},1650558411,0
{consumergroup=__strimzi-topic-operator-kstreams},1650558416,0
{consumergroup=__strimzi-topic-operator-kstreams},1650558421,0
{consumergroup=__strimzi-topic-operator-kstreams},1650558426,0
{consumergroup=__strimzi-topic-operator-kstreams},1650558431,0
{consumergroup=__strimzi-topic-operator-kstreams},1650558436,0
{consumergroup=__strimzi-topic-operator-kstreams},1650558441,0
{consumergroup=__strimzi-topic-operator-kstreams},1650558446,0
{consumergroup=__strimzi-topic-operator-kstreams},1650558451,0
{consumergroup=__strimzi-topic-operator-kstreams},1650558456,0
{consumergroup=__strimzi-topic-operator-kstreams},1650558461,0
