labels,timestamp,value
{consumergroup=__strimzi-topic-operator-kstreams},1650493063,0
{consumergroup=__strimzi-topic-operator-kstreams},1650493068,2
{consumergroup=__strimzi-topic-operator-kstreams},1650493073,2
{consumergroup=__strimzi-topic-operator-kstreams},1650493078,2
{consumergroup=__strimzi-topic-operator-kstreams},1650493083,17
{consumergroup=__strimzi-topic-operator-kstreams},1650493088,17
{consumergroup=__strimzi-topic-operator-kstreams},1650493093,17
{consumergroup=__strimzi-topic-operator-kstreams},1650493098,0
{consumergroup=__strimzi-topic-operator-kstreams},1650493103,0
{consumergroup=__strimzi-topic-operator-kstreams},1650493108,0
{consumergroup=__strimzi-topic-operator-kstreams},1650493113,0
{consumergroup=__strimzi-topic-operator-kstreams},1650493118,0
{consumergroup=__strimzi-topic-operator-kstreams},1650493123,0
{consumergroup=__strimzi-topic-operator-kstreams},1650493128,0
{consumergroup=__strimzi-topic-operator-kstreams},1650493133,0
{consumergroup=__strimzi-topic-operator-kstreams},1650493138,0
{consumergroup=__strimzi-topic-operator-kstreams},1650493143,0
{consumergroup=__strimzi-topic-operator-kstreams},1650493148,0
{consumergroup=__strimzi-topic-operator-kstreams},1650493153,0
{consumergroup=__strimzi-topic-operator-kstreams},1650493158,0
{consumergroup=__strimzi-topic-operator-kstreams},1650493163,0
{consumergroup=__strimzi-topic-operator-kstreams},1650493168,0
{consumergroup=__strimzi-topic-operator-kstreams},1650493173,0
{consumergroup=__strimzi-topic-operator-kstreams},1650493178,0
{consumergroup=__strimzi-topic-operator-kstreams},1650493183,0
{consumergroup=__strimzi-topic-operator-kstreams},1650493188,0
{consumergroup=__strimzi-topic-operator-kstreams},1650493193,0
{consumergroup=__strimzi-topic-operator-kstreams},1650493198,0
{consumergroup=__strimzi-topic-operator-kstreams},1650493203,0
{consumergroup=__strimzi-topic-operator-kstreams},1650493208,0
{consumergroup=__strimzi-topic-operator-kstreams},1650493213,0
{consumergroup=__strimzi-topic-operator-kstreams},1650493218,0
{consumergroup=__strimzi-topic-operator-kstreams},1650493223,0
{consumergroup=__strimzi-topic-operator-kstreams},1650493228,0
{consumergroup=__strimzi-topic-operator-kstreams},1650493233,0
{consumergroup=__strimzi-topic-operator-kstreams},1650493238,0
{consumergroup=__strimzi-topic-operator-kstreams},1650493243,0
{consumergroup=__strimzi-topic-operator-kstreams},1650493248,0
{consumergroup=__strimzi-topic-operator-kstreams},1650493253,0
{consumergroup=__strimzi-topic-operator-kstreams},1650493258,0
{consumergroup=__strimzi-topic-operator-kstreams},1650493263,0
{consumergroup=__strimzi-topic-operator-kstreams},1650493268,0
{consumergroup=__strimzi-topic-operator-kstreams},1650493273,0
{consumergroup=__strimzi-topic-operator-kstreams},1650493278,0
{consumergroup=__strimzi-topic-operator-kstreams},1650493283,0
{consumergroup=__strimzi-topic-operator-kstreams},1650493288,0
{consumergroup=__strimzi-topic-operator-kstreams},1650493293,0
{consumergroup=__strimzi-topic-operator-kstreams},1650493298,0
{consumergroup=__strimzi-topic-operator-kstreams},1650493303,0
{consumergroup=__strimzi-topic-operator-kstreams},1650493308,0
{consumergroup=__strimzi-topic-operator-kstreams},1650493313,0
{consumergroup=__strimzi-topic-operator-kstreams},1650493318,0
{consumergroup=__strimzi-topic-operator-kstreams},1650493323,0
{consumergroup=__strimzi-topic-operator-kstreams},1650493328,0
{consumergroup=__strimzi-topic-operator-kstreams},1650493333,0
{consumergroup=__strimzi-topic-operator-kstreams},1650493338,0
{consumergroup=__strimzi-topic-operator-kstreams},1650493343,0
{consumergroup=__strimzi-topic-operator-kstreams},1650493348,0
{consumergroup=__strimzi-topic-operator-kstreams},1650493353,0
{consumergroup=__strimzi-topic-operator-kstreams},1650493358,0
{consumergroup=__strimzi-topic-operator-kstreams},1650493363,0
{consumergroup=__strimzi-topic-operator-kstreams},1650493368,0
{consumergroup=__strimzi-topic-operator-kstreams},1650493373,0
{consumergroup=__strimzi-topic-operator-kstreams},1650493378,0
{consumergroup=__strimzi-topic-operator-kstreams},1650493383,0
{consumergroup=__strimzi-topic-operator-kstreams},1650493388,0
{consumergroup=__strimzi-topic-operator-kstreams},1650493393,0
{consumergroup=__strimzi-topic-operator-kstreams},1650493398,0
{consumergroup=__strimzi-topic-operator-kstreams},1650493403,0
{consumergroup=__strimzi-topic-operator-kstreams},1650493408,0
{consumergroup=__strimzi-topic-operator-kstreams},1650493413,0
{consumergroup=__strimzi-topic-operator-kstreams},1650493418,0
{consumergroup=__strimzi-topic-operator-kstreams},1650493423,0
{consumergroup=__strimzi-topic-operator-kstreams},1650493428,0
{consumergroup=__strimzi-topic-operator-kstreams},1650493433,0
{consumergroup=__strimzi-topic-operator-kstreams},1650493438,0
{consumergroup=__strimzi-topic-operator-kstreams},1650493443,0
{consumergroup=__strimzi-topic-operator-kstreams},1650493448,0
{consumergroup=__strimzi-topic-operator-kstreams},1650493453,0
{consumergroup=__strimzi-topic-operator-kstreams},1650493458,0
{consumergroup=__strimzi-topic-operator-kstreams},1650493463,0
{consumergroup=__strimzi-topic-operator-kstreams},1650493468,0
{consumergroup=__strimzi-topic-operator-kstreams},1650493473,0
{consumergroup=__strimzi-topic-operator-kstreams},1650493478,0
{consumergroup=__strimzi-topic-operator-kstreams},1650493483,0
{consumergroup=__strimzi-topic-operator-kstreams},1650493488,0
{consumergroup=__strimzi-topic-operator-kstreams},1650493493,0
{consumergroup=__strimzi-topic-operator-kstreams},1650493498,0
{consumergroup=__strimzi-topic-operator-kstreams},1650493503,0
{consumergroup=__strimzi-topic-operator-kstreams},1650493508,0
{consumergroup=__strimzi-topic-operator-kstreams},1650493513,0
{consumergroup=__strimzi-topic-operator-kstreams},1650493518,0
{consumergroup=__strimzi-topic-operator-kstreams},1650493523,0
{consumergroup=__strimzi-topic-operator-kstreams},1650493528,0
{consumergroup=__strimzi-topic-operator-kstreams},1650493533,0
{consumergroup=__strimzi-topic-operator-kstreams},1650493538,0
{consumergroup=__strimzi-topic-operator-kstreams},1650493543,0
{consumergroup=__strimzi-topic-operator-kstreams},1650493548,0
{consumergroup=__strimzi-topic-operator-kstreams},1650493553,0
{consumergroup=__strimzi-topic-operator-kstreams},1650493558,0
{consumergroup=__strimzi-topic-operator-kstreams},1650493563,0
