labels,timestamp,value
{consumergroup=__strimzi-topic-operator-kstreams},1650509260,16
{consumergroup=__strimzi-topic-operator-kstreams},1650509265,16
{consumergroup=__strimzi-topic-operator-kstreams},1650509270,16
{consumergroup=__strimzi-topic-operator-kstreams},1650509275,16
{consumergroup=__strimzi-topic-operator-kstreams},1650509280,16
{consumergroup=__strimzi-topic-operator-kstreams},1650509285,16
{consumergroup=__strimzi-topic-operator-kstreams},1650509290,0
{consumergroup=__strimzi-topic-operator-kstreams},1650509295,0
{consumergroup=__strimzi-topic-operator-kstreams},1650509300,0
{consumergroup=__strimzi-topic-operator-kstreams},1650509305,0
{consumergroup=__strimzi-topic-operator-kstreams},1650509310,0
{consumergroup=__strimzi-topic-operator-kstreams},1650509315,0
{consumergroup=__strimzi-topic-operator-kstreams},1650509320,0
{consumergroup=__strimzi-topic-operator-kstreams},1650509325,0
{consumergroup=__strimzi-topic-operator-kstreams},1650509330,0
{consumergroup=__strimzi-topic-operator-kstreams},1650509335,0
{consumergroup=__strimzi-topic-operator-kstreams},1650509340,0
{consumergroup=__strimzi-topic-operator-kstreams},1650509345,0
{consumergroup=__strimzi-topic-operator-kstreams},1650509350,0
{consumergroup=__strimzi-topic-operator-kstreams},1650509355,0
{consumergroup=__strimzi-topic-operator-kstreams},1650509360,0
{consumergroup=__strimzi-topic-operator-kstreams},1650509365,0
{consumergroup=__strimzi-topic-operator-kstreams},1650509370,0
{consumergroup=__strimzi-topic-operator-kstreams},1650509375,0
{consumergroup=__strimzi-topic-operator-kstreams},1650509380,0
{consumergroup=__strimzi-topic-operator-kstreams},1650509385,0
{consumergroup=__strimzi-topic-operator-kstreams},1650509390,0
{consumergroup=__strimzi-topic-operator-kstreams},1650509395,0
{consumergroup=__strimzi-topic-operator-kstreams},1650509400,0
{consumergroup=__strimzi-topic-operator-kstreams},1650509405,0
{consumergroup=__strimzi-topic-operator-kstreams},1650509410,0
{consumergroup=__strimzi-topic-operator-kstreams},1650509415,0
{consumergroup=__strimzi-topic-operator-kstreams},1650509420,0
{consumergroup=__strimzi-topic-operator-kstreams},1650509425,0
{consumergroup=__strimzi-topic-operator-kstreams},1650509430,0
{consumergroup=__strimzi-topic-operator-kstreams},1650509435,0
{consumergroup=__strimzi-topic-operator-kstreams},1650509440,0
{consumergroup=__strimzi-topic-operator-kstreams},1650509445,0
{consumergroup=__strimzi-topic-operator-kstreams},1650509450,0
{consumergroup=__strimzi-topic-operator-kstreams},1650509455,0
{consumergroup=__strimzi-topic-operator-kstreams},1650509460,0
{consumergroup=__strimzi-topic-operator-kstreams},1650509465,0
{consumergroup=__strimzi-topic-operator-kstreams},1650509470,0
{consumergroup=__strimzi-topic-operator-kstreams},1650509475,0
{consumergroup=__strimzi-topic-operator-kstreams},1650509480,0
{consumergroup=__strimzi-topic-operator-kstreams},1650509485,0
{consumergroup=__strimzi-topic-operator-kstreams},1650509490,0
{consumergroup=__strimzi-topic-operator-kstreams},1650509495,0
{consumergroup=__strimzi-topic-operator-kstreams},1650509500,0
{consumergroup=__strimzi-topic-operator-kstreams},1650509505,0
{consumergroup=__strimzi-topic-operator-kstreams},1650509510,0
{consumergroup=__strimzi-topic-operator-kstreams},1650509515,0
{consumergroup=__strimzi-topic-operator-kstreams},1650509520,0
{consumergroup=__strimzi-topic-operator-kstreams},1650509525,0
{consumergroup=__strimzi-topic-operator-kstreams},1650509530,0
{consumergroup=__strimzi-topic-operator-kstreams},1650509535,0
{consumergroup=__strimzi-topic-operator-kstreams},1650509540,0
{consumergroup=__strimzi-topic-operator-kstreams},1650509545,0
{consumergroup=__strimzi-topic-operator-kstreams},1650509550,0
{consumergroup=__strimzi-topic-operator-kstreams},1650509555,0
{consumergroup=__strimzi-topic-operator-kstreams},1650509560,0
{consumergroup=__strimzi-topic-operator-kstreams},1650509565,0
{consumergroup=__strimzi-topic-operator-kstreams},1650509570,0
{consumergroup=__strimzi-topic-operator-kstreams},1650509575,0
{consumergroup=__strimzi-topic-operator-kstreams},1650509580,0
{consumergroup=__strimzi-topic-operator-kstreams},1650509585,0
{consumergroup=__strimzi-topic-operator-kstreams},1650509590,0
{consumergroup=__strimzi-topic-operator-kstreams},1650509595,0
{consumergroup=__strimzi-topic-operator-kstreams},1650509600,0
{consumergroup=__strimzi-topic-operator-kstreams},1650509605,0
{consumergroup=__strimzi-topic-operator-kstreams},1650509610,0
{consumergroup=__strimzi-topic-operator-kstreams},1650509615,0
{consumergroup=__strimzi-topic-operator-kstreams},1650509620,0
{consumergroup=__strimzi-topic-operator-kstreams},1650509625,0
{consumergroup=__strimzi-topic-operator-kstreams},1650509630,0
{consumergroup=__strimzi-topic-operator-kstreams},1650509635,0
{consumergroup=__strimzi-topic-operator-kstreams},1650509640,0
{consumergroup=__strimzi-topic-operator-kstreams},1650509645,0
{consumergroup=__strimzi-topic-operator-kstreams},1650509650,0
{consumergroup=__strimzi-topic-operator-kstreams},1650509655,0
{consumergroup=__strimzi-topic-operator-kstreams},1650509660,0
{consumergroup=__strimzi-topic-operator-kstreams},1650509665,0
{consumergroup=__strimzi-topic-operator-kstreams},1650509670,0
{consumergroup=__strimzi-topic-operator-kstreams},1650509675,0
{consumergroup=__strimzi-topic-operator-kstreams},1650509680,0
{consumergroup=__strimzi-topic-operator-kstreams},1650509685,0
{consumergroup=__strimzi-topic-operator-kstreams},1650509690,0
{consumergroup=__strimzi-topic-operator-kstreams},1650509695,0
{consumergroup=__strimzi-topic-operator-kstreams},1650509700,0
{consumergroup=__strimzi-topic-operator-kstreams},1650509705,0
{consumergroup=__strimzi-topic-operator-kstreams},1650509710,0
{consumergroup=__strimzi-topic-operator-kstreams},1650509715,0
{consumergroup=__strimzi-topic-operator-kstreams},1650509720,0
{consumergroup=__strimzi-topic-operator-kstreams},1650509725,0
{consumergroup=__strimzi-topic-operator-kstreams},1650509730,0
{consumergroup=__strimzi-topic-operator-kstreams},1650509735,0
{consumergroup=__strimzi-topic-operator-kstreams},1650509740,0
{consumergroup=__strimzi-topic-operator-kstreams},1650509745,0
{consumergroup=__strimzi-topic-operator-kstreams},1650509750,0
