labels,timestamp,value
{consumergroup=__strimzi-topic-operator-kstreams},1650502774,9
{consumergroup=__strimzi-topic-operator-kstreams},1650502779,9
{consumergroup=__strimzi-topic-operator-kstreams},1650502784,9
{consumergroup=__strimzi-topic-operator-kstreams},1650502789,0
{consumergroup=__strimzi-topic-operator-kstreams},1650502794,0
{consumergroup=__strimzi-topic-operator-kstreams},1650502799,0
{consumergroup=__strimzi-topic-operator-kstreams},1650502804,0
{consumergroup=__strimzi-topic-operator-kstreams},1650502809,0
{consumergroup=__strimzi-topic-operator-kstreams},1650502814,0
{consumergroup=__strimzi-topic-operator-kstreams},1650502819,0
{consumergroup=__strimzi-topic-operator-kstreams},1650502824,0
{consumergroup=__strimzi-topic-operator-kstreams},1650502829,0
{consumergroup=__strimzi-topic-operator-kstreams},1650502834,0
{consumergroup=__strimzi-topic-operator-kstreams},1650502839,0
{consumergroup=__strimzi-topic-operator-kstreams},1650502844,0
{consumergroup=__strimzi-topic-operator-kstreams},1650502849,0
{consumergroup=__strimzi-topic-operator-kstreams},1650502854,0
{consumergroup=__strimzi-topic-operator-kstreams},1650502859,0
{consumergroup=__strimzi-topic-operator-kstreams},1650502864,0
{consumergroup=__strimzi-topic-operator-kstreams},1650502869,0
{consumergroup=__strimzi-topic-operator-kstreams},1650502874,0
{consumergroup=__strimzi-topic-operator-kstreams},1650502879,0
{consumergroup=__strimzi-topic-operator-kstreams},1650502884,0
{consumergroup=__strimzi-topic-operator-kstreams},1650502889,0
{consumergroup=__strimzi-topic-operator-kstreams},1650502894,0
{consumergroup=__strimzi-topic-operator-kstreams},1650502899,0
{consumergroup=__strimzi-topic-operator-kstreams},1650502904,0
{consumergroup=__strimzi-topic-operator-kstreams},1650502909,0
{consumergroup=__strimzi-topic-operator-kstreams},1650502914,0
{consumergroup=__strimzi-topic-operator-kstreams},1650502919,0
{consumergroup=__strimzi-topic-operator-kstreams},1650502924,0
{consumergroup=__strimzi-topic-operator-kstreams},1650502929,0
{consumergroup=__strimzi-topic-operator-kstreams},1650502934,0
{consumergroup=__strimzi-topic-operator-kstreams},1650502939,0
{consumergroup=__strimzi-topic-operator-kstreams},1650502944,0
{consumergroup=__strimzi-topic-operator-kstreams},1650502949,0
{consumergroup=__strimzi-topic-operator-kstreams},1650502954,0
{consumergroup=__strimzi-topic-operator-kstreams},1650502959,0
{consumergroup=__strimzi-topic-operator-kstreams},1650502964,0
{consumergroup=__strimzi-topic-operator-kstreams},1650502969,0
{consumergroup=__strimzi-topic-operator-kstreams},1650502974,0
{consumergroup=__strimzi-topic-operator-kstreams},1650502979,0
{consumergroup=__strimzi-topic-operator-kstreams},1650502984,0
{consumergroup=__strimzi-topic-operator-kstreams},1650502989,0
{consumergroup=__strimzi-topic-operator-kstreams},1650502994,0
{consumergroup=__strimzi-topic-operator-kstreams},1650502999,0
{consumergroup=__strimzi-topic-operator-kstreams},1650503004,0
{consumergroup=__strimzi-topic-operator-kstreams},1650503009,0
{consumergroup=__strimzi-topic-operator-kstreams},1650503014,0
{consumergroup=__strimzi-topic-operator-kstreams},1650503019,0
{consumergroup=__strimzi-topic-operator-kstreams},1650503024,0
{consumergroup=__strimzi-topic-operator-kstreams},1650503029,0
{consumergroup=__strimzi-topic-operator-kstreams},1650503034,0
{consumergroup=__strimzi-topic-operator-kstreams},1650503039,0
{consumergroup=__strimzi-topic-operator-kstreams},1650503044,0
{consumergroup=__strimzi-topic-operator-kstreams},1650503049,0
{consumergroup=__strimzi-topic-operator-kstreams},1650503054,0
{consumergroup=__strimzi-topic-operator-kstreams},1650503059,0
{consumergroup=__strimzi-topic-operator-kstreams},1650503064,0
{consumergroup=__strimzi-topic-operator-kstreams},1650503069,0
{consumergroup=__strimzi-topic-operator-kstreams},1650503074,0
{consumergroup=__strimzi-topic-operator-kstreams},1650503079,0
{consumergroup=__strimzi-topic-operator-kstreams},1650503084,0
{consumergroup=__strimzi-topic-operator-kstreams},1650503089,0
{consumergroup=__strimzi-topic-operator-kstreams},1650503094,0
{consumergroup=__strimzi-topic-operator-kstreams},1650503099,0
{consumergroup=__strimzi-topic-operator-kstreams},1650503104,0
{consumergroup=__strimzi-topic-operator-kstreams},1650503109,0
{consumergroup=__strimzi-topic-operator-kstreams},1650503114,0
{consumergroup=__strimzi-topic-operator-kstreams},1650503119,0
{consumergroup=__strimzi-topic-operator-kstreams},1650503124,0
{consumergroup=__strimzi-topic-operator-kstreams},1650503129,0
{consumergroup=__strimzi-topic-operator-kstreams},1650503134,0
{consumergroup=__strimzi-topic-operator-kstreams},1650503139,0
{consumergroup=__strimzi-topic-operator-kstreams},1650503144,0
{consumergroup=__strimzi-topic-operator-kstreams},1650503149,0
{consumergroup=__strimzi-topic-operator-kstreams},1650503154,0
{consumergroup=__strimzi-topic-operator-kstreams},1650503159,0
{consumergroup=__strimzi-topic-operator-kstreams},1650503164,0
{consumergroup=__strimzi-topic-operator-kstreams},1650503169,0
{consumergroup=__strimzi-topic-operator-kstreams},1650503174,0
{consumergroup=__strimzi-topic-operator-kstreams},1650503179,0
{consumergroup=__strimzi-topic-operator-kstreams},1650503184,0
{consumergroup=__strimzi-topic-operator-kstreams},1650503189,0
{consumergroup=__strimzi-topic-operator-kstreams},1650503194,0
{consumergroup=__strimzi-topic-operator-kstreams},1650503199,0
{consumergroup=__strimzi-topic-operator-kstreams},1650503204,0
{consumergroup=__strimzi-topic-operator-kstreams},1650503209,0
{consumergroup=__strimzi-topic-operator-kstreams},1650503214,0
{consumergroup=__strimzi-topic-operator-kstreams},1650503219,0
{consumergroup=__strimzi-topic-operator-kstreams},1650503224,0
{consumergroup=__strimzi-topic-operator-kstreams},1650503229,0
{consumergroup=__strimzi-topic-operator-kstreams},1650503234,0
{consumergroup=__strimzi-topic-operator-kstreams},1650503239,0
{consumergroup=__strimzi-topic-operator-kstreams},1650503244,0
{consumergroup=__strimzi-topic-operator-kstreams},1650503249,0
{consumergroup=__strimzi-topic-operator-kstreams},1650503254,0
{consumergroup=__strimzi-topic-operator-kstreams},1650503259,0
