labels,timestamp,value
{consumergroup=__strimzi-topic-operator-kstreams},1650560802,3
{consumergroup=__strimzi-topic-operator-kstreams},1650560807,3
{consumergroup=__strimzi-topic-operator-kstreams},1650560812,3
{consumergroup=__strimzi-topic-operator-kstreams},1650560817,8
{consumergroup=__strimzi-topic-operator-kstreams},1650560822,8
{consumergroup=__strimzi-topic-operator-kstreams},1650560827,8
{consumergroup=__strimzi-topic-operator-kstreams},1650560832,11
{consumergroup=__strimzi-topic-operator-kstreams},1650560837,11
{consumergroup=__strimzi-topic-operator-kstreams},1650560842,11
{consumergroup=__strimzi-topic-operator-kstreams},1650560847,0
{consumergroup=__strimzi-topic-operator-kstreams},1650560852,0
{consumergroup=__strimzi-topic-operator-kstreams},1650560857,0
{consumergroup=__strimzi-topic-operator-kstreams},1650560862,0
{consumergroup=__strimzi-topic-operator-kstreams},1650560867,0
{consumergroup=__strimzi-topic-operator-kstreams},1650560872,0
{consumergroup=__strimzi-topic-operator-kstreams},1650560877,0
{consumergroup=__strimzi-topic-operator-kstreams},1650560882,0
{consumergroup=__strimzi-topic-operator-kstreams},1650560887,0
{consumergroup=__strimzi-topic-operator-kstreams},1650560892,0
{consumergroup=__strimzi-topic-operator-kstreams},1650560897,0
{consumergroup=__strimzi-topic-operator-kstreams},1650560902,0
{consumergroup=__strimzi-topic-operator-kstreams},1650560907,0
{consumergroup=__strimzi-topic-operator-kstreams},1650560912,0
{consumergroup=__strimzi-topic-operator-kstreams},1650560917,0
{consumergroup=__strimzi-topic-operator-kstreams},1650560922,0
{consumergroup=__strimzi-topic-operator-kstreams},1650560927,0
{consumergroup=__strimzi-topic-operator-kstreams},1650560932,0
{consumergroup=__strimzi-topic-operator-kstreams},1650560937,0
{consumergroup=__strimzi-topic-operator-kstreams},1650560942,0
{consumergroup=__strimzi-topic-operator-kstreams},1650560947,0
{consumergroup=__strimzi-topic-operator-kstreams},1650560952,0
{consumergroup=__strimzi-topic-operator-kstreams},1650560957,0
{consumergroup=__strimzi-topic-operator-kstreams},1650560962,0
{consumergroup=__strimzi-topic-operator-kstreams},1650560967,0
{consumergroup=__strimzi-topic-operator-kstreams},1650560972,0
{consumergroup=__strimzi-topic-operator-kstreams},1650560977,0
{consumergroup=__strimzi-topic-operator-kstreams},1650560982,0
{consumergroup=__strimzi-topic-operator-kstreams},1650560987,0
{consumergroup=__strimzi-topic-operator-kstreams},1650560992,0
{consumergroup=__strimzi-topic-operator-kstreams},1650560997,0
{consumergroup=__strimzi-topic-operator-kstreams},1650561002,0
{consumergroup=__strimzi-topic-operator-kstreams},1650561007,0
{consumergroup=__strimzi-topic-operator-kstreams},1650561012,0
{consumergroup=__strimzi-topic-operator-kstreams},1650561017,0
{consumergroup=__strimzi-topic-operator-kstreams},1650561022,0
{consumergroup=__strimzi-topic-operator-kstreams},1650561027,0
{consumergroup=__strimzi-topic-operator-kstreams},1650561032,0
{consumergroup=__strimzi-topic-operator-kstreams},1650561037,0
{consumergroup=__strimzi-topic-operator-kstreams},1650561042,0
{consumergroup=__strimzi-topic-operator-kstreams},1650561047,0
{consumergroup=__strimzi-topic-operator-kstreams},1650561052,0
{consumergroup=__strimzi-topic-operator-kstreams},1650561057,0
{consumergroup=__strimzi-topic-operator-kstreams},1650561062,0
{consumergroup=__strimzi-topic-operator-kstreams},1650561067,0
{consumergroup=__strimzi-topic-operator-kstreams},1650561072,0
{consumergroup=__strimzi-topic-operator-kstreams},1650561077,0
{consumergroup=__strimzi-topic-operator-kstreams},1650561082,0
{consumergroup=__strimzi-topic-operator-kstreams},1650561087,0
{consumergroup=__strimzi-topic-operator-kstreams},1650561092,0
{consumergroup=__strimzi-topic-operator-kstreams},1650561097,0
{consumergroup=__strimzi-topic-operator-kstreams},1650561102,0
{consumergroup=__strimzi-topic-operator-kstreams},1650561107,0
{consumergroup=__strimzi-topic-operator-kstreams},1650561112,0
{consumergroup=__strimzi-topic-operator-kstreams},1650561117,0
{consumergroup=__strimzi-topic-operator-kstreams},1650561122,0
{consumergroup=__strimzi-topic-operator-kstreams},1650561127,0
{consumergroup=__strimzi-topic-operator-kstreams},1650561132,0
{consumergroup=__strimzi-topic-operator-kstreams},1650561137,0
{consumergroup=__strimzi-topic-operator-kstreams},1650561142,0
{consumergroup=__strimzi-topic-operator-kstreams},1650561147,0
{consumergroup=__strimzi-topic-operator-kstreams},1650561152,0
{consumergroup=__strimzi-topic-operator-kstreams},1650561157,0
{consumergroup=__strimzi-topic-operator-kstreams},1650561162,0
{consumergroup=__strimzi-topic-operator-kstreams},1650561167,0
{consumergroup=__strimzi-topic-operator-kstreams},1650561172,0
{consumergroup=__strimzi-topic-operator-kstreams},1650561177,0
{consumergroup=__strimzi-topic-operator-kstreams},1650561182,0
{consumergroup=__strimzi-topic-operator-kstreams},1650561187,0
{consumergroup=__strimzi-topic-operator-kstreams},1650561192,0
{consumergroup=__strimzi-topic-operator-kstreams},1650561197,0
{consumergroup=__strimzi-topic-operator-kstreams},1650561202,0
{consumergroup=__strimzi-topic-operator-kstreams},1650561207,0
{consumergroup=__strimzi-topic-operator-kstreams},1650561212,0
{consumergroup=__strimzi-topic-operator-kstreams},1650561217,0
{consumergroup=__strimzi-topic-operator-kstreams},1650561222,0
{consumergroup=__strimzi-topic-operator-kstreams},1650561227,0
{consumergroup=__strimzi-topic-operator-kstreams},1650561232,0
{consumergroup=__strimzi-topic-operator-kstreams},1650561237,0
{consumergroup=__strimzi-topic-operator-kstreams},1650561242,0
{consumergroup=__strimzi-topic-operator-kstreams},1650561247,0
{consumergroup=__strimzi-topic-operator-kstreams},1650561252,0
{consumergroup=__strimzi-topic-operator-kstreams},1650561257,0
{consumergroup=__strimzi-topic-operator-kstreams},1650561262,0
{consumergroup=__strimzi-topic-operator-kstreams},1650561267,0
{consumergroup=__strimzi-topic-operator-kstreams},1650561272,0
{consumergroup=__strimzi-topic-operator-kstreams},1650561277,0
{consumergroup=__strimzi-topic-operator-kstreams},1650561282,0
{consumergroup=__strimzi-topic-operator-kstreams},1650561287,0
{consumergroup=__strimzi-topic-operator-kstreams},1650561292,0
{consumergroup=__strimzi-topic-operator-kstreams},1650561297,0
{consumergroup=__strimzi-topic-operator-kstreams},1650561302,0
