labels,timestamp,value
{consumergroup=__strimzi-topic-operator-kstreams},1650522096,26
{consumergroup=__strimzi-topic-operator-kstreams},1650522101,26
{consumergroup=__strimzi-topic-operator-kstreams},1650522106,26
{consumergroup=__strimzi-topic-operator-kstreams},1650522111,0
{consumergroup=__strimzi-topic-operator-kstreams},1650522116,0
{consumergroup=__strimzi-topic-operator-kstreams},1650522121,0
{consumergroup=__strimzi-topic-operator-kstreams},1650522126,0
{consumergroup=__strimzi-topic-operator-kstreams},1650522131,0
{consumergroup=__strimzi-topic-operator-kstreams},1650522136,0
{consumergroup=__strimzi-topic-operator-kstreams},1650522141,0
{consumergroup=__strimzi-topic-operator-kstreams},1650522146,0
{consumergroup=__strimzi-topic-operator-kstreams},1650522151,0
{consumergroup=__strimzi-topic-operator-kstreams},1650522156,0
{consumergroup=__strimzi-topic-operator-kstreams},1650522161,0
{consumergroup=__strimzi-topic-operator-kstreams},1650522166,0
{consumergroup=__strimzi-topic-operator-kstreams},1650522171,0
{consumergroup=__strimzi-topic-operator-kstreams},1650522176,0
{consumergroup=__strimzi-topic-operator-kstreams},1650522181,0
{consumergroup=__strimzi-topic-operator-kstreams},1650522186,0
{consumergroup=__strimzi-topic-operator-kstreams},1650522191,0
{consumergroup=__strimzi-topic-operator-kstreams},1650522196,0
{consumergroup=__strimzi-topic-operator-kstreams},1650522201,0
{consumergroup=__strimzi-topic-operator-kstreams},1650522206,0
{consumergroup=__strimzi-topic-operator-kstreams},1650522211,0
{consumergroup=__strimzi-topic-operator-kstreams},1650522216,0
{consumergroup=__strimzi-topic-operator-kstreams},1650522221,0
{consumergroup=__strimzi-topic-operator-kstreams},1650522226,0
{consumergroup=__strimzi-topic-operator-kstreams},1650522231,0
{consumergroup=__strimzi-topic-operator-kstreams},1650522236,0
{consumergroup=__strimzi-topic-operator-kstreams},1650522241,0
{consumergroup=__strimzi-topic-operator-kstreams},1650522246,0
{consumergroup=__strimzi-topic-operator-kstreams},1650522251,0
{consumergroup=__strimzi-topic-operator-kstreams},1650522256,0
{consumergroup=__strimzi-topic-operator-kstreams},1650522261,0
{consumergroup=__strimzi-topic-operator-kstreams},1650522266,0
{consumergroup=__strimzi-topic-operator-kstreams},1650522271,0
{consumergroup=__strimzi-topic-operator-kstreams},1650522276,0
{consumergroup=__strimzi-topic-operator-kstreams},1650522281,0
{consumergroup=__strimzi-topic-operator-kstreams},1650522286,0
{consumergroup=__strimzi-topic-operator-kstreams},1650522291,0
{consumergroup=__strimzi-topic-operator-kstreams},1650522296,0
{consumergroup=__strimzi-topic-operator-kstreams},1650522301,0
{consumergroup=__strimzi-topic-operator-kstreams},1650522306,0
{consumergroup=__strimzi-topic-operator-kstreams},1650522311,0
{consumergroup=__strimzi-topic-operator-kstreams},1650522316,0
{consumergroup=__strimzi-topic-operator-kstreams},1650522321,0
{consumergroup=__strimzi-topic-operator-kstreams},1650522326,0
{consumergroup=__strimzi-topic-operator-kstreams},1650522331,0
{consumergroup=__strimzi-topic-operator-kstreams},1650522336,0
{consumergroup=__strimzi-topic-operator-kstreams},1650522341,0
{consumergroup=__strimzi-topic-operator-kstreams},1650522346,0
{consumergroup=__strimzi-topic-operator-kstreams},1650522351,0
{consumergroup=__strimzi-topic-operator-kstreams},1650522356,0
{consumergroup=__strimzi-topic-operator-kstreams},1650522361,0
{consumergroup=__strimzi-topic-operator-kstreams},1650522366,0
{consumergroup=__strimzi-topic-operator-kstreams},1650522371,0
{consumergroup=__strimzi-topic-operator-kstreams},1650522376,0
{consumergroup=__strimzi-topic-operator-kstreams},1650522381,0
{consumergroup=__strimzi-topic-operator-kstreams},1650522386,0
{consumergroup=__strimzi-topic-operator-kstreams},1650522391,0
{consumergroup=__strimzi-topic-operator-kstreams},1650522396,0
{consumergroup=__strimzi-topic-operator-kstreams},1650522401,0
{consumergroup=__strimzi-topic-operator-kstreams},1650522406,0
{consumergroup=__strimzi-topic-operator-kstreams},1650522411,0
{consumergroup=__strimzi-topic-operator-kstreams},1650522416,0
{consumergroup=__strimzi-topic-operator-kstreams},1650522421,0
{consumergroup=__strimzi-topic-operator-kstreams},1650522426,0
{consumergroup=__strimzi-topic-operator-kstreams},1650522431,0
{consumergroup=__strimzi-topic-operator-kstreams},1650522436,0
{consumergroup=__strimzi-topic-operator-kstreams},1650522441,0
{consumergroup=__strimzi-topic-operator-kstreams},1650522446,0
{consumergroup=__strimzi-topic-operator-kstreams},1650522451,0
{consumergroup=__strimzi-topic-operator-kstreams},1650522456,0
{consumergroup=__strimzi-topic-operator-kstreams},1650522461,0
{consumergroup=__strimzi-topic-operator-kstreams},1650522466,0
{consumergroup=__strimzi-topic-operator-kstreams},1650522471,0
{consumergroup=__strimzi-topic-operator-kstreams},1650522476,0
{consumergroup=__strimzi-topic-operator-kstreams},1650522481,0
{consumergroup=__strimzi-topic-operator-kstreams},1650522486,0
{consumergroup=__strimzi-topic-operator-kstreams},1650522491,0
{consumergroup=__strimzi-topic-operator-kstreams},1650522496,0
{consumergroup=__strimzi-topic-operator-kstreams},1650522501,0
{consumergroup=__strimzi-topic-operator-kstreams},1650522506,0
{consumergroup=__strimzi-topic-operator-kstreams},1650522511,0
{consumergroup=__strimzi-topic-operator-kstreams},1650522516,0
{consumergroup=__strimzi-topic-operator-kstreams},1650522521,0
{consumergroup=__strimzi-topic-operator-kstreams},1650522526,0
{consumergroup=__strimzi-topic-operator-kstreams},1650522531,0
{consumergroup=__strimzi-topic-operator-kstreams},1650522536,0
{consumergroup=__strimzi-topic-operator-kstreams},1650522541,0
{consumergroup=__strimzi-topic-operator-kstreams},1650522546,0
{consumergroup=__strimzi-topic-operator-kstreams},1650522551,0
{consumergroup=__strimzi-topic-operator-kstreams},1650522556,0
{consumergroup=__strimzi-topic-operator-kstreams},1650522561,0
{consumergroup=__strimzi-topic-operator-kstreams},1650522566,0
{consumergroup=__strimzi-topic-operator-kstreams},1650522571,0
{consumergroup=__strimzi-topic-operator-kstreams},1650522576,0
