labels,timestamp,value
{},1650559671,0
{},1650559676,0
{},1650559681,0
{},1650559686,0
{},1650559691,0
{},1650559696,0
{},1650559701,0
{},1650559706,0
{},1650559711,0
{},1650559716,0
{},1650559721,0
{},1650559726,0
{},1650559731,0
{},1650559736,0
{},1650559741,0
