labels,timestamp,value
{},1650548331,0
{},1650548336,0
{},1650548341,0
{},1650548346,0
{},1650548351,0
{},1650548356,0
{},1650548361,0
{},1650548366,0
{},1650548371,0
{},1650548376,0
{},1650548381,0
{},1650548386,0
{},1650548391,0
{},1650548396,0
{},1650548401,0
