labels,timestamp,value
{consumergroup=__strimzi-topic-operator-kstreams},1650563653,3
{consumergroup=__strimzi-topic-operator-kstreams},1650563658,3
{consumergroup=__strimzi-topic-operator-kstreams},1650563663,3
{consumergroup=__strimzi-topic-operator-kstreams},1650563668,0
{consumergroup=__strimzi-topic-operator-kstreams},1650563673,0
{consumergroup=__strimzi-topic-operator-kstreams},1650563678,0
{consumergroup=__strimzi-topic-operator-kstreams},1650563683,2
{consumergroup=__strimzi-topic-operator-kstreams},1650563688,2
{consumergroup=__strimzi-topic-operator-kstreams},1650563693,2
{consumergroup=__strimzi-topic-operator-kstreams},1650563698,0
{consumergroup=__strimzi-topic-operator-kstreams},1650563703,0
{consumergroup=__strimzi-topic-operator-kstreams},1650563708,0
{consumergroup=__strimzi-topic-operator-kstreams},1650563713,0
{consumergroup=__strimzi-topic-operator-kstreams},1650563718,0
{consumergroup=__strimzi-topic-operator-kstreams},1650563723,0
{consumergroup=__strimzi-topic-operator-kstreams},1650563728,0
{consumergroup=__strimzi-topic-operator-kstreams},1650563733,0
{consumergroup=__strimzi-topic-operator-kstreams},1650563738,0
{consumergroup=__strimzi-topic-operator-kstreams},1650563743,0
{consumergroup=__strimzi-topic-operator-kstreams},1650563748,0
{consumergroup=__strimzi-topic-operator-kstreams},1650563753,0
{consumergroup=__strimzi-topic-operator-kstreams},1650563758,0
{consumergroup=__strimzi-topic-operator-kstreams},1650563763,0
{consumergroup=__strimzi-topic-operator-kstreams},1650563768,0
{consumergroup=__strimzi-topic-operator-kstreams},1650563773,0
{consumergroup=__strimzi-topic-operator-kstreams},1650563778,0
{consumergroup=__strimzi-topic-operator-kstreams},1650563783,0
{consumergroup=__strimzi-topic-operator-kstreams},1650563788,0
{consumergroup=__strimzi-topic-operator-kstreams},1650563793,0
{consumergroup=__strimzi-topic-operator-kstreams},1650563798,0
{consumergroup=__strimzi-topic-operator-kstreams},1650563803,0
{consumergroup=__strimzi-topic-operator-kstreams},1650563808,0
{consumergroup=__strimzi-topic-operator-kstreams},1650563813,0
{consumergroup=__strimzi-topic-operator-kstreams},1650563818,0
{consumergroup=__strimzi-topic-operator-kstreams},1650563823,0
{consumergroup=__strimzi-topic-operator-kstreams},1650563828,0
{consumergroup=__strimzi-topic-operator-kstreams},1650563833,0
{consumergroup=__strimzi-topic-operator-kstreams},1650563838,0
{consumergroup=__strimzi-topic-operator-kstreams},1650563843,0
{consumergroup=__strimzi-topic-operator-kstreams},1650563848,0
{consumergroup=__strimzi-topic-operator-kstreams},1650563853,0
{consumergroup=__strimzi-topic-operator-kstreams},1650563858,0
{consumergroup=__strimzi-topic-operator-kstreams},1650563863,0
{consumergroup=__strimzi-topic-operator-kstreams},1650563868,0
{consumergroup=__strimzi-topic-operator-kstreams},1650563873,0
{consumergroup=__strimzi-topic-operator-kstreams},1650563878,0
{consumergroup=__strimzi-topic-operator-kstreams},1650563883,0
{consumergroup=__strimzi-topic-operator-kstreams},1650563888,0
{consumergroup=__strimzi-topic-operator-kstreams},1650563893,0
{consumergroup=__strimzi-topic-operator-kstreams},1650563898,0
{consumergroup=__strimzi-topic-operator-kstreams},1650563903,0
{consumergroup=__strimzi-topic-operator-kstreams},1650563908,0
{consumergroup=__strimzi-topic-operator-kstreams},1650563913,0
{consumergroup=__strimzi-topic-operator-kstreams},1650563918,0
{consumergroup=__strimzi-topic-operator-kstreams},1650563923,0
{consumergroup=__strimzi-topic-operator-kstreams},1650563928,0
{consumergroup=__strimzi-topic-operator-kstreams},1650563933,0
{consumergroup=__strimzi-topic-operator-kstreams},1650563938,0
{consumergroup=__strimzi-topic-operator-kstreams},1650563943,0
{consumergroup=__strimzi-topic-operator-kstreams},1650563948,0
{consumergroup=__strimzi-topic-operator-kstreams},1650563953,0
{consumergroup=__strimzi-topic-operator-kstreams},1650563958,0
{consumergroup=__strimzi-topic-operator-kstreams},1650563963,0
{consumergroup=__strimzi-topic-operator-kstreams},1650563968,0
{consumergroup=__strimzi-topic-operator-kstreams},1650563973,0
{consumergroup=__strimzi-topic-operator-kstreams},1650563978,0
{consumergroup=__strimzi-topic-operator-kstreams},1650563983,0
{consumergroup=__strimzi-topic-operator-kstreams},1650563988,0
{consumergroup=__strimzi-topic-operator-kstreams},1650563993,0
{consumergroup=__strimzi-topic-operator-kstreams},1650563998,0
{consumergroup=__strimzi-topic-operator-kstreams},1650564003,0
{consumergroup=__strimzi-topic-operator-kstreams},1650564008,0
{consumergroup=__strimzi-topic-operator-kstreams},1650564013,0
{consumergroup=__strimzi-topic-operator-kstreams},1650564018,0
{consumergroup=__strimzi-topic-operator-kstreams},1650564023,0
{consumergroup=__strimzi-topic-operator-kstreams},1650564028,0
{consumergroup=__strimzi-topic-operator-kstreams},1650564033,0
{consumergroup=__strimzi-topic-operator-kstreams},1650564038,0
{consumergroup=__strimzi-topic-operator-kstreams},1650564043,0
{consumergroup=__strimzi-topic-operator-kstreams},1650564048,0
{consumergroup=__strimzi-topic-operator-kstreams},1650564053,0
{consumergroup=__strimzi-topic-operator-kstreams},1650564058,0
{consumergroup=__strimzi-topic-operator-kstreams},1650564063,0
{consumergroup=__strimzi-topic-operator-kstreams},1650564068,0
{consumergroup=__strimzi-topic-operator-kstreams},1650564073,0
{consumergroup=__strimzi-topic-operator-kstreams},1650564078,0
{consumergroup=__strimzi-topic-operator-kstreams},1650564083,0
{consumergroup=__strimzi-topic-operator-kstreams},1650564088,0
{consumergroup=__strimzi-topic-operator-kstreams},1650564093,0
{consumergroup=__strimzi-topic-operator-kstreams},1650564098,0
{consumergroup=__strimzi-topic-operator-kstreams},1650564103,0
{consumergroup=__strimzi-topic-operator-kstreams},1650564108,0
{consumergroup=__strimzi-topic-operator-kstreams},1650564113,0
{consumergroup=__strimzi-topic-operator-kstreams},1650564118,0
{consumergroup=__strimzi-topic-operator-kstreams},1650564123,0
{consumergroup=__strimzi-topic-operator-kstreams},1650564128,0
{consumergroup=__strimzi-topic-operator-kstreams},1650564133,0
{consumergroup=__strimzi-topic-operator-kstreams},1650564138,0
{consumergroup=__strimzi-topic-operator-kstreams},1650564143,0
{consumergroup=__strimzi-topic-operator-kstreams},1650564148,0
{consumergroup=__strimzi-topic-operator-kstreams},1650564153,0
