labels,timestamp,value
{consumergroup=__strimzi-topic-operator-kstreams},1650529067,14
{consumergroup=__strimzi-topic-operator-kstreams},1650529072,14
{consumergroup=__strimzi-topic-operator-kstreams},1650529077,14
{consumergroup=__strimzi-topic-operator-kstreams},1650529082,0
{consumergroup=__strimzi-topic-operator-kstreams},1650529087,0
{consumergroup=__strimzi-topic-operator-kstreams},1650529092,0
{consumergroup=__strimzi-topic-operator-kstreams},1650529097,0
{consumergroup=__strimzi-topic-operator-kstreams},1650529102,0
{consumergroup=__strimzi-topic-operator-kstreams},1650529107,0
{consumergroup=__strimzi-topic-operator-kstreams},1650529112,0
{consumergroup=__strimzi-topic-operator-kstreams},1650529117,0
{consumergroup=__strimzi-topic-operator-kstreams},1650529122,0
{consumergroup=__strimzi-topic-operator-kstreams},1650529127,0
{consumergroup=__strimzi-topic-operator-kstreams},1650529132,0
{consumergroup=__strimzi-topic-operator-kstreams},1650529137,0
{consumergroup=__strimzi-topic-operator-kstreams},1650529142,0
{consumergroup=__strimzi-topic-operator-kstreams},1650529147,0
{consumergroup=__strimzi-topic-operator-kstreams},1650529152,0
{consumergroup=__strimzi-topic-operator-kstreams},1650529157,0
{consumergroup=__strimzi-topic-operator-kstreams},1650529162,0
{consumergroup=__strimzi-topic-operator-kstreams},1650529167,0
{consumergroup=__strimzi-topic-operator-kstreams},1650529172,0
{consumergroup=__strimzi-topic-operator-kstreams},1650529177,0
{consumergroup=__strimzi-topic-operator-kstreams},1650529182,0
{consumergroup=__strimzi-topic-operator-kstreams},1650529187,0
{consumergroup=__strimzi-topic-operator-kstreams},1650529192,0
{consumergroup=__strimzi-topic-operator-kstreams},1650529197,0
{consumergroup=__strimzi-topic-operator-kstreams},1650529202,0
{consumergroup=__strimzi-topic-operator-kstreams},1650529207,0
{consumergroup=__strimzi-topic-operator-kstreams},1650529212,0
{consumergroup=__strimzi-topic-operator-kstreams},1650529217,0
{consumergroup=__strimzi-topic-operator-kstreams},1650529222,0
{consumergroup=__strimzi-topic-operator-kstreams},1650529227,0
{consumergroup=__strimzi-topic-operator-kstreams},1650529232,0
{consumergroup=__strimzi-topic-operator-kstreams},1650529237,0
{consumergroup=__strimzi-topic-operator-kstreams},1650529242,0
{consumergroup=__strimzi-topic-operator-kstreams},1650529247,0
{consumergroup=__strimzi-topic-operator-kstreams},1650529252,0
{consumergroup=__strimzi-topic-operator-kstreams},1650529257,0
{consumergroup=__strimzi-topic-operator-kstreams},1650529262,0
{consumergroup=__strimzi-topic-operator-kstreams},1650529267,0
{consumergroup=__strimzi-topic-operator-kstreams},1650529272,0
{consumergroup=__strimzi-topic-operator-kstreams},1650529277,0
{consumergroup=__strimzi-topic-operator-kstreams},1650529282,0
{consumergroup=__strimzi-topic-operator-kstreams},1650529287,0
{consumergroup=__strimzi-topic-operator-kstreams},1650529292,0
{consumergroup=__strimzi-topic-operator-kstreams},1650529297,0
{consumergroup=__strimzi-topic-operator-kstreams},1650529302,0
{consumergroup=__strimzi-topic-operator-kstreams},1650529307,0
{consumergroup=__strimzi-topic-operator-kstreams},1650529312,0
{consumergroup=__strimzi-topic-operator-kstreams},1650529317,0
{consumergroup=__strimzi-topic-operator-kstreams},1650529322,0
{consumergroup=__strimzi-topic-operator-kstreams},1650529327,0
{consumergroup=__strimzi-topic-operator-kstreams},1650529332,0
{consumergroup=__strimzi-topic-operator-kstreams},1650529337,0
{consumergroup=__strimzi-topic-operator-kstreams},1650529342,0
{consumergroup=__strimzi-topic-operator-kstreams},1650529347,0
{consumergroup=__strimzi-topic-operator-kstreams},1650529352,0
{consumergroup=__strimzi-topic-operator-kstreams},1650529357,0
{consumergroup=__strimzi-topic-operator-kstreams},1650529362,0
{consumergroup=__strimzi-topic-operator-kstreams},1650529367,0
{consumergroup=__strimzi-topic-operator-kstreams},1650529372,0
{consumergroup=__strimzi-topic-operator-kstreams},1650529377,0
{consumergroup=__strimzi-topic-operator-kstreams},1650529382,0
{consumergroup=__strimzi-topic-operator-kstreams},1650529387,0
{consumergroup=__strimzi-topic-operator-kstreams},1650529392,0
{consumergroup=__strimzi-topic-operator-kstreams},1650529397,0
{consumergroup=__strimzi-topic-operator-kstreams},1650529402,0
{consumergroup=__strimzi-topic-operator-kstreams},1650529407,0
{consumergroup=__strimzi-topic-operator-kstreams},1650529412,0
{consumergroup=__strimzi-topic-operator-kstreams},1650529417,0
{consumergroup=__strimzi-topic-operator-kstreams},1650529422,0
{consumergroup=__strimzi-topic-operator-kstreams},1650529427,0
{consumergroup=__strimzi-topic-operator-kstreams},1650529432,0
{consumergroup=__strimzi-topic-operator-kstreams},1650529437,0
{consumergroup=__strimzi-topic-operator-kstreams},1650529442,0
{consumergroup=__strimzi-topic-operator-kstreams},1650529447,0
{consumergroup=__strimzi-topic-operator-kstreams},1650529452,0
{consumergroup=__strimzi-topic-operator-kstreams},1650529457,0
{consumergroup=__strimzi-topic-operator-kstreams},1650529462,0
{consumergroup=__strimzi-topic-operator-kstreams},1650529467,0
{consumergroup=__strimzi-topic-operator-kstreams},1650529472,0
{consumergroup=__strimzi-topic-operator-kstreams},1650529477,0
{consumergroup=__strimzi-topic-operator-kstreams},1650529482,0
{consumergroup=__strimzi-topic-operator-kstreams},1650529487,0
{consumergroup=__strimzi-topic-operator-kstreams},1650529492,0
{consumergroup=__strimzi-topic-operator-kstreams},1650529497,0
{consumergroup=__strimzi-topic-operator-kstreams},1650529502,0
{consumergroup=__strimzi-topic-operator-kstreams},1650529507,0
{consumergroup=__strimzi-topic-operator-kstreams},1650529512,0
{consumergroup=__strimzi-topic-operator-kstreams},1650529517,0
{consumergroup=__strimzi-topic-operator-kstreams},1650529522,0
{consumergroup=__strimzi-topic-operator-kstreams},1650529527,0
{consumergroup=__strimzi-topic-operator-kstreams},1650529532,0
{consumergroup=__strimzi-topic-operator-kstreams},1650529537,0
{consumergroup=__strimzi-topic-operator-kstreams},1650529542,0
{consumergroup=__strimzi-topic-operator-kstreams},1650529547,0
{consumergroup=__strimzi-topic-operator-kstreams},1650529552,0
{consumergroup=__strimzi-topic-operator-kstreams},1650529557,0
