labels,timestamp,value
{consumergroup=__strimzi-topic-operator-kstreams},1650508720,16
{consumergroup=__strimzi-topic-operator-kstreams},1650508725,16
{consumergroup=__strimzi-topic-operator-kstreams},1650508730,16
{consumergroup=__strimzi-topic-operator-kstreams},1650508735,16
{consumergroup=__strimzi-topic-operator-kstreams},1650508740,16
{consumergroup=__strimzi-topic-operator-kstreams},1650508745,16
{consumergroup=__strimzi-topic-operator-kstreams},1650508750,0
{consumergroup=__strimzi-topic-operator-kstreams},1650508755,0
{consumergroup=__strimzi-topic-operator-kstreams},1650508760,0
{consumergroup=__strimzi-topic-operator-kstreams},1650508765,0
{consumergroup=__strimzi-topic-operator-kstreams},1650508770,0
{consumergroup=__strimzi-topic-operator-kstreams},1650508775,0
{consumergroup=__strimzi-topic-operator-kstreams},1650508780,0
{consumergroup=__strimzi-topic-operator-kstreams},1650508785,0
{consumergroup=__strimzi-topic-operator-kstreams},1650508790,0
{consumergroup=__strimzi-topic-operator-kstreams},1650508795,0
{consumergroup=__strimzi-topic-operator-kstreams},1650508800,0
{consumergroup=__strimzi-topic-operator-kstreams},1650508805,0
{consumergroup=__strimzi-topic-operator-kstreams},1650508810,0
{consumergroup=__strimzi-topic-operator-kstreams},1650508815,0
{consumergroup=__strimzi-topic-operator-kstreams},1650508820,0
{consumergroup=__strimzi-topic-operator-kstreams},1650508825,0
{consumergroup=__strimzi-topic-operator-kstreams},1650508830,0
{consumergroup=__strimzi-topic-operator-kstreams},1650508835,0
{consumergroup=__strimzi-topic-operator-kstreams},1650508840,0
{consumergroup=__strimzi-topic-operator-kstreams},1650508845,0
{consumergroup=__strimzi-topic-operator-kstreams},1650508850,0
{consumergroup=__strimzi-topic-operator-kstreams},1650508855,0
{consumergroup=__strimzi-topic-operator-kstreams},1650508860,0
{consumergroup=__strimzi-topic-operator-kstreams},1650508865,0
{consumergroup=__strimzi-topic-operator-kstreams},1650508870,0
{consumergroup=__strimzi-topic-operator-kstreams},1650508875,0
{consumergroup=__strimzi-topic-operator-kstreams},1650508880,0
{consumergroup=__strimzi-topic-operator-kstreams},1650508885,0
{consumergroup=__strimzi-topic-operator-kstreams},1650508890,0
{consumergroup=__strimzi-topic-operator-kstreams},1650508895,0
{consumergroup=__strimzi-topic-operator-kstreams},1650508900,0
{consumergroup=__strimzi-topic-operator-kstreams},1650508905,0
{consumergroup=__strimzi-topic-operator-kstreams},1650508910,0
{consumergroup=__strimzi-topic-operator-kstreams},1650508915,0
{consumergroup=__strimzi-topic-operator-kstreams},1650508920,0
{consumergroup=__strimzi-topic-operator-kstreams},1650508925,0
{consumergroup=__strimzi-topic-operator-kstreams},1650508930,0
{consumergroup=__strimzi-topic-operator-kstreams},1650508935,0
{consumergroup=__strimzi-topic-operator-kstreams},1650508940,0
{consumergroup=__strimzi-topic-operator-kstreams},1650508945,0
{consumergroup=__strimzi-topic-operator-kstreams},1650508950,0
{consumergroup=__strimzi-topic-operator-kstreams},1650508955,0
{consumergroup=__strimzi-topic-operator-kstreams},1650508960,0
{consumergroup=__strimzi-topic-operator-kstreams},1650508965,0
{consumergroup=__strimzi-topic-operator-kstreams},1650508970,0
{consumergroup=__strimzi-topic-operator-kstreams},1650508975,0
{consumergroup=__strimzi-topic-operator-kstreams},1650508980,0
{consumergroup=__strimzi-topic-operator-kstreams},1650508985,0
{consumergroup=__strimzi-topic-operator-kstreams},1650508990,0
{consumergroup=__strimzi-topic-operator-kstreams},1650508995,0
{consumergroup=__strimzi-topic-operator-kstreams},1650509000,0
{consumergroup=__strimzi-topic-operator-kstreams},1650509005,0
{consumergroup=__strimzi-topic-operator-kstreams},1650509010,0
{consumergroup=__strimzi-topic-operator-kstreams},1650509015,0
{consumergroup=__strimzi-topic-operator-kstreams},1650509020,0
{consumergroup=__strimzi-topic-operator-kstreams},1650509025,0
{consumergroup=__strimzi-topic-operator-kstreams},1650509030,0
{consumergroup=__strimzi-topic-operator-kstreams},1650509035,0
{consumergroup=__strimzi-topic-operator-kstreams},1650509040,0
{consumergroup=__strimzi-topic-operator-kstreams},1650509045,0
{consumergroup=__strimzi-topic-operator-kstreams},1650509050,0
{consumergroup=__strimzi-topic-operator-kstreams},1650509055,0
{consumergroup=__strimzi-topic-operator-kstreams},1650509060,0
{consumergroup=__strimzi-topic-operator-kstreams},1650509065,0
{consumergroup=__strimzi-topic-operator-kstreams},1650509070,0
{consumergroup=__strimzi-topic-operator-kstreams},1650509075,0
{consumergroup=__strimzi-topic-operator-kstreams},1650509080,0
{consumergroup=__strimzi-topic-operator-kstreams},1650509085,0
{consumergroup=__strimzi-topic-operator-kstreams},1650509090,0
{consumergroup=__strimzi-topic-operator-kstreams},1650509095,0
{consumergroup=__strimzi-topic-operator-kstreams},1650509100,0
{consumergroup=__strimzi-topic-operator-kstreams},1650509105,0
{consumergroup=__strimzi-topic-operator-kstreams},1650509110,0
{consumergroup=__strimzi-topic-operator-kstreams},1650509115,0
{consumergroup=__strimzi-topic-operator-kstreams},1650509120,0
{consumergroup=__strimzi-topic-operator-kstreams},1650509125,0
{consumergroup=__strimzi-topic-operator-kstreams},1650509130,0
{consumergroup=__strimzi-topic-operator-kstreams},1650509135,0
{consumergroup=__strimzi-topic-operator-kstreams},1650509140,0
{consumergroup=__strimzi-topic-operator-kstreams},1650509145,0
{consumergroup=__strimzi-topic-operator-kstreams},1650509150,0
{consumergroup=__strimzi-topic-operator-kstreams},1650509155,0
{consumergroup=__strimzi-topic-operator-kstreams},1650509160,0
{consumergroup=__strimzi-topic-operator-kstreams},1650509165,0
{consumergroup=__strimzi-topic-operator-kstreams},1650509170,0
{consumergroup=__strimzi-topic-operator-kstreams},1650509175,0
{consumergroup=__strimzi-topic-operator-kstreams},1650509180,0
{consumergroup=__strimzi-topic-operator-kstreams},1650509185,0
{consumergroup=__strimzi-topic-operator-kstreams},1650509190,0
{consumergroup=__strimzi-topic-operator-kstreams},1650509195,0
{consumergroup=__strimzi-topic-operator-kstreams},1650509200,0
{consumergroup=__strimzi-topic-operator-kstreams},1650509205,0
{consumergroup=__strimzi-topic-operator-kstreams},1650509210,0
