labels,timestamp,value
{consumergroup=__strimzi-topic-operator-kstreams},1650521017,0
{consumergroup=__strimzi-topic-operator-kstreams},1650521022,0
{consumergroup=__strimzi-topic-operator-kstreams},1650521027,0
{consumergroup=__strimzi-topic-operator-kstreams},1650521032,0
{consumergroup=__strimzi-topic-operator-kstreams},1650521037,0
{consumergroup=__strimzi-topic-operator-kstreams},1650521042,0
{consumergroup=__strimzi-topic-operator-kstreams},1650521047,0
{consumergroup=__strimzi-topic-operator-kstreams},1650521052,0
{consumergroup=__strimzi-topic-operator-kstreams},1650521057,0
{consumergroup=__strimzi-topic-operator-kstreams},1650521062,0
{consumergroup=__strimzi-topic-operator-kstreams},1650521067,0
{consumergroup=__strimzi-topic-operator-kstreams},1650521072,0
{consumergroup=__strimzi-topic-operator-kstreams},1650521077,0
{consumergroup=__strimzi-topic-operator-kstreams},1650521082,0
{consumergroup=__strimzi-topic-operator-kstreams},1650521087,0
{consumergroup=__strimzi-topic-operator-kstreams},1650521092,0
{consumergroup=__strimzi-topic-operator-kstreams},1650521097,0
{consumergroup=__strimzi-topic-operator-kstreams},1650521102,0
{consumergroup=__strimzi-topic-operator-kstreams},1650521107,0
{consumergroup=__strimzi-topic-operator-kstreams},1650521112,0
{consumergroup=__strimzi-topic-operator-kstreams},1650521117,0
{consumergroup=__strimzi-topic-operator-kstreams},1650521122,0
{consumergroup=__strimzi-topic-operator-kstreams},1650521127,0
{consumergroup=__strimzi-topic-operator-kstreams},1650521132,0
{consumergroup=__strimzi-topic-operator-kstreams},1650521137,0
{consumergroup=__strimzi-topic-operator-kstreams},1650521142,0
{consumergroup=__strimzi-topic-operator-kstreams},1650521147,0
{consumergroup=__strimzi-topic-operator-kstreams},1650521152,0
{consumergroup=__strimzi-topic-operator-kstreams},1650521157,0
{consumergroup=__strimzi-topic-operator-kstreams},1650521162,0
{consumergroup=__strimzi-topic-operator-kstreams},1650521167,0
{consumergroup=__strimzi-topic-operator-kstreams},1650521172,0
{consumergroup=__strimzi-topic-operator-kstreams},1650521177,0
{consumergroup=__strimzi-topic-operator-kstreams},1650521182,0
{consumergroup=__strimzi-topic-operator-kstreams},1650521187,0
{consumergroup=__strimzi-topic-operator-kstreams},1650521192,0
{consumergroup=__strimzi-topic-operator-kstreams},1650521197,0
{consumergroup=__strimzi-topic-operator-kstreams},1650521202,0
{consumergroup=__strimzi-topic-operator-kstreams},1650521207,0
{consumergroup=__strimzi-topic-operator-kstreams},1650521212,0
{consumergroup=__strimzi-topic-operator-kstreams},1650521217,0
{consumergroup=__strimzi-topic-operator-kstreams},1650521222,0
{consumergroup=__strimzi-topic-operator-kstreams},1650521227,0
{consumergroup=__strimzi-topic-operator-kstreams},1650521232,0
{consumergroup=__strimzi-topic-operator-kstreams},1650521237,0
{consumergroup=__strimzi-topic-operator-kstreams},1650521242,0
{consumergroup=__strimzi-topic-operator-kstreams},1650521247,0
{consumergroup=__strimzi-topic-operator-kstreams},1650521252,0
{consumergroup=__strimzi-topic-operator-kstreams},1650521257,0
{consumergroup=__strimzi-topic-operator-kstreams},1650521262,0
{consumergroup=__strimzi-topic-operator-kstreams},1650521267,0
{consumergroup=__strimzi-topic-operator-kstreams},1650521272,0
{consumergroup=__strimzi-topic-operator-kstreams},1650521277,0
{consumergroup=__strimzi-topic-operator-kstreams},1650521282,0
{consumergroup=__strimzi-topic-operator-kstreams},1650521287,0
{consumergroup=__strimzi-topic-operator-kstreams},1650521292,0
{consumergroup=__strimzi-topic-operator-kstreams},1650521297,0
{consumergroup=__strimzi-topic-operator-kstreams},1650521302,0
{consumergroup=__strimzi-topic-operator-kstreams},1650521307,0
{consumergroup=__strimzi-topic-operator-kstreams},1650521312,0
{consumergroup=__strimzi-topic-operator-kstreams},1650521317,0
{consumergroup=__strimzi-topic-operator-kstreams},1650521322,0
{consumergroup=__strimzi-topic-operator-kstreams},1650521327,0
{consumergroup=__strimzi-topic-operator-kstreams},1650521332,0
{consumergroup=__strimzi-topic-operator-kstreams},1650521337,0
{consumergroup=__strimzi-topic-operator-kstreams},1650521342,0
{consumergroup=__strimzi-topic-operator-kstreams},1650521347,0
{consumergroup=__strimzi-topic-operator-kstreams},1650521352,0
{consumergroup=__strimzi-topic-operator-kstreams},1650521357,0
{consumergroup=__strimzi-topic-operator-kstreams},1650521362,0
{consumergroup=__strimzi-topic-operator-kstreams},1650521367,0
{consumergroup=__strimzi-topic-operator-kstreams},1650521372,0
{consumergroup=__strimzi-topic-operator-kstreams},1650521377,0
{consumergroup=__strimzi-topic-operator-kstreams},1650521382,0
{consumergroup=__strimzi-topic-operator-kstreams},1650521387,0
{consumergroup=__strimzi-topic-operator-kstreams},1650521392,0
{consumergroup=__strimzi-topic-operator-kstreams},1650521397,0
{consumergroup=__strimzi-topic-operator-kstreams},1650521402,0
{consumergroup=__strimzi-topic-operator-kstreams},1650521407,0
{consumergroup=__strimzi-topic-operator-kstreams},1650521412,0
{consumergroup=__strimzi-topic-operator-kstreams},1650521417,0
{consumergroup=__strimzi-topic-operator-kstreams},1650521422,0
{consumergroup=__strimzi-topic-operator-kstreams},1650521427,0
{consumergroup=__strimzi-topic-operator-kstreams},1650521432,0
{consumergroup=__strimzi-topic-operator-kstreams},1650521437,0
{consumergroup=__strimzi-topic-operator-kstreams},1650521442,0
{consumergroup=__strimzi-topic-operator-kstreams},1650521447,0
{consumergroup=__strimzi-topic-operator-kstreams},1650521452,0
{consumergroup=__strimzi-topic-operator-kstreams},1650521457,0
{consumergroup=__strimzi-topic-operator-kstreams},1650521462,0
{consumergroup=__strimzi-topic-operator-kstreams},1650521467,0
{consumergroup=__strimzi-topic-operator-kstreams},1650521472,0
{consumergroup=__strimzi-topic-operator-kstreams},1650521477,0
{consumergroup=__strimzi-topic-operator-kstreams},1650521482,0
{consumergroup=__strimzi-topic-operator-kstreams},1650521487,0
{consumergroup=__strimzi-topic-operator-kstreams},1650521492,0
{consumergroup=__strimzi-topic-operator-kstreams},1650521497,0
{consumergroup=__strimzi-topic-operator-kstreams},1650521502,0
