labels,timestamp,value
{},1650540461,0
{},1650540466,0
{},1650540471,0
{},1650540476,0
{},1650540481,0
{},1650540486,0
{},1650540491,0
{},1650540496,0
{},1650540501,0
{},1650540506,0
{},1650540511,0
{},1650540516,0
{},1650540521,0
{},1650540526,0
{},1650540531,0
