labels,timestamp,value
{},1650553992,0
{},1650553997,0
{},1650554002,0
{},1650554007,0
{},1650554012,0
{},1650554017,0
{},1650554022,0
{},1650554027,0
{},1650554032,0
{},1650554037,0
{},1650554042,0
{},1650554047,0
{},1650554052,0
{},1650554057,0
{},1650554062,0
