labels,timestamp,value
{consumergroup=__strimzi-topic-operator-kstreams},1650546682,3
{consumergroup=__strimzi-topic-operator-kstreams},1650546687,3
{consumergroup=__strimzi-topic-operator-kstreams},1650546692,3
{consumergroup=__strimzi-topic-operator-kstreams},1650546697,14
{consumergroup=__strimzi-topic-operator-kstreams},1650546702,14
{consumergroup=__strimzi-topic-operator-kstreams},1650546707,14
{consumergroup=__strimzi-topic-operator-kstreams},1650546712,0
{consumergroup=__strimzi-topic-operator-kstreams},1650546717,0
{consumergroup=__strimzi-topic-operator-kstreams},1650546722,0
{consumergroup=__strimzi-topic-operator-kstreams},1650546727,0
{consumergroup=__strimzi-topic-operator-kstreams},1650546732,0
{consumergroup=__strimzi-topic-operator-kstreams},1650546737,0
{consumergroup=__strimzi-topic-operator-kstreams},1650546742,0
{consumergroup=__strimzi-topic-operator-kstreams},1650546747,0
{consumergroup=__strimzi-topic-operator-kstreams},1650546752,0
{consumergroup=__strimzi-topic-operator-kstreams},1650546757,0
{consumergroup=__strimzi-topic-operator-kstreams},1650546762,0
{consumergroup=__strimzi-topic-operator-kstreams},1650546767,0
{consumergroup=__strimzi-topic-operator-kstreams},1650546772,0
{consumergroup=__strimzi-topic-operator-kstreams},1650546777,0
{consumergroup=__strimzi-topic-operator-kstreams},1650546782,0
{consumergroup=__strimzi-topic-operator-kstreams},1650546787,0
{consumergroup=__strimzi-topic-operator-kstreams},1650546792,0
{consumergroup=__strimzi-topic-operator-kstreams},1650546797,0
{consumergroup=__strimzi-topic-operator-kstreams},1650546802,0
{consumergroup=__strimzi-topic-operator-kstreams},1650546807,0
{consumergroup=__strimzi-topic-operator-kstreams},1650546812,0
{consumergroup=__strimzi-topic-operator-kstreams},1650546817,0
{consumergroup=__strimzi-topic-operator-kstreams},1650546822,0
{consumergroup=__strimzi-topic-operator-kstreams},1650546827,0
{consumergroup=__strimzi-topic-operator-kstreams},1650546832,0
{consumergroup=__strimzi-topic-operator-kstreams},1650546837,0
{consumergroup=__strimzi-topic-operator-kstreams},1650546842,0
{consumergroup=__strimzi-topic-operator-kstreams},1650546847,0
{consumergroup=__strimzi-topic-operator-kstreams},1650546852,0
{consumergroup=__strimzi-topic-operator-kstreams},1650546857,0
{consumergroup=__strimzi-topic-operator-kstreams},1650546862,0
{consumergroup=__strimzi-topic-operator-kstreams},1650546867,0
{consumergroup=__strimzi-topic-operator-kstreams},1650546872,0
{consumergroup=__strimzi-topic-operator-kstreams},1650546877,0
{consumergroup=__strimzi-topic-operator-kstreams},1650546882,0
{consumergroup=__strimzi-topic-operator-kstreams},1650546887,0
{consumergroup=__strimzi-topic-operator-kstreams},1650546892,0
{consumergroup=__strimzi-topic-operator-kstreams},1650546897,0
{consumergroup=__strimzi-topic-operator-kstreams},1650546902,0
{consumergroup=__strimzi-topic-operator-kstreams},1650546907,0
{consumergroup=__strimzi-topic-operator-kstreams},1650546912,0
{consumergroup=__strimzi-topic-operator-kstreams},1650546917,0
{consumergroup=__strimzi-topic-operator-kstreams},1650546922,0
{consumergroup=__strimzi-topic-operator-kstreams},1650546927,0
{consumergroup=__strimzi-topic-operator-kstreams},1650546932,0
{consumergroup=__strimzi-topic-operator-kstreams},1650546937,0
{consumergroup=__strimzi-topic-operator-kstreams},1650546942,0
{consumergroup=__strimzi-topic-operator-kstreams},1650546947,0
{consumergroup=__strimzi-topic-operator-kstreams},1650546952,0
{consumergroup=__strimzi-topic-operator-kstreams},1650546957,0
{consumergroup=__strimzi-topic-operator-kstreams},1650546962,0
{consumergroup=__strimzi-topic-operator-kstreams},1650546967,0
{consumergroup=__strimzi-topic-operator-kstreams},1650546972,0
{consumergroup=__strimzi-topic-operator-kstreams},1650546977,0
{consumergroup=__strimzi-topic-operator-kstreams},1650546982,0
{consumergroup=__strimzi-topic-operator-kstreams},1650546987,0
{consumergroup=__strimzi-topic-operator-kstreams},1650546992,0
{consumergroup=__strimzi-topic-operator-kstreams},1650546997,0
{consumergroup=__strimzi-topic-operator-kstreams},1650547002,0
{consumergroup=__strimzi-topic-operator-kstreams},1650547007,0
{consumergroup=__strimzi-topic-operator-kstreams},1650547012,0
{consumergroup=__strimzi-topic-operator-kstreams},1650547017,0
{consumergroup=__strimzi-topic-operator-kstreams},1650547022,0
{consumergroup=__strimzi-topic-operator-kstreams},1650547027,0
{consumergroup=__strimzi-topic-operator-kstreams},1650547032,0
{consumergroup=__strimzi-topic-operator-kstreams},1650547037,0
{consumergroup=__strimzi-topic-operator-kstreams},1650547042,0
{consumergroup=__strimzi-topic-operator-kstreams},1650547047,0
{consumergroup=__strimzi-topic-operator-kstreams},1650547052,0
{consumergroup=__strimzi-topic-operator-kstreams},1650547057,0
{consumergroup=__strimzi-topic-operator-kstreams},1650547062,0
{consumergroup=__strimzi-topic-operator-kstreams},1650547067,0
{consumergroup=__strimzi-topic-operator-kstreams},1650547072,0
{consumergroup=__strimzi-topic-operator-kstreams},1650547077,0
{consumergroup=__strimzi-topic-operator-kstreams},1650547082,0
{consumergroup=__strimzi-topic-operator-kstreams},1650547087,0
{consumergroup=__strimzi-topic-operator-kstreams},1650547092,0
{consumergroup=__strimzi-topic-operator-kstreams},1650547097,0
{consumergroup=__strimzi-topic-operator-kstreams},1650547102,0
{consumergroup=__strimzi-topic-operator-kstreams},1650547107,0
{consumergroup=__strimzi-topic-operator-kstreams},1650547112,0
{consumergroup=__strimzi-topic-operator-kstreams},1650547117,0
{consumergroup=__strimzi-topic-operator-kstreams},1650547122,0
{consumergroup=__strimzi-topic-operator-kstreams},1650547127,0
{consumergroup=__strimzi-topic-operator-kstreams},1650547132,0
{consumergroup=__strimzi-topic-operator-kstreams},1650547137,0
{consumergroup=__strimzi-topic-operator-kstreams},1650547142,0
{consumergroup=__strimzi-topic-operator-kstreams},1650547147,0
{consumergroup=__strimzi-topic-operator-kstreams},1650547152,0
{consumergroup=__strimzi-topic-operator-kstreams},1650547157,0
{consumergroup=__strimzi-topic-operator-kstreams},1650547162,0
{consumergroup=__strimzi-topic-operator-kstreams},1650547167,0
{consumergroup=__strimzi-topic-operator-kstreams},1650547172,0
{consumergroup=__strimzi-topic-operator-kstreams},1650547177,0
