labels,timestamp,value
{},1650553427,0
{},1650553432,0
{},1650553437,0
{},1650553442,0
{},1650553447,0
{},1650553452,0
{},1650553457,0
{},1650553462,0
{},1650553467,0
{},1650553472,0
{},1650553477,0
{},1650553482,0
{},1650553487,0
{},1650553492,0
{},1650553497,0
