labels,timestamp,value
{consumergroup=__strimzi-topic-operator-kstreams},1650361908,6
{consumergroup=__strimzi-topic-operator-kstreams},1650361913,6
{consumergroup=__strimzi-topic-operator-kstreams},1650361918,6
{consumergroup=__strimzi-topic-operator-kstreams},1650361923,8
{consumergroup=__strimzi-topic-operator-kstreams},1650361928,8
{consumergroup=__strimzi-topic-operator-kstreams},1650361933,8
{consumergroup=__strimzi-topic-operator-kstreams},1650361938,0
{consumergroup=__strimzi-topic-operator-kstreams},1650361943,0
{consumergroup=__strimzi-topic-operator-kstreams},1650361948,0
{consumergroup=__strimzi-topic-operator-kstreams},1650361953,0
{consumergroup=__strimzi-topic-operator-kstreams},1650361958,0
{consumergroup=__strimzi-topic-operator-kstreams},1650361963,0
{consumergroup=__strimzi-topic-operator-kstreams},1650361968,0
{consumergroup=__strimzi-topic-operator-kstreams},1650361973,0
{consumergroup=__strimzi-topic-operator-kstreams},1650361978,0
{consumergroup=__strimzi-topic-operator-kstreams},1650361983,0
{consumergroup=__strimzi-topic-operator-kstreams},1650361988,0
{consumergroup=__strimzi-topic-operator-kstreams},1650361993,0
{consumergroup=__strimzi-topic-operator-kstreams},1650361998,0
{consumergroup=__strimzi-topic-operator-kstreams},1650362003,0
{consumergroup=__strimzi-topic-operator-kstreams},1650362008,0
{consumergroup=__strimzi-topic-operator-kstreams},1650362013,0
{consumergroup=__strimzi-topic-operator-kstreams},1650362018,0
{consumergroup=__strimzi-topic-operator-kstreams},1650362023,0
{consumergroup=__strimzi-topic-operator-kstreams},1650362028,0
{consumergroup=__strimzi-topic-operator-kstreams},1650362033,0
{consumergroup=__strimzi-topic-operator-kstreams},1650362038,0
{consumergroup=__strimzi-topic-operator-kstreams},1650362043,0
{consumergroup=__strimzi-topic-operator-kstreams},1650362048,0
{consumergroup=__strimzi-topic-operator-kstreams},1650362053,0
{consumergroup=__strimzi-topic-operator-kstreams},1650362058,0
{consumergroup=__strimzi-topic-operator-kstreams},1650362063,0
{consumergroup=__strimzi-topic-operator-kstreams},1650362068,0
{consumergroup=__strimzi-topic-operator-kstreams},1650362073,0
{consumergroup=__strimzi-topic-operator-kstreams},1650362078,0
{consumergroup=__strimzi-topic-operator-kstreams},1650362083,0
{consumergroup=__strimzi-topic-operator-kstreams},1650362088,0
{consumergroup=__strimzi-topic-operator-kstreams},1650362093,0
{consumergroup=__strimzi-topic-operator-kstreams},1650362098,0
{consumergroup=__strimzi-topic-operator-kstreams},1650362103,0
{consumergroup=__strimzi-topic-operator-kstreams},1650362108,0
{consumergroup=__strimzi-topic-operator-kstreams},1650362113,0
{consumergroup=__strimzi-topic-operator-kstreams},1650362118,0
{consumergroup=__strimzi-topic-operator-kstreams},1650362123,0
{consumergroup=__strimzi-topic-operator-kstreams},1650362128,0
{consumergroup=__strimzi-topic-operator-kstreams},1650362133,0
{consumergroup=__strimzi-topic-operator-kstreams},1650362138,0
{consumergroup=__strimzi-topic-operator-kstreams},1650362143,0
{consumergroup=__strimzi-topic-operator-kstreams},1650362148,0
{consumergroup=__strimzi-topic-operator-kstreams},1650362153,0
{consumergroup=__strimzi-topic-operator-kstreams},1650362158,0
{consumergroup=__strimzi-topic-operator-kstreams},1650362163,0
