labels,timestamp,value
{consumergroup=__strimzi-topic-operator-kstreams},1650497905,18
{consumergroup=__strimzi-topic-operator-kstreams},1650497910,18
{consumergroup=__strimzi-topic-operator-kstreams},1650497915,18
{consumergroup=__strimzi-topic-operator-kstreams},1650497920,0
{consumergroup=__strimzi-topic-operator-kstreams},1650497925,0
{consumergroup=__strimzi-topic-operator-kstreams},1650497930,0
{consumergroup=__strimzi-topic-operator-kstreams},1650497935,0
{consumergroup=__strimzi-topic-operator-kstreams},1650497940,0
{consumergroup=__strimzi-topic-operator-kstreams},1650497945,0
{consumergroup=__strimzi-topic-operator-kstreams},1650497950,0
{consumergroup=__strimzi-topic-operator-kstreams},1650497955,0
{consumergroup=__strimzi-topic-operator-kstreams},1650497960,0
{consumergroup=__strimzi-topic-operator-kstreams},1650497965,0
{consumergroup=__strimzi-topic-operator-kstreams},1650497970,0
{consumergroup=__strimzi-topic-operator-kstreams},1650497975,0
{consumergroup=__strimzi-topic-operator-kstreams},1650497980,0
{consumergroup=__strimzi-topic-operator-kstreams},1650497985,0
{consumergroup=__strimzi-topic-operator-kstreams},1650497990,0
{consumergroup=__strimzi-topic-operator-kstreams},1650497995,0
{consumergroup=__strimzi-topic-operator-kstreams},1650498000,0
{consumergroup=__strimzi-topic-operator-kstreams},1650498005,0
{consumergroup=__strimzi-topic-operator-kstreams},1650498010,0
{consumergroup=__strimzi-topic-operator-kstreams},1650498015,0
{consumergroup=__strimzi-topic-operator-kstreams},1650498020,0
{consumergroup=__strimzi-topic-operator-kstreams},1650498025,0
{consumergroup=__strimzi-topic-operator-kstreams},1650498030,0
{consumergroup=__strimzi-topic-operator-kstreams},1650498035,0
{consumergroup=__strimzi-topic-operator-kstreams},1650498040,0
{consumergroup=__strimzi-topic-operator-kstreams},1650498045,0
{consumergroup=__strimzi-topic-operator-kstreams},1650498050,0
{consumergroup=__strimzi-topic-operator-kstreams},1650498055,0
{consumergroup=__strimzi-topic-operator-kstreams},1650498060,0
{consumergroup=__strimzi-topic-operator-kstreams},1650498065,0
{consumergroup=__strimzi-topic-operator-kstreams},1650498070,0
{consumergroup=__strimzi-topic-operator-kstreams},1650498075,0
{consumergroup=__strimzi-topic-operator-kstreams},1650498080,0
{consumergroup=__strimzi-topic-operator-kstreams},1650498085,0
{consumergroup=__strimzi-topic-operator-kstreams},1650498090,0
{consumergroup=__strimzi-topic-operator-kstreams},1650498095,0
{consumergroup=__strimzi-topic-operator-kstreams},1650498100,0
{consumergroup=__strimzi-topic-operator-kstreams},1650498105,0
{consumergroup=__strimzi-topic-operator-kstreams},1650498110,0
{consumergroup=__strimzi-topic-operator-kstreams},1650498115,0
{consumergroup=__strimzi-topic-operator-kstreams},1650498120,0
{consumergroup=__strimzi-topic-operator-kstreams},1650498125,0
{consumergroup=__strimzi-topic-operator-kstreams},1650498130,0
{consumergroup=__strimzi-topic-operator-kstreams},1650498135,0
{consumergroup=__strimzi-topic-operator-kstreams},1650498140,0
{consumergroup=__strimzi-topic-operator-kstreams},1650498145,0
{consumergroup=__strimzi-topic-operator-kstreams},1650498150,0
{consumergroup=__strimzi-topic-operator-kstreams},1650498155,0
{consumergroup=__strimzi-topic-operator-kstreams},1650498160,0
{consumergroup=__strimzi-topic-operator-kstreams},1650498165,0
{consumergroup=__strimzi-topic-operator-kstreams},1650498170,0
{consumergroup=__strimzi-topic-operator-kstreams},1650498175,0
{consumergroup=__strimzi-topic-operator-kstreams},1650498180,0
{consumergroup=__strimzi-topic-operator-kstreams},1650498185,0
{consumergroup=__strimzi-topic-operator-kstreams},1650498190,0
{consumergroup=__strimzi-topic-operator-kstreams},1650498195,0
{consumergroup=__strimzi-topic-operator-kstreams},1650498200,0
{consumergroup=__strimzi-topic-operator-kstreams},1650498205,0
{consumergroup=__strimzi-topic-operator-kstreams},1650498210,0
{consumergroup=__strimzi-topic-operator-kstreams},1650498215,0
{consumergroup=__strimzi-topic-operator-kstreams},1650498220,0
{consumergroup=__strimzi-topic-operator-kstreams},1650498225,0
{consumergroup=__strimzi-topic-operator-kstreams},1650498230,0
{consumergroup=__strimzi-topic-operator-kstreams},1650498235,0
{consumergroup=__strimzi-topic-operator-kstreams},1650498240,0
{consumergroup=__strimzi-topic-operator-kstreams},1650498245,0
{consumergroup=__strimzi-topic-operator-kstreams},1650498250,0
{consumergroup=__strimzi-topic-operator-kstreams},1650498255,0
{consumergroup=__strimzi-topic-operator-kstreams},1650498260,0
{consumergroup=__strimzi-topic-operator-kstreams},1650498265,0
{consumergroup=__strimzi-topic-operator-kstreams},1650498270,0
{consumergroup=__strimzi-topic-operator-kstreams},1650498275,0
{consumergroup=__strimzi-topic-operator-kstreams},1650498280,0
{consumergroup=__strimzi-topic-operator-kstreams},1650498285,0
{consumergroup=__strimzi-topic-operator-kstreams},1650498290,0
{consumergroup=__strimzi-topic-operator-kstreams},1650498295,0
{consumergroup=__strimzi-topic-operator-kstreams},1650498300,0
{consumergroup=__strimzi-topic-operator-kstreams},1650498305,0
{consumergroup=__strimzi-topic-operator-kstreams},1650498310,0
{consumergroup=__strimzi-topic-operator-kstreams},1650498315,0
{consumergroup=__strimzi-topic-operator-kstreams},1650498320,0
{consumergroup=__strimzi-topic-operator-kstreams},1650498325,0
{consumergroup=__strimzi-topic-operator-kstreams},1650498330,0
{consumergroup=__strimzi-topic-operator-kstreams},1650498335,0
{consumergroup=__strimzi-topic-operator-kstreams},1650498340,0
{consumergroup=__strimzi-topic-operator-kstreams},1650498345,0
{consumergroup=__strimzi-topic-operator-kstreams},1650498350,0
{consumergroup=__strimzi-topic-operator-kstreams},1650498355,0
{consumergroup=__strimzi-topic-operator-kstreams},1650498360,0
{consumergroup=__strimzi-topic-operator-kstreams},1650498365,0
{consumergroup=__strimzi-topic-operator-kstreams},1650498370,0
{consumergroup=__strimzi-topic-operator-kstreams},1650498375,0
{consumergroup=__strimzi-topic-operator-kstreams},1650498380,0
{consumergroup=__strimzi-topic-operator-kstreams},1650498385,0
{consumergroup=__strimzi-topic-operator-kstreams},1650498390,0
{consumergroup=__strimzi-topic-operator-kstreams},1650498395,0
