labels,timestamp,value
{consumergroup=__strimzi-topic-operator-kstreams},1650512495,24
{consumergroup=__strimzi-topic-operator-kstreams},1650512500,24
{consumergroup=__strimzi-topic-operator-kstreams},1650512505,24
{consumergroup=__strimzi-topic-operator-kstreams},1650512510,0
{consumergroup=__strimzi-topic-operator-kstreams},1650512515,0
{consumergroup=__strimzi-topic-operator-kstreams},1650512520,0
{consumergroup=__strimzi-topic-operator-kstreams},1650512525,0
{consumergroup=__strimzi-topic-operator-kstreams},1650512530,0
{consumergroup=__strimzi-topic-operator-kstreams},1650512535,0
{consumergroup=__strimzi-topic-operator-kstreams},1650512540,0
{consumergroup=__strimzi-topic-operator-kstreams},1650512545,0
{consumergroup=__strimzi-topic-operator-kstreams},1650512550,0
{consumergroup=__strimzi-topic-operator-kstreams},1650512555,0
{consumergroup=__strimzi-topic-operator-kstreams},1650512560,0
{consumergroup=__strimzi-topic-operator-kstreams},1650512565,0
{consumergroup=__strimzi-topic-operator-kstreams},1650512570,0
{consumergroup=__strimzi-topic-operator-kstreams},1650512575,0
{consumergroup=__strimzi-topic-operator-kstreams},1650512580,0
{consumergroup=__strimzi-topic-operator-kstreams},1650512585,0
{consumergroup=__strimzi-topic-operator-kstreams},1650512590,0
{consumergroup=__strimzi-topic-operator-kstreams},1650512595,0
{consumergroup=__strimzi-topic-operator-kstreams},1650512600,0
{consumergroup=__strimzi-topic-operator-kstreams},1650512605,0
{consumergroup=__strimzi-topic-operator-kstreams},1650512610,0
{consumergroup=__strimzi-topic-operator-kstreams},1650512615,0
{consumergroup=__strimzi-topic-operator-kstreams},1650512620,0
{consumergroup=__strimzi-topic-operator-kstreams},1650512625,0
{consumergroup=__strimzi-topic-operator-kstreams},1650512630,0
{consumergroup=__strimzi-topic-operator-kstreams},1650512635,0
{consumergroup=__strimzi-topic-operator-kstreams},1650512640,0
{consumergroup=__strimzi-topic-operator-kstreams},1650512645,0
{consumergroup=__strimzi-topic-operator-kstreams},1650512650,0
{consumergroup=__strimzi-topic-operator-kstreams},1650512655,0
{consumergroup=__strimzi-topic-operator-kstreams},1650512660,0
{consumergroup=__strimzi-topic-operator-kstreams},1650512665,0
{consumergroup=__strimzi-topic-operator-kstreams},1650512670,0
{consumergroup=__strimzi-topic-operator-kstreams},1650512675,0
{consumergroup=__strimzi-topic-operator-kstreams},1650512680,0
{consumergroup=__strimzi-topic-operator-kstreams},1650512685,0
{consumergroup=__strimzi-topic-operator-kstreams},1650512690,0
{consumergroup=__strimzi-topic-operator-kstreams},1650512695,0
{consumergroup=__strimzi-topic-operator-kstreams},1650512700,0
{consumergroup=__strimzi-topic-operator-kstreams},1650512705,0
{consumergroup=__strimzi-topic-operator-kstreams},1650512710,0
{consumergroup=__strimzi-topic-operator-kstreams},1650512715,0
{consumergroup=__strimzi-topic-operator-kstreams},1650512720,0
{consumergroup=__strimzi-topic-operator-kstreams},1650512725,0
{consumergroup=__strimzi-topic-operator-kstreams},1650512730,0
{consumergroup=__strimzi-topic-operator-kstreams},1650512735,0
{consumergroup=__strimzi-topic-operator-kstreams},1650512740,0
{consumergroup=__strimzi-topic-operator-kstreams},1650512745,0
{consumergroup=__strimzi-topic-operator-kstreams},1650512750,0
{consumergroup=__strimzi-topic-operator-kstreams},1650512755,0
{consumergroup=__strimzi-topic-operator-kstreams},1650512760,0
{consumergroup=__strimzi-topic-operator-kstreams},1650512765,0
{consumergroup=__strimzi-topic-operator-kstreams},1650512770,0
{consumergroup=__strimzi-topic-operator-kstreams},1650512775,0
{consumergroup=__strimzi-topic-operator-kstreams},1650512780,0
{consumergroup=__strimzi-topic-operator-kstreams},1650512785,0
{consumergroup=__strimzi-topic-operator-kstreams},1650512790,0
{consumergroup=__strimzi-topic-operator-kstreams},1650512795,0
{consumergroup=__strimzi-topic-operator-kstreams},1650512800,0
{consumergroup=__strimzi-topic-operator-kstreams},1650512805,0
{consumergroup=__strimzi-topic-operator-kstreams},1650512810,0
{consumergroup=__strimzi-topic-operator-kstreams},1650512815,0
{consumergroup=__strimzi-topic-operator-kstreams},1650512820,0
{consumergroup=__strimzi-topic-operator-kstreams},1650512825,0
{consumergroup=__strimzi-topic-operator-kstreams},1650512830,0
{consumergroup=__strimzi-topic-operator-kstreams},1650512835,0
{consumergroup=__strimzi-topic-operator-kstreams},1650512840,0
{consumergroup=__strimzi-topic-operator-kstreams},1650512845,0
{consumergroup=__strimzi-topic-operator-kstreams},1650512850,0
{consumergroup=__strimzi-topic-operator-kstreams},1650512855,0
{consumergroup=__strimzi-topic-operator-kstreams},1650512860,0
{consumergroup=__strimzi-topic-operator-kstreams},1650512865,0
{consumergroup=__strimzi-topic-operator-kstreams},1650512870,0
{consumergroup=__strimzi-topic-operator-kstreams},1650512875,0
{consumergroup=__strimzi-topic-operator-kstreams},1650512880,0
{consumergroup=__strimzi-topic-operator-kstreams},1650512885,0
{consumergroup=__strimzi-topic-operator-kstreams},1650512890,0
{consumergroup=__strimzi-topic-operator-kstreams},1650512895,0
{consumergroup=__strimzi-topic-operator-kstreams},1650512900,0
{consumergroup=__strimzi-topic-operator-kstreams},1650512905,0
{consumergroup=__strimzi-topic-operator-kstreams},1650512910,0
{consumergroup=__strimzi-topic-operator-kstreams},1650512915,0
{consumergroup=__strimzi-topic-operator-kstreams},1650512920,0
{consumergroup=__strimzi-topic-operator-kstreams},1650512925,0
{consumergroup=__strimzi-topic-operator-kstreams},1650512930,0
{consumergroup=__strimzi-topic-operator-kstreams},1650512935,0
{consumergroup=__strimzi-topic-operator-kstreams},1650512940,0
{consumergroup=__strimzi-topic-operator-kstreams},1650512945,0
{consumergroup=__strimzi-topic-operator-kstreams},1650512950,0
{consumergroup=__strimzi-topic-operator-kstreams},1650512955,0
{consumergroup=__strimzi-topic-operator-kstreams},1650512960,0
{consumergroup=__strimzi-topic-operator-kstreams},1650512965,0
{consumergroup=__strimzi-topic-operator-kstreams},1650512970,0
{consumergroup=__strimzi-topic-operator-kstreams},1650512975,0
{consumergroup=__strimzi-topic-operator-kstreams},1650512980,0
{consumergroup=__strimzi-topic-operator-kstreams},1650512985,0
