labels,timestamp,value
{consumergroup=__strimzi-topic-operator-kstreams},1650523701,14
{consumergroup=__strimzi-topic-operator-kstreams},1650523706,14
{consumergroup=__strimzi-topic-operator-kstreams},1650523711,14
{consumergroup=__strimzi-topic-operator-kstreams},1650523716,17
{consumergroup=__strimzi-topic-operator-kstreams},1650523721,17
{consumergroup=__strimzi-topic-operator-kstreams},1650523726,17
{consumergroup=__strimzi-topic-operator-kstreams},1650523731,0
{consumergroup=__strimzi-topic-operator-kstreams},1650523736,0
{consumergroup=__strimzi-topic-operator-kstreams},1650523741,0
{consumergroup=__strimzi-topic-operator-kstreams},1650523746,0
{consumergroup=__strimzi-topic-operator-kstreams},1650523751,0
{consumergroup=__strimzi-topic-operator-kstreams},1650523756,0
{consumergroup=__strimzi-topic-operator-kstreams},1650523761,0
{consumergroup=__strimzi-topic-operator-kstreams},1650523766,0
{consumergroup=__strimzi-topic-operator-kstreams},1650523771,0
{consumergroup=__strimzi-topic-operator-kstreams},1650523776,0
{consumergroup=__strimzi-topic-operator-kstreams},1650523781,0
{consumergroup=__strimzi-topic-operator-kstreams},1650523786,0
{consumergroup=__strimzi-topic-operator-kstreams},1650523791,0
{consumergroup=__strimzi-topic-operator-kstreams},1650523796,0
{consumergroup=__strimzi-topic-operator-kstreams},1650523801,0
{consumergroup=__strimzi-topic-operator-kstreams},1650523806,0
{consumergroup=__strimzi-topic-operator-kstreams},1650523811,0
{consumergroup=__strimzi-topic-operator-kstreams},1650523816,0
{consumergroup=__strimzi-topic-operator-kstreams},1650523821,0
{consumergroup=__strimzi-topic-operator-kstreams},1650523826,0
{consumergroup=__strimzi-topic-operator-kstreams},1650523831,0
{consumergroup=__strimzi-topic-operator-kstreams},1650523836,0
{consumergroup=__strimzi-topic-operator-kstreams},1650523841,0
{consumergroup=__strimzi-topic-operator-kstreams},1650523846,0
{consumergroup=__strimzi-topic-operator-kstreams},1650523851,0
{consumergroup=__strimzi-topic-operator-kstreams},1650523856,0
{consumergroup=__strimzi-topic-operator-kstreams},1650523861,0
{consumergroup=__strimzi-topic-operator-kstreams},1650523866,0
{consumergroup=__strimzi-topic-operator-kstreams},1650523871,0
{consumergroup=__strimzi-topic-operator-kstreams},1650523876,0
{consumergroup=__strimzi-topic-operator-kstreams},1650523881,0
{consumergroup=__strimzi-topic-operator-kstreams},1650523886,0
{consumergroup=__strimzi-topic-operator-kstreams},1650523891,0
{consumergroup=__strimzi-topic-operator-kstreams},1650523896,0
{consumergroup=__strimzi-topic-operator-kstreams},1650523901,0
{consumergroup=__strimzi-topic-operator-kstreams},1650523906,0
{consumergroup=__strimzi-topic-operator-kstreams},1650523911,0
{consumergroup=__strimzi-topic-operator-kstreams},1650523916,0
{consumergroup=__strimzi-topic-operator-kstreams},1650523921,0
{consumergroup=__strimzi-topic-operator-kstreams},1650523926,0
{consumergroup=__strimzi-topic-operator-kstreams},1650523931,0
{consumergroup=__strimzi-topic-operator-kstreams},1650523936,0
{consumergroup=__strimzi-topic-operator-kstreams},1650523941,0
{consumergroup=__strimzi-topic-operator-kstreams},1650523946,0
{consumergroup=__strimzi-topic-operator-kstreams},1650523951,0
{consumergroup=__strimzi-topic-operator-kstreams},1650523956,0
{consumergroup=__strimzi-topic-operator-kstreams},1650523961,0
{consumergroup=__strimzi-topic-operator-kstreams},1650523966,0
{consumergroup=__strimzi-topic-operator-kstreams},1650523971,0
{consumergroup=__strimzi-topic-operator-kstreams},1650523976,0
{consumergroup=__strimzi-topic-operator-kstreams},1650523981,0
{consumergroup=__strimzi-topic-operator-kstreams},1650523986,0
{consumergroup=__strimzi-topic-operator-kstreams},1650523991,0
{consumergroup=__strimzi-topic-operator-kstreams},1650523996,0
{consumergroup=__strimzi-topic-operator-kstreams},1650524001,0
{consumergroup=__strimzi-topic-operator-kstreams},1650524006,0
{consumergroup=__strimzi-topic-operator-kstreams},1650524011,0
{consumergroup=__strimzi-topic-operator-kstreams},1650524016,0
{consumergroup=__strimzi-topic-operator-kstreams},1650524021,0
{consumergroup=__strimzi-topic-operator-kstreams},1650524026,0
{consumergroup=__strimzi-topic-operator-kstreams},1650524031,0
{consumergroup=__strimzi-topic-operator-kstreams},1650524036,0
{consumergroup=__strimzi-topic-operator-kstreams},1650524041,0
{consumergroup=__strimzi-topic-operator-kstreams},1650524046,0
{consumergroup=__strimzi-topic-operator-kstreams},1650524051,0
{consumergroup=__strimzi-topic-operator-kstreams},1650524056,0
{consumergroup=__strimzi-topic-operator-kstreams},1650524061,0
{consumergroup=__strimzi-topic-operator-kstreams},1650524066,0
{consumergroup=__strimzi-topic-operator-kstreams},1650524071,0
{consumergroup=__strimzi-topic-operator-kstreams},1650524076,0
{consumergroup=__strimzi-topic-operator-kstreams},1650524081,0
{consumergroup=__strimzi-topic-operator-kstreams},1650524086,0
{consumergroup=__strimzi-topic-operator-kstreams},1650524091,0
{consumergroup=__strimzi-topic-operator-kstreams},1650524096,0
{consumergroup=__strimzi-topic-operator-kstreams},1650524101,0
{consumergroup=__strimzi-topic-operator-kstreams},1650524106,0
{consumergroup=__strimzi-topic-operator-kstreams},1650524111,0
{consumergroup=__strimzi-topic-operator-kstreams},1650524116,0
{consumergroup=__strimzi-topic-operator-kstreams},1650524121,0
{consumergroup=__strimzi-topic-operator-kstreams},1650524126,0
{consumergroup=__strimzi-topic-operator-kstreams},1650524131,0
{consumergroup=__strimzi-topic-operator-kstreams},1650524136,0
{consumergroup=__strimzi-topic-operator-kstreams},1650524141,0
{consumergroup=__strimzi-topic-operator-kstreams},1650524146,0
{consumergroup=__strimzi-topic-operator-kstreams},1650524151,0
{consumergroup=__strimzi-topic-operator-kstreams},1650524156,0
{consumergroup=__strimzi-topic-operator-kstreams},1650524161,0
{consumergroup=__strimzi-topic-operator-kstreams},1650524166,0
{consumergroup=__strimzi-topic-operator-kstreams},1650524171,0
{consumergroup=__strimzi-topic-operator-kstreams},1650524176,0
{consumergroup=__strimzi-topic-operator-kstreams},1650524181,0
{consumergroup=__strimzi-topic-operator-kstreams},1650524186,0
{consumergroup=__strimzi-topic-operator-kstreams},1650524191,0
