labels,timestamp,value
{consumergroup=__strimzi-topic-operator-kstreams},1650516223,13
{consumergroup=__strimzi-topic-operator-kstreams},1650516228,13
{consumergroup=__strimzi-topic-operator-kstreams},1650516233,13
{consumergroup=__strimzi-topic-operator-kstreams},1650516238,0
{consumergroup=__strimzi-topic-operator-kstreams},1650516243,0
{consumergroup=__strimzi-topic-operator-kstreams},1650516248,0
{consumergroup=__strimzi-topic-operator-kstreams},1650516253,0
{consumergroup=__strimzi-topic-operator-kstreams},1650516258,0
{consumergroup=__strimzi-topic-operator-kstreams},1650516263,0
{consumergroup=__strimzi-topic-operator-kstreams},1650516268,0
{consumergroup=__strimzi-topic-operator-kstreams},1650516273,0
{consumergroup=__strimzi-topic-operator-kstreams},1650516278,0
{consumergroup=__strimzi-topic-operator-kstreams},1650516283,0
{consumergroup=__strimzi-topic-operator-kstreams},1650516288,0
{consumergroup=__strimzi-topic-operator-kstreams},1650516293,0
{consumergroup=__strimzi-topic-operator-kstreams},1650516298,0
{consumergroup=__strimzi-topic-operator-kstreams},1650516303,0
{consumergroup=__strimzi-topic-operator-kstreams},1650516308,0
{consumergroup=__strimzi-topic-operator-kstreams},1650516313,0
{consumergroup=__strimzi-topic-operator-kstreams},1650516318,0
{consumergroup=__strimzi-topic-operator-kstreams},1650516323,0
{consumergroup=__strimzi-topic-operator-kstreams},1650516328,0
{consumergroup=__strimzi-topic-operator-kstreams},1650516333,0
{consumergroup=__strimzi-topic-operator-kstreams},1650516338,0
{consumergroup=__strimzi-topic-operator-kstreams},1650516343,0
{consumergroup=__strimzi-topic-operator-kstreams},1650516348,0
{consumergroup=__strimzi-topic-operator-kstreams},1650516353,0
{consumergroup=__strimzi-topic-operator-kstreams},1650516358,0
{consumergroup=__strimzi-topic-operator-kstreams},1650516363,0
{consumergroup=__strimzi-topic-operator-kstreams},1650516368,0
{consumergroup=__strimzi-topic-operator-kstreams},1650516373,0
{consumergroup=__strimzi-topic-operator-kstreams},1650516378,0
{consumergroup=__strimzi-topic-operator-kstreams},1650516383,0
{consumergroup=__strimzi-topic-operator-kstreams},1650516388,0
{consumergroup=__strimzi-topic-operator-kstreams},1650516393,0
{consumergroup=__strimzi-topic-operator-kstreams},1650516398,0
{consumergroup=__strimzi-topic-operator-kstreams},1650516403,0
{consumergroup=__strimzi-topic-operator-kstreams},1650516408,0
{consumergroup=__strimzi-topic-operator-kstreams},1650516413,0
{consumergroup=__strimzi-topic-operator-kstreams},1650516418,0
{consumergroup=__strimzi-topic-operator-kstreams},1650516423,0
{consumergroup=__strimzi-topic-operator-kstreams},1650516428,0
{consumergroup=__strimzi-topic-operator-kstreams},1650516433,0
{consumergroup=__strimzi-topic-operator-kstreams},1650516438,0
{consumergroup=__strimzi-topic-operator-kstreams},1650516443,0
{consumergroup=__strimzi-topic-operator-kstreams},1650516448,0
{consumergroup=__strimzi-topic-operator-kstreams},1650516453,0
{consumergroup=__strimzi-topic-operator-kstreams},1650516458,0
{consumergroup=__strimzi-topic-operator-kstreams},1650516463,0
{consumergroup=__strimzi-topic-operator-kstreams},1650516468,0
{consumergroup=__strimzi-topic-operator-kstreams},1650516473,0
{consumergroup=__strimzi-topic-operator-kstreams},1650516478,0
{consumergroup=__strimzi-topic-operator-kstreams},1650516483,0
{consumergroup=__strimzi-topic-operator-kstreams},1650516488,0
{consumergroup=__strimzi-topic-operator-kstreams},1650516493,0
{consumergroup=__strimzi-topic-operator-kstreams},1650516498,0
{consumergroup=__strimzi-topic-operator-kstreams},1650516503,0
{consumergroup=__strimzi-topic-operator-kstreams},1650516508,0
{consumergroup=__strimzi-topic-operator-kstreams},1650516513,0
{consumergroup=__strimzi-topic-operator-kstreams},1650516518,0
{consumergroup=__strimzi-topic-operator-kstreams},1650516523,0
{consumergroup=__strimzi-topic-operator-kstreams},1650516528,0
{consumergroup=__strimzi-topic-operator-kstreams},1650516533,0
{consumergroup=__strimzi-topic-operator-kstreams},1650516538,0
{consumergroup=__strimzi-topic-operator-kstreams},1650516543,0
{consumergroup=__strimzi-topic-operator-kstreams},1650516548,0
{consumergroup=__strimzi-topic-operator-kstreams},1650516553,0
{consumergroup=__strimzi-topic-operator-kstreams},1650516558,0
{consumergroup=__strimzi-topic-operator-kstreams},1650516563,0
{consumergroup=__strimzi-topic-operator-kstreams},1650516568,0
{consumergroup=__strimzi-topic-operator-kstreams},1650516573,0
{consumergroup=__strimzi-topic-operator-kstreams},1650516578,0
{consumergroup=__strimzi-topic-operator-kstreams},1650516583,0
{consumergroup=__strimzi-topic-operator-kstreams},1650516588,0
{consumergroup=__strimzi-topic-operator-kstreams},1650516593,0
{consumergroup=__strimzi-topic-operator-kstreams},1650516598,0
{consumergroup=__strimzi-topic-operator-kstreams},1650516603,0
{consumergroup=__strimzi-topic-operator-kstreams},1650516608,0
{consumergroup=__strimzi-topic-operator-kstreams},1650516613,0
{consumergroup=__strimzi-topic-operator-kstreams},1650516618,0
{consumergroup=__strimzi-topic-operator-kstreams},1650516623,0
{consumergroup=__strimzi-topic-operator-kstreams},1650516628,0
{consumergroup=__strimzi-topic-operator-kstreams},1650516633,0
{consumergroup=__strimzi-topic-operator-kstreams},1650516638,0
{consumergroup=__strimzi-topic-operator-kstreams},1650516643,0
{consumergroup=__strimzi-topic-operator-kstreams},1650516648,0
{consumergroup=__strimzi-topic-operator-kstreams},1650516653,0
{consumergroup=__strimzi-topic-operator-kstreams},1650516658,0
{consumergroup=__strimzi-topic-operator-kstreams},1650516663,0
{consumergroup=__strimzi-topic-operator-kstreams},1650516668,0
{consumergroup=__strimzi-topic-operator-kstreams},1650516673,0
{consumergroup=__strimzi-topic-operator-kstreams},1650516678,0
{consumergroup=__strimzi-topic-operator-kstreams},1650516683,0
{consumergroup=__strimzi-topic-operator-kstreams},1650516688,0
{consumergroup=__strimzi-topic-operator-kstreams},1650516693,0
{consumergroup=__strimzi-topic-operator-kstreams},1650516698,0
{consumergroup=__strimzi-topic-operator-kstreams},1650516703,0
{consumergroup=__strimzi-topic-operator-kstreams},1650516708,0
{consumergroup=__strimzi-topic-operator-kstreams},1650516713,0
{consumergroup=__strimzi-topic-operator-kstreams},1650516718,0
