labels,timestamp,value
{consumergroup=__strimzi-topic-operator-kstreams},1650532298,0
{consumergroup=__strimzi-topic-operator-kstreams},1650532313,18
{consumergroup=__strimzi-topic-operator-kstreams},1650532318,18
{consumergroup=__strimzi-topic-operator-kstreams},1650532323,18
{consumergroup=__strimzi-topic-operator-kstreams},1650532328,0
{consumergroup=__strimzi-topic-operator-kstreams},1650532333,0
{consumergroup=__strimzi-topic-operator-kstreams},1650532338,0
{consumergroup=__strimzi-topic-operator-kstreams},1650532343,0
{consumergroup=__strimzi-topic-operator-kstreams},1650532348,0
{consumergroup=__strimzi-topic-operator-kstreams},1650532353,0
{consumergroup=__strimzi-topic-operator-kstreams},1650532358,0
{consumergroup=__strimzi-topic-operator-kstreams},1650532363,0
{consumergroup=__strimzi-topic-operator-kstreams},1650532368,0
{consumergroup=__strimzi-topic-operator-kstreams},1650532373,0
{consumergroup=__strimzi-topic-operator-kstreams},1650532378,0
{consumergroup=__strimzi-topic-operator-kstreams},1650532383,0
{consumergroup=__strimzi-topic-operator-kstreams},1650532388,0
{consumergroup=__strimzi-topic-operator-kstreams},1650532393,0
{consumergroup=__strimzi-topic-operator-kstreams},1650532398,0
{consumergroup=__strimzi-topic-operator-kstreams},1650532403,0
{consumergroup=__strimzi-topic-operator-kstreams},1650532408,0
{consumergroup=__strimzi-topic-operator-kstreams},1650532413,0
{consumergroup=__strimzi-topic-operator-kstreams},1650532418,0
{consumergroup=__strimzi-topic-operator-kstreams},1650532423,0
{consumergroup=__strimzi-topic-operator-kstreams},1650532428,0
{consumergroup=__strimzi-topic-operator-kstreams},1650532433,0
{consumergroup=__strimzi-topic-operator-kstreams},1650532438,0
{consumergroup=__strimzi-topic-operator-kstreams},1650532443,0
{consumergroup=__strimzi-topic-operator-kstreams},1650532448,0
{consumergroup=__strimzi-topic-operator-kstreams},1650532453,0
{consumergroup=__strimzi-topic-operator-kstreams},1650532458,0
{consumergroup=__strimzi-topic-operator-kstreams},1650532463,0
{consumergroup=__strimzi-topic-operator-kstreams},1650532468,0
{consumergroup=__strimzi-topic-operator-kstreams},1650532473,0
{consumergroup=__strimzi-topic-operator-kstreams},1650532478,0
{consumergroup=__strimzi-topic-operator-kstreams},1650532483,0
{consumergroup=__strimzi-topic-operator-kstreams},1650532488,0
{consumergroup=__strimzi-topic-operator-kstreams},1650532493,0
{consumergroup=__strimzi-topic-operator-kstreams},1650532498,0
{consumergroup=__strimzi-topic-operator-kstreams},1650532503,0
{consumergroup=__strimzi-topic-operator-kstreams},1650532508,0
{consumergroup=__strimzi-topic-operator-kstreams},1650532513,0
{consumergroup=__strimzi-topic-operator-kstreams},1650532518,0
{consumergroup=__strimzi-topic-operator-kstreams},1650532523,0
{consumergroup=__strimzi-topic-operator-kstreams},1650532528,0
{consumergroup=__strimzi-topic-operator-kstreams},1650532533,0
{consumergroup=__strimzi-topic-operator-kstreams},1650532538,0
{consumergroup=__strimzi-topic-operator-kstreams},1650532543,0
{consumergroup=__strimzi-topic-operator-kstreams},1650532548,0
{consumergroup=__strimzi-topic-operator-kstreams},1650532553,0
{consumergroup=__strimzi-topic-operator-kstreams},1650532558,0
{consumergroup=__strimzi-topic-operator-kstreams},1650532563,0
{consumergroup=__strimzi-topic-operator-kstreams},1650532568,0
{consumergroup=__strimzi-topic-operator-kstreams},1650532573,0
{consumergroup=__strimzi-topic-operator-kstreams},1650532578,0
{consumergroup=__strimzi-topic-operator-kstreams},1650532583,0
{consumergroup=__strimzi-topic-operator-kstreams},1650532588,0
{consumergroup=__strimzi-topic-operator-kstreams},1650532593,0
{consumergroup=__strimzi-topic-operator-kstreams},1650532598,0
{consumergroup=__strimzi-topic-operator-kstreams},1650532603,0
{consumergroup=__strimzi-topic-operator-kstreams},1650532608,0
{consumergroup=__strimzi-topic-operator-kstreams},1650532613,0
{consumergroup=__strimzi-topic-operator-kstreams},1650532618,0
{consumergroup=__strimzi-topic-operator-kstreams},1650532623,0
{consumergroup=__strimzi-topic-operator-kstreams},1650532628,0
{consumergroup=__strimzi-topic-operator-kstreams},1650532633,0
{consumergroup=__strimzi-topic-operator-kstreams},1650532638,0
{consumergroup=__strimzi-topic-operator-kstreams},1650532643,0
{consumergroup=__strimzi-topic-operator-kstreams},1650532648,0
{consumergroup=__strimzi-topic-operator-kstreams},1650532653,0
{consumergroup=__strimzi-topic-operator-kstreams},1650532658,0
{consumergroup=__strimzi-topic-operator-kstreams},1650532663,0
{consumergroup=__strimzi-topic-operator-kstreams},1650532668,0
{consumergroup=__strimzi-topic-operator-kstreams},1650532673,0
{consumergroup=__strimzi-topic-operator-kstreams},1650532678,0
{consumergroup=__strimzi-topic-operator-kstreams},1650532683,0
{consumergroup=__strimzi-topic-operator-kstreams},1650532688,0
{consumergroup=__strimzi-topic-operator-kstreams},1650532693,0
{consumergroup=__strimzi-topic-operator-kstreams},1650532698,0
{consumergroup=__strimzi-topic-operator-kstreams},1650532703,0
{consumergroup=__strimzi-topic-operator-kstreams},1650532708,0
{consumergroup=__strimzi-topic-operator-kstreams},1650532713,0
{consumergroup=__strimzi-topic-operator-kstreams},1650532718,0
{consumergroup=__strimzi-topic-operator-kstreams},1650532723,0
{consumergroup=__strimzi-topic-operator-kstreams},1650532728,0
{consumergroup=__strimzi-topic-operator-kstreams},1650532733,0
{consumergroup=__strimzi-topic-operator-kstreams},1650532738,0
{consumergroup=__strimzi-topic-operator-kstreams},1650532743,0
{consumergroup=__strimzi-topic-operator-kstreams},1650532748,0
{consumergroup=__strimzi-topic-operator-kstreams},1650532753,0
{consumergroup=__strimzi-topic-operator-kstreams},1650532758,0
{consumergroup=__strimzi-topic-operator-kstreams},1650532763,0
{consumergroup=__strimzi-topic-operator-kstreams},1650532768,0
{consumergroup=__strimzi-topic-operator-kstreams},1650532773,0
{consumergroup=__strimzi-topic-operator-kstreams},1650532778,0
{consumergroup=__strimzi-topic-operator-kstreams},1650532783,0
{consumergroup=__strimzi-topic-operator-kstreams},1650532788,0
{consumergroup=__strimzi-topic-operator-kstreams},1650532793,0
{consumergroup=__strimzi-topic-operator-kstreams},1650532798,0
