labels,timestamp,value
{consumergroup=__strimzi-topic-operator-kstreams},1650501683,14
{consumergroup=__strimzi-topic-operator-kstreams},1650501688,14
{consumergroup=__strimzi-topic-operator-kstreams},1650501693,14
{consumergroup=__strimzi-topic-operator-kstreams},1650501698,0
{consumergroup=__strimzi-topic-operator-kstreams},1650501703,0
{consumergroup=__strimzi-topic-operator-kstreams},1650501708,0
{consumergroup=__strimzi-topic-operator-kstreams},1650501713,0
{consumergroup=__strimzi-topic-operator-kstreams},1650501718,0
{consumergroup=__strimzi-topic-operator-kstreams},1650501723,0
{consumergroup=__strimzi-topic-operator-kstreams},1650501728,0
{consumergroup=__strimzi-topic-operator-kstreams},1650501733,0
{consumergroup=__strimzi-topic-operator-kstreams},1650501738,0
{consumergroup=__strimzi-topic-operator-kstreams},1650501743,0
{consumergroup=__strimzi-topic-operator-kstreams},1650501748,0
{consumergroup=__strimzi-topic-operator-kstreams},1650501753,0
{consumergroup=__strimzi-topic-operator-kstreams},1650501758,0
{consumergroup=__strimzi-topic-operator-kstreams},1650501763,0
{consumergroup=__strimzi-topic-operator-kstreams},1650501768,0
{consumergroup=__strimzi-topic-operator-kstreams},1650501773,0
{consumergroup=__strimzi-topic-operator-kstreams},1650501778,0
{consumergroup=__strimzi-topic-operator-kstreams},1650501783,0
{consumergroup=__strimzi-topic-operator-kstreams},1650501788,0
{consumergroup=__strimzi-topic-operator-kstreams},1650501793,0
{consumergroup=__strimzi-topic-operator-kstreams},1650501798,0
{consumergroup=__strimzi-topic-operator-kstreams},1650501803,0
{consumergroup=__strimzi-topic-operator-kstreams},1650501808,0
{consumergroup=__strimzi-topic-operator-kstreams},1650501813,0
{consumergroup=__strimzi-topic-operator-kstreams},1650501818,0
{consumergroup=__strimzi-topic-operator-kstreams},1650501823,0
{consumergroup=__strimzi-topic-operator-kstreams},1650501828,0
{consumergroup=__strimzi-topic-operator-kstreams},1650501833,0
{consumergroup=__strimzi-topic-operator-kstreams},1650501838,0
{consumergroup=__strimzi-topic-operator-kstreams},1650501843,0
{consumergroup=__strimzi-topic-operator-kstreams},1650501848,0
{consumergroup=__strimzi-topic-operator-kstreams},1650501853,0
{consumergroup=__strimzi-topic-operator-kstreams},1650501858,0
{consumergroup=__strimzi-topic-operator-kstreams},1650501863,0
{consumergroup=__strimzi-topic-operator-kstreams},1650501868,0
{consumergroup=__strimzi-topic-operator-kstreams},1650501873,0
{consumergroup=__strimzi-topic-operator-kstreams},1650501878,0
{consumergroup=__strimzi-topic-operator-kstreams},1650501883,0
{consumergroup=__strimzi-topic-operator-kstreams},1650501888,0
{consumergroup=__strimzi-topic-operator-kstreams},1650501893,0
{consumergroup=__strimzi-topic-operator-kstreams},1650501898,0
{consumergroup=__strimzi-topic-operator-kstreams},1650501903,0
{consumergroup=__strimzi-topic-operator-kstreams},1650501908,0
{consumergroup=__strimzi-topic-operator-kstreams},1650501913,0
{consumergroup=__strimzi-topic-operator-kstreams},1650501918,0
{consumergroup=__strimzi-topic-operator-kstreams},1650501923,0
{consumergroup=__strimzi-topic-operator-kstreams},1650501928,0
{consumergroup=__strimzi-topic-operator-kstreams},1650501933,0
{consumergroup=__strimzi-topic-operator-kstreams},1650501938,0
{consumergroup=__strimzi-topic-operator-kstreams},1650501943,0
{consumergroup=__strimzi-topic-operator-kstreams},1650501948,0
{consumergroup=__strimzi-topic-operator-kstreams},1650501953,0
{consumergroup=__strimzi-topic-operator-kstreams},1650501958,0
{consumergroup=__strimzi-topic-operator-kstreams},1650501963,0
{consumergroup=__strimzi-topic-operator-kstreams},1650501968,0
{consumergroup=__strimzi-topic-operator-kstreams},1650501973,0
{consumergroup=__strimzi-topic-operator-kstreams},1650501978,0
{consumergroup=__strimzi-topic-operator-kstreams},1650501983,0
{consumergroup=__strimzi-topic-operator-kstreams},1650501988,0
{consumergroup=__strimzi-topic-operator-kstreams},1650501993,0
{consumergroup=__strimzi-topic-operator-kstreams},1650501998,0
{consumergroup=__strimzi-topic-operator-kstreams},1650502003,0
{consumergroup=__strimzi-topic-operator-kstreams},1650502008,0
{consumergroup=__strimzi-topic-operator-kstreams},1650502013,0
{consumergroup=__strimzi-topic-operator-kstreams},1650502018,0
{consumergroup=__strimzi-topic-operator-kstreams},1650502023,0
{consumergroup=__strimzi-topic-operator-kstreams},1650502028,0
{consumergroup=__strimzi-topic-operator-kstreams},1650502033,0
{consumergroup=__strimzi-topic-operator-kstreams},1650502038,0
{consumergroup=__strimzi-topic-operator-kstreams},1650502043,0
{consumergroup=__strimzi-topic-operator-kstreams},1650502048,0
{consumergroup=__strimzi-topic-operator-kstreams},1650502053,0
{consumergroup=__strimzi-topic-operator-kstreams},1650502058,0
{consumergroup=__strimzi-topic-operator-kstreams},1650502063,0
{consumergroup=__strimzi-topic-operator-kstreams},1650502068,0
{consumergroup=__strimzi-topic-operator-kstreams},1650502073,0
{consumergroup=__strimzi-topic-operator-kstreams},1650502078,0
{consumergroup=__strimzi-topic-operator-kstreams},1650502083,0
{consumergroup=__strimzi-topic-operator-kstreams},1650502088,0
{consumergroup=__strimzi-topic-operator-kstreams},1650502093,0
{consumergroup=__strimzi-topic-operator-kstreams},1650502098,0
{consumergroup=__strimzi-topic-operator-kstreams},1650502103,0
{consumergroup=__strimzi-topic-operator-kstreams},1650502108,0
{consumergroup=__strimzi-topic-operator-kstreams},1650502113,0
{consumergroup=__strimzi-topic-operator-kstreams},1650502118,0
{consumergroup=__strimzi-topic-operator-kstreams},1650502123,0
{consumergroup=__strimzi-topic-operator-kstreams},1650502128,0
{consumergroup=__strimzi-topic-operator-kstreams},1650502133,0
{consumergroup=__strimzi-topic-operator-kstreams},1650502138,0
{consumergroup=__strimzi-topic-operator-kstreams},1650502143,0
{consumergroup=__strimzi-topic-operator-kstreams},1650502148,0
{consumergroup=__strimzi-topic-operator-kstreams},1650502153,0
{consumergroup=__strimzi-topic-operator-kstreams},1650502158,0
{consumergroup=__strimzi-topic-operator-kstreams},1650502163,0
{consumergroup=__strimzi-topic-operator-kstreams},1650502168,0
{consumergroup=__strimzi-topic-operator-kstreams},1650502173,0
