labels,timestamp,value
{consumergroup=__strimzi-topic-operator-kstreams},1650498984,20
{consumergroup=__strimzi-topic-operator-kstreams},1650498989,20
{consumergroup=__strimzi-topic-operator-kstreams},1650498994,20
{consumergroup=__strimzi-topic-operator-kstreams},1650498999,0
{consumergroup=__strimzi-topic-operator-kstreams},1650499004,0
{consumergroup=__strimzi-topic-operator-kstreams},1650499009,0
{consumergroup=__strimzi-topic-operator-kstreams},1650499014,0
{consumergroup=__strimzi-topic-operator-kstreams},1650499019,0
{consumergroup=__strimzi-topic-operator-kstreams},1650499024,0
{consumergroup=__strimzi-topic-operator-kstreams},1650499029,0
{consumergroup=__strimzi-topic-operator-kstreams},1650499034,0
{consumergroup=__strimzi-topic-operator-kstreams},1650499039,0
{consumergroup=__strimzi-topic-operator-kstreams},1650499044,0
{consumergroup=__strimzi-topic-operator-kstreams},1650499049,0
{consumergroup=__strimzi-topic-operator-kstreams},1650499054,0
{consumergroup=__strimzi-topic-operator-kstreams},1650499059,0
{consumergroup=__strimzi-topic-operator-kstreams},1650499064,0
{consumergroup=__strimzi-topic-operator-kstreams},1650499069,0
{consumergroup=__strimzi-topic-operator-kstreams},1650499074,0
{consumergroup=__strimzi-topic-operator-kstreams},1650499079,0
{consumergroup=__strimzi-topic-operator-kstreams},1650499084,0
{consumergroup=__strimzi-topic-operator-kstreams},1650499089,0
{consumergroup=__strimzi-topic-operator-kstreams},1650499094,0
{consumergroup=__strimzi-topic-operator-kstreams},1650499099,0
{consumergroup=__strimzi-topic-operator-kstreams},1650499104,0
{consumergroup=__strimzi-topic-operator-kstreams},1650499109,0
{consumergroup=__strimzi-topic-operator-kstreams},1650499114,0
{consumergroup=__strimzi-topic-operator-kstreams},1650499119,0
{consumergroup=__strimzi-topic-operator-kstreams},1650499124,0
{consumergroup=__strimzi-topic-operator-kstreams},1650499129,0
{consumergroup=__strimzi-topic-operator-kstreams},1650499134,0
{consumergroup=__strimzi-topic-operator-kstreams},1650499139,0
{consumergroup=__strimzi-topic-operator-kstreams},1650499144,0
{consumergroup=__strimzi-topic-operator-kstreams},1650499149,0
{consumergroup=__strimzi-topic-operator-kstreams},1650499154,0
{consumergroup=__strimzi-topic-operator-kstreams},1650499159,0
{consumergroup=__strimzi-topic-operator-kstreams},1650499164,0
{consumergroup=__strimzi-topic-operator-kstreams},1650499169,0
{consumergroup=__strimzi-topic-operator-kstreams},1650499174,0
{consumergroup=__strimzi-topic-operator-kstreams},1650499179,0
{consumergroup=__strimzi-topic-operator-kstreams},1650499184,0
{consumergroup=__strimzi-topic-operator-kstreams},1650499189,0
{consumergroup=__strimzi-topic-operator-kstreams},1650499194,0
{consumergroup=__strimzi-topic-operator-kstreams},1650499199,0
{consumergroup=__strimzi-topic-operator-kstreams},1650499204,0
{consumergroup=__strimzi-topic-operator-kstreams},1650499209,0
{consumergroup=__strimzi-topic-operator-kstreams},1650499214,0
{consumergroup=__strimzi-topic-operator-kstreams},1650499219,0
{consumergroup=__strimzi-topic-operator-kstreams},1650499224,0
{consumergroup=__strimzi-topic-operator-kstreams},1650499229,0
{consumergroup=__strimzi-topic-operator-kstreams},1650499234,0
{consumergroup=__strimzi-topic-operator-kstreams},1650499239,0
{consumergroup=__strimzi-topic-operator-kstreams},1650499244,0
{consumergroup=__strimzi-topic-operator-kstreams},1650499249,0
{consumergroup=__strimzi-topic-operator-kstreams},1650499254,0
{consumergroup=__strimzi-topic-operator-kstreams},1650499259,0
{consumergroup=__strimzi-topic-operator-kstreams},1650499264,0
{consumergroup=__strimzi-topic-operator-kstreams},1650499269,0
{consumergroup=__strimzi-topic-operator-kstreams},1650499274,0
{consumergroup=__strimzi-topic-operator-kstreams},1650499279,0
{consumergroup=__strimzi-topic-operator-kstreams},1650499284,0
{consumergroup=__strimzi-topic-operator-kstreams},1650499289,0
{consumergroup=__strimzi-topic-operator-kstreams},1650499294,0
{consumergroup=__strimzi-topic-operator-kstreams},1650499299,0
{consumergroup=__strimzi-topic-operator-kstreams},1650499304,0
{consumergroup=__strimzi-topic-operator-kstreams},1650499309,0
{consumergroup=__strimzi-topic-operator-kstreams},1650499314,0
{consumergroup=__strimzi-topic-operator-kstreams},1650499319,0
{consumergroup=__strimzi-topic-operator-kstreams},1650499324,0
{consumergroup=__strimzi-topic-operator-kstreams},1650499329,0
{consumergroup=__strimzi-topic-operator-kstreams},1650499334,0
{consumergroup=__strimzi-topic-operator-kstreams},1650499339,0
{consumergroup=__strimzi-topic-operator-kstreams},1650499344,0
{consumergroup=__strimzi-topic-operator-kstreams},1650499349,0
{consumergroup=__strimzi-topic-operator-kstreams},1650499354,0
{consumergroup=__strimzi-topic-operator-kstreams},1650499359,0
{consumergroup=__strimzi-topic-operator-kstreams},1650499364,0
{consumergroup=__strimzi-topic-operator-kstreams},1650499369,0
{consumergroup=__strimzi-topic-operator-kstreams},1650499374,0
{consumergroup=__strimzi-topic-operator-kstreams},1650499379,0
{consumergroup=__strimzi-topic-operator-kstreams},1650499384,0
{consumergroup=__strimzi-topic-operator-kstreams},1650499389,0
{consumergroup=__strimzi-topic-operator-kstreams},1650499394,0
{consumergroup=__strimzi-topic-operator-kstreams},1650499399,0
{consumergroup=__strimzi-topic-operator-kstreams},1650499404,0
{consumergroup=__strimzi-topic-operator-kstreams},1650499409,0
{consumergroup=__strimzi-topic-operator-kstreams},1650499414,0
{consumergroup=__strimzi-topic-operator-kstreams},1650499419,0
{consumergroup=__strimzi-topic-operator-kstreams},1650499424,0
{consumergroup=__strimzi-topic-operator-kstreams},1650499429,0
{consumergroup=__strimzi-topic-operator-kstreams},1650499434,0
{consumergroup=__strimzi-topic-operator-kstreams},1650499439,0
{consumergroup=__strimzi-topic-operator-kstreams},1650499444,0
{consumergroup=__strimzi-topic-operator-kstreams},1650499449,0
{consumergroup=__strimzi-topic-operator-kstreams},1650499454,0
{consumergroup=__strimzi-topic-operator-kstreams},1650499459,0
{consumergroup=__strimzi-topic-operator-kstreams},1650499464,0
{consumergroup=__strimzi-topic-operator-kstreams},1650499469,0
{consumergroup=__strimzi-topic-operator-kstreams},1650499474,0
