labels,timestamp,value
{consumergroup=__strimzi-topic-operator-kstreams},1650495201,2
{consumergroup=__strimzi-topic-operator-kstreams},1650495206,2
{consumergroup=__strimzi-topic-operator-kstreams},1650495211,2
{consumergroup=__strimzi-topic-operator-kstreams},1650495216,5
{consumergroup=__strimzi-topic-operator-kstreams},1650495221,5
{consumergroup=__strimzi-topic-operator-kstreams},1650495226,5
{consumergroup=__strimzi-topic-operator-kstreams},1650495231,0
{consumergroup=__strimzi-topic-operator-kstreams},1650495236,0
{consumergroup=__strimzi-topic-operator-kstreams},1650495241,0
{consumergroup=__strimzi-topic-operator-kstreams},1650495246,0
{consumergroup=__strimzi-topic-operator-kstreams},1650495251,0
{consumergroup=__strimzi-topic-operator-kstreams},1650495256,0
{consumergroup=__strimzi-topic-operator-kstreams},1650495261,0
{consumergroup=__strimzi-topic-operator-kstreams},1650495266,0
{consumergroup=__strimzi-topic-operator-kstreams},1650495271,0
{consumergroup=__strimzi-topic-operator-kstreams},1650495276,0
{consumergroup=__strimzi-topic-operator-kstreams},1650495281,0
{consumergroup=__strimzi-topic-operator-kstreams},1650495286,0
{consumergroup=__strimzi-topic-operator-kstreams},1650495291,0
{consumergroup=__strimzi-topic-operator-kstreams},1650495296,0
{consumergroup=__strimzi-topic-operator-kstreams},1650495301,0
{consumergroup=__strimzi-topic-operator-kstreams},1650495306,0
{consumergroup=__strimzi-topic-operator-kstreams},1650495311,0
{consumergroup=__strimzi-topic-operator-kstreams},1650495316,0
{consumergroup=__strimzi-topic-operator-kstreams},1650495321,0
{consumergroup=__strimzi-topic-operator-kstreams},1650495326,0
{consumergroup=__strimzi-topic-operator-kstreams},1650495331,0
{consumergroup=__strimzi-topic-operator-kstreams},1650495336,0
{consumergroup=__strimzi-topic-operator-kstreams},1650495341,0
{consumergroup=__strimzi-topic-operator-kstreams},1650495346,0
{consumergroup=__strimzi-topic-operator-kstreams},1650495351,0
{consumergroup=__strimzi-topic-operator-kstreams},1650495356,0
{consumergroup=__strimzi-topic-operator-kstreams},1650495361,0
{consumergroup=__strimzi-topic-operator-kstreams},1650495366,0
{consumergroup=__strimzi-topic-operator-kstreams},1650495371,0
{consumergroup=__strimzi-topic-operator-kstreams},1650495376,0
{consumergroup=__strimzi-topic-operator-kstreams},1650495381,0
{consumergroup=__strimzi-topic-operator-kstreams},1650495386,0
{consumergroup=__strimzi-topic-operator-kstreams},1650495391,0
{consumergroup=__strimzi-topic-operator-kstreams},1650495396,0
{consumergroup=__strimzi-topic-operator-kstreams},1650495401,0
{consumergroup=__strimzi-topic-operator-kstreams},1650495406,0
{consumergroup=__strimzi-topic-operator-kstreams},1650495411,0
{consumergroup=__strimzi-topic-operator-kstreams},1650495416,0
{consumergroup=__strimzi-topic-operator-kstreams},1650495421,0
{consumergroup=__strimzi-topic-operator-kstreams},1650495426,0
{consumergroup=__strimzi-topic-operator-kstreams},1650495431,0
{consumergroup=__strimzi-topic-operator-kstreams},1650495436,0
{consumergroup=__strimzi-topic-operator-kstreams},1650495441,0
{consumergroup=__strimzi-topic-operator-kstreams},1650495446,0
{consumergroup=__strimzi-topic-operator-kstreams},1650495451,0
{consumergroup=__strimzi-topic-operator-kstreams},1650495456,0
{consumergroup=__strimzi-topic-operator-kstreams},1650495461,0
{consumergroup=__strimzi-topic-operator-kstreams},1650495466,0
{consumergroup=__strimzi-topic-operator-kstreams},1650495471,0
{consumergroup=__strimzi-topic-operator-kstreams},1650495476,0
{consumergroup=__strimzi-topic-operator-kstreams},1650495481,0
{consumergroup=__strimzi-topic-operator-kstreams},1650495486,0
{consumergroup=__strimzi-topic-operator-kstreams},1650495491,0
{consumergroup=__strimzi-topic-operator-kstreams},1650495496,0
{consumergroup=__strimzi-topic-operator-kstreams},1650495501,0
{consumergroup=__strimzi-topic-operator-kstreams},1650495506,0
{consumergroup=__strimzi-topic-operator-kstreams},1650495511,0
{consumergroup=__strimzi-topic-operator-kstreams},1650495516,0
{consumergroup=__strimzi-topic-operator-kstreams},1650495521,0
{consumergroup=__strimzi-topic-operator-kstreams},1650495526,0
{consumergroup=__strimzi-topic-operator-kstreams},1650495531,0
{consumergroup=__strimzi-topic-operator-kstreams},1650495536,0
{consumergroup=__strimzi-topic-operator-kstreams},1650495541,0
{consumergroup=__strimzi-topic-operator-kstreams},1650495546,0
{consumergroup=__strimzi-topic-operator-kstreams},1650495551,0
{consumergroup=__strimzi-topic-operator-kstreams},1650495556,0
{consumergroup=__strimzi-topic-operator-kstreams},1650495561,0
{consumergroup=__strimzi-topic-operator-kstreams},1650495566,0
{consumergroup=__strimzi-topic-operator-kstreams},1650495571,0
{consumergroup=__strimzi-topic-operator-kstreams},1650495576,0
{consumergroup=__strimzi-topic-operator-kstreams},1650495581,0
{consumergroup=__strimzi-topic-operator-kstreams},1650495586,0
{consumergroup=__strimzi-topic-operator-kstreams},1650495591,0
{consumergroup=__strimzi-topic-operator-kstreams},1650495596,0
{consumergroup=__strimzi-topic-operator-kstreams},1650495601,0
{consumergroup=__strimzi-topic-operator-kstreams},1650495606,0
{consumergroup=__strimzi-topic-operator-kstreams},1650495611,0
{consumergroup=__strimzi-topic-operator-kstreams},1650495616,0
{consumergroup=__strimzi-topic-operator-kstreams},1650495621,0
{consumergroup=__strimzi-topic-operator-kstreams},1650495626,0
{consumergroup=__strimzi-topic-operator-kstreams},1650495631,0
{consumergroup=__strimzi-topic-operator-kstreams},1650495636,0
{consumergroup=__strimzi-topic-operator-kstreams},1650495641,0
{consumergroup=__strimzi-topic-operator-kstreams},1650495646,0
{consumergroup=__strimzi-topic-operator-kstreams},1650495651,0
{consumergroup=__strimzi-topic-operator-kstreams},1650495656,0
{consumergroup=__strimzi-topic-operator-kstreams},1650495661,0
{consumergroup=__strimzi-topic-operator-kstreams},1650495666,0
{consumergroup=__strimzi-topic-operator-kstreams},1650495671,0
{consumergroup=__strimzi-topic-operator-kstreams},1650495676,0
{consumergroup=__strimzi-topic-operator-kstreams},1650495681,0
{consumergroup=__strimzi-topic-operator-kstreams},1650495686,0
{consumergroup=__strimzi-topic-operator-kstreams},1650495691,0
{consumergroup=__strimzi-topic-operator-kstreams},1650495696,0
