labels,timestamp,value
{consumergroup=__strimzi-topic-operator-kstreams},1650508172,9
{consumergroup=__strimzi-topic-operator-kstreams},1650508177,9
{consumergroup=__strimzi-topic-operator-kstreams},1650508182,9
{consumergroup=__strimzi-topic-operator-kstreams},1650508187,12
{consumergroup=__strimzi-topic-operator-kstreams},1650508192,12
{consumergroup=__strimzi-topic-operator-kstreams},1650508197,12
{consumergroup=__strimzi-topic-operator-kstreams},1650508202,0
{consumergroup=__strimzi-topic-operator-kstreams},1650508207,0
{consumergroup=__strimzi-topic-operator-kstreams},1650508212,0
{consumergroup=__strimzi-topic-operator-kstreams},1650508217,0
{consumergroup=__strimzi-topic-operator-kstreams},1650508222,0
{consumergroup=__strimzi-topic-operator-kstreams},1650508227,0
{consumergroup=__strimzi-topic-operator-kstreams},1650508232,0
{consumergroup=__strimzi-topic-operator-kstreams},1650508237,0
{consumergroup=__strimzi-topic-operator-kstreams},1650508242,0
{consumergroup=__strimzi-topic-operator-kstreams},1650508247,0
{consumergroup=__strimzi-topic-operator-kstreams},1650508252,0
{consumergroup=__strimzi-topic-operator-kstreams},1650508257,0
{consumergroup=__strimzi-topic-operator-kstreams},1650508262,0
{consumergroup=__strimzi-topic-operator-kstreams},1650508267,0
{consumergroup=__strimzi-topic-operator-kstreams},1650508272,0
{consumergroup=__strimzi-topic-operator-kstreams},1650508277,0
{consumergroup=__strimzi-topic-operator-kstreams},1650508282,0
{consumergroup=__strimzi-topic-operator-kstreams},1650508287,0
{consumergroup=__strimzi-topic-operator-kstreams},1650508292,0
{consumergroup=__strimzi-topic-operator-kstreams},1650508297,0
{consumergroup=__strimzi-topic-operator-kstreams},1650508302,0
{consumergroup=__strimzi-topic-operator-kstreams},1650508307,0
{consumergroup=__strimzi-topic-operator-kstreams},1650508312,0
{consumergroup=__strimzi-topic-operator-kstreams},1650508317,0
{consumergroup=__strimzi-topic-operator-kstreams},1650508322,0
{consumergroup=__strimzi-topic-operator-kstreams},1650508327,0
{consumergroup=__strimzi-topic-operator-kstreams},1650508332,0
{consumergroup=__strimzi-topic-operator-kstreams},1650508337,0
{consumergroup=__strimzi-topic-operator-kstreams},1650508342,0
{consumergroup=__strimzi-topic-operator-kstreams},1650508347,0
{consumergroup=__strimzi-topic-operator-kstreams},1650508352,0
{consumergroup=__strimzi-topic-operator-kstreams},1650508357,0
{consumergroup=__strimzi-topic-operator-kstreams},1650508362,0
{consumergroup=__strimzi-topic-operator-kstreams},1650508367,0
{consumergroup=__strimzi-topic-operator-kstreams},1650508372,0
{consumergroup=__strimzi-topic-operator-kstreams},1650508377,0
{consumergroup=__strimzi-topic-operator-kstreams},1650508382,0
{consumergroup=__strimzi-topic-operator-kstreams},1650508387,0
{consumergroup=__strimzi-topic-operator-kstreams},1650508392,0
{consumergroup=__strimzi-topic-operator-kstreams},1650508397,0
{consumergroup=__strimzi-topic-operator-kstreams},1650508402,0
{consumergroup=__strimzi-topic-operator-kstreams},1650508407,0
{consumergroup=__strimzi-topic-operator-kstreams},1650508412,0
{consumergroup=__strimzi-topic-operator-kstreams},1650508417,0
{consumergroup=__strimzi-topic-operator-kstreams},1650508422,0
{consumergroup=__strimzi-topic-operator-kstreams},1650508427,0
{consumergroup=__strimzi-topic-operator-kstreams},1650508432,0
{consumergroup=__strimzi-topic-operator-kstreams},1650508437,0
{consumergroup=__strimzi-topic-operator-kstreams},1650508442,0
{consumergroup=__strimzi-topic-operator-kstreams},1650508447,0
{consumergroup=__strimzi-topic-operator-kstreams},1650508452,0
{consumergroup=__strimzi-topic-operator-kstreams},1650508457,0
{consumergroup=__strimzi-topic-operator-kstreams},1650508462,0
{consumergroup=__strimzi-topic-operator-kstreams},1650508467,0
{consumergroup=__strimzi-topic-operator-kstreams},1650508472,0
{consumergroup=__strimzi-topic-operator-kstreams},1650508477,0
{consumergroup=__strimzi-topic-operator-kstreams},1650508482,0
{consumergroup=__strimzi-topic-operator-kstreams},1650508487,0
{consumergroup=__strimzi-topic-operator-kstreams},1650508492,0
{consumergroup=__strimzi-topic-operator-kstreams},1650508497,0
{consumergroup=__strimzi-topic-operator-kstreams},1650508502,0
{consumergroup=__strimzi-topic-operator-kstreams},1650508507,0
{consumergroup=__strimzi-topic-operator-kstreams},1650508512,0
{consumergroup=__strimzi-topic-operator-kstreams},1650508517,0
{consumergroup=__strimzi-topic-operator-kstreams},1650508522,0
{consumergroup=__strimzi-topic-operator-kstreams},1650508527,0
{consumergroup=__strimzi-topic-operator-kstreams},1650508532,0
{consumergroup=__strimzi-topic-operator-kstreams},1650508537,0
{consumergroup=__strimzi-topic-operator-kstreams},1650508542,0
{consumergroup=__strimzi-topic-operator-kstreams},1650508547,0
{consumergroup=__strimzi-topic-operator-kstreams},1650508552,0
{consumergroup=__strimzi-topic-operator-kstreams},1650508557,0
{consumergroup=__strimzi-topic-operator-kstreams},1650508562,0
{consumergroup=__strimzi-topic-operator-kstreams},1650508567,0
{consumergroup=__strimzi-topic-operator-kstreams},1650508572,0
{consumergroup=__strimzi-topic-operator-kstreams},1650508577,0
{consumergroup=__strimzi-topic-operator-kstreams},1650508582,0
{consumergroup=__strimzi-topic-operator-kstreams},1650508587,0
{consumergroup=__strimzi-topic-operator-kstreams},1650508592,0
{consumergroup=__strimzi-topic-operator-kstreams},1650508597,0
{consumergroup=__strimzi-topic-operator-kstreams},1650508602,0
{consumergroup=__strimzi-topic-operator-kstreams},1650508607,0
{consumergroup=__strimzi-topic-operator-kstreams},1650508612,0
{consumergroup=__strimzi-topic-operator-kstreams},1650508617,0
{consumergroup=__strimzi-topic-operator-kstreams},1650508622,0
{consumergroup=__strimzi-topic-operator-kstreams},1650508627,0
{consumergroup=__strimzi-topic-operator-kstreams},1650508632,0
{consumergroup=__strimzi-topic-operator-kstreams},1650508637,0
{consumergroup=__strimzi-topic-operator-kstreams},1650508642,0
{consumergroup=__strimzi-topic-operator-kstreams},1650508647,0
{consumergroup=__strimzi-topic-operator-kstreams},1650508652,0
{consumergroup=__strimzi-topic-operator-kstreams},1650508657,0
{consumergroup=__strimzi-topic-operator-kstreams},1650508662,0
