labels,timestamp,value
{consumergroup=__strimzi-topic-operator-kstreams},1650536648,11
{consumergroup=__strimzi-topic-operator-kstreams},1650536653,11
{consumergroup=__strimzi-topic-operator-kstreams},1650536658,11
{consumergroup=__strimzi-topic-operator-kstreams},1650536663,0
{consumergroup=__strimzi-topic-operator-kstreams},1650536668,0
{consumergroup=__strimzi-topic-operator-kstreams},1650536673,0
{consumergroup=__strimzi-topic-operator-kstreams},1650536678,0
{consumergroup=__strimzi-topic-operator-kstreams},1650536683,0
{consumergroup=__strimzi-topic-operator-kstreams},1650536688,0
{consumergroup=__strimzi-topic-operator-kstreams},1650536693,0
{consumergroup=__strimzi-topic-operator-kstreams},1650536698,0
{consumergroup=__strimzi-topic-operator-kstreams},1650536703,0
{consumergroup=__strimzi-topic-operator-kstreams},1650536708,0
{consumergroup=__strimzi-topic-operator-kstreams},1650536713,0
{consumergroup=__strimzi-topic-operator-kstreams},1650536718,0
{consumergroup=__strimzi-topic-operator-kstreams},1650536723,0
{consumergroup=__strimzi-topic-operator-kstreams},1650536728,0
{consumergroup=__strimzi-topic-operator-kstreams},1650536733,0
{consumergroup=__strimzi-topic-operator-kstreams},1650536738,0
{consumergroup=__strimzi-topic-operator-kstreams},1650536743,0
{consumergroup=__strimzi-topic-operator-kstreams},1650536748,0
{consumergroup=__strimzi-topic-operator-kstreams},1650536753,0
{consumergroup=__strimzi-topic-operator-kstreams},1650536758,0
{consumergroup=__strimzi-topic-operator-kstreams},1650536763,0
{consumergroup=__strimzi-topic-operator-kstreams},1650536768,0
{consumergroup=__strimzi-topic-operator-kstreams},1650536773,0
{consumergroup=__strimzi-topic-operator-kstreams},1650536778,0
{consumergroup=__strimzi-topic-operator-kstreams},1650536783,0
{consumergroup=__strimzi-topic-operator-kstreams},1650536788,0
{consumergroup=__strimzi-topic-operator-kstreams},1650536793,0
{consumergroup=__strimzi-topic-operator-kstreams},1650536798,0
{consumergroup=__strimzi-topic-operator-kstreams},1650536803,0
{consumergroup=__strimzi-topic-operator-kstreams},1650536808,0
{consumergroup=__strimzi-topic-operator-kstreams},1650536813,0
{consumergroup=__strimzi-topic-operator-kstreams},1650536818,0
{consumergroup=__strimzi-topic-operator-kstreams},1650536823,0
{consumergroup=__strimzi-topic-operator-kstreams},1650536828,0
{consumergroup=__strimzi-topic-operator-kstreams},1650536833,0
{consumergroup=__strimzi-topic-operator-kstreams},1650536838,0
{consumergroup=__strimzi-topic-operator-kstreams},1650536843,0
{consumergroup=__strimzi-topic-operator-kstreams},1650536848,0
{consumergroup=__strimzi-topic-operator-kstreams},1650536853,0
{consumergroup=__strimzi-topic-operator-kstreams},1650536858,0
{consumergroup=__strimzi-topic-operator-kstreams},1650536863,0
{consumergroup=__strimzi-topic-operator-kstreams},1650536868,0
{consumergroup=__strimzi-topic-operator-kstreams},1650536873,0
{consumergroup=__strimzi-topic-operator-kstreams},1650536878,0
{consumergroup=__strimzi-topic-operator-kstreams},1650536883,0
{consumergroup=__strimzi-topic-operator-kstreams},1650536888,0
{consumergroup=__strimzi-topic-operator-kstreams},1650536893,0
{consumergroup=__strimzi-topic-operator-kstreams},1650536898,0
{consumergroup=__strimzi-topic-operator-kstreams},1650536903,0
{consumergroup=__strimzi-topic-operator-kstreams},1650536908,0
{consumergroup=__strimzi-topic-operator-kstreams},1650536913,0
{consumergroup=__strimzi-topic-operator-kstreams},1650536918,0
{consumergroup=__strimzi-topic-operator-kstreams},1650536923,0
{consumergroup=__strimzi-topic-operator-kstreams},1650536928,0
{consumergroup=__strimzi-topic-operator-kstreams},1650536933,0
{consumergroup=__strimzi-topic-operator-kstreams},1650536938,0
{consumergroup=__strimzi-topic-operator-kstreams},1650536943,0
{consumergroup=__strimzi-topic-operator-kstreams},1650536948,0
{consumergroup=__strimzi-topic-operator-kstreams},1650536953,0
{consumergroup=__strimzi-topic-operator-kstreams},1650536958,0
{consumergroup=__strimzi-topic-operator-kstreams},1650536963,0
{consumergroup=__strimzi-topic-operator-kstreams},1650536968,0
{consumergroup=__strimzi-topic-operator-kstreams},1650536973,0
{consumergroup=__strimzi-topic-operator-kstreams},1650536978,0
{consumergroup=__strimzi-topic-operator-kstreams},1650536983,0
{consumergroup=__strimzi-topic-operator-kstreams},1650536988,0
{consumergroup=__strimzi-topic-operator-kstreams},1650536993,0
{consumergroup=__strimzi-topic-operator-kstreams},1650536998,0
{consumergroup=__strimzi-topic-operator-kstreams},1650537003,0
{consumergroup=__strimzi-topic-operator-kstreams},1650537008,0
{consumergroup=__strimzi-topic-operator-kstreams},1650537013,0
{consumergroup=__strimzi-topic-operator-kstreams},1650537018,0
{consumergroup=__strimzi-topic-operator-kstreams},1650537023,0
{consumergroup=__strimzi-topic-operator-kstreams},1650537028,0
{consumergroup=__strimzi-topic-operator-kstreams},1650537033,0
{consumergroup=__strimzi-topic-operator-kstreams},1650537038,0
{consumergroup=__strimzi-topic-operator-kstreams},1650537043,0
{consumergroup=__strimzi-topic-operator-kstreams},1650537048,0
{consumergroup=__strimzi-topic-operator-kstreams},1650537053,0
{consumergroup=__strimzi-topic-operator-kstreams},1650537058,0
{consumergroup=__strimzi-topic-operator-kstreams},1650537063,0
{consumergroup=__strimzi-topic-operator-kstreams},1650537068,0
{consumergroup=__strimzi-topic-operator-kstreams},1650537073,0
{consumergroup=__strimzi-topic-operator-kstreams},1650537078,0
{consumergroup=__strimzi-topic-operator-kstreams},1650537083,0
{consumergroup=__strimzi-topic-operator-kstreams},1650537088,0
{consumergroup=__strimzi-topic-operator-kstreams},1650537093,0
{consumergroup=__strimzi-topic-operator-kstreams},1650537098,0
{consumergroup=__strimzi-topic-operator-kstreams},1650537103,0
{consumergroup=__strimzi-topic-operator-kstreams},1650537108,0
{consumergroup=__strimzi-topic-operator-kstreams},1650537113,0
{consumergroup=__strimzi-topic-operator-kstreams},1650537118,0
{consumergroup=__strimzi-topic-operator-kstreams},1650537123,0
{consumergroup=__strimzi-topic-operator-kstreams},1650537128,0
{consumergroup=__strimzi-topic-operator-kstreams},1650537133,0
{consumergroup=__strimzi-topic-operator-kstreams},1650537138,0
