labels,timestamp,value
{consumergroup=__strimzi-topic-operator-kstreams},1650489908,0
{consumergroup=__strimzi-topic-operator-kstreams},1650489913,0
{consumergroup=__strimzi-topic-operator-kstreams},1650489918,0
{consumergroup=__strimzi-topic-operator-kstreams},1650489923,0
{consumergroup=__strimzi-topic-operator-kstreams},1650489928,0
{consumergroup=__strimzi-topic-operator-kstreams},1650489933,0
{consumergroup=__strimzi-topic-operator-kstreams},1650489938,0
{consumergroup=__strimzi-topic-operator-kstreams},1650489943,0
{consumergroup=__strimzi-topic-operator-kstreams},1650489948,0
{consumergroup=__strimzi-topic-operator-kstreams},1650489953,0
{consumergroup=__strimzi-topic-operator-kstreams},1650489958,0
{consumergroup=__strimzi-topic-operator-kstreams},1650489963,0
{consumergroup=__strimzi-topic-operator-kstreams},1650489968,0
{consumergroup=__strimzi-topic-operator-kstreams},1650489973,0
{consumergroup=__strimzi-topic-operator-kstreams},1650489978,0
{consumergroup=__strimzi-topic-operator-kstreams},1650489983,0
{consumergroup=__strimzi-topic-operator-kstreams},1650489988,0
{consumergroup=__strimzi-topic-operator-kstreams},1650489993,0
{consumergroup=__strimzi-topic-operator-kstreams},1650489998,0
{consumergroup=__strimzi-topic-operator-kstreams},1650490003,0
{consumergroup=__strimzi-topic-operator-kstreams},1650490008,0
{consumergroup=__strimzi-topic-operator-kstreams},1650490013,0
{consumergroup=__strimzi-topic-operator-kstreams},1650490018,0
{consumergroup=__strimzi-topic-operator-kstreams},1650490023,0
{consumergroup=__strimzi-topic-operator-kstreams},1650490028,0
{consumergroup=__strimzi-topic-operator-kstreams},1650490033,0
{consumergroup=__strimzi-topic-operator-kstreams},1650490038,0
{consumergroup=__strimzi-topic-operator-kstreams},1650490043,0
{consumergroup=__strimzi-topic-operator-kstreams},1650490048,0
{consumergroup=__strimzi-topic-operator-kstreams},1650490053,0
{consumergroup=__strimzi-topic-operator-kstreams},1650490058,0
{consumergroup=__strimzi-topic-operator-kstreams},1650490063,0
{consumergroup=__strimzi-topic-operator-kstreams},1650490068,0
{consumergroup=__strimzi-topic-operator-kstreams},1650490073,0
{consumergroup=__strimzi-topic-operator-kstreams},1650490078,0
{consumergroup=__strimzi-topic-operator-kstreams},1650490083,0
{consumergroup=__strimzi-topic-operator-kstreams},1650490088,0
{consumergroup=__strimzi-topic-operator-kstreams},1650490093,0
{consumergroup=__strimzi-topic-operator-kstreams},1650490098,0
{consumergroup=__strimzi-topic-operator-kstreams},1650490103,0
{consumergroup=__strimzi-topic-operator-kstreams},1650490108,0
{consumergroup=__strimzi-topic-operator-kstreams},1650490113,0
{consumergroup=__strimzi-topic-operator-kstreams},1650490118,0
{consumergroup=__strimzi-topic-operator-kstreams},1650490123,0
{consumergroup=__strimzi-topic-operator-kstreams},1650490128,0
{consumergroup=__strimzi-topic-operator-kstreams},1650490133,0
{consumergroup=__strimzi-topic-operator-kstreams},1650490138,0
{consumergroup=__strimzi-topic-operator-kstreams},1650490143,0
{consumergroup=__strimzi-topic-operator-kstreams},1650490148,0
{consumergroup=__strimzi-topic-operator-kstreams},1650490153,0
{consumergroup=__strimzi-topic-operator-kstreams},1650490158,0
{consumergroup=__strimzi-topic-operator-kstreams},1650490163,0
{consumergroup=__strimzi-topic-operator-kstreams},1650490168,0
{consumergroup=__strimzi-topic-operator-kstreams},1650490173,0
{consumergroup=__strimzi-topic-operator-kstreams},1650490178,0
{consumergroup=__strimzi-topic-operator-kstreams},1650490183,0
{consumergroup=__strimzi-topic-operator-kstreams},1650490188,0
{consumergroup=__strimzi-topic-operator-kstreams},1650490193,0
{consumergroup=__strimzi-topic-operator-kstreams},1650490198,0
{consumergroup=__strimzi-topic-operator-kstreams},1650490203,0
{consumergroup=__strimzi-topic-operator-kstreams},1650490208,0
{consumergroup=__strimzi-topic-operator-kstreams},1650490213,0
{consumergroup=__strimzi-topic-operator-kstreams},1650490218,0
{consumergroup=__strimzi-topic-operator-kstreams},1650490223,0
{consumergroup=__strimzi-topic-operator-kstreams},1650490228,0
{consumergroup=__strimzi-topic-operator-kstreams},1650490233,0
{consumergroup=__strimzi-topic-operator-kstreams},1650490238,0
{consumergroup=__strimzi-topic-operator-kstreams},1650490243,0
{consumergroup=__strimzi-topic-operator-kstreams},1650490248,0
{consumergroup=__strimzi-topic-operator-kstreams},1650490253,0
{consumergroup=__strimzi-topic-operator-kstreams},1650490258,0
{consumergroup=__strimzi-topic-operator-kstreams},1650490263,0
{consumergroup=__strimzi-topic-operator-kstreams},1650490268,0
{consumergroup=__strimzi-topic-operator-kstreams},1650490273,0
{consumergroup=__strimzi-topic-operator-kstreams},1650490278,0
{consumergroup=__strimzi-topic-operator-kstreams},1650490283,0
{consumergroup=__strimzi-topic-operator-kstreams},1650490288,0
{consumergroup=__strimzi-topic-operator-kstreams},1650490293,0
{consumergroup=__strimzi-topic-operator-kstreams},1650490298,0
{consumergroup=__strimzi-topic-operator-kstreams},1650490303,0
{consumergroup=__strimzi-topic-operator-kstreams},1650490308,0
{consumergroup=__strimzi-topic-operator-kstreams},1650490313,0
{consumergroup=__strimzi-topic-operator-kstreams},1650490318,0
{consumergroup=__strimzi-topic-operator-kstreams},1650490323,0
{consumergroup=__strimzi-topic-operator-kstreams},1650490328,0
{consumergroup=__strimzi-topic-operator-kstreams},1650490333,0
{consumergroup=__strimzi-topic-operator-kstreams},1650490338,0
{consumergroup=__strimzi-topic-operator-kstreams},1650490343,0
{consumergroup=__strimzi-topic-operator-kstreams},1650490348,0
{consumergroup=__strimzi-topic-operator-kstreams},1650490353,0
{consumergroup=__strimzi-topic-operator-kstreams},1650490358,0
{consumergroup=__strimzi-topic-operator-kstreams},1650490363,0
{consumergroup=__strimzi-topic-operator-kstreams},1650490368,0
{consumergroup=__strimzi-topic-operator-kstreams},1650490373,0
{consumergroup=__strimzi-topic-operator-kstreams},1650490378,0
{consumergroup=__strimzi-topic-operator-kstreams},1650490383,0
{consumergroup=__strimzi-topic-operator-kstreams},1650490388,0
{consumergroup=__strimzi-topic-operator-kstreams},1650490393,0
