labels,timestamp,value
{consumergroup=__strimzi-topic-operator-kstreams},1650395591,8
{consumergroup=__strimzi-topic-operator-kstreams},1650395596,8
{consumergroup=__strimzi-topic-operator-kstreams},1650395601,8
{consumergroup=__strimzi-topic-operator-kstreams},1650395606,0
{consumergroup=__strimzi-topic-operator-kstreams},1650395611,0
{consumergroup=__strimzi-topic-operator-kstreams},1650395616,0
{consumergroup=__strimzi-topic-operator-kstreams},1650395621,0
{consumergroup=__strimzi-topic-operator-kstreams},1650395626,0
{consumergroup=__strimzi-topic-operator-kstreams},1650395631,0
{consumergroup=__strimzi-topic-operator-kstreams},1650395636,0
{consumergroup=__strimzi-topic-operator-kstreams},1650395641,0
{consumergroup=__strimzi-topic-operator-kstreams},1650395646,0
{consumergroup=__strimzi-topic-operator-kstreams},1650395651,0
{consumergroup=__strimzi-topic-operator-kstreams},1650395656,0
{consumergroup=__strimzi-topic-operator-kstreams},1650395661,0
{consumergroup=__strimzi-topic-operator-kstreams},1650395666,0
{consumergroup=__strimzi-topic-operator-kstreams},1650395671,0
{consumergroup=__strimzi-topic-operator-kstreams},1650395676,0
{consumergroup=__strimzi-topic-operator-kstreams},1650395681,0
{consumergroup=__strimzi-topic-operator-kstreams},1650395686,0
{consumergroup=__strimzi-topic-operator-kstreams},1650395691,0
{consumergroup=__strimzi-topic-operator-kstreams},1650395696,0
{consumergroup=__strimzi-topic-operator-kstreams},1650395701,0
{consumergroup=__strimzi-topic-operator-kstreams},1650395706,0
{consumergroup=__strimzi-topic-operator-kstreams},1650395711,0
{consumergroup=__strimzi-topic-operator-kstreams},1650395716,0
{consumergroup=__strimzi-topic-operator-kstreams},1650395721,0
{consumergroup=__strimzi-topic-operator-kstreams},1650395726,0
{consumergroup=__strimzi-topic-operator-kstreams},1650395731,0
{consumergroup=__strimzi-topic-operator-kstreams},1650395736,0
{consumergroup=__strimzi-topic-operator-kstreams},1650395741,0
{consumergroup=__strimzi-topic-operator-kstreams},1650395746,0
{consumergroup=__strimzi-topic-operator-kstreams},1650395751,0
{consumergroup=__strimzi-topic-operator-kstreams},1650395756,0
{consumergroup=__strimzi-topic-operator-kstreams},1650395761,0
{consumergroup=__strimzi-topic-operator-kstreams},1650395766,0
{consumergroup=__strimzi-topic-operator-kstreams},1650395771,0
{consumergroup=__strimzi-topic-operator-kstreams},1650395776,0
{consumergroup=__strimzi-topic-operator-kstreams},1650395781,0
{consumergroup=__strimzi-topic-operator-kstreams},1650395786,0
{consumergroup=__strimzi-topic-operator-kstreams},1650395791,0
{consumergroup=__strimzi-topic-operator-kstreams},1650395796,0
{consumergroup=__strimzi-topic-operator-kstreams},1650395801,0
{consumergroup=__strimzi-topic-operator-kstreams},1650395806,0
{consumergroup=__strimzi-topic-operator-kstreams},1650395811,0
{consumergroup=__strimzi-topic-operator-kstreams},1650395816,0
{consumergroup=__strimzi-topic-operator-kstreams},1650395821,0
{consumergroup=__strimzi-topic-operator-kstreams},1650395826,0
{consumergroup=__strimzi-topic-operator-kstreams},1650395831,0
{consumergroup=__strimzi-topic-operator-kstreams},1650395836,0
{consumergroup=__strimzi-topic-operator-kstreams},1650395841,0
{consumergroup=__strimzi-topic-operator-kstreams},1650395846,0
{consumergroup=__strimzi-topic-operator-kstreams},1650395851,0
{consumergroup=__strimzi-topic-operator-kstreams},1650395856,0
{consumergroup=__strimzi-topic-operator-kstreams},1650395861,0
{consumergroup=__strimzi-topic-operator-kstreams},1650395866,0
{consumergroup=__strimzi-topic-operator-kstreams},1650395871,0
{consumergroup=__strimzi-topic-operator-kstreams},1650395876,0
{consumergroup=__strimzi-topic-operator-kstreams},1650395881,0
{consumergroup=__strimzi-topic-operator-kstreams},1650395886,0
{consumergroup=__strimzi-topic-operator-kstreams},1650395891,0
{consumergroup=__strimzi-topic-operator-kstreams},1650395896,0
{consumergroup=__strimzi-topic-operator-kstreams},1650395901,0
{consumergroup=__strimzi-topic-operator-kstreams},1650395906,0
{consumergroup=__strimzi-topic-operator-kstreams},1650395911,0
{consumergroup=__strimzi-topic-operator-kstreams},1650395916,0
{consumergroup=__strimzi-topic-operator-kstreams},1650395921,0
{consumergroup=__strimzi-topic-operator-kstreams},1650395926,0
{consumergroup=__strimzi-topic-operator-kstreams},1650395931,0
{consumergroup=__strimzi-topic-operator-kstreams},1650395936,0
{consumergroup=__strimzi-topic-operator-kstreams},1650395941,0
{consumergroup=__strimzi-topic-operator-kstreams},1650395946,0
{consumergroup=__strimzi-topic-operator-kstreams},1650395951,0
{consumergroup=__strimzi-topic-operator-kstreams},1650395956,0
{consumergroup=__strimzi-topic-operator-kstreams},1650395961,0
{consumergroup=__strimzi-topic-operator-kstreams},1650395966,0
{consumergroup=__strimzi-topic-operator-kstreams},1650395971,0
{consumergroup=__strimzi-topic-operator-kstreams},1650395976,0
{consumergroup=__strimzi-topic-operator-kstreams},1650395981,0
{consumergroup=__strimzi-topic-operator-kstreams},1650395986,0
{consumergroup=__strimzi-topic-operator-kstreams},1650395991,0
{consumergroup=__strimzi-topic-operator-kstreams},1650395996,0
{consumergroup=__strimzi-topic-operator-kstreams},1650396001,0
{consumergroup=__strimzi-topic-operator-kstreams},1650396006,0
{consumergroup=__strimzi-topic-operator-kstreams},1650396011,0
{consumergroup=__strimzi-topic-operator-kstreams},1650396016,0
{consumergroup=__strimzi-topic-operator-kstreams},1650396021,0
{consumergroup=__strimzi-topic-operator-kstreams},1650396026,0
{consumergroup=__strimzi-topic-operator-kstreams},1650396031,0
{consumergroup=__strimzi-topic-operator-kstreams},1650396036,0
{consumergroup=__strimzi-topic-operator-kstreams},1650396041,0
{consumergroup=__strimzi-topic-operator-kstreams},1650396046,0
{consumergroup=__strimzi-topic-operator-kstreams},1650396051,0
{consumergroup=__strimzi-topic-operator-kstreams},1650396056,0
{consumergroup=__strimzi-topic-operator-kstreams},1650396061,0
{consumergroup=__strimzi-topic-operator-kstreams},1650396066,0
{consumergroup=__strimzi-topic-operator-kstreams},1650396071,0
{consumergroup=__strimzi-topic-operator-kstreams},1650396076,0
