labels,timestamp,value
{consumergroup=__strimzi-topic-operator-kstreams},1650404479,0
{consumergroup=__strimzi-topic-operator-kstreams},1650404484,0
{consumergroup=__strimzi-topic-operator-kstreams},1650404489,0
{consumergroup=__strimzi-topic-operator-kstreams},1650404494,8
{consumergroup=__strimzi-topic-operator-kstreams},1650404499,8
{consumergroup=__strimzi-topic-operator-kstreams},1650404504,8
{consumergroup=__strimzi-topic-operator-kstreams},1650404509,0
{consumergroup=__strimzi-topic-operator-kstreams},1650404514,0
{consumergroup=__strimzi-topic-operator-kstreams},1650404519,0
{consumergroup=__strimzi-topic-operator-kstreams},1650404524,0
{consumergroup=__strimzi-topic-operator-kstreams},1650404529,0
{consumergroup=__strimzi-topic-operator-kstreams},1650404534,0
{consumergroup=__strimzi-topic-operator-kstreams},1650404539,0
{consumergroup=__strimzi-topic-operator-kstreams},1650404544,0
{consumergroup=__strimzi-topic-operator-kstreams},1650404549,0
{consumergroup=__strimzi-topic-operator-kstreams},1650404554,0
{consumergroup=__strimzi-topic-operator-kstreams},1650404559,0
{consumergroup=__strimzi-topic-operator-kstreams},1650404564,0
{consumergroup=__strimzi-topic-operator-kstreams},1650404569,0
{consumergroup=__strimzi-topic-operator-kstreams},1650404574,0
{consumergroup=__strimzi-topic-operator-kstreams},1650404579,0
{consumergroup=__strimzi-topic-operator-kstreams},1650404584,0
{consumergroup=__strimzi-topic-operator-kstreams},1650404589,0
{consumergroup=__strimzi-topic-operator-kstreams},1650404594,0
{consumergroup=__strimzi-topic-operator-kstreams},1650404599,0
{consumergroup=__strimzi-topic-operator-kstreams},1650404604,0
{consumergroup=__strimzi-topic-operator-kstreams},1650404609,0
{consumergroup=__strimzi-topic-operator-kstreams},1650404614,0
{consumergroup=__strimzi-topic-operator-kstreams},1650404619,0
{consumergroup=__strimzi-topic-operator-kstreams},1650404624,0
{consumergroup=__strimzi-topic-operator-kstreams},1650404629,0
{consumergroup=__strimzi-topic-operator-kstreams},1650404634,0
{consumergroup=__strimzi-topic-operator-kstreams},1650404639,0
{consumergroup=__strimzi-topic-operator-kstreams},1650404644,0
{consumergroup=__strimzi-topic-operator-kstreams},1650404649,0
{consumergroup=__strimzi-topic-operator-kstreams},1650404654,0
{consumergroup=__strimzi-topic-operator-kstreams},1650404659,0
{consumergroup=__strimzi-topic-operator-kstreams},1650404664,0
{consumergroup=__strimzi-topic-operator-kstreams},1650404669,0
{consumergroup=__strimzi-topic-operator-kstreams},1650404674,0
{consumergroup=__strimzi-topic-operator-kstreams},1650404679,0
{consumergroup=__strimzi-topic-operator-kstreams},1650404684,0
{consumergroup=__strimzi-topic-operator-kstreams},1650404689,0
{consumergroup=__strimzi-topic-operator-kstreams},1650404694,0
{consumergroup=__strimzi-topic-operator-kstreams},1650404699,0
{consumergroup=__strimzi-topic-operator-kstreams},1650404704,0
{consumergroup=__strimzi-topic-operator-kstreams},1650404709,0
{consumergroup=__strimzi-topic-operator-kstreams},1650404714,0
{consumergroup=__strimzi-topic-operator-kstreams},1650404719,0
{consumergroup=__strimzi-topic-operator-kstreams},1650404724,0
{consumergroup=__strimzi-topic-operator-kstreams},1650404729,0
{consumergroup=__strimzi-topic-operator-kstreams},1650404734,0
{consumergroup=__strimzi-topic-operator-kstreams},1650404739,0
{consumergroup=__strimzi-topic-operator-kstreams},1650404744,0
{consumergroup=__strimzi-topic-operator-kstreams},1650404749,0
{consumergroup=__strimzi-topic-operator-kstreams},1650404754,0
{consumergroup=__strimzi-topic-operator-kstreams},1650404759,0
{consumergroup=__strimzi-topic-operator-kstreams},1650404764,0
{consumergroup=__strimzi-topic-operator-kstreams},1650404769,0
{consumergroup=__strimzi-topic-operator-kstreams},1650404774,0
{consumergroup=__strimzi-topic-operator-kstreams},1650404779,0
{consumergroup=__strimzi-topic-operator-kstreams},1650404784,0
{consumergroup=__strimzi-topic-operator-kstreams},1650404789,0
{consumergroup=__strimzi-topic-operator-kstreams},1650404794,0
{consumergroup=__strimzi-topic-operator-kstreams},1650404799,0
{consumergroup=__strimzi-topic-operator-kstreams},1650404804,0
{consumergroup=__strimzi-topic-operator-kstreams},1650404809,0
{consumergroup=__strimzi-topic-operator-kstreams},1650404814,0
{consumergroup=__strimzi-topic-operator-kstreams},1650404819,0
{consumergroup=__strimzi-topic-operator-kstreams},1650404824,0
{consumergroup=__strimzi-topic-operator-kstreams},1650404829,0
{consumergroup=__strimzi-topic-operator-kstreams},1650404834,0
{consumergroup=__strimzi-topic-operator-kstreams},1650404839,0
{consumergroup=__strimzi-topic-operator-kstreams},1650404844,0
{consumergroup=__strimzi-topic-operator-kstreams},1650404849,0
{consumergroup=__strimzi-topic-operator-kstreams},1650404854,0
{consumergroup=__strimzi-topic-operator-kstreams},1650404859,0
{consumergroup=__strimzi-topic-operator-kstreams},1650404864,0
{consumergroup=__strimzi-topic-operator-kstreams},1650404869,0
{consumergroup=__strimzi-topic-operator-kstreams},1650404874,0
{consumergroup=__strimzi-topic-operator-kstreams},1650404879,0
{consumergroup=__strimzi-topic-operator-kstreams},1650404884,0
{consumergroup=__strimzi-topic-operator-kstreams},1650404889,0
{consumergroup=__strimzi-topic-operator-kstreams},1650404894,0
{consumergroup=__strimzi-topic-operator-kstreams},1650404899,0
{consumergroup=__strimzi-topic-operator-kstreams},1650404904,0
{consumergroup=__strimzi-topic-operator-kstreams},1650404909,0
{consumergroup=__strimzi-topic-operator-kstreams},1650404914,0
{consumergroup=__strimzi-topic-operator-kstreams},1650404919,0
{consumergroup=__strimzi-topic-operator-kstreams},1650404924,0
{consumergroup=__strimzi-topic-operator-kstreams},1650404929,0
{consumergroup=__strimzi-topic-operator-kstreams},1650404934,0
{consumergroup=__strimzi-topic-operator-kstreams},1650404939,0
{consumergroup=__strimzi-topic-operator-kstreams},1650404944,0
{consumergroup=__strimzi-topic-operator-kstreams},1650404949,0
{consumergroup=__strimzi-topic-operator-kstreams},1650404954,0
{consumergroup=__strimzi-topic-operator-kstreams},1650404959,0
{consumergroup=__strimzi-topic-operator-kstreams},1650404964,0
{consumergroup=__strimzi-topic-operator-kstreams},1650404969,0
{consumergroup=__strimzi-topic-operator-kstreams},1650404974,0
{consumergroup=__strimzi-topic-operator-kstreams},1650404979,0
