labels,timestamp,value
{consumergroup=__strimzi-topic-operator-kstreams},1650396136,8
{consumergroup=__strimzi-topic-operator-kstreams},1650396141,8
{consumergroup=__strimzi-topic-operator-kstreams},1650396146,8
{consumergroup=__strimzi-topic-operator-kstreams},1650396151,0
{consumergroup=__strimzi-topic-operator-kstreams},1650396156,0
{consumergroup=__strimzi-topic-operator-kstreams},1650396161,0
{consumergroup=__strimzi-topic-operator-kstreams},1650396166,0
{consumergroup=__strimzi-topic-operator-kstreams},1650396171,0
{consumergroup=__strimzi-topic-operator-kstreams},1650396176,0
{consumergroup=__strimzi-topic-operator-kstreams},1650396181,0
{consumergroup=__strimzi-topic-operator-kstreams},1650396186,0
{consumergroup=__strimzi-topic-operator-kstreams},1650396191,0
{consumergroup=__strimzi-topic-operator-kstreams},1650396196,0
{consumergroup=__strimzi-topic-operator-kstreams},1650396201,0
{consumergroup=__strimzi-topic-operator-kstreams},1650396206,0
{consumergroup=__strimzi-topic-operator-kstreams},1650396211,0
{consumergroup=__strimzi-topic-operator-kstreams},1650396216,0
{consumergroup=__strimzi-topic-operator-kstreams},1650396221,0
{consumergroup=__strimzi-topic-operator-kstreams},1650396226,0
{consumergroup=__strimzi-topic-operator-kstreams},1650396231,0
{consumergroup=__strimzi-topic-operator-kstreams},1650396236,0
{consumergroup=__strimzi-topic-operator-kstreams},1650396241,0
{consumergroup=__strimzi-topic-operator-kstreams},1650396246,0
{consumergroup=__strimzi-topic-operator-kstreams},1650396251,0
{consumergroup=__strimzi-topic-operator-kstreams},1650396256,0
{consumergroup=__strimzi-topic-operator-kstreams},1650396261,0
{consumergroup=__strimzi-topic-operator-kstreams},1650396266,0
{consumergroup=__strimzi-topic-operator-kstreams},1650396271,0
{consumergroup=__strimzi-topic-operator-kstreams},1650396276,0
{consumergroup=__strimzi-topic-operator-kstreams},1650396281,0
{consumergroup=__strimzi-topic-operator-kstreams},1650396286,0
{consumergroup=__strimzi-topic-operator-kstreams},1650396291,0
{consumergroup=__strimzi-topic-operator-kstreams},1650396296,0
{consumergroup=__strimzi-topic-operator-kstreams},1650396301,0
{consumergroup=__strimzi-topic-operator-kstreams},1650396306,0
{consumergroup=__strimzi-topic-operator-kstreams},1650396311,0
{consumergroup=__strimzi-topic-operator-kstreams},1650396316,0
{consumergroup=__strimzi-topic-operator-kstreams},1650396321,0
{consumergroup=__strimzi-topic-operator-kstreams},1650396326,0
{consumergroup=__strimzi-topic-operator-kstreams},1650396331,0
{consumergroup=__strimzi-topic-operator-kstreams},1650396336,0
{consumergroup=__strimzi-topic-operator-kstreams},1650396341,0
{consumergroup=__strimzi-topic-operator-kstreams},1650396346,0
{consumergroup=__strimzi-topic-operator-kstreams},1650396351,0
{consumergroup=__strimzi-topic-operator-kstreams},1650396356,0
{consumergroup=__strimzi-topic-operator-kstreams},1650396361,0
{consumergroup=__strimzi-topic-operator-kstreams},1650396366,0
{consumergroup=__strimzi-topic-operator-kstreams},1650396371,0
{consumergroup=__strimzi-topic-operator-kstreams},1650396376,0
{consumergroup=__strimzi-topic-operator-kstreams},1650396381,0
{consumergroup=__strimzi-topic-operator-kstreams},1650396386,0
{consumergroup=__strimzi-topic-operator-kstreams},1650396391,0
{consumergroup=__strimzi-topic-operator-kstreams},1650396396,0
{consumergroup=__strimzi-topic-operator-kstreams},1650396401,0
{consumergroup=__strimzi-topic-operator-kstreams},1650396406,0
{consumergroup=__strimzi-topic-operator-kstreams},1650396411,0
{consumergroup=__strimzi-topic-operator-kstreams},1650396416,0
{consumergroup=__strimzi-topic-operator-kstreams},1650396421,0
{consumergroup=__strimzi-topic-operator-kstreams},1650396426,0
{consumergroup=__strimzi-topic-operator-kstreams},1650396431,0
{consumergroup=__strimzi-topic-operator-kstreams},1650396436,0
{consumergroup=__strimzi-topic-operator-kstreams},1650396441,0
{consumergroup=__strimzi-topic-operator-kstreams},1650396446,0
{consumergroup=__strimzi-topic-operator-kstreams},1650396451,0
{consumergroup=__strimzi-topic-operator-kstreams},1650396456,0
{consumergroup=__strimzi-topic-operator-kstreams},1650396461,0
{consumergroup=__strimzi-topic-operator-kstreams},1650396466,0
{consumergroup=__strimzi-topic-operator-kstreams},1650396471,0
{consumergroup=__strimzi-topic-operator-kstreams},1650396476,0
{consumergroup=__strimzi-topic-operator-kstreams},1650396481,0
{consumergroup=__strimzi-topic-operator-kstreams},1650396486,0
{consumergroup=__strimzi-topic-operator-kstreams},1650396491,0
{consumergroup=__strimzi-topic-operator-kstreams},1650396496,0
{consumergroup=__strimzi-topic-operator-kstreams},1650396501,0
{consumergroup=__strimzi-topic-operator-kstreams},1650396506,0
{consumergroup=__strimzi-topic-operator-kstreams},1650396511,0
{consumergroup=__strimzi-topic-operator-kstreams},1650396516,0
{consumergroup=__strimzi-topic-operator-kstreams},1650396521,0
{consumergroup=__strimzi-topic-operator-kstreams},1650396526,0
{consumergroup=__strimzi-topic-operator-kstreams},1650396531,0
{consumergroup=__strimzi-topic-operator-kstreams},1650396536,0
{consumergroup=__strimzi-topic-operator-kstreams},1650396541,0
{consumergroup=__strimzi-topic-operator-kstreams},1650396546,0
{consumergroup=__strimzi-topic-operator-kstreams},1650396551,0
{consumergroup=__strimzi-topic-operator-kstreams},1650396556,0
{consumergroup=__strimzi-topic-operator-kstreams},1650396561,0
{consumergroup=__strimzi-topic-operator-kstreams},1650396566,0
{consumergroup=__strimzi-topic-operator-kstreams},1650396571,0
{consumergroup=__strimzi-topic-operator-kstreams},1650396576,0
{consumergroup=__strimzi-topic-operator-kstreams},1650396581,0
{consumergroup=__strimzi-topic-operator-kstreams},1650396586,0
{consumergroup=__strimzi-topic-operator-kstreams},1650396591,0
{consumergroup=__strimzi-topic-operator-kstreams},1650396596,0
{consumergroup=__strimzi-topic-operator-kstreams},1650396601,0
{consumergroup=__strimzi-topic-operator-kstreams},1650396606,0
{consumergroup=__strimzi-topic-operator-kstreams},1650396611,0
{consumergroup=__strimzi-topic-operator-kstreams},1650396616,0
{consumergroup=__strimzi-topic-operator-kstreams},1650396621,0
