labels,timestamp,value
{consumergroup=__strimzi-topic-operator-kstreams},1650422141,0
{consumergroup=__strimzi-topic-operator-kstreams},1650422146,0
{consumergroup=__strimzi-topic-operator-kstreams},1650422151,0
{consumergroup=__strimzi-topic-operator-kstreams},1650422156,0
{consumergroup=__strimzi-topic-operator-kstreams},1650422161,0
{consumergroup=__strimzi-topic-operator-kstreams},1650422166,0
{consumergroup=__strimzi-topic-operator-kstreams},1650422171,0
{consumergroup=__strimzi-topic-operator-kstreams},1650422176,0
{consumergroup=__strimzi-topic-operator-kstreams},1650422181,0
{consumergroup=__strimzi-topic-operator-kstreams},1650422186,0
{consumergroup=__strimzi-topic-operator-kstreams},1650422191,0
{consumergroup=__strimzi-topic-operator-kstreams},1650422196,0
{consumergroup=__strimzi-topic-operator-kstreams},1650422201,0
{consumergroup=__strimzi-topic-operator-kstreams},1650422206,0
{consumergroup=__strimzi-topic-operator-kstreams},1650422211,0
{consumergroup=__strimzi-topic-operator-kstreams},1650422216,0
{consumergroup=__strimzi-topic-operator-kstreams},1650422221,0
{consumergroup=__strimzi-topic-operator-kstreams},1650422226,0
{consumergroup=__strimzi-topic-operator-kstreams},1650422231,0
{consumergroup=__strimzi-topic-operator-kstreams},1650422236,0
{consumergroup=__strimzi-topic-operator-kstreams},1650422241,0
{consumergroup=__strimzi-topic-operator-kstreams},1650422246,0
{consumergroup=__strimzi-topic-operator-kstreams},1650422251,0
{consumergroup=__strimzi-topic-operator-kstreams},1650422256,0
{consumergroup=__strimzi-topic-operator-kstreams},1650422261,0
{consumergroup=__strimzi-topic-operator-kstreams},1650422266,0
{consumergroup=__strimzi-topic-operator-kstreams},1650422271,0
{consumergroup=__strimzi-topic-operator-kstreams},1650422276,0
{consumergroup=__strimzi-topic-operator-kstreams},1650422281,0
{consumergroup=__strimzi-topic-operator-kstreams},1650422286,0
{consumergroup=__strimzi-topic-operator-kstreams},1650422291,0
{consumergroup=__strimzi-topic-operator-kstreams},1650422296,0
{consumergroup=__strimzi-topic-operator-kstreams},1650422301,0
{consumergroup=__strimzi-topic-operator-kstreams},1650422306,0
{consumergroup=__strimzi-topic-operator-kstreams},1650422311,0
{consumergroup=__strimzi-topic-operator-kstreams},1650422316,0
{consumergroup=__strimzi-topic-operator-kstreams},1650422321,0
{consumergroup=__strimzi-topic-operator-kstreams},1650422326,0
{consumergroup=__strimzi-topic-operator-kstreams},1650422331,0
{consumergroup=__strimzi-topic-operator-kstreams},1650422336,0
{consumergroup=__strimzi-topic-operator-kstreams},1650422341,0
{consumergroup=__strimzi-topic-operator-kstreams},1650422346,0
{consumergroup=__strimzi-topic-operator-kstreams},1650422351,0
{consumergroup=__strimzi-topic-operator-kstreams},1650422356,0
{consumergroup=__strimzi-topic-operator-kstreams},1650422361,0
{consumergroup=__strimzi-topic-operator-kstreams},1650422366,0
{consumergroup=__strimzi-topic-operator-kstreams},1650422371,0
{consumergroup=__strimzi-topic-operator-kstreams},1650422376,0
{consumergroup=__strimzi-topic-operator-kstreams},1650422381,0
{consumergroup=__strimzi-topic-operator-kstreams},1650422386,0
{consumergroup=__strimzi-topic-operator-kstreams},1650422391,0
{consumergroup=__strimzi-topic-operator-kstreams},1650422396,0
{consumergroup=__strimzi-topic-operator-kstreams},1650422401,0
{consumergroup=__strimzi-topic-operator-kstreams},1650422406,0
{consumergroup=__strimzi-topic-operator-kstreams},1650422411,0
{consumergroup=__strimzi-topic-operator-kstreams},1650422416,0
{consumergroup=__strimzi-topic-operator-kstreams},1650422421,0
{consumergroup=__strimzi-topic-operator-kstreams},1650422426,0
{consumergroup=__strimzi-topic-operator-kstreams},1650422431,0
{consumergroup=__strimzi-topic-operator-kstreams},1650422436,0
{consumergroup=__strimzi-topic-operator-kstreams},1650422441,0
{consumergroup=__strimzi-topic-operator-kstreams},1650422446,0
{consumergroup=__strimzi-topic-operator-kstreams},1650422451,0
{consumergroup=__strimzi-topic-operator-kstreams},1650422456,0
{consumergroup=__strimzi-topic-operator-kstreams},1650422461,0
{consumergroup=__strimzi-topic-operator-kstreams},1650422466,0
{consumergroup=__strimzi-topic-operator-kstreams},1650422471,0
{consumergroup=__strimzi-topic-operator-kstreams},1650422476,0
{consumergroup=__strimzi-topic-operator-kstreams},1650422481,0
{consumergroup=__strimzi-topic-operator-kstreams},1650422486,0
{consumergroup=__strimzi-topic-operator-kstreams},1650422491,0
{consumergroup=__strimzi-topic-operator-kstreams},1650422496,0
{consumergroup=__strimzi-topic-operator-kstreams},1650422501,0
{consumergroup=__strimzi-topic-operator-kstreams},1650422506,0
{consumergroup=__strimzi-topic-operator-kstreams},1650422511,0
{consumergroup=__strimzi-topic-operator-kstreams},1650422516,0
{consumergroup=__strimzi-topic-operator-kstreams},1650422521,0
{consumergroup=__strimzi-topic-operator-kstreams},1650422526,0
{consumergroup=__strimzi-topic-operator-kstreams},1650422531,0
{consumergroup=__strimzi-topic-operator-kstreams},1650422536,0
{consumergroup=__strimzi-topic-operator-kstreams},1650422541,0
{consumergroup=__strimzi-topic-operator-kstreams},1650422546,0
{consumergroup=__strimzi-topic-operator-kstreams},1650422551,0
{consumergroup=__strimzi-topic-operator-kstreams},1650422556,0
{consumergroup=__strimzi-topic-operator-kstreams},1650422561,0
{consumergroup=__strimzi-topic-operator-kstreams},1650422566,0
{consumergroup=__strimzi-topic-operator-kstreams},1650422571,0
{consumergroup=__strimzi-topic-operator-kstreams},1650422576,0
{consumergroup=__strimzi-topic-operator-kstreams},1650422581,0
{consumergroup=__strimzi-topic-operator-kstreams},1650422586,0
{consumergroup=__strimzi-topic-operator-kstreams},1650422591,0
{consumergroup=__strimzi-topic-operator-kstreams},1650422596,0
{consumergroup=__strimzi-topic-operator-kstreams},1650422601,0
{consumergroup=__strimzi-topic-operator-kstreams},1650422606,0
{consumergroup=__strimzi-topic-operator-kstreams},1650422611,0
{consumergroup=__strimzi-topic-operator-kstreams},1650422616,0
{consumergroup=__strimzi-topic-operator-kstreams},1650422621,0
