labels,timestamp,value
{consumergroup=__strimzi-topic-operator-kstreams},1650391186,8
{consumergroup=__strimzi-topic-operator-kstreams},1650391191,8
{consumergroup=__strimzi-topic-operator-kstreams},1650391196,8
{consumergroup=__strimzi-topic-operator-kstreams},1650391201,8
{consumergroup=__strimzi-topic-operator-kstreams},1650391206,8
{consumergroup=__strimzi-topic-operator-kstreams},1650391211,8
{consumergroup=__strimzi-topic-operator-kstreams},1650391216,0
{consumergroup=__strimzi-topic-operator-kstreams},1650391221,0
{consumergroup=__strimzi-topic-operator-kstreams},1650391226,0
{consumergroup=__strimzi-topic-operator-kstreams},1650391231,0
{consumergroup=__strimzi-topic-operator-kstreams},1650391236,0
{consumergroup=__strimzi-topic-operator-kstreams},1650391241,0
{consumergroup=__strimzi-topic-operator-kstreams},1650391246,0
{consumergroup=__strimzi-topic-operator-kstreams},1650391251,0
{consumergroup=__strimzi-topic-operator-kstreams},1650391256,0
{consumergroup=__strimzi-topic-operator-kstreams},1650391261,0
{consumergroup=__strimzi-topic-operator-kstreams},1650391266,0
{consumergroup=__strimzi-topic-operator-kstreams},1650391271,0
{consumergroup=__strimzi-topic-operator-kstreams},1650391276,0
{consumergroup=__strimzi-topic-operator-kstreams},1650391281,0
{consumergroup=__strimzi-topic-operator-kstreams},1650391286,0
{consumergroup=__strimzi-topic-operator-kstreams},1650391291,0
{consumergroup=__strimzi-topic-operator-kstreams},1650391296,0
{consumergroup=__strimzi-topic-operator-kstreams},1650391301,0
{consumergroup=__strimzi-topic-operator-kstreams},1650391306,0
{consumergroup=__strimzi-topic-operator-kstreams},1650391311,0
{consumergroup=__strimzi-topic-operator-kstreams},1650391316,0
{consumergroup=__strimzi-topic-operator-kstreams},1650391321,0
{consumergroup=__strimzi-topic-operator-kstreams},1650391326,0
{consumergroup=__strimzi-topic-operator-kstreams},1650391331,0
{consumergroup=__strimzi-topic-operator-kstreams},1650391336,0
{consumergroup=__strimzi-topic-operator-kstreams},1650391341,0
{consumergroup=__strimzi-topic-operator-kstreams},1650391346,0
{consumergroup=__strimzi-topic-operator-kstreams},1650391351,0
{consumergroup=__strimzi-topic-operator-kstreams},1650391356,0
{consumergroup=__strimzi-topic-operator-kstreams},1650391361,0
{consumergroup=__strimzi-topic-operator-kstreams},1650391366,0
{consumergroup=__strimzi-topic-operator-kstreams},1650391371,0
{consumergroup=__strimzi-topic-operator-kstreams},1650391376,0
{consumergroup=__strimzi-topic-operator-kstreams},1650391381,0
{consumergroup=__strimzi-topic-operator-kstreams},1650391386,0
{consumergroup=__strimzi-topic-operator-kstreams},1650391391,0
{consumergroup=__strimzi-topic-operator-kstreams},1650391396,0
{consumergroup=__strimzi-topic-operator-kstreams},1650391401,0
{consumergroup=__strimzi-topic-operator-kstreams},1650391406,0
{consumergroup=__strimzi-topic-operator-kstreams},1650391411,0
{consumergroup=__strimzi-topic-operator-kstreams},1650391416,0
{consumergroup=__strimzi-topic-operator-kstreams},1650391421,0
{consumergroup=__strimzi-topic-operator-kstreams},1650391426,0
{consumergroup=__strimzi-topic-operator-kstreams},1650391431,0
{consumergroup=__strimzi-topic-operator-kstreams},1650391436,0
{consumergroup=__strimzi-topic-operator-kstreams},1650391441,0
{consumergroup=__strimzi-topic-operator-kstreams},1650391446,0
{consumergroup=__strimzi-topic-operator-kstreams},1650391451,0
{consumergroup=__strimzi-topic-operator-kstreams},1650391456,0
{consumergroup=__strimzi-topic-operator-kstreams},1650391461,0
{consumergroup=__strimzi-topic-operator-kstreams},1650391466,0
{consumergroup=__strimzi-topic-operator-kstreams},1650391471,0
{consumergroup=__strimzi-topic-operator-kstreams},1650391476,0
{consumergroup=__strimzi-topic-operator-kstreams},1650391481,0
{consumergroup=__strimzi-topic-operator-kstreams},1650391486,0
{consumergroup=__strimzi-topic-operator-kstreams},1650391491,0
{consumergroup=__strimzi-topic-operator-kstreams},1650391496,0
{consumergroup=__strimzi-topic-operator-kstreams},1650391501,0
{consumergroup=__strimzi-topic-operator-kstreams},1650391506,0
{consumergroup=__strimzi-topic-operator-kstreams},1650391511,0
{consumergroup=__strimzi-topic-operator-kstreams},1650391516,0
{consumergroup=__strimzi-topic-operator-kstreams},1650391521,0
{consumergroup=__strimzi-topic-operator-kstreams},1650391526,0
{consumergroup=__strimzi-topic-operator-kstreams},1650391531,0
{consumergroup=__strimzi-topic-operator-kstreams},1650391536,0
{consumergroup=__strimzi-topic-operator-kstreams},1650391541,0
{consumergroup=__strimzi-topic-operator-kstreams},1650391546,0
{consumergroup=__strimzi-topic-operator-kstreams},1650391551,0
{consumergroup=__strimzi-topic-operator-kstreams},1650391556,0
{consumergroup=__strimzi-topic-operator-kstreams},1650391561,0
{consumergroup=__strimzi-topic-operator-kstreams},1650391566,0
{consumergroup=__strimzi-topic-operator-kstreams},1650391571,0
{consumergroup=__strimzi-topic-operator-kstreams},1650391576,0
{consumergroup=__strimzi-topic-operator-kstreams},1650391581,0
{consumergroup=__strimzi-topic-operator-kstreams},1650391586,0
{consumergroup=__strimzi-topic-operator-kstreams},1650391591,0
{consumergroup=__strimzi-topic-operator-kstreams},1650391596,0
{consumergroup=__strimzi-topic-operator-kstreams},1650391601,0
{consumergroup=__strimzi-topic-operator-kstreams},1650391606,0
{consumergroup=__strimzi-topic-operator-kstreams},1650391611,0
{consumergroup=__strimzi-topic-operator-kstreams},1650391616,0
{consumergroup=__strimzi-topic-operator-kstreams},1650391621,0
{consumergroup=__strimzi-topic-operator-kstreams},1650391626,0
{consumergroup=__strimzi-topic-operator-kstreams},1650391631,0
{consumergroup=__strimzi-topic-operator-kstreams},1650391636,0
{consumergroup=__strimzi-topic-operator-kstreams},1650391641,0
{consumergroup=__strimzi-topic-operator-kstreams},1650391646,0
{consumergroup=__strimzi-topic-operator-kstreams},1650391651,0
{consumergroup=__strimzi-topic-operator-kstreams},1650391656,0
{consumergroup=__strimzi-topic-operator-kstreams},1650391661,0
{consumergroup=__strimzi-topic-operator-kstreams},1650391666,0
{consumergroup=__strimzi-topic-operator-kstreams},1650391671,0
