labels,timestamp,value
{consumergroup=__strimzi-topic-operator-kstreams},1650428230,8
{consumergroup=__strimzi-topic-operator-kstreams},1650428235,8
{consumergroup=__strimzi-topic-operator-kstreams},1650428240,8
{consumergroup=__strimzi-topic-operator-kstreams},1650428245,0
{consumergroup=__strimzi-topic-operator-kstreams},1650428250,0
{consumergroup=__strimzi-topic-operator-kstreams},1650428255,0
{consumergroup=__strimzi-topic-operator-kstreams},1650428260,0
{consumergroup=__strimzi-topic-operator-kstreams},1650428265,0
{consumergroup=__strimzi-topic-operator-kstreams},1650428270,0
{consumergroup=__strimzi-topic-operator-kstreams},1650428275,0
{consumergroup=__strimzi-topic-operator-kstreams},1650428280,0
{consumergroup=__strimzi-topic-operator-kstreams},1650428285,0
{consumergroup=__strimzi-topic-operator-kstreams},1650428290,0
{consumergroup=__strimzi-topic-operator-kstreams},1650428295,0
{consumergroup=__strimzi-topic-operator-kstreams},1650428300,0
{consumergroup=__strimzi-topic-operator-kstreams},1650428305,0
{consumergroup=__strimzi-topic-operator-kstreams},1650428310,0
{consumergroup=__strimzi-topic-operator-kstreams},1650428315,0
{consumergroup=__strimzi-topic-operator-kstreams},1650428320,0
{consumergroup=__strimzi-topic-operator-kstreams},1650428325,0
{consumergroup=__strimzi-topic-operator-kstreams},1650428330,0
{consumergroup=__strimzi-topic-operator-kstreams},1650428335,0
{consumergroup=__strimzi-topic-operator-kstreams},1650428340,0
{consumergroup=__strimzi-topic-operator-kstreams},1650428345,0
{consumergroup=__strimzi-topic-operator-kstreams},1650428350,0
{consumergroup=__strimzi-topic-operator-kstreams},1650428355,0
{consumergroup=__strimzi-topic-operator-kstreams},1650428360,0
{consumergroup=__strimzi-topic-operator-kstreams},1650428365,0
{consumergroup=__strimzi-topic-operator-kstreams},1650428370,0
{consumergroup=__strimzi-topic-operator-kstreams},1650428375,0
{consumergroup=__strimzi-topic-operator-kstreams},1650428380,0
{consumergroup=__strimzi-topic-operator-kstreams},1650428385,0
{consumergroup=__strimzi-topic-operator-kstreams},1650428390,0
{consumergroup=__strimzi-topic-operator-kstreams},1650428395,0
{consumergroup=__strimzi-topic-operator-kstreams},1650428400,0
{consumergroup=__strimzi-topic-operator-kstreams},1650428405,0
{consumergroup=__strimzi-topic-operator-kstreams},1650428410,0
{consumergroup=__strimzi-topic-operator-kstreams},1650428415,0
{consumergroup=__strimzi-topic-operator-kstreams},1650428420,0
{consumergroup=__strimzi-topic-operator-kstreams},1650428425,0
{consumergroup=__strimzi-topic-operator-kstreams},1650428430,0
{consumergroup=__strimzi-topic-operator-kstreams},1650428435,0
{consumergroup=__strimzi-topic-operator-kstreams},1650428440,0
{consumergroup=__strimzi-topic-operator-kstreams},1650428445,0
{consumergroup=__strimzi-topic-operator-kstreams},1650428450,0
{consumergroup=__strimzi-topic-operator-kstreams},1650428455,0
{consumergroup=__strimzi-topic-operator-kstreams},1650428460,0
{consumergroup=__strimzi-topic-operator-kstreams},1650428465,0
{consumergroup=__strimzi-topic-operator-kstreams},1650428470,0
{consumergroup=__strimzi-topic-operator-kstreams},1650428475,0
{consumergroup=__strimzi-topic-operator-kstreams},1650428480,0
{consumergroup=__strimzi-topic-operator-kstreams},1650428485,0
{consumergroup=__strimzi-topic-operator-kstreams},1650428490,0
{consumergroup=__strimzi-topic-operator-kstreams},1650428495,0
{consumergroup=__strimzi-topic-operator-kstreams},1650428500,0
{consumergroup=__strimzi-topic-operator-kstreams},1650428505,0
{consumergroup=__strimzi-topic-operator-kstreams},1650428510,0
{consumergroup=__strimzi-topic-operator-kstreams},1650428515,0
{consumergroup=__strimzi-topic-operator-kstreams},1650428520,0
{consumergroup=__strimzi-topic-operator-kstreams},1650428525,0
{consumergroup=__strimzi-topic-operator-kstreams},1650428530,0
{consumergroup=__strimzi-topic-operator-kstreams},1650428535,0
{consumergroup=__strimzi-topic-operator-kstreams},1650428540,0
{consumergroup=__strimzi-topic-operator-kstreams},1650428545,0
{consumergroup=__strimzi-topic-operator-kstreams},1650428550,0
{consumergroup=__strimzi-topic-operator-kstreams},1650428555,0
{consumergroup=__strimzi-topic-operator-kstreams},1650428560,0
{consumergroup=__strimzi-topic-operator-kstreams},1650428565,0
{consumergroup=__strimzi-topic-operator-kstreams},1650428570,0
{consumergroup=__strimzi-topic-operator-kstreams},1650428575,0
{consumergroup=__strimzi-topic-operator-kstreams},1650428580,0
{consumergroup=__strimzi-topic-operator-kstreams},1650428585,0
{consumergroup=__strimzi-topic-operator-kstreams},1650428590,0
{consumergroup=__strimzi-topic-operator-kstreams},1650428595,0
{consumergroup=__strimzi-topic-operator-kstreams},1650428600,0
{consumergroup=__strimzi-topic-operator-kstreams},1650428605,0
{consumergroup=__strimzi-topic-operator-kstreams},1650428610,0
{consumergroup=__strimzi-topic-operator-kstreams},1650428615,0
{consumergroup=__strimzi-topic-operator-kstreams},1650428620,0
{consumergroup=__strimzi-topic-operator-kstreams},1650428625,0
{consumergroup=__strimzi-topic-operator-kstreams},1650428630,0
{consumergroup=__strimzi-topic-operator-kstreams},1650428635,0
{consumergroup=__strimzi-topic-operator-kstreams},1650428640,0
{consumergroup=__strimzi-topic-operator-kstreams},1650428645,0
{consumergroup=__strimzi-topic-operator-kstreams},1650428650,0
{consumergroup=__strimzi-topic-operator-kstreams},1650428655,0
{consumergroup=__strimzi-topic-operator-kstreams},1650428660,0
{consumergroup=__strimzi-topic-operator-kstreams},1650428665,0
{consumergroup=__strimzi-topic-operator-kstreams},1650428670,0
{consumergroup=__strimzi-topic-operator-kstreams},1650428675,0
{consumergroup=__strimzi-topic-operator-kstreams},1650428680,0
{consumergroup=__strimzi-topic-operator-kstreams},1650428685,0
{consumergroup=__strimzi-topic-operator-kstreams},1650428690,0
{consumergroup=__strimzi-topic-operator-kstreams},1650428695,0
{consumergroup=__strimzi-topic-operator-kstreams},1650428700,0
{consumergroup=__strimzi-topic-operator-kstreams},1650428705,0
{consumergroup=__strimzi-topic-operator-kstreams},1650428710,0
{consumergroup=__strimzi-topic-operator-kstreams},1650428715,0
{consumergroup=__strimzi-topic-operator-kstreams},1650428720,0
