labels,timestamp,value
{consumergroup=__strimzi-topic-operator-kstreams},1650435963,10
{consumergroup=__strimzi-topic-operator-kstreams},1650435968,10
{consumergroup=__strimzi-topic-operator-kstreams},1650435973,10
{consumergroup=__strimzi-topic-operator-kstreams},1650435978,0
{consumergroup=__strimzi-topic-operator-kstreams},1650435983,0
{consumergroup=__strimzi-topic-operator-kstreams},1650435988,0
{consumergroup=__strimzi-topic-operator-kstreams},1650435993,0
{consumergroup=__strimzi-topic-operator-kstreams},1650435998,0
{consumergroup=__strimzi-topic-operator-kstreams},1650436003,0
{consumergroup=__strimzi-topic-operator-kstreams},1650436008,0
{consumergroup=__strimzi-topic-operator-kstreams},1650436013,0
{consumergroup=__strimzi-topic-operator-kstreams},1650436018,0
{consumergroup=__strimzi-topic-operator-kstreams},1650436023,0
{consumergroup=__strimzi-topic-operator-kstreams},1650436028,0
{consumergroup=__strimzi-topic-operator-kstreams},1650436033,0
{consumergroup=__strimzi-topic-operator-kstreams},1650436038,0
{consumergroup=__strimzi-topic-operator-kstreams},1650436043,0
{consumergroup=__strimzi-topic-operator-kstreams},1650436048,0
{consumergroup=__strimzi-topic-operator-kstreams},1650436053,0
{consumergroup=__strimzi-topic-operator-kstreams},1650436058,0
{consumergroup=__strimzi-topic-operator-kstreams},1650436063,0
{consumergroup=__strimzi-topic-operator-kstreams},1650436068,0
{consumergroup=__strimzi-topic-operator-kstreams},1650436073,0
{consumergroup=__strimzi-topic-operator-kstreams},1650436078,0
{consumergroup=__strimzi-topic-operator-kstreams},1650436083,0
{consumergroup=__strimzi-topic-operator-kstreams},1650436088,0
{consumergroup=__strimzi-topic-operator-kstreams},1650436093,0
{consumergroup=__strimzi-topic-operator-kstreams},1650436098,0
{consumergroup=__strimzi-topic-operator-kstreams},1650436103,0
{consumergroup=__strimzi-topic-operator-kstreams},1650436108,0
{consumergroup=__strimzi-topic-operator-kstreams},1650436113,0
{consumergroup=__strimzi-topic-operator-kstreams},1650436118,0
{consumergroup=__strimzi-topic-operator-kstreams},1650436123,0
{consumergroup=__strimzi-topic-operator-kstreams},1650436128,0
{consumergroup=__strimzi-topic-operator-kstreams},1650436133,0
{consumergroup=__strimzi-topic-operator-kstreams},1650436138,0
{consumergroup=__strimzi-topic-operator-kstreams},1650436143,0
{consumergroup=__strimzi-topic-operator-kstreams},1650436148,0
{consumergroup=__strimzi-topic-operator-kstreams},1650436153,0
{consumergroup=__strimzi-topic-operator-kstreams},1650436158,0
{consumergroup=__strimzi-topic-operator-kstreams},1650436163,0
{consumergroup=__strimzi-topic-operator-kstreams},1650436168,0
{consumergroup=__strimzi-topic-operator-kstreams},1650436173,0
{consumergroup=__strimzi-topic-operator-kstreams},1650436178,0
{consumergroup=__strimzi-topic-operator-kstreams},1650436183,0
{consumergroup=__strimzi-topic-operator-kstreams},1650436188,0
{consumergroup=__strimzi-topic-operator-kstreams},1650436193,0
{consumergroup=__strimzi-topic-operator-kstreams},1650436198,0
{consumergroup=__strimzi-topic-operator-kstreams},1650436203,0
{consumergroup=__strimzi-topic-operator-kstreams},1650436208,0
{consumergroup=__strimzi-topic-operator-kstreams},1650436213,0
{consumergroup=__strimzi-topic-operator-kstreams},1650436218,0
{consumergroup=__strimzi-topic-operator-kstreams},1650436223,0
{consumergroup=__strimzi-topic-operator-kstreams},1650436228,0
{consumergroup=__strimzi-topic-operator-kstreams},1650436233,0
{consumergroup=__strimzi-topic-operator-kstreams},1650436238,0
{consumergroup=__strimzi-topic-operator-kstreams},1650436243,0
{consumergroup=__strimzi-topic-operator-kstreams},1650436248,0
{consumergroup=__strimzi-topic-operator-kstreams},1650436253,0
{consumergroup=__strimzi-topic-operator-kstreams},1650436258,0
{consumergroup=__strimzi-topic-operator-kstreams},1650436263,0
{consumergroup=__strimzi-topic-operator-kstreams},1650436268,0
{consumergroup=__strimzi-topic-operator-kstreams},1650436273,0
{consumergroup=__strimzi-topic-operator-kstreams},1650436278,0
{consumergroup=__strimzi-topic-operator-kstreams},1650436283,0
{consumergroup=__strimzi-topic-operator-kstreams},1650436288,0
{consumergroup=__strimzi-topic-operator-kstreams},1650436293,0
{consumergroup=__strimzi-topic-operator-kstreams},1650436298,0
{consumergroup=__strimzi-topic-operator-kstreams},1650436303,0
{consumergroup=__strimzi-topic-operator-kstreams},1650436308,0
{consumergroup=__strimzi-topic-operator-kstreams},1650436313,0
{consumergroup=__strimzi-topic-operator-kstreams},1650436318,0
{consumergroup=__strimzi-topic-operator-kstreams},1650436323,0
{consumergroup=__strimzi-topic-operator-kstreams},1650436328,0
{consumergroup=__strimzi-topic-operator-kstreams},1650436333,0
{consumergroup=__strimzi-topic-operator-kstreams},1650436338,0
{consumergroup=__strimzi-topic-operator-kstreams},1650436343,0
{consumergroup=__strimzi-topic-operator-kstreams},1650436348,0
{consumergroup=__strimzi-topic-operator-kstreams},1650436353,0
{consumergroup=__strimzi-topic-operator-kstreams},1650436358,0
{consumergroup=__strimzi-topic-operator-kstreams},1650436363,0
{consumergroup=__strimzi-topic-operator-kstreams},1650436368,0
{consumergroup=__strimzi-topic-operator-kstreams},1650436373,0
{consumergroup=__strimzi-topic-operator-kstreams},1650436378,0
{consumergroup=__strimzi-topic-operator-kstreams},1650436383,0
{consumergroup=__strimzi-topic-operator-kstreams},1650436388,0
{consumergroup=__strimzi-topic-operator-kstreams},1650436393,0
{consumergroup=__strimzi-topic-operator-kstreams},1650436398,0
{consumergroup=__strimzi-topic-operator-kstreams},1650436403,0
{consumergroup=__strimzi-topic-operator-kstreams},1650436408,0
{consumergroup=__strimzi-topic-operator-kstreams},1650436413,0
{consumergroup=__strimzi-topic-operator-kstreams},1650436418,0
{consumergroup=__strimzi-topic-operator-kstreams},1650436423,0
{consumergroup=__strimzi-topic-operator-kstreams},1650436428,0
{consumergroup=__strimzi-topic-operator-kstreams},1650436433,0
{consumergroup=__strimzi-topic-operator-kstreams},1650436438,0
{consumergroup=__strimzi-topic-operator-kstreams},1650436443,0
{consumergroup=__strimzi-topic-operator-kstreams},1650436448,0
{consumergroup=__strimzi-topic-operator-kstreams},1650436453,0
