labels,timestamp,value
{consumergroup=__strimzi-topic-operator-kstreams},1650388473,7
{consumergroup=__strimzi-topic-operator-kstreams},1650388478,7
{consumergroup=__strimzi-topic-operator-kstreams},1650388483,7
{consumergroup=__strimzi-topic-operator-kstreams},1650388488,7
{consumergroup=__strimzi-topic-operator-kstreams},1650388493,7
{consumergroup=__strimzi-topic-operator-kstreams},1650388498,7
{consumergroup=__strimzi-topic-operator-kstreams},1650388503,0
{consumergroup=__strimzi-topic-operator-kstreams},1650388508,0
{consumergroup=__strimzi-topic-operator-kstreams},1650388513,0
{consumergroup=__strimzi-topic-operator-kstreams},1650388518,0
{consumergroup=__strimzi-topic-operator-kstreams},1650388523,0
{consumergroup=__strimzi-topic-operator-kstreams},1650388528,0
{consumergroup=__strimzi-topic-operator-kstreams},1650388533,0
{consumergroup=__strimzi-topic-operator-kstreams},1650388538,0
{consumergroup=__strimzi-topic-operator-kstreams},1650388543,0
{consumergroup=__strimzi-topic-operator-kstreams},1650388548,0
{consumergroup=__strimzi-topic-operator-kstreams},1650388553,0
{consumergroup=__strimzi-topic-operator-kstreams},1650388558,0
{consumergroup=__strimzi-topic-operator-kstreams},1650388563,0
{consumergroup=__strimzi-topic-operator-kstreams},1650388568,0
{consumergroup=__strimzi-topic-operator-kstreams},1650388573,0
{consumergroup=__strimzi-topic-operator-kstreams},1650388578,0
{consumergroup=__strimzi-topic-operator-kstreams},1650388583,0
{consumergroup=__strimzi-topic-operator-kstreams},1650388588,0
{consumergroup=__strimzi-topic-operator-kstreams},1650388593,0
{consumergroup=__strimzi-topic-operator-kstreams},1650388598,0
{consumergroup=__strimzi-topic-operator-kstreams},1650388603,0
{consumergroup=__strimzi-topic-operator-kstreams},1650388608,0
{consumergroup=__strimzi-topic-operator-kstreams},1650388613,0
{consumergroup=__strimzi-topic-operator-kstreams},1650388618,0
{consumergroup=__strimzi-topic-operator-kstreams},1650388623,0
{consumergroup=__strimzi-topic-operator-kstreams},1650388628,0
{consumergroup=__strimzi-topic-operator-kstreams},1650388633,0
{consumergroup=__strimzi-topic-operator-kstreams},1650388638,0
{consumergroup=__strimzi-topic-operator-kstreams},1650388643,0
{consumergroup=__strimzi-topic-operator-kstreams},1650388648,0
{consumergroup=__strimzi-topic-operator-kstreams},1650388653,0
{consumergroup=__strimzi-topic-operator-kstreams},1650388658,0
{consumergroup=__strimzi-topic-operator-kstreams},1650388663,0
{consumergroup=__strimzi-topic-operator-kstreams},1650388668,0
{consumergroup=__strimzi-topic-operator-kstreams},1650388673,0
{consumergroup=__strimzi-topic-operator-kstreams},1650388678,0
{consumergroup=__strimzi-topic-operator-kstreams},1650388683,0
{consumergroup=__strimzi-topic-operator-kstreams},1650388688,0
{consumergroup=__strimzi-topic-operator-kstreams},1650388693,0
{consumergroup=__strimzi-topic-operator-kstreams},1650388698,0
{consumergroup=__strimzi-topic-operator-kstreams},1650388703,0
{consumergroup=__strimzi-topic-operator-kstreams},1650388708,0
{consumergroup=__strimzi-topic-operator-kstreams},1650388713,0
{consumergroup=__strimzi-topic-operator-kstreams},1650388718,0
{consumergroup=__strimzi-topic-operator-kstreams},1650388723,0
{consumergroup=__strimzi-topic-operator-kstreams},1650388728,0
{consumergroup=__strimzi-topic-operator-kstreams},1650388733,0
{consumergroup=__strimzi-topic-operator-kstreams},1650388738,0
{consumergroup=__strimzi-topic-operator-kstreams},1650388743,0
{consumergroup=__strimzi-topic-operator-kstreams},1650388748,0
{consumergroup=__strimzi-topic-operator-kstreams},1650388753,0
{consumergroup=__strimzi-topic-operator-kstreams},1650388758,0
{consumergroup=__strimzi-topic-operator-kstreams},1650388763,0
{consumergroup=__strimzi-topic-operator-kstreams},1650388768,0
{consumergroup=__strimzi-topic-operator-kstreams},1650388773,0
{consumergroup=__strimzi-topic-operator-kstreams},1650388778,0
{consumergroup=__strimzi-topic-operator-kstreams},1650388783,0
{consumergroup=__strimzi-topic-operator-kstreams},1650388788,0
{consumergroup=__strimzi-topic-operator-kstreams},1650388793,0
{consumergroup=__strimzi-topic-operator-kstreams},1650388798,0
{consumergroup=__strimzi-topic-operator-kstreams},1650388803,0
{consumergroup=__strimzi-topic-operator-kstreams},1650388808,0
{consumergroup=__strimzi-topic-operator-kstreams},1650388813,0
{consumergroup=__strimzi-topic-operator-kstreams},1650388818,0
{consumergroup=__strimzi-topic-operator-kstreams},1650388823,0
{consumergroup=__strimzi-topic-operator-kstreams},1650388828,0
{consumergroup=__strimzi-topic-operator-kstreams},1650388833,0
{consumergroup=__strimzi-topic-operator-kstreams},1650388838,0
{consumergroup=__strimzi-topic-operator-kstreams},1650388843,0
{consumergroup=__strimzi-topic-operator-kstreams},1650388848,0
{consumergroup=__strimzi-topic-operator-kstreams},1650388853,0
{consumergroup=__strimzi-topic-operator-kstreams},1650388858,0
{consumergroup=__strimzi-topic-operator-kstreams},1650388863,0
{consumergroup=__strimzi-topic-operator-kstreams},1650388868,0
{consumergroup=__strimzi-topic-operator-kstreams},1650388873,0
{consumergroup=__strimzi-topic-operator-kstreams},1650388878,0
{consumergroup=__strimzi-topic-operator-kstreams},1650388883,0
{consumergroup=__strimzi-topic-operator-kstreams},1650388888,0
{consumergroup=__strimzi-topic-operator-kstreams},1650388893,0
{consumergroup=__strimzi-topic-operator-kstreams},1650388898,0
{consumergroup=__strimzi-topic-operator-kstreams},1650388903,0
{consumergroup=__strimzi-topic-operator-kstreams},1650388908,0
{consumergroup=__strimzi-topic-operator-kstreams},1650388913,0
{consumergroup=__strimzi-topic-operator-kstreams},1650388918,0
{consumergroup=__strimzi-topic-operator-kstreams},1650388923,0
{consumergroup=__strimzi-topic-operator-kstreams},1650388928,0
{consumergroup=__strimzi-topic-operator-kstreams},1650388933,0
{consumergroup=__strimzi-topic-operator-kstreams},1650388938,0
{consumergroup=__strimzi-topic-operator-kstreams},1650388943,0
{consumergroup=__strimzi-topic-operator-kstreams},1650388948,0
{consumergroup=__strimzi-topic-operator-kstreams},1650388953,0
{consumergroup=__strimzi-topic-operator-kstreams},1650388958,0
{consumergroup=__strimzi-topic-operator-kstreams},1650388963,0
