labels,timestamp,value
{consumergroup=__strimzi-topic-operator-kstreams},1649949450,11
{consumergroup=__strimzi-topic-operator-kstreams},1649949455,11
{consumergroup=__strimzi-topic-operator-kstreams},1649949460,11
{consumergroup=__strimzi-topic-operator-kstreams},1649949465,2
{consumergroup=__strimzi-topic-operator-kstreams},1649949470,2
{consumergroup=__strimzi-topic-operator-kstreams},1649949475,2
{consumergroup=__strimzi-topic-operator-kstreams},1649949480,3
{consumergroup=__strimzi-topic-operator-kstreams},1649949485,3
{consumergroup=__strimzi-topic-operator-kstreams},1649949490,3
{consumergroup=__strimzi-topic-operator-kstreams},1649949495,0
{consumergroup=__strimzi-topic-operator-kstreams},1649949500,0
{consumergroup=__strimzi-topic-operator-kstreams},1649949505,0
{consumergroup=__strimzi-topic-operator-kstreams},1649949510,0
{consumergroup=__strimzi-topic-operator-kstreams},1649949515,0
{consumergroup=__strimzi-topic-operator-kstreams},1649949520,0
{consumergroup=__strimzi-topic-operator-kstreams},1649949525,0
{consumergroup=__strimzi-topic-operator-kstreams},1649949530,0
{consumergroup=__strimzi-topic-operator-kstreams},1649949535,0
{consumergroup=__strimzi-topic-operator-kstreams},1649949540,0
{consumergroup=__strimzi-topic-operator-kstreams},1649949545,0
{consumergroup=__strimzi-topic-operator-kstreams},1649949550,0
{consumergroup=__strimzi-topic-operator-kstreams},1649949555,0
{consumergroup=__strimzi-topic-operator-kstreams},1649949560,0
{consumergroup=__strimzi-topic-operator-kstreams},1649949565,0
{consumergroup=__strimzi-topic-operator-kstreams},1649949570,0
{consumergroup=__strimzi-topic-operator-kstreams},1649949575,0
{consumergroup=__strimzi-topic-operator-kstreams},1649949580,0
{consumergroup=__strimzi-topic-operator-kstreams},1649949585,0
{consumergroup=__strimzi-topic-operator-kstreams},1649949590,0
{consumergroup=__strimzi-topic-operator-kstreams},1649949595,0
{consumergroup=__strimzi-topic-operator-kstreams},1649949600,0
{consumergroup=__strimzi-topic-operator-kstreams},1649949605,0
{consumergroup=__strimzi-topic-operator-kstreams},1649949610,0
{consumergroup=__strimzi-topic-operator-kstreams},1649949615,0
{consumergroup=__strimzi-topic-operator-kstreams},1649949620,0
{consumergroup=__strimzi-topic-operator-kstreams},1649949625,0
{consumergroup=__strimzi-topic-operator-kstreams},1649949630,0
{consumergroup=__strimzi-topic-operator-kstreams},1649949635,0
{consumergroup=__strimzi-topic-operator-kstreams},1649949640,0
{consumergroup=__strimzi-topic-operator-kstreams},1649949645,0
{consumergroup=__strimzi-topic-operator-kstreams},1649949650,0
{consumergroup=__strimzi-topic-operator-kstreams},1649949655,0
{consumergroup=__strimzi-topic-operator-kstreams},1649949660,0
{consumergroup=__strimzi-topic-operator-kstreams},1649949665,0
{consumergroup=__strimzi-topic-operator-kstreams},1649949670,0
{consumergroup=__strimzi-topic-operator-kstreams},1649949675,0
{consumergroup=__strimzi-topic-operator-kstreams},1649949680,0
{consumergroup=__strimzi-topic-operator-kstreams},1649949685,0
{consumergroup=__strimzi-topic-operator-kstreams},1649949690,0
{consumergroup=__strimzi-topic-operator-kstreams},1649949695,0
{consumergroup=__strimzi-topic-operator-kstreams},1649949700,0
{consumergroup=__strimzi-topic-operator-kstreams},1649949705,0
{consumergroup=__strimzi-topic-operator-kstreams},1649949710,0
{consumergroup=__strimzi-topic-operator-kstreams},1649949715,0
{consumergroup=__strimzi-topic-operator-kstreams},1649949720,0
{consumergroup=__strimzi-topic-operator-kstreams},1649949725,0
{consumergroup=__strimzi-topic-operator-kstreams},1649949730,0
{consumergroup=__strimzi-topic-operator-kstreams},1649949735,0
{consumergroup=__strimzi-topic-operator-kstreams},1649949740,0
{consumergroup=__strimzi-topic-operator-kstreams},1649949745,0
{consumergroup=__strimzi-topic-operator-kstreams},1649949750,0
{consumergroup=__strimzi-topic-operator-kstreams},1649949755,0
{consumergroup=__strimzi-topic-operator-kstreams},1649949760,0
{consumergroup=__strimzi-topic-operator-kstreams},1649949765,0
{consumergroup=__strimzi-topic-operator-kstreams},1649949770,0
{consumergroup=__strimzi-topic-operator-kstreams},1649949775,0
{consumergroup=__strimzi-topic-operator-kstreams},1649949780,0
{consumergroup=__strimzi-topic-operator-kstreams},1649949785,0
{consumergroup=__strimzi-topic-operator-kstreams},1649949790,0
{consumergroup=__strimzi-topic-operator-kstreams},1649949795,0
{consumergroup=__strimzi-topic-operator-kstreams},1649949800,0
{consumergroup=__strimzi-topic-operator-kstreams},1649949805,0
{consumergroup=__strimzi-topic-operator-kstreams},1649949810,0
{consumergroup=__strimzi-topic-operator-kstreams},1649949815,0
{consumergroup=__strimzi-topic-operator-kstreams},1649949820,0
{consumergroup=__strimzi-topic-operator-kstreams},1649949825,0
{consumergroup=__strimzi-topic-operator-kstreams},1649949830,0
{consumergroup=__strimzi-topic-operator-kstreams},1649949835,0
{consumergroup=__strimzi-topic-operator-kstreams},1649949840,0
{consumergroup=__strimzi-topic-operator-kstreams},1649949845,0
{consumergroup=__strimzi-topic-operator-kstreams},1649949850,0
{consumergroup=__strimzi-topic-operator-kstreams},1649949855,0
{consumergroup=__strimzi-topic-operator-kstreams},1649949860,0
{consumergroup=__strimzi-topic-operator-kstreams},1649949865,0
{consumergroup=__strimzi-topic-operator-kstreams},1649949870,0
{consumergroup=__strimzi-topic-operator-kstreams},1649949875,0
{consumergroup=__strimzi-topic-operator-kstreams},1649949880,0
{consumergroup=__strimzi-topic-operator-kstreams},1649949885,0
{consumergroup=__strimzi-topic-operator-kstreams},1649949890,0
{consumergroup=__strimzi-topic-operator-kstreams},1649949895,0
{consumergroup=__strimzi-topic-operator-kstreams},1649949900,0
{consumergroup=__strimzi-topic-operator-kstreams},1649949905,0
{consumergroup=__strimzi-topic-operator-kstreams},1649949910,0
{consumergroup=__strimzi-topic-operator-kstreams},1649949915,0
{consumergroup=__strimzi-topic-operator-kstreams},1649949920,0
{consumergroup=__strimzi-topic-operator-kstreams},1649949925,0
{consumergroup=__strimzi-topic-operator-kstreams},1649949930,0
{consumergroup=__strimzi-topic-operator-kstreams},1649949935,0
{consumergroup=__strimzi-topic-operator-kstreams},1649949940,0
