labels,timestamp,value
{consumergroup=__strimzi-topic-operator-kstreams},1649979741,11
{consumergroup=__strimzi-topic-operator-kstreams},1649979746,11
{consumergroup=__strimzi-topic-operator-kstreams},1649979751,11
{consumergroup=__strimzi-topic-operator-kstreams},1649979756,0
{consumergroup=__strimzi-topic-operator-kstreams},1649979761,0
{consumergroup=__strimzi-topic-operator-kstreams},1649979766,0
{consumergroup=__strimzi-topic-operator-kstreams},1649979771,1
{consumergroup=__strimzi-topic-operator-kstreams},1649979776,1
{consumergroup=__strimzi-topic-operator-kstreams},1649979781,1
{consumergroup=__strimzi-topic-operator-kstreams},1649979786,0
{consumergroup=__strimzi-topic-operator-kstreams},1649979791,0
{consumergroup=__strimzi-topic-operator-kstreams},1649979796,0
{consumergroup=__strimzi-topic-operator-kstreams},1649979801,0
{consumergroup=__strimzi-topic-operator-kstreams},1649979806,0
{consumergroup=__strimzi-topic-operator-kstreams},1649979811,0
{consumergroup=__strimzi-topic-operator-kstreams},1649979816,0
{consumergroup=__strimzi-topic-operator-kstreams},1649979821,0
{consumergroup=__strimzi-topic-operator-kstreams},1649979826,0
{consumergroup=__strimzi-topic-operator-kstreams},1649979831,0
{consumergroup=__strimzi-topic-operator-kstreams},1649979836,0
{consumergroup=__strimzi-topic-operator-kstreams},1649979841,0
{consumergroup=__strimzi-topic-operator-kstreams},1649979846,0
{consumergroup=__strimzi-topic-operator-kstreams},1649979851,0
{consumergroup=__strimzi-topic-operator-kstreams},1649979856,0
{consumergroup=__strimzi-topic-operator-kstreams},1649979861,0
{consumergroup=__strimzi-topic-operator-kstreams},1649979866,0
{consumergroup=__strimzi-topic-operator-kstreams},1649979871,0
{consumergroup=__strimzi-topic-operator-kstreams},1649979876,0
{consumergroup=__strimzi-topic-operator-kstreams},1649979881,0
{consumergroup=__strimzi-topic-operator-kstreams},1649979886,0
{consumergroup=__strimzi-topic-operator-kstreams},1649979891,0
{consumergroup=__strimzi-topic-operator-kstreams},1649979896,0
{consumergroup=__strimzi-topic-operator-kstreams},1649979901,0
{consumergroup=__strimzi-topic-operator-kstreams},1649979906,0
{consumergroup=__strimzi-topic-operator-kstreams},1649979911,0
{consumergroup=__strimzi-topic-operator-kstreams},1649979916,0
{consumergroup=__strimzi-topic-operator-kstreams},1649979921,0
{consumergroup=__strimzi-topic-operator-kstreams},1649979926,0
{consumergroup=__strimzi-topic-operator-kstreams},1649979931,0
{consumergroup=__strimzi-topic-operator-kstreams},1649979936,0
{consumergroup=__strimzi-topic-operator-kstreams},1649979941,0
{consumergroup=__strimzi-topic-operator-kstreams},1649979946,0
{consumergroup=__strimzi-topic-operator-kstreams},1649979951,0
{consumergroup=__strimzi-topic-operator-kstreams},1649979956,0
{consumergroup=__strimzi-topic-operator-kstreams},1649979961,0
{consumergroup=__strimzi-topic-operator-kstreams},1649979966,0
{consumergroup=__strimzi-topic-operator-kstreams},1649979971,0
{consumergroup=__strimzi-topic-operator-kstreams},1649979976,0
{consumergroup=__strimzi-topic-operator-kstreams},1649979981,0
{consumergroup=__strimzi-topic-operator-kstreams},1649979986,0
{consumergroup=__strimzi-topic-operator-kstreams},1649979991,0
{consumergroup=__strimzi-topic-operator-kstreams},1649979996,0
{consumergroup=__strimzi-topic-operator-kstreams},1649980001,0
{consumergroup=__strimzi-topic-operator-kstreams},1649980006,0
{consumergroup=__strimzi-topic-operator-kstreams},1649980011,0
{consumergroup=__strimzi-topic-operator-kstreams},1649980016,0
{consumergroup=__strimzi-topic-operator-kstreams},1649980021,0
{consumergroup=__strimzi-topic-operator-kstreams},1649980026,0
{consumergroup=__strimzi-topic-operator-kstreams},1649980031,0
{consumergroup=__strimzi-topic-operator-kstreams},1649980036,0
{consumergroup=__strimzi-topic-operator-kstreams},1649980041,0
{consumergroup=__strimzi-topic-operator-kstreams},1649980046,0
{consumergroup=__strimzi-topic-operator-kstreams},1649980051,0
{consumergroup=__strimzi-topic-operator-kstreams},1649980056,0
{consumergroup=__strimzi-topic-operator-kstreams},1649980061,0
{consumergroup=__strimzi-topic-operator-kstreams},1649980066,0
{consumergroup=__strimzi-topic-operator-kstreams},1649980071,0
{consumergroup=__strimzi-topic-operator-kstreams},1649980076,0
{consumergroup=__strimzi-topic-operator-kstreams},1649980081,0
{consumergroup=__strimzi-topic-operator-kstreams},1649980086,0
{consumergroup=__strimzi-topic-operator-kstreams},1649980091,0
{consumergroup=__strimzi-topic-operator-kstreams},1649980096,0
{consumergroup=__strimzi-topic-operator-kstreams},1649980101,0
{consumergroup=__strimzi-topic-operator-kstreams},1649980106,0
{consumergroup=__strimzi-topic-operator-kstreams},1649980111,0
{consumergroup=__strimzi-topic-operator-kstreams},1649980116,0
{consumergroup=__strimzi-topic-operator-kstreams},1649980121,0
{consumergroup=__strimzi-topic-operator-kstreams},1649980126,0
{consumergroup=__strimzi-topic-operator-kstreams},1649980131,0
{consumergroup=__strimzi-topic-operator-kstreams},1649980136,0
{consumergroup=__strimzi-topic-operator-kstreams},1649980141,0
{consumergroup=__strimzi-topic-operator-kstreams},1649980146,0
{consumergroup=__strimzi-topic-operator-kstreams},1649980151,0
{consumergroup=__strimzi-topic-operator-kstreams},1649980156,0
{consumergroup=__strimzi-topic-operator-kstreams},1649980161,0
{consumergroup=__strimzi-topic-operator-kstreams},1649980166,0
{consumergroup=__strimzi-topic-operator-kstreams},1649980171,0
{consumergroup=__strimzi-topic-operator-kstreams},1649980176,0
{consumergroup=__strimzi-topic-operator-kstreams},1649980181,0
{consumergroup=__strimzi-topic-operator-kstreams},1649980186,0
{consumergroup=__strimzi-topic-operator-kstreams},1649980191,0
{consumergroup=__strimzi-topic-operator-kstreams},1649980196,0
{consumergroup=__strimzi-topic-operator-kstreams},1649980201,0
{consumergroup=__strimzi-topic-operator-kstreams},1649980206,0
{consumergroup=__strimzi-topic-operator-kstreams},1649980211,0
{consumergroup=__strimzi-topic-operator-kstreams},1649980216,0
{consumergroup=__strimzi-topic-operator-kstreams},1649980221,0
{consumergroup=__strimzi-topic-operator-kstreams},1649980226,0
{consumergroup=__strimzi-topic-operator-kstreams},1649980231,0
