labels,timestamp,value
{consumergroup=__strimzi-topic-operator-kstreams},1649963434,8
{consumergroup=__strimzi-topic-operator-kstreams},1649963439,8
{consumergroup=__strimzi-topic-operator-kstreams},1649963444,8
{consumergroup=__strimzi-topic-operator-kstreams},1649963449,10
{consumergroup=__strimzi-topic-operator-kstreams},1649963454,10
{consumergroup=__strimzi-topic-operator-kstreams},1649963459,10
{consumergroup=__strimzi-topic-operator-kstreams},1649963464,0
{consumergroup=__strimzi-topic-operator-kstreams},1649963469,0
{consumergroup=__strimzi-topic-operator-kstreams},1649963474,0
{consumergroup=__strimzi-topic-operator-kstreams},1649963479,0
{consumergroup=__strimzi-topic-operator-kstreams},1649963484,0
{consumergroup=__strimzi-topic-operator-kstreams},1649963489,0
{consumergroup=__strimzi-topic-operator-kstreams},1649963494,0
{consumergroup=__strimzi-topic-operator-kstreams},1649963499,0
{consumergroup=__strimzi-topic-operator-kstreams},1649963504,0
{consumergroup=__strimzi-topic-operator-kstreams},1649963509,0
{consumergroup=__strimzi-topic-operator-kstreams},1649963514,0
{consumergroup=__strimzi-topic-operator-kstreams},1649963519,0
{consumergroup=__strimzi-topic-operator-kstreams},1649963524,0
{consumergroup=__strimzi-topic-operator-kstreams},1649963529,0
{consumergroup=__strimzi-topic-operator-kstreams},1649963534,0
{consumergroup=__strimzi-topic-operator-kstreams},1649963539,0
{consumergroup=__strimzi-topic-operator-kstreams},1649963544,0
{consumergroup=__strimzi-topic-operator-kstreams},1649963549,0
{consumergroup=__strimzi-topic-operator-kstreams},1649963554,1
{consumergroup=__strimzi-topic-operator-kstreams},1649963559,1
{consumergroup=__strimzi-topic-operator-kstreams},1649963564,1
{consumergroup=__strimzi-topic-operator-kstreams},1649963569,1
{consumergroup=__strimzi-topic-operator-kstreams},1649963574,1
{consumergroup=__strimzi-topic-operator-kstreams},1649963579,1
{consumergroup=__strimzi-topic-operator-kstreams},1649963584,0
{consumergroup=__strimzi-topic-operator-kstreams},1649963589,0
{consumergroup=__strimzi-topic-operator-kstreams},1649963594,0
{consumergroup=__strimzi-topic-operator-kstreams},1649963599,0
{consumergroup=__strimzi-topic-operator-kstreams},1649963604,0
{consumergroup=__strimzi-topic-operator-kstreams},1649963609,0
{consumergroup=__strimzi-topic-operator-kstreams},1649963614,0
{consumergroup=__strimzi-topic-operator-kstreams},1649963619,0
{consumergroup=__strimzi-topic-operator-kstreams},1649963624,0
{consumergroup=__strimzi-topic-operator-kstreams},1649963629,0
{consumergroup=__strimzi-topic-operator-kstreams},1649963634,0
{consumergroup=__strimzi-topic-operator-kstreams},1649963639,0
{consumergroup=__strimzi-topic-operator-kstreams},1649963644,0
{consumergroup=__strimzi-topic-operator-kstreams},1649963649,0
{consumergroup=__strimzi-topic-operator-kstreams},1649963654,0
{consumergroup=__strimzi-topic-operator-kstreams},1649963659,0
{consumergroup=__strimzi-topic-operator-kstreams},1649963664,0
{consumergroup=__strimzi-topic-operator-kstreams},1649963669,0
{consumergroup=__strimzi-topic-operator-kstreams},1649963674,0
{consumergroup=__strimzi-topic-operator-kstreams},1649963679,0
{consumergroup=__strimzi-topic-operator-kstreams},1649963684,0
{consumergroup=__strimzi-topic-operator-kstreams},1649963689,0
{consumergroup=__strimzi-topic-operator-kstreams},1649963694,0
{consumergroup=__strimzi-topic-operator-kstreams},1649963699,0
{consumergroup=__strimzi-topic-operator-kstreams},1649963704,0
{consumergroup=__strimzi-topic-operator-kstreams},1649963709,0
{consumergroup=__strimzi-topic-operator-kstreams},1649963714,0
{consumergroup=__strimzi-topic-operator-kstreams},1649963719,0
{consumergroup=__strimzi-topic-operator-kstreams},1649963724,0
{consumergroup=__strimzi-topic-operator-kstreams},1649963729,0
{consumergroup=__strimzi-topic-operator-kstreams},1649963734,0
{consumergroup=__strimzi-topic-operator-kstreams},1649963739,0
{consumergroup=__strimzi-topic-operator-kstreams},1649963744,0
{consumergroup=__strimzi-topic-operator-kstreams},1649963749,0
{consumergroup=__strimzi-topic-operator-kstreams},1649963754,0
{consumergroup=__strimzi-topic-operator-kstreams},1649963759,0
{consumergroup=__strimzi-topic-operator-kstreams},1649963764,0
{consumergroup=__strimzi-topic-operator-kstreams},1649963769,0
{consumergroup=__strimzi-topic-operator-kstreams},1649963774,0
{consumergroup=__strimzi-topic-operator-kstreams},1649963779,0
{consumergroup=__strimzi-topic-operator-kstreams},1649963784,0
{consumergroup=__strimzi-topic-operator-kstreams},1649963789,0
{consumergroup=__strimzi-topic-operator-kstreams},1649963794,0
{consumergroup=__strimzi-topic-operator-kstreams},1649963799,0
{consumergroup=__strimzi-topic-operator-kstreams},1649963804,0
{consumergroup=__strimzi-topic-operator-kstreams},1649963809,0
{consumergroup=__strimzi-topic-operator-kstreams},1649963814,0
{consumergroup=__strimzi-topic-operator-kstreams},1649963819,0
{consumergroup=__strimzi-topic-operator-kstreams},1649963824,0
{consumergroup=__strimzi-topic-operator-kstreams},1649963829,0
{consumergroup=__strimzi-topic-operator-kstreams},1649963834,0
{consumergroup=__strimzi-topic-operator-kstreams},1649963839,0
{consumergroup=__strimzi-topic-operator-kstreams},1649963844,0
{consumergroup=__strimzi-topic-operator-kstreams},1649963849,0
{consumergroup=__strimzi-topic-operator-kstreams},1649963854,0
{consumergroup=__strimzi-topic-operator-kstreams},1649963859,0
{consumergroup=__strimzi-topic-operator-kstreams},1649963864,0
{consumergroup=__strimzi-topic-operator-kstreams},1649963869,0
{consumergroup=__strimzi-topic-operator-kstreams},1649963874,0
{consumergroup=__strimzi-topic-operator-kstreams},1649963879,0
{consumergroup=__strimzi-topic-operator-kstreams},1649963884,0
{consumergroup=__strimzi-topic-operator-kstreams},1649963889,0
{consumergroup=__strimzi-topic-operator-kstreams},1649963894,0
{consumergroup=__strimzi-topic-operator-kstreams},1649963899,0
{consumergroup=__strimzi-topic-operator-kstreams},1649963904,0
{consumergroup=__strimzi-topic-operator-kstreams},1649963909,0
{consumergroup=__strimzi-topic-operator-kstreams},1649963914,0
{consumergroup=__strimzi-topic-operator-kstreams},1649963919,0
