labels,timestamp,value
{},1649932011,0
{},1649932016,0
{},1649932021,0
{},1649932026,0
{},1649932031,0
{},1649932036,0
{},1649932041,0
{},1649932046,0
{},1649932051,0
{},1649932056,0
{},1649932061,0
{},1649932066,0
{},1649932071,0
{},1649932076,0
