labels,timestamp,value
{consumergroup=__strimzi-topic-operator-kstreams},1649951722,0
{consumergroup=__strimzi-topic-operator-kstreams},1649951727,0
{consumergroup=__strimzi-topic-operator-kstreams},1649951732,0
{consumergroup=__strimzi-topic-operator-kstreams},1649951737,2
{consumergroup=__strimzi-topic-operator-kstreams},1649951742,2
{consumergroup=__strimzi-topic-operator-kstreams},1649951747,2
{consumergroup=__strimzi-topic-operator-kstreams},1649951752,0
{consumergroup=__strimzi-topic-operator-kstreams},1649951757,0
{consumergroup=__strimzi-topic-operator-kstreams},1649951762,0
{consumergroup=__strimzi-topic-operator-kstreams},1649951767,1
{consumergroup=__strimzi-topic-operator-kstreams},1649951772,1
{consumergroup=__strimzi-topic-operator-kstreams},1649951777,1
{consumergroup=__strimzi-topic-operator-kstreams},1649951782,0
{consumergroup=__strimzi-topic-operator-kstreams},1649951787,0
{consumergroup=__strimzi-topic-operator-kstreams},1649951792,0
{consumergroup=__strimzi-topic-operator-kstreams},1649951797,0
{consumergroup=__strimzi-topic-operator-kstreams},1649951802,0
{consumergroup=__strimzi-topic-operator-kstreams},1649951807,0
{consumergroup=__strimzi-topic-operator-kstreams},1649951812,0
{consumergroup=__strimzi-topic-operator-kstreams},1649951817,0
{consumergroup=__strimzi-topic-operator-kstreams},1649951822,0
{consumergroup=__strimzi-topic-operator-kstreams},1649951827,0
{consumergroup=__strimzi-topic-operator-kstreams},1649951832,0
{consumergroup=__strimzi-topic-operator-kstreams},1649951837,0
{consumergroup=__strimzi-topic-operator-kstreams},1649951842,0
{consumergroup=__strimzi-topic-operator-kstreams},1649951847,0
{consumergroup=__strimzi-topic-operator-kstreams},1649951852,0
{consumergroup=__strimzi-topic-operator-kstreams},1649951857,0
{consumergroup=__strimzi-topic-operator-kstreams},1649951862,0
{consumergroup=__strimzi-topic-operator-kstreams},1649951867,0
{consumergroup=__strimzi-topic-operator-kstreams},1649951872,0
{consumergroup=__strimzi-topic-operator-kstreams},1649951877,0
{consumergroup=__strimzi-topic-operator-kstreams},1649951882,0
{consumergroup=__strimzi-topic-operator-kstreams},1649951887,0
{consumergroup=__strimzi-topic-operator-kstreams},1649951892,0
{consumergroup=__strimzi-topic-operator-kstreams},1649951897,0
{consumergroup=__strimzi-topic-operator-kstreams},1649951902,0
{consumergroup=__strimzi-topic-operator-kstreams},1649951907,0
{consumergroup=__strimzi-topic-operator-kstreams},1649951912,0
{consumergroup=__strimzi-topic-operator-kstreams},1649951917,0
{consumergroup=__strimzi-topic-operator-kstreams},1649951922,0
{consumergroup=__strimzi-topic-operator-kstreams},1649951927,0
{consumergroup=__strimzi-topic-operator-kstreams},1649951932,0
{consumergroup=__strimzi-topic-operator-kstreams},1649951937,0
{consumergroup=__strimzi-topic-operator-kstreams},1649951942,0
{consumergroup=__strimzi-topic-operator-kstreams},1649951947,0
{consumergroup=__strimzi-topic-operator-kstreams},1649951952,0
{consumergroup=__strimzi-topic-operator-kstreams},1649951957,0
{consumergroup=__strimzi-topic-operator-kstreams},1649951962,0
{consumergroup=__strimzi-topic-operator-kstreams},1649951967,0
{consumergroup=__strimzi-topic-operator-kstreams},1649951972,0
{consumergroup=__strimzi-topic-operator-kstreams},1649951977,0
{consumergroup=__strimzi-topic-operator-kstreams},1649951982,0
{consumergroup=__strimzi-topic-operator-kstreams},1649951987,0
{consumergroup=__strimzi-topic-operator-kstreams},1649951992,0
{consumergroup=__strimzi-topic-operator-kstreams},1649951997,0
{consumergroup=__strimzi-topic-operator-kstreams},1649952002,0
{consumergroup=__strimzi-topic-operator-kstreams},1649952007,0
{consumergroup=__strimzi-topic-operator-kstreams},1649952012,0
{consumergroup=__strimzi-topic-operator-kstreams},1649952017,0
{consumergroup=__strimzi-topic-operator-kstreams},1649952022,0
{consumergroup=__strimzi-topic-operator-kstreams},1649952027,0
{consumergroup=__strimzi-topic-operator-kstreams},1649952032,0
{consumergroup=__strimzi-topic-operator-kstreams},1649952037,0
{consumergroup=__strimzi-topic-operator-kstreams},1649952042,0
{consumergroup=__strimzi-topic-operator-kstreams},1649952047,0
{consumergroup=__strimzi-topic-operator-kstreams},1649952052,0
{consumergroup=__strimzi-topic-operator-kstreams},1649952057,0
{consumergroup=__strimzi-topic-operator-kstreams},1649952062,0
{consumergroup=__strimzi-topic-operator-kstreams},1649952067,0
{consumergroup=__strimzi-topic-operator-kstreams},1649952072,0
{consumergroup=__strimzi-topic-operator-kstreams},1649952077,0
{consumergroup=__strimzi-topic-operator-kstreams},1649952082,0
{consumergroup=__strimzi-topic-operator-kstreams},1649952087,0
{consumergroup=__strimzi-topic-operator-kstreams},1649952092,0
{consumergroup=__strimzi-topic-operator-kstreams},1649952097,0
{consumergroup=__strimzi-topic-operator-kstreams},1649952102,0
{consumergroup=__strimzi-topic-operator-kstreams},1649952107,0
{consumergroup=__strimzi-topic-operator-kstreams},1649952112,0
{consumergroup=__strimzi-topic-operator-kstreams},1649952117,0
{consumergroup=__strimzi-topic-operator-kstreams},1649952122,0
{consumergroup=__strimzi-topic-operator-kstreams},1649952127,0
{consumergroup=__strimzi-topic-operator-kstreams},1649952132,0
{consumergroup=__strimzi-topic-operator-kstreams},1649952137,0
{consumergroup=__strimzi-topic-operator-kstreams},1649952142,0
{consumergroup=__strimzi-topic-operator-kstreams},1649952147,0
{consumergroup=__strimzi-topic-operator-kstreams},1649952152,0
{consumergroup=__strimzi-topic-operator-kstreams},1649952157,0
{consumergroup=__strimzi-topic-operator-kstreams},1649952162,0
{consumergroup=__strimzi-topic-operator-kstreams},1649952167,0
{consumergroup=__strimzi-topic-operator-kstreams},1649952172,0
{consumergroup=__strimzi-topic-operator-kstreams},1649952177,0
{consumergroup=__strimzi-topic-operator-kstreams},1649952182,0
{consumergroup=__strimzi-topic-operator-kstreams},1649952187,0
{consumergroup=__strimzi-topic-operator-kstreams},1649952192,0
{consumergroup=__strimzi-topic-operator-kstreams},1649952197,0
{consumergroup=__strimzi-topic-operator-kstreams},1649952202,0
{consumergroup=__strimzi-topic-operator-kstreams},1649952207,0
