labels,timestamp,value
{consumergroup=__strimzi-topic-operator-kstreams},1649983136,3
{consumergroup=__strimzi-topic-operator-kstreams},1649983141,3
{consumergroup=__strimzi-topic-operator-kstreams},1649983146,3
{consumergroup=__strimzi-topic-operator-kstreams},1649983151,11
{consumergroup=__strimzi-topic-operator-kstreams},1649983156,11
{consumergroup=__strimzi-topic-operator-kstreams},1649983161,11
{consumergroup=__strimzi-topic-operator-kstreams},1649983166,0
{consumergroup=__strimzi-topic-operator-kstreams},1649983171,0
{consumergroup=__strimzi-topic-operator-kstreams},1649983176,0
{consumergroup=__strimzi-topic-operator-kstreams},1649983181,0
{consumergroup=__strimzi-topic-operator-kstreams},1649983186,0
{consumergroup=__strimzi-topic-operator-kstreams},1649983191,0
{consumergroup=__strimzi-topic-operator-kstreams},1649983196,0
{consumergroup=__strimzi-topic-operator-kstreams},1649983201,0
{consumergroup=__strimzi-topic-operator-kstreams},1649983206,0
{consumergroup=__strimzi-topic-operator-kstreams},1649983211,0
{consumergroup=__strimzi-topic-operator-kstreams},1649983216,0
{consumergroup=__strimzi-topic-operator-kstreams},1649983221,0
{consumergroup=__strimzi-topic-operator-kstreams},1649983226,0
{consumergroup=__strimzi-topic-operator-kstreams},1649983231,0
{consumergroup=__strimzi-topic-operator-kstreams},1649983236,0
{consumergroup=__strimzi-topic-operator-kstreams},1649983241,0
{consumergroup=__strimzi-topic-operator-kstreams},1649983246,0
{consumergroup=__strimzi-topic-operator-kstreams},1649983251,0
{consumergroup=__strimzi-topic-operator-kstreams},1649983256,0
{consumergroup=__strimzi-topic-operator-kstreams},1649983261,0
{consumergroup=__strimzi-topic-operator-kstreams},1649983266,0
{consumergroup=__strimzi-topic-operator-kstreams},1649983271,1
{consumergroup=__strimzi-topic-operator-kstreams},1649983276,1
{consumergroup=__strimzi-topic-operator-kstreams},1649983281,1
{consumergroup=__strimzi-topic-operator-kstreams},1649983286,0
{consumergroup=__strimzi-topic-operator-kstreams},1649983291,0
{consumergroup=__strimzi-topic-operator-kstreams},1649983296,0
{consumergroup=__strimzi-topic-operator-kstreams},1649983301,0
{consumergroup=__strimzi-topic-operator-kstreams},1649983306,0
{consumergroup=__strimzi-topic-operator-kstreams},1649983311,0
{consumergroup=__strimzi-topic-operator-kstreams},1649983316,0
{consumergroup=__strimzi-topic-operator-kstreams},1649983321,0
{consumergroup=__strimzi-topic-operator-kstreams},1649983326,0
{consumergroup=__strimzi-topic-operator-kstreams},1649983331,0
{consumergroup=__strimzi-topic-operator-kstreams},1649983336,0
{consumergroup=__strimzi-topic-operator-kstreams},1649983341,0
{consumergroup=__strimzi-topic-operator-kstreams},1649983346,0
{consumergroup=__strimzi-topic-operator-kstreams},1649983351,0
{consumergroup=__strimzi-topic-operator-kstreams},1649983356,0
{consumergroup=__strimzi-topic-operator-kstreams},1649983361,0
{consumergroup=__strimzi-topic-operator-kstreams},1649983366,0
{consumergroup=__strimzi-topic-operator-kstreams},1649983371,0
{consumergroup=__strimzi-topic-operator-kstreams},1649983376,0
{consumergroup=__strimzi-topic-operator-kstreams},1649983381,0
{consumergroup=__strimzi-topic-operator-kstreams},1649983386,0
{consumergroup=__strimzi-topic-operator-kstreams},1649983391,0
{consumergroup=__strimzi-topic-operator-kstreams},1649983396,0
{consumergroup=__strimzi-topic-operator-kstreams},1649983401,0
{consumergroup=__strimzi-topic-operator-kstreams},1649983406,0
{consumergroup=__strimzi-topic-operator-kstreams},1649983411,0
{consumergroup=__strimzi-topic-operator-kstreams},1649983416,0
{consumergroup=__strimzi-topic-operator-kstreams},1649983421,0
{consumergroup=__strimzi-topic-operator-kstreams},1649983426,0
{consumergroup=__strimzi-topic-operator-kstreams},1649983431,0
{consumergroup=__strimzi-topic-operator-kstreams},1649983436,0
{consumergroup=__strimzi-topic-operator-kstreams},1649983441,0
{consumergroup=__strimzi-topic-operator-kstreams},1649983446,0
{consumergroup=__strimzi-topic-operator-kstreams},1649983451,0
{consumergroup=__strimzi-topic-operator-kstreams},1649983456,0
{consumergroup=__strimzi-topic-operator-kstreams},1649983461,0
{consumergroup=__strimzi-topic-operator-kstreams},1649983466,0
{consumergroup=__strimzi-topic-operator-kstreams},1649983471,0
{consumergroup=__strimzi-topic-operator-kstreams},1649983476,0
{consumergroup=__strimzi-topic-operator-kstreams},1649983481,0
{consumergroup=__strimzi-topic-operator-kstreams},1649983486,0
{consumergroup=__strimzi-topic-operator-kstreams},1649983491,0
{consumergroup=__strimzi-topic-operator-kstreams},1649983496,0
{consumergroup=__strimzi-topic-operator-kstreams},1649983501,0
{consumergroup=__strimzi-topic-operator-kstreams},1649983506,0
{consumergroup=__strimzi-topic-operator-kstreams},1649983511,0
{consumergroup=__strimzi-topic-operator-kstreams},1649983516,0
{consumergroup=__strimzi-topic-operator-kstreams},1649983521,0
{consumergroup=__strimzi-topic-operator-kstreams},1649983526,0
{consumergroup=__strimzi-topic-operator-kstreams},1649983531,0
{consumergroup=__strimzi-topic-operator-kstreams},1649983536,0
{consumergroup=__strimzi-topic-operator-kstreams},1649983541,0
{consumergroup=__strimzi-topic-operator-kstreams},1649983546,0
{consumergroup=__strimzi-topic-operator-kstreams},1649983551,0
{consumergroup=__strimzi-topic-operator-kstreams},1649983556,0
{consumergroup=__strimzi-topic-operator-kstreams},1649983561,0
{consumergroup=__strimzi-topic-operator-kstreams},1649983566,0
{consumergroup=__strimzi-topic-operator-kstreams},1649983571,0
{consumergroup=__strimzi-topic-operator-kstreams},1649983576,0
{consumergroup=__strimzi-topic-operator-kstreams},1649983581,0
{consumergroup=__strimzi-topic-operator-kstreams},1649983586,0
{consumergroup=__strimzi-topic-operator-kstreams},1649983591,0
{consumergroup=__strimzi-topic-operator-kstreams},1649983596,0
{consumergroup=__strimzi-topic-operator-kstreams},1649983601,0
{consumergroup=__strimzi-topic-operator-kstreams},1649983606,0
{consumergroup=__strimzi-topic-operator-kstreams},1649983611,0
{consumergroup=__strimzi-topic-operator-kstreams},1649983616,0
{consumergroup=__strimzi-topic-operator-kstreams},1649983621,0
{consumergroup=__strimzi-topic-operator-kstreams},1649983626,0
{consumergroup=__strimzi-topic-operator-kstreams},1649983631,0
