labels,timestamp,value
{},1649930306,0
{},1649930311,0
{},1649930316,0
{},1649930321,0
{},1649930326,0
{},1649930331,0
{},1649930336,0
{},1649930341,0
{},1649930346,0
{},1649930351,0
{},1649930356,0
{},1649930361,0
{},1649930366,0
{},1649930371,0
{},1649930376,0
