labels,timestamp,value
{consumergroup=__strimzi-topic-operator-kstreams},1649981985,3
{consumergroup=__strimzi-topic-operator-kstreams},1649981990,3
{consumergroup=__strimzi-topic-operator-kstreams},1649981995,3
{consumergroup=__strimzi-topic-operator-kstreams},1649982000,11
{consumergroup=__strimzi-topic-operator-kstreams},1649982005,11
{consumergroup=__strimzi-topic-operator-kstreams},1649982010,11
{consumergroup=__strimzi-topic-operator-kstreams},1649982015,0
{consumergroup=__strimzi-topic-operator-kstreams},1649982020,0
{consumergroup=__strimzi-topic-operator-kstreams},1649982025,0
{consumergroup=__strimzi-topic-operator-kstreams},1649982030,0
{consumergroup=__strimzi-topic-operator-kstreams},1649982035,0
{consumergroup=__strimzi-topic-operator-kstreams},1649982040,0
{consumergroup=__strimzi-topic-operator-kstreams},1649982045,0
{consumergroup=__strimzi-topic-operator-kstreams},1649982050,0
{consumergroup=__strimzi-topic-operator-kstreams},1649982055,0
{consumergroup=__strimzi-topic-operator-kstreams},1649982060,2
{consumergroup=__strimzi-topic-operator-kstreams},1649982065,2
{consumergroup=__strimzi-topic-operator-kstreams},1649982070,2
{consumergroup=__strimzi-topic-operator-kstreams},1649982075,0
{consumergroup=__strimzi-topic-operator-kstreams},1649982080,0
{consumergroup=__strimzi-topic-operator-kstreams},1649982085,0
{consumergroup=__strimzi-topic-operator-kstreams},1649982090,0
{consumergroup=__strimzi-topic-operator-kstreams},1649982095,0
{consumergroup=__strimzi-topic-operator-kstreams},1649982100,0
{consumergroup=__strimzi-topic-operator-kstreams},1649982105,0
{consumergroup=__strimzi-topic-operator-kstreams},1649982110,0
{consumergroup=__strimzi-topic-operator-kstreams},1649982115,0
{consumergroup=__strimzi-topic-operator-kstreams},1649982120,0
{consumergroup=__strimzi-topic-operator-kstreams},1649982125,0
{consumergroup=__strimzi-topic-operator-kstreams},1649982130,0
{consumergroup=__strimzi-topic-operator-kstreams},1649982135,0
{consumergroup=__strimzi-topic-operator-kstreams},1649982140,0
{consumergroup=__strimzi-topic-operator-kstreams},1649982145,0
{consumergroup=__strimzi-topic-operator-kstreams},1649982150,0
{consumergroup=__strimzi-topic-operator-kstreams},1649982155,0
{consumergroup=__strimzi-topic-operator-kstreams},1649982160,0
{consumergroup=__strimzi-topic-operator-kstreams},1649982165,0
{consumergroup=__strimzi-topic-operator-kstreams},1649982170,0
{consumergroup=__strimzi-topic-operator-kstreams},1649982175,0
{consumergroup=__strimzi-topic-operator-kstreams},1649982180,0
{consumergroup=__strimzi-topic-operator-kstreams},1649982185,0
{consumergroup=__strimzi-topic-operator-kstreams},1649982190,0
{consumergroup=__strimzi-topic-operator-kstreams},1649982195,0
{consumergroup=__strimzi-topic-operator-kstreams},1649982200,0
{consumergroup=__strimzi-topic-operator-kstreams},1649982205,0
{consumergroup=__strimzi-topic-operator-kstreams},1649982210,0
{consumergroup=__strimzi-topic-operator-kstreams},1649982215,0
{consumergroup=__strimzi-topic-operator-kstreams},1649982220,0
{consumergroup=__strimzi-topic-operator-kstreams},1649982225,0
{consumergroup=__strimzi-topic-operator-kstreams},1649982230,0
{consumergroup=__strimzi-topic-operator-kstreams},1649982235,0
{consumergroup=__strimzi-topic-operator-kstreams},1649982240,0
{consumergroup=__strimzi-topic-operator-kstreams},1649982245,0
{consumergroup=__strimzi-topic-operator-kstreams},1649982250,0
{consumergroup=__strimzi-topic-operator-kstreams},1649982255,0
{consumergroup=__strimzi-topic-operator-kstreams},1649982260,0
{consumergroup=__strimzi-topic-operator-kstreams},1649982265,0
{consumergroup=__strimzi-topic-operator-kstreams},1649982270,0
{consumergroup=__strimzi-topic-operator-kstreams},1649982275,0
{consumergroup=__strimzi-topic-operator-kstreams},1649982280,0
{consumergroup=__strimzi-topic-operator-kstreams},1649982285,0
{consumergroup=__strimzi-topic-operator-kstreams},1649982290,0
{consumergroup=__strimzi-topic-operator-kstreams},1649982295,0
{consumergroup=__strimzi-topic-operator-kstreams},1649982300,0
{consumergroup=__strimzi-topic-operator-kstreams},1649982305,0
{consumergroup=__strimzi-topic-operator-kstreams},1649982310,0
{consumergroup=__strimzi-topic-operator-kstreams},1649982315,0
{consumergroup=__strimzi-topic-operator-kstreams},1649982320,0
{consumergroup=__strimzi-topic-operator-kstreams},1649982325,0
{consumergroup=__strimzi-topic-operator-kstreams},1649982330,0
{consumergroup=__strimzi-topic-operator-kstreams},1649982335,0
{consumergroup=__strimzi-topic-operator-kstreams},1649982340,0
{consumergroup=__strimzi-topic-operator-kstreams},1649982345,0
{consumergroup=__strimzi-topic-operator-kstreams},1649982350,0
{consumergroup=__strimzi-topic-operator-kstreams},1649982355,0
{consumergroup=__strimzi-topic-operator-kstreams},1649982360,0
{consumergroup=__strimzi-topic-operator-kstreams},1649982365,0
{consumergroup=__strimzi-topic-operator-kstreams},1649982370,0
{consumergroup=__strimzi-topic-operator-kstreams},1649982375,0
{consumergroup=__strimzi-topic-operator-kstreams},1649982380,0
{consumergroup=__strimzi-topic-operator-kstreams},1649982385,0
{consumergroup=__strimzi-topic-operator-kstreams},1649982390,0
{consumergroup=__strimzi-topic-operator-kstreams},1649982395,0
{consumergroup=__strimzi-topic-operator-kstreams},1649982400,0
{consumergroup=__strimzi-topic-operator-kstreams},1649982405,0
{consumergroup=__strimzi-topic-operator-kstreams},1649982410,0
{consumergroup=__strimzi-topic-operator-kstreams},1649982415,0
{consumergroup=__strimzi-topic-operator-kstreams},1649982420,0
{consumergroup=__strimzi-topic-operator-kstreams},1649982425,0
{consumergroup=__strimzi-topic-operator-kstreams},1649982430,0
{consumergroup=__strimzi-topic-operator-kstreams},1649982435,0
{consumergroup=__strimzi-topic-operator-kstreams},1649982440,0
{consumergroup=__strimzi-topic-operator-kstreams},1649982445,0
{consumergroup=__strimzi-topic-operator-kstreams},1649982450,0
{consumergroup=__strimzi-topic-operator-kstreams},1649982455,0
{consumergroup=__strimzi-topic-operator-kstreams},1649982460,0
{consumergroup=__strimzi-topic-operator-kstreams},1649982465,0
{consumergroup=__strimzi-topic-operator-kstreams},1649982470,0
{consumergroup=__strimzi-topic-operator-kstreams},1649982475,0
{consumergroup=__strimzi-topic-operator-kstreams},1649982480,0
{consumergroup=__strimzi-topic-operator-kstreams},1649982485,0
