labels,timestamp,value
{consumergroup=__strimzi-topic-operator-kstreams},1649945496,0
{consumergroup=__strimzi-topic-operator-kstreams},1649945501,11
{consumergroup=__strimzi-topic-operator-kstreams},1649945506,11
{consumergroup=__strimzi-topic-operator-kstreams},1649945511,11
{consumergroup=__strimzi-topic-operator-kstreams},1649945516,11
{consumergroup=__strimzi-topic-operator-kstreams},1649945521,11
{consumergroup=__strimzi-topic-operator-kstreams},1649945526,11
{consumergroup=__strimzi-topic-operator-kstreams},1649945531,0
{consumergroup=__strimzi-topic-operator-kstreams},1649945536,0
{consumergroup=__strimzi-topic-operator-kstreams},1649945541,0
{consumergroup=__strimzi-topic-operator-kstreams},1649945546,0
{consumergroup=__strimzi-topic-operator-kstreams},1649945551,0
{consumergroup=__strimzi-topic-operator-kstreams},1649945556,0
{consumergroup=__strimzi-topic-operator-kstreams},1649945561,0
{consumergroup=__strimzi-topic-operator-kstreams},1649945566,0
{consumergroup=__strimzi-topic-operator-kstreams},1649945571,0
{consumergroup=__strimzi-topic-operator-kstreams},1649945576,0
{consumergroup=__strimzi-topic-operator-kstreams},1649945581,0
{consumergroup=__strimzi-topic-operator-kstreams},1649945586,0
{consumergroup=__strimzi-topic-operator-kstreams},1649945591,0
{consumergroup=__strimzi-topic-operator-kstreams},1649945596,0
{consumergroup=__strimzi-topic-operator-kstreams},1649945601,0
{consumergroup=__strimzi-topic-operator-kstreams},1649945606,0
{consumergroup=__strimzi-topic-operator-kstreams},1649945611,0
{consumergroup=__strimzi-topic-operator-kstreams},1649945616,0
{consumergroup=__strimzi-topic-operator-kstreams},1649945621,0
{consumergroup=__strimzi-topic-operator-kstreams},1649945626,0
{consumergroup=__strimzi-topic-operator-kstreams},1649945631,0
{consumergroup=__strimzi-topic-operator-kstreams},1649945636,0
{consumergroup=__strimzi-topic-operator-kstreams},1649945641,0
{consumergroup=__strimzi-topic-operator-kstreams},1649945646,0
{consumergroup=__strimzi-topic-operator-kstreams},1649945651,0
{consumergroup=__strimzi-topic-operator-kstreams},1649945656,0
{consumergroup=__strimzi-topic-operator-kstreams},1649945661,0
{consumergroup=__strimzi-topic-operator-kstreams},1649945666,0
{consumergroup=__strimzi-topic-operator-kstreams},1649945671,0
{consumergroup=__strimzi-topic-operator-kstreams},1649945676,0
{consumergroup=__strimzi-topic-operator-kstreams},1649945681,0
{consumergroup=__strimzi-topic-operator-kstreams},1649945686,0
{consumergroup=__strimzi-topic-operator-kstreams},1649945691,0
{consumergroup=__strimzi-topic-operator-kstreams},1649945696,0
{consumergroup=__strimzi-topic-operator-kstreams},1649945701,0
{consumergroup=__strimzi-topic-operator-kstreams},1649945706,0
{consumergroup=__strimzi-topic-operator-kstreams},1649945711,0
{consumergroup=__strimzi-topic-operator-kstreams},1649945716,0
{consumergroup=__strimzi-topic-operator-kstreams},1649945721,0
{consumergroup=__strimzi-topic-operator-kstreams},1649945726,0
{consumergroup=__strimzi-topic-operator-kstreams},1649945731,0
{consumergroup=__strimzi-topic-operator-kstreams},1649945736,0
{consumergroup=__strimzi-topic-operator-kstreams},1649945741,0
{consumergroup=__strimzi-topic-operator-kstreams},1649945746,0
{consumergroup=__strimzi-topic-operator-kstreams},1649945751,0
{consumergroup=__strimzi-topic-operator-kstreams},1649945756,0
{consumergroup=__strimzi-topic-operator-kstreams},1649945761,0
{consumergroup=__strimzi-topic-operator-kstreams},1649945766,0
{consumergroup=__strimzi-topic-operator-kstreams},1649945771,0
{consumergroup=__strimzi-topic-operator-kstreams},1649945776,0
{consumergroup=__strimzi-topic-operator-kstreams},1649945781,0
{consumergroup=__strimzi-topic-operator-kstreams},1649945786,0
{consumergroup=__strimzi-topic-operator-kstreams},1649945791,0
{consumergroup=__strimzi-topic-operator-kstreams},1649945796,0
{consumergroup=__strimzi-topic-operator-kstreams},1649945801,0
{consumergroup=__strimzi-topic-operator-kstreams},1649945806,0
{consumergroup=__strimzi-topic-operator-kstreams},1649945811,0
{consumergroup=__strimzi-topic-operator-kstreams},1649945816,0
{consumergroup=__strimzi-topic-operator-kstreams},1649945821,0
{consumergroup=__strimzi-topic-operator-kstreams},1649945826,0
{consumergroup=__strimzi-topic-operator-kstreams},1649945831,0
{consumergroup=__strimzi-topic-operator-kstreams},1649945836,0
{consumergroup=__strimzi-topic-operator-kstreams},1649945841,0
{consumergroup=__strimzi-topic-operator-kstreams},1649945846,0
{consumergroup=__strimzi-topic-operator-kstreams},1649945851,0
{consumergroup=__strimzi-topic-operator-kstreams},1649945856,0
{consumergroup=__strimzi-topic-operator-kstreams},1649945861,0
{consumergroup=__strimzi-topic-operator-kstreams},1649945866,0
{consumergroup=__strimzi-topic-operator-kstreams},1649945871,0
{consumergroup=__strimzi-topic-operator-kstreams},1649945876,0
{consumergroup=__strimzi-topic-operator-kstreams},1649945881,0
{consumergroup=__strimzi-topic-operator-kstreams},1649945886,0
{consumergroup=__strimzi-topic-operator-kstreams},1649945891,0
{consumergroup=__strimzi-topic-operator-kstreams},1649945896,0
{consumergroup=__strimzi-topic-operator-kstreams},1649945901,0
{consumergroup=__strimzi-topic-operator-kstreams},1649945906,0
{consumergroup=__strimzi-topic-operator-kstreams},1649945911,0
{consumergroup=__strimzi-topic-operator-kstreams},1649945916,0
{consumergroup=__strimzi-topic-operator-kstreams},1649945921,0
{consumergroup=__strimzi-topic-operator-kstreams},1649945926,0
{consumergroup=__strimzi-topic-operator-kstreams},1649945931,0
{consumergroup=__strimzi-topic-operator-kstreams},1649945936,0
{consumergroup=__strimzi-topic-operator-kstreams},1649945941,0
{consumergroup=__strimzi-topic-operator-kstreams},1649945946,0
{consumergroup=__strimzi-topic-operator-kstreams},1649945951,0
{consumergroup=__strimzi-topic-operator-kstreams},1649945956,0
{consumergroup=__strimzi-topic-operator-kstreams},1649945961,0
{consumergroup=__strimzi-topic-operator-kstreams},1649945966,0
{consumergroup=__strimzi-topic-operator-kstreams},1649945971,0
{consumergroup=__strimzi-topic-operator-kstreams},1649945976,0
{consumergroup=__strimzi-topic-operator-kstreams},1649945981,0
{consumergroup=__strimzi-topic-operator-kstreams},1649945986,0
{consumergroup=__strimzi-topic-operator-kstreams},1649945991,0
{consumergroup=__strimzi-topic-operator-kstreams},1649945996,0
