labels,timestamp,value
{consumergroup=__strimzi-topic-operator-kstreams},1649980309,11
{consumergroup=__strimzi-topic-operator-kstreams},1649980314,11
{consumergroup=__strimzi-topic-operator-kstreams},1649980319,11
{consumergroup=__strimzi-topic-operator-kstreams},1649980324,13
{consumergroup=__strimzi-topic-operator-kstreams},1649980329,13
{consumergroup=__strimzi-topic-operator-kstreams},1649980334,13
{consumergroup=__strimzi-topic-operator-kstreams},1649980339,0
{consumergroup=__strimzi-topic-operator-kstreams},1649980344,0
{consumergroup=__strimzi-topic-operator-kstreams},1649980349,0
{consumergroup=__strimzi-topic-operator-kstreams},1649980354,0
{consumergroup=__strimzi-topic-operator-kstreams},1649980359,0
{consumergroup=__strimzi-topic-operator-kstreams},1649980364,0
{consumergroup=__strimzi-topic-operator-kstreams},1649980369,0
{consumergroup=__strimzi-topic-operator-kstreams},1649980374,0
{consumergroup=__strimzi-topic-operator-kstreams},1649980379,0
{consumergroup=__strimzi-topic-operator-kstreams},1649980384,1
{consumergroup=__strimzi-topic-operator-kstreams},1649980389,1
{consumergroup=__strimzi-topic-operator-kstreams},1649980394,1
{consumergroup=__strimzi-topic-operator-kstreams},1649980399,0
{consumergroup=__strimzi-topic-operator-kstreams},1649980404,0
{consumergroup=__strimzi-topic-operator-kstreams},1649980409,0
{consumergroup=__strimzi-topic-operator-kstreams},1649980414,0
{consumergroup=__strimzi-topic-operator-kstreams},1649980419,0
{consumergroup=__strimzi-topic-operator-kstreams},1649980424,0
{consumergroup=__strimzi-topic-operator-kstreams},1649980429,0
{consumergroup=__strimzi-topic-operator-kstreams},1649980434,0
{consumergroup=__strimzi-topic-operator-kstreams},1649980439,0
{consumergroup=__strimzi-topic-operator-kstreams},1649980444,0
{consumergroup=__strimzi-topic-operator-kstreams},1649980449,0
{consumergroup=__strimzi-topic-operator-kstreams},1649980454,0
{consumergroup=__strimzi-topic-operator-kstreams},1649980459,0
{consumergroup=__strimzi-topic-operator-kstreams},1649980464,0
{consumergroup=__strimzi-topic-operator-kstreams},1649980469,0
{consumergroup=__strimzi-topic-operator-kstreams},1649980474,0
{consumergroup=__strimzi-topic-operator-kstreams},1649980479,0
{consumergroup=__strimzi-topic-operator-kstreams},1649980484,0
{consumergroup=__strimzi-topic-operator-kstreams},1649980489,0
{consumergroup=__strimzi-topic-operator-kstreams},1649980494,0
{consumergroup=__strimzi-topic-operator-kstreams},1649980499,0
{consumergroup=__strimzi-topic-operator-kstreams},1649980504,0
{consumergroup=__strimzi-topic-operator-kstreams},1649980509,0
{consumergroup=__strimzi-topic-operator-kstreams},1649980514,0
{consumergroup=__strimzi-topic-operator-kstreams},1649980519,0
{consumergroup=__strimzi-topic-operator-kstreams},1649980524,0
{consumergroup=__strimzi-topic-operator-kstreams},1649980529,0
{consumergroup=__strimzi-topic-operator-kstreams},1649980534,0
{consumergroup=__strimzi-topic-operator-kstreams},1649980539,0
{consumergroup=__strimzi-topic-operator-kstreams},1649980544,0
{consumergroup=__strimzi-topic-operator-kstreams},1649980549,0
{consumergroup=__strimzi-topic-operator-kstreams},1649980554,0
{consumergroup=__strimzi-topic-operator-kstreams},1649980559,0
{consumergroup=__strimzi-topic-operator-kstreams},1649980564,0
{consumergroup=__strimzi-topic-operator-kstreams},1649980569,0
{consumergroup=__strimzi-topic-operator-kstreams},1649980574,0
{consumergroup=__strimzi-topic-operator-kstreams},1649980579,0
{consumergroup=__strimzi-topic-operator-kstreams},1649980584,0
{consumergroup=__strimzi-topic-operator-kstreams},1649980589,0
{consumergroup=__strimzi-topic-operator-kstreams},1649980594,0
{consumergroup=__strimzi-topic-operator-kstreams},1649980599,0
{consumergroup=__strimzi-topic-operator-kstreams},1649980604,0
{consumergroup=__strimzi-topic-operator-kstreams},1649980609,0
{consumergroup=__strimzi-topic-operator-kstreams},1649980614,0
{consumergroup=__strimzi-topic-operator-kstreams},1649980619,0
{consumergroup=__strimzi-topic-operator-kstreams},1649980624,0
{consumergroup=__strimzi-topic-operator-kstreams},1649980629,0
{consumergroup=__strimzi-topic-operator-kstreams},1649980634,0
{consumergroup=__strimzi-topic-operator-kstreams},1649980639,0
{consumergroup=__strimzi-topic-operator-kstreams},1649980644,0
{consumergroup=__strimzi-topic-operator-kstreams},1649980649,0
{consumergroup=__strimzi-topic-operator-kstreams},1649980654,0
{consumergroup=__strimzi-topic-operator-kstreams},1649980659,0
{consumergroup=__strimzi-topic-operator-kstreams},1649980664,0
{consumergroup=__strimzi-topic-operator-kstreams},1649980669,0
{consumergroup=__strimzi-topic-operator-kstreams},1649980674,0
{consumergroup=__strimzi-topic-operator-kstreams},1649980679,0
{consumergroup=__strimzi-topic-operator-kstreams},1649980684,0
{consumergroup=__strimzi-topic-operator-kstreams},1649980689,0
{consumergroup=__strimzi-topic-operator-kstreams},1649980694,0
{consumergroup=__strimzi-topic-operator-kstreams},1649980699,0
{consumergroup=__strimzi-topic-operator-kstreams},1649980704,0
{consumergroup=__strimzi-topic-operator-kstreams},1649980709,0
{consumergroup=__strimzi-topic-operator-kstreams},1649980714,0
{consumergroup=__strimzi-topic-operator-kstreams},1649980719,0
{consumergroup=__strimzi-topic-operator-kstreams},1649980724,0
{consumergroup=__strimzi-topic-operator-kstreams},1649980729,0
{consumergroup=__strimzi-topic-operator-kstreams},1649980734,0
{consumergroup=__strimzi-topic-operator-kstreams},1649980739,0
{consumergroup=__strimzi-topic-operator-kstreams},1649980744,0
{consumergroup=__strimzi-topic-operator-kstreams},1649980749,0
{consumergroup=__strimzi-topic-operator-kstreams},1649980754,0
{consumergroup=__strimzi-topic-operator-kstreams},1649980759,0
{consumergroup=__strimzi-topic-operator-kstreams},1649980764,0
{consumergroup=__strimzi-topic-operator-kstreams},1649980769,0
{consumergroup=__strimzi-topic-operator-kstreams},1649980774,0
{consumergroup=__strimzi-topic-operator-kstreams},1649980779,0
{consumergroup=__strimzi-topic-operator-kstreams},1649980784,0
{consumergroup=__strimzi-topic-operator-kstreams},1649980789,0
{consumergroup=__strimzi-topic-operator-kstreams},1649980794,0
{consumergroup=__strimzi-topic-operator-kstreams},1649980799,0
