labels,timestamp,value
{},1649972935,0
{},1649972940,0
{},1649972945,0
{},1649972950,0
{},1649972955,0
{},1649972960,0
{},1649972965,0
{},1649972970,0
{},1649972975,0
{},1649972980,0
{},1649972985,0
{},1649972990,0
{},1649972995,0
{},1649973000,0
{},1649973005,0
{},1649973010,0
{},1649973015,0
{},1649973020,0
{},1649973025,0
{},1649973030,0
{},1649973035,0
{},1649973040,0
{},1649973045,0
{},1649973050,0
{},1649973055,0
{},1649973060,0
{},1649973065,0
{},1649973070,0
{},1649973075,0
{},1649973080,0
{},1649973085,0
{},1649973090,0
{},1649973095,0
{},1649973100,0
{},1649973105,0
{},1649973110,0
{},1649973115,0
{},1649973120,0
{},1649973125,0
{},1649973130,0
{},1649973135,0
{},1649973140,0
{},1649973145,0
{},1649973150,0
{},1649973155,0
{},1649973160,0
{},1649973165,0
{},1649973170,0
{},1649973175,0
