labels,timestamp,value
{consumergroup=__strimzi-topic-operator-kstreams},1649967324,11
{consumergroup=__strimzi-topic-operator-kstreams},1649967329,11
{consumergroup=__strimzi-topic-operator-kstreams},1649967334,11
{consumergroup=__strimzi-topic-operator-kstreams},1649967339,0
{consumergroup=__strimzi-topic-operator-kstreams},1649967344,0
{consumergroup=__strimzi-topic-operator-kstreams},1649967349,0
{consumergroup=__strimzi-topic-operator-kstreams},1649967354,0
{consumergroup=__strimzi-topic-operator-kstreams},1649967359,0
{consumergroup=__strimzi-topic-operator-kstreams},1649967364,0
{consumergroup=__strimzi-topic-operator-kstreams},1649967369,0
{consumergroup=__strimzi-topic-operator-kstreams},1649967374,0
{consumergroup=__strimzi-topic-operator-kstreams},1649967379,0
{consumergroup=__strimzi-topic-operator-kstreams},1649967384,0
{consumergroup=__strimzi-topic-operator-kstreams},1649967389,0
{consumergroup=__strimzi-topic-operator-kstreams},1649967394,0
{consumergroup=__strimzi-topic-operator-kstreams},1649967399,0
{consumergroup=__strimzi-topic-operator-kstreams},1649967404,0
{consumergroup=__strimzi-topic-operator-kstreams},1649967409,0
{consumergroup=__strimzi-topic-operator-kstreams},1649967414,0
{consumergroup=__strimzi-topic-operator-kstreams},1649967419,0
{consumergroup=__strimzi-topic-operator-kstreams},1649967424,0
{consumergroup=__strimzi-topic-operator-kstreams},1649967429,0
{consumergroup=__strimzi-topic-operator-kstreams},1649967434,0
{consumergroup=__strimzi-topic-operator-kstreams},1649967439,0
{consumergroup=__strimzi-topic-operator-kstreams},1649967444,0
{consumergroup=__strimzi-topic-operator-kstreams},1649967449,0
{consumergroup=__strimzi-topic-operator-kstreams},1649967454,0
{consumergroup=__strimzi-topic-operator-kstreams},1649967459,0
{consumergroup=__strimzi-topic-operator-kstreams},1649967464,0
{consumergroup=__strimzi-topic-operator-kstreams},1649967469,0
{consumergroup=__strimzi-topic-operator-kstreams},1649967474,0
{consumergroup=__strimzi-topic-operator-kstreams},1649967479,0
{consumergroup=__strimzi-topic-operator-kstreams},1649967484,0
{consumergroup=__strimzi-topic-operator-kstreams},1649967489,0
{consumergroup=__strimzi-topic-operator-kstreams},1649967494,0
{consumergroup=__strimzi-topic-operator-kstreams},1649967499,0
{consumergroup=__strimzi-topic-operator-kstreams},1649967504,0
{consumergroup=__strimzi-topic-operator-kstreams},1649967509,0
{consumergroup=__strimzi-topic-operator-kstreams},1649967514,0
{consumergroup=__strimzi-topic-operator-kstreams},1649967519,0
{consumergroup=__strimzi-topic-operator-kstreams},1649967524,0
{consumergroup=__strimzi-topic-operator-kstreams},1649967529,0
{consumergroup=__strimzi-topic-operator-kstreams},1649967534,0
{consumergroup=__strimzi-topic-operator-kstreams},1649967539,0
{consumergroup=__strimzi-topic-operator-kstreams},1649967544,0
{consumergroup=__strimzi-topic-operator-kstreams},1649967549,0
{consumergroup=__strimzi-topic-operator-kstreams},1649967554,0
{consumergroup=__strimzi-topic-operator-kstreams},1649967559,0
{consumergroup=__strimzi-topic-operator-kstreams},1649967564,0
{consumergroup=__strimzi-topic-operator-kstreams},1649967569,0
{consumergroup=__strimzi-topic-operator-kstreams},1649967574,0
{consumergroup=__strimzi-topic-operator-kstreams},1649967579,0
{consumergroup=__strimzi-topic-operator-kstreams},1649967584,0
{consumergroup=__strimzi-topic-operator-kstreams},1649967589,0
{consumergroup=__strimzi-topic-operator-kstreams},1649967594,0
{consumergroup=__strimzi-topic-operator-kstreams},1649967599,0
{consumergroup=__strimzi-topic-operator-kstreams},1649967604,0
{consumergroup=__strimzi-topic-operator-kstreams},1649967609,0
{consumergroup=__strimzi-topic-operator-kstreams},1649967614,0
{consumergroup=__strimzi-topic-operator-kstreams},1649967619,0
{consumergroup=__strimzi-topic-operator-kstreams},1649967624,0
{consumergroup=__strimzi-topic-operator-kstreams},1649967629,0
{consumergroup=__strimzi-topic-operator-kstreams},1649967634,0
{consumergroup=__strimzi-topic-operator-kstreams},1649967639,0
{consumergroup=__strimzi-topic-operator-kstreams},1649967644,0
{consumergroup=__strimzi-topic-operator-kstreams},1649967649,0
{consumergroup=__strimzi-topic-operator-kstreams},1649967654,0
{consumergroup=__strimzi-topic-operator-kstreams},1649967659,0
{consumergroup=__strimzi-topic-operator-kstreams},1649967664,0
{consumergroup=__strimzi-topic-operator-kstreams},1649967669,0
{consumergroup=__strimzi-topic-operator-kstreams},1649967674,0
{consumergroup=__strimzi-topic-operator-kstreams},1649967679,0
{consumergroup=__strimzi-topic-operator-kstreams},1649967684,0
{consumergroup=__strimzi-topic-operator-kstreams},1649967689,0
{consumergroup=__strimzi-topic-operator-kstreams},1649967694,0
{consumergroup=__strimzi-topic-operator-kstreams},1649967699,0
{consumergroup=__strimzi-topic-operator-kstreams},1649967704,0
{consumergroup=__strimzi-topic-operator-kstreams},1649967709,0
{consumergroup=__strimzi-topic-operator-kstreams},1649967714,0
{consumergroup=__strimzi-topic-operator-kstreams},1649967719,0
{consumergroup=__strimzi-topic-operator-kstreams},1649967724,0
{consumergroup=__strimzi-topic-operator-kstreams},1649967729,0
{consumergroup=__strimzi-topic-operator-kstreams},1649967734,0
{consumergroup=__strimzi-topic-operator-kstreams},1649967739,0
{consumergroup=__strimzi-topic-operator-kstreams},1649967744,0
{consumergroup=__strimzi-topic-operator-kstreams},1649967749,0
{consumergroup=__strimzi-topic-operator-kstreams},1649967754,0
{consumergroup=__strimzi-topic-operator-kstreams},1649967759,0
{consumergroup=__strimzi-topic-operator-kstreams},1649967764,0
{consumergroup=__strimzi-topic-operator-kstreams},1649967769,0
{consumergroup=__strimzi-topic-operator-kstreams},1649967774,0
{consumergroup=__strimzi-topic-operator-kstreams},1649967779,0
{consumergroup=__strimzi-topic-operator-kstreams},1649967784,0
{consumergroup=__strimzi-topic-operator-kstreams},1649967789,0
{consumergroup=__strimzi-topic-operator-kstreams},1649967794,0
{consumergroup=__strimzi-topic-operator-kstreams},1649967799,0
{consumergroup=__strimzi-topic-operator-kstreams},1649967804,0
{consumergroup=__strimzi-topic-operator-kstreams},1649967809,0
