labels,timestamp,value
{},1649943232,0
{},1649943237,0
{},1649943242,0
{},1649943247,0
{},1649943252,0
{},1649943257,0
{},1649943262,0
{},1649943267,0
{},1649943272,0
{},1649943277,0
{},1649943282,0
{},1649943287,0
{},1649943292,0
{},1649943297,0
