labels,timestamp,value
{},1649962848,0
{},1649962853,0
{},1649962858,0
{},1649962863,0
{},1649962868,0
{},1649962873,0
{},1649962878,0
{},1649962883,0
{},1649962888,0
{},1649962893,0
{},1649962898,0
{},1649962903,0
{},1649962908,0
{},1649962913,0
