labels,timestamp,value
{},1649970108,0
{},1649970113,0
{},1649970118,0
{},1649970123,0
{},1649970128,0
{},1649970133,0
{},1649970138,0
{},1649970143,0
{},1649970148,0
{},1649970153,0
{},1649970158,0
{},1649970163,0
{},1649970168,0
{},1649970173,0
{},1649970178,0
{},1649970183,0
{},1649970188,0
{},1649970193,0
{},1649970198,0
{},1649970203,0
{},1649970208,0
{},1649970213,0
{},1649970218,0
{},1649970223,0
{},1649970228,0
{},1649970233,0
{},1649970238,0
{},1649970243,0
{},1649970248,0
{},1649970253,0
{},1649970258,0
{},1649970263,0
{},1649970268,0
{},1649970273,0
{},1649970278,0
{},1649970283,0
{},1649970288,0
{},1649970293,0
{},1649970298,0
