labels,timestamp,value
{consumergroup=__strimzi-topic-operator-kstreams},1649958973,0
{consumergroup=__strimzi-topic-operator-kstreams},1649958978,0
{consumergroup=__strimzi-topic-operator-kstreams},1649958983,0
{consumergroup=__strimzi-topic-operator-kstreams},1649958988,3
{consumergroup=__strimzi-topic-operator-kstreams},1649958993,3
{consumergroup=__strimzi-topic-operator-kstreams},1649958998,3
{consumergroup=__strimzi-topic-operator-kstreams},1649959003,0
{consumergroup=__strimzi-topic-operator-kstreams},1649959008,0
{consumergroup=__strimzi-topic-operator-kstreams},1649959013,0
{consumergroup=__strimzi-topic-operator-kstreams},1649959018,0
{consumergroup=__strimzi-topic-operator-kstreams},1649959023,0
{consumergroup=__strimzi-topic-operator-kstreams},1649959028,0
{consumergroup=__strimzi-topic-operator-kstreams},1649959033,0
{consumergroup=__strimzi-topic-operator-kstreams},1649959038,0
{consumergroup=__strimzi-topic-operator-kstreams},1649959043,0
{consumergroup=__strimzi-topic-operator-kstreams},1649959048,0
{consumergroup=__strimzi-topic-operator-kstreams},1649959053,0
{consumergroup=__strimzi-topic-operator-kstreams},1649959058,0
{consumergroup=__strimzi-topic-operator-kstreams},1649959063,0
{consumergroup=__strimzi-topic-operator-kstreams},1649959068,0
{consumergroup=__strimzi-topic-operator-kstreams},1649959073,0
{consumergroup=__strimzi-topic-operator-kstreams},1649959078,0
{consumergroup=__strimzi-topic-operator-kstreams},1649959083,0
{consumergroup=__strimzi-topic-operator-kstreams},1649959088,0
{consumergroup=__strimzi-topic-operator-kstreams},1649959093,0
{consumergroup=__strimzi-topic-operator-kstreams},1649959098,0
{consumergroup=__strimzi-topic-operator-kstreams},1649959103,0
{consumergroup=__strimzi-topic-operator-kstreams},1649959108,0
{consumergroup=__strimzi-topic-operator-kstreams},1649959113,0
{consumergroup=__strimzi-topic-operator-kstreams},1649959118,0
{consumergroup=__strimzi-topic-operator-kstreams},1649959123,0
{consumergroup=__strimzi-topic-operator-kstreams},1649959128,0
{consumergroup=__strimzi-topic-operator-kstreams},1649959133,0
{consumergroup=__strimzi-topic-operator-kstreams},1649959138,0
{consumergroup=__strimzi-topic-operator-kstreams},1649959143,0
{consumergroup=__strimzi-topic-operator-kstreams},1649959148,0
{consumergroup=__strimzi-topic-operator-kstreams},1649959153,0
{consumergroup=__strimzi-topic-operator-kstreams},1649959158,0
{consumergroup=__strimzi-topic-operator-kstreams},1649959163,0
{consumergroup=__strimzi-topic-operator-kstreams},1649959168,0
{consumergroup=__strimzi-topic-operator-kstreams},1649959173,0
{consumergroup=__strimzi-topic-operator-kstreams},1649959178,0
{consumergroup=__strimzi-topic-operator-kstreams},1649959183,0
{consumergroup=__strimzi-topic-operator-kstreams},1649959188,0
{consumergroup=__strimzi-topic-operator-kstreams},1649959193,0
{consumergroup=__strimzi-topic-operator-kstreams},1649959198,0
{consumergroup=__strimzi-topic-operator-kstreams},1649959203,0
{consumergroup=__strimzi-topic-operator-kstreams},1649959208,0
{consumergroup=__strimzi-topic-operator-kstreams},1649959213,0
{consumergroup=__strimzi-topic-operator-kstreams},1649959218,0
{consumergroup=__strimzi-topic-operator-kstreams},1649959223,0
{consumergroup=__strimzi-topic-operator-kstreams},1649959228,0
{consumergroup=__strimzi-topic-operator-kstreams},1649959233,0
{consumergroup=__strimzi-topic-operator-kstreams},1649959238,0
{consumergroup=__strimzi-topic-operator-kstreams},1649959243,0
{consumergroup=__strimzi-topic-operator-kstreams},1649959248,0
{consumergroup=__strimzi-topic-operator-kstreams},1649959253,0
{consumergroup=__strimzi-topic-operator-kstreams},1649959258,0
{consumergroup=__strimzi-topic-operator-kstreams},1649959263,0
{consumergroup=__strimzi-topic-operator-kstreams},1649959268,0
{consumergroup=__strimzi-topic-operator-kstreams},1649959273,0
{consumergroup=__strimzi-topic-operator-kstreams},1649959278,0
{consumergroup=__strimzi-topic-operator-kstreams},1649959283,0
{consumergroup=__strimzi-topic-operator-kstreams},1649959288,0
{consumergroup=__strimzi-topic-operator-kstreams},1649959293,0
{consumergroup=__strimzi-topic-operator-kstreams},1649959298,0
{consumergroup=__strimzi-topic-operator-kstreams},1649959303,0
{consumergroup=__strimzi-topic-operator-kstreams},1649959308,0
{consumergroup=__strimzi-topic-operator-kstreams},1649959313,0
{consumergroup=__strimzi-topic-operator-kstreams},1649959318,0
{consumergroup=__strimzi-topic-operator-kstreams},1649959323,0
{consumergroup=__strimzi-topic-operator-kstreams},1649959328,0
{consumergroup=__strimzi-topic-operator-kstreams},1649959333,0
{consumergroup=__strimzi-topic-operator-kstreams},1649959338,0
{consumergroup=__strimzi-topic-operator-kstreams},1649959343,0
{consumergroup=__strimzi-topic-operator-kstreams},1649959348,0
{consumergroup=__strimzi-topic-operator-kstreams},1649959353,0
{consumergroup=__strimzi-topic-operator-kstreams},1649959358,0
{consumergroup=__strimzi-topic-operator-kstreams},1649959363,0
{consumergroup=__strimzi-topic-operator-kstreams},1649959368,0
{consumergroup=__strimzi-topic-operator-kstreams},1649959373,0
{consumergroup=__strimzi-topic-operator-kstreams},1649959378,0
{consumergroup=__strimzi-topic-operator-kstreams},1649959383,0
{consumergroup=__strimzi-topic-operator-kstreams},1649959388,0
{consumergroup=__strimzi-topic-operator-kstreams},1649959393,0
{consumergroup=__strimzi-topic-operator-kstreams},1649959398,0
{consumergroup=__strimzi-topic-operator-kstreams},1649959403,0
{consumergroup=__strimzi-topic-operator-kstreams},1649959408,0
{consumergroup=__strimzi-topic-operator-kstreams},1649959413,0
{consumergroup=__strimzi-topic-operator-kstreams},1649959418,0
{consumergroup=__strimzi-topic-operator-kstreams},1649959423,0
{consumergroup=__strimzi-topic-operator-kstreams},1649959428,0
{consumergroup=__strimzi-topic-operator-kstreams},1649959433,0
{consumergroup=__strimzi-topic-operator-kstreams},1649959438,0
{consumergroup=__strimzi-topic-operator-kstreams},1649959443,0
{consumergroup=__strimzi-topic-operator-kstreams},1649959448,0
{consumergroup=__strimzi-topic-operator-kstreams},1649959453,0
{consumergroup=__strimzi-topic-operator-kstreams},1649959458,0
