labels,timestamp,value
{},1649974641,0
{},1649974646,0
{},1649974651,0
{},1649974656,0
{},1649974661,0
{},1649974666,0
{},1649974671,0
{},1649974676,0
{},1649974681,0
{},1649974686,0
{},1649974691,0
{},1649974696,0
{},1649974701,0
{},1649974706,0
