labels,timestamp,value
{consumergroup=__strimzi-topic-operator-kstreams},1649967876,0
{consumergroup=__strimzi-topic-operator-kstreams},1649967881,0
{consumergroup=__strimzi-topic-operator-kstreams},1649967886,0
{consumergroup=__strimzi-topic-operator-kstreams},1649967891,8
{consumergroup=__strimzi-topic-operator-kstreams},1649967896,8
{consumergroup=__strimzi-topic-operator-kstreams},1649967901,8
{consumergroup=__strimzi-topic-operator-kstreams},1649967906,0
{consumergroup=__strimzi-topic-operator-kstreams},1649967911,0
{consumergroup=__strimzi-topic-operator-kstreams},1649967916,0
{consumergroup=__strimzi-topic-operator-kstreams},1649967921,0
{consumergroup=__strimzi-topic-operator-kstreams},1649967926,0
{consumergroup=__strimzi-topic-operator-kstreams},1649967931,0
{consumergroup=__strimzi-topic-operator-kstreams},1649967936,0
{consumergroup=__strimzi-topic-operator-kstreams},1649967941,0
{consumergroup=__strimzi-topic-operator-kstreams},1649967946,0
{consumergroup=__strimzi-topic-operator-kstreams},1649967951,0
{consumergroup=__strimzi-topic-operator-kstreams},1649967956,0
{consumergroup=__strimzi-topic-operator-kstreams},1649967961,0
{consumergroup=__strimzi-topic-operator-kstreams},1649967966,0
{consumergroup=__strimzi-topic-operator-kstreams},1649967971,0
{consumergroup=__strimzi-topic-operator-kstreams},1649967976,0
{consumergroup=__strimzi-topic-operator-kstreams},1649967981,0
{consumergroup=__strimzi-topic-operator-kstreams},1649967986,0
{consumergroup=__strimzi-topic-operator-kstreams},1649967991,0
{consumergroup=__strimzi-topic-operator-kstreams},1649967996,0
{consumergroup=__strimzi-topic-operator-kstreams},1649968001,0
{consumergroup=__strimzi-topic-operator-kstreams},1649968006,0
{consumergroup=__strimzi-topic-operator-kstreams},1649968011,0
{consumergroup=__strimzi-topic-operator-kstreams},1649968016,0
{consumergroup=__strimzi-topic-operator-kstreams},1649968021,0
{consumergroup=__strimzi-topic-operator-kstreams},1649968026,0
{consumergroup=__strimzi-topic-operator-kstreams},1649968031,0
{consumergroup=__strimzi-topic-operator-kstreams},1649968036,0
{consumergroup=__strimzi-topic-operator-kstreams},1649968041,0
{consumergroup=__strimzi-topic-operator-kstreams},1649968046,0
{consumergroup=__strimzi-topic-operator-kstreams},1649968051,0
{consumergroup=__strimzi-topic-operator-kstreams},1649968056,0
{consumergroup=__strimzi-topic-operator-kstreams},1649968061,0
{consumergroup=__strimzi-topic-operator-kstreams},1649968066,0
{consumergroup=__strimzi-topic-operator-kstreams},1649968071,0
{consumergroup=__strimzi-topic-operator-kstreams},1649968076,0
{consumergroup=__strimzi-topic-operator-kstreams},1649968081,0
{consumergroup=__strimzi-topic-operator-kstreams},1649968086,0
{consumergroup=__strimzi-topic-operator-kstreams},1649968091,0
{consumergroup=__strimzi-topic-operator-kstreams},1649968096,0
{consumergroup=__strimzi-topic-operator-kstreams},1649968101,0
{consumergroup=__strimzi-topic-operator-kstreams},1649968106,0
{consumergroup=__strimzi-topic-operator-kstreams},1649968111,0
{consumergroup=__strimzi-topic-operator-kstreams},1649968116,0
{consumergroup=__strimzi-topic-operator-kstreams},1649968121,0
{consumergroup=__strimzi-topic-operator-kstreams},1649968126,0
{consumergroup=__strimzi-topic-operator-kstreams},1649968131,0
{consumergroup=__strimzi-topic-operator-kstreams},1649968136,0
{consumergroup=__strimzi-topic-operator-kstreams},1649968141,0
{consumergroup=__strimzi-topic-operator-kstreams},1649968146,0
{consumergroup=__strimzi-topic-operator-kstreams},1649968151,0
{consumergroup=__strimzi-topic-operator-kstreams},1649968156,0
{consumergroup=__strimzi-topic-operator-kstreams},1649968161,0
{consumergroup=__strimzi-topic-operator-kstreams},1649968166,0
{consumergroup=__strimzi-topic-operator-kstreams},1649968171,0
{consumergroup=__strimzi-topic-operator-kstreams},1649968176,0
{consumergroup=__strimzi-topic-operator-kstreams},1649968181,0
{consumergroup=__strimzi-topic-operator-kstreams},1649968186,0
{consumergroup=__strimzi-topic-operator-kstreams},1649968191,0
{consumergroup=__strimzi-topic-operator-kstreams},1649968196,0
{consumergroup=__strimzi-topic-operator-kstreams},1649968201,0
{consumergroup=__strimzi-topic-operator-kstreams},1649968206,0
{consumergroup=__strimzi-topic-operator-kstreams},1649968211,0
{consumergroup=__strimzi-topic-operator-kstreams},1649968216,0
{consumergroup=__strimzi-topic-operator-kstreams},1649968221,0
{consumergroup=__strimzi-topic-operator-kstreams},1649968226,0
{consumergroup=__strimzi-topic-operator-kstreams},1649968231,0
{consumergroup=__strimzi-topic-operator-kstreams},1649968236,0
{consumergroup=__strimzi-topic-operator-kstreams},1649968241,0
{consumergroup=__strimzi-topic-operator-kstreams},1649968246,0
{consumergroup=__strimzi-topic-operator-kstreams},1649968251,0
{consumergroup=__strimzi-topic-operator-kstreams},1649968256,0
{consumergroup=__strimzi-topic-operator-kstreams},1649968261,0
{consumergroup=__strimzi-topic-operator-kstreams},1649968266,0
{consumergroup=__strimzi-topic-operator-kstreams},1649968271,0
{consumergroup=__strimzi-topic-operator-kstreams},1649968276,0
{consumergroup=__strimzi-topic-operator-kstreams},1649968281,0
{consumergroup=__strimzi-topic-operator-kstreams},1649968286,0
{consumergroup=__strimzi-topic-operator-kstreams},1649968291,0
{consumergroup=__strimzi-topic-operator-kstreams},1649968296,0
{consumergroup=__strimzi-topic-operator-kstreams},1649968301,0
{consumergroup=__strimzi-topic-operator-kstreams},1649968306,0
{consumergroup=__strimzi-topic-operator-kstreams},1649968311,0
{consumergroup=__strimzi-topic-operator-kstreams},1649968316,0
{consumergroup=__strimzi-topic-operator-kstreams},1649968321,0
{consumergroup=__strimzi-topic-operator-kstreams},1649968326,0
{consumergroup=__strimzi-topic-operator-kstreams},1649968331,0
{consumergroup=__strimzi-topic-operator-kstreams},1649968336,0
{consumergroup=__strimzi-topic-operator-kstreams},1649968341,0
{consumergroup=__strimzi-topic-operator-kstreams},1649968346,0
{consumergroup=__strimzi-topic-operator-kstreams},1649968351,0
{consumergroup=__strimzi-topic-operator-kstreams},1649968356,0
{consumergroup=__strimzi-topic-operator-kstreams},1649968361,0
{consumergroup=__strimzi-topic-operator-kstreams},1649968366,0
{consumergroup=__strimzi-topic-operator-kstreams},1649968371,0
