labels,timestamp,value
{consumergroup=__strimzi-topic-operator-kstreams},1649938732,11
{consumergroup=__strimzi-topic-operator-kstreams},1649938737,11
{consumergroup=__strimzi-topic-operator-kstreams},1649938742,11
{consumergroup=__strimzi-topic-operator-kstreams},1649938747,14
{consumergroup=__strimzi-topic-operator-kstreams},1649938752,14
{consumergroup=__strimzi-topic-operator-kstreams},1649938757,14
{consumergroup=__strimzi-topic-operator-kstreams},1649938762,0
{consumergroup=__strimzi-topic-operator-kstreams},1649938767,0
{consumergroup=__strimzi-topic-operator-kstreams},1649938772,0
{consumergroup=__strimzi-topic-operator-kstreams},1649938777,0
{consumergroup=__strimzi-topic-operator-kstreams},1649938782,0
{consumergroup=__strimzi-topic-operator-kstreams},1649938787,0
{consumergroup=__strimzi-topic-operator-kstreams},1649938792,0
{consumergroup=__strimzi-topic-operator-kstreams},1649938797,0
{consumergroup=__strimzi-topic-operator-kstreams},1649938802,0
{consumergroup=__strimzi-topic-operator-kstreams},1649938807,0
{consumergroup=__strimzi-topic-operator-kstreams},1649938812,0
{consumergroup=__strimzi-topic-operator-kstreams},1649938817,0
{consumergroup=__strimzi-topic-operator-kstreams},1649938822,0
{consumergroup=__strimzi-topic-operator-kstreams},1649938827,0
{consumergroup=__strimzi-topic-operator-kstreams},1649938832,0
{consumergroup=__strimzi-topic-operator-kstreams},1649938837,0
{consumergroup=__strimzi-topic-operator-kstreams},1649938842,0
{consumergroup=__strimzi-topic-operator-kstreams},1649938847,0
{consumergroup=__strimzi-topic-operator-kstreams},1649938852,0
{consumergroup=__strimzi-topic-operator-kstreams},1649938857,0
{consumergroup=__strimzi-topic-operator-kstreams},1649938862,0
{consumergroup=__strimzi-topic-operator-kstreams},1649938867,0
{consumergroup=__strimzi-topic-operator-kstreams},1649938872,0
{consumergroup=__strimzi-topic-operator-kstreams},1649938877,0
{consumergroup=__strimzi-topic-operator-kstreams},1649938882,0
{consumergroup=__strimzi-topic-operator-kstreams},1649938887,0
{consumergroup=__strimzi-topic-operator-kstreams},1649938892,0
{consumergroup=__strimzi-topic-operator-kstreams},1649938897,0
{consumergroup=__strimzi-topic-operator-kstreams},1649938902,0
{consumergroup=__strimzi-topic-operator-kstreams},1649938907,0
{consumergroup=__strimzi-topic-operator-kstreams},1649938912,0
{consumergroup=__strimzi-topic-operator-kstreams},1649938917,0
{consumergroup=__strimzi-topic-operator-kstreams},1649938922,0
{consumergroup=__strimzi-topic-operator-kstreams},1649938927,0
{consumergroup=__strimzi-topic-operator-kstreams},1649938932,0
{consumergroup=__strimzi-topic-operator-kstreams},1649938937,0
{consumergroup=__strimzi-topic-operator-kstreams},1649938942,0
{consumergroup=__strimzi-topic-operator-kstreams},1649938947,0
{consumergroup=__strimzi-topic-operator-kstreams},1649938952,0
{consumergroup=__strimzi-topic-operator-kstreams},1649938957,0
{consumergroup=__strimzi-topic-operator-kstreams},1649938962,0
{consumergroup=__strimzi-topic-operator-kstreams},1649938967,0
{consumergroup=__strimzi-topic-operator-kstreams},1649938972,0
{consumergroup=__strimzi-topic-operator-kstreams},1649938977,0
{consumergroup=__strimzi-topic-operator-kstreams},1649938982,0
{consumergroup=__strimzi-topic-operator-kstreams},1649938987,0
{consumergroup=__strimzi-topic-operator-kstreams},1649938992,0
{consumergroup=__strimzi-topic-operator-kstreams},1649938997,0
{consumergroup=__strimzi-topic-operator-kstreams},1649939002,0
{consumergroup=__strimzi-topic-operator-kstreams},1649939007,0
{consumergroup=__strimzi-topic-operator-kstreams},1649939012,0
{consumergroup=__strimzi-topic-operator-kstreams},1649939017,0
{consumergroup=__strimzi-topic-operator-kstreams},1649939022,0
{consumergroup=__strimzi-topic-operator-kstreams},1649939027,0
{consumergroup=__strimzi-topic-operator-kstreams},1649939032,0
{consumergroup=__strimzi-topic-operator-kstreams},1649939037,0
{consumergroup=__strimzi-topic-operator-kstreams},1649939042,0
{consumergroup=__strimzi-topic-operator-kstreams},1649939047,0
{consumergroup=__strimzi-topic-operator-kstreams},1649939052,0
{consumergroup=__strimzi-topic-operator-kstreams},1649939057,0
{consumergroup=__strimzi-topic-operator-kstreams},1649939062,0
{consumergroup=__strimzi-topic-operator-kstreams},1649939067,0
{consumergroup=__strimzi-topic-operator-kstreams},1649939072,0
{consumergroup=__strimzi-topic-operator-kstreams},1649939077,0
{consumergroup=__strimzi-topic-operator-kstreams},1649939082,0
{consumergroup=__strimzi-topic-operator-kstreams},1649939087,0
{consumergroup=__strimzi-topic-operator-kstreams},1649939092,0
{consumergroup=__strimzi-topic-operator-kstreams},1649939097,0
{consumergroup=__strimzi-topic-operator-kstreams},1649939102,0
{consumergroup=__strimzi-topic-operator-kstreams},1649939107,0
{consumergroup=__strimzi-topic-operator-kstreams},1649939112,0
{consumergroup=__strimzi-topic-operator-kstreams},1649939117,0
{consumergroup=__strimzi-topic-operator-kstreams},1649939122,0
{consumergroup=__strimzi-topic-operator-kstreams},1649939127,0
{consumergroup=__strimzi-topic-operator-kstreams},1649939132,0
{consumergroup=__strimzi-topic-operator-kstreams},1649939137,0
{consumergroup=__strimzi-topic-operator-kstreams},1649939142,0
{consumergroup=__strimzi-topic-operator-kstreams},1649939147,0
{consumergroup=__strimzi-topic-operator-kstreams},1649939152,0
{consumergroup=__strimzi-topic-operator-kstreams},1649939157,0
{consumergroup=__strimzi-topic-operator-kstreams},1649939162,0
{consumergroup=__strimzi-topic-operator-kstreams},1649939167,0
{consumergroup=__strimzi-topic-operator-kstreams},1649939172,0
{consumergroup=__strimzi-topic-operator-kstreams},1649939177,0
{consumergroup=__strimzi-topic-operator-kstreams},1649939182,0
{consumergroup=__strimzi-topic-operator-kstreams},1649939187,0
{consumergroup=__strimzi-topic-operator-kstreams},1649939192,0
{consumergroup=__strimzi-topic-operator-kstreams},1649939197,0
{consumergroup=__strimzi-topic-operator-kstreams},1649939202,0
{consumergroup=__strimzi-topic-operator-kstreams},1649939207,0
{consumergroup=__strimzi-topic-operator-kstreams},1649939212,0
{consumergroup=__strimzi-topic-operator-kstreams},1649939217,0
{consumergroup=__strimzi-topic-operator-kstreams},1649939222,0
{consumergroup=__strimzi-topic-operator-kstreams},1649939227,0
