labels,timestamp,value
{consumergroup=__strimzi-topic-operator-kstreams},1649990464,8
{consumergroup=__strimzi-topic-operator-kstreams},1649990469,8
{consumergroup=__strimzi-topic-operator-kstreams},1649990474,8
{consumergroup=__strimzi-topic-operator-kstreams},1649990479,10
{consumergroup=__strimzi-topic-operator-kstreams},1649990484,10
{consumergroup=__strimzi-topic-operator-kstreams},1649990489,10
{consumergroup=__strimzi-topic-operator-kstreams},1649990494,0
{consumergroup=__strimzi-topic-operator-kstreams},1649990499,0
{consumergroup=__strimzi-topic-operator-kstreams},1649990504,0
{consumergroup=__strimzi-topic-operator-kstreams},1649990509,0
{consumergroup=__strimzi-topic-operator-kstreams},1649990514,0
{consumergroup=__strimzi-topic-operator-kstreams},1649990519,0
{consumergroup=__strimzi-topic-operator-kstreams},1649990524,0
{consumergroup=__strimzi-topic-operator-kstreams},1649990529,0
{consumergroup=__strimzi-topic-operator-kstreams},1649990534,0
{consumergroup=__strimzi-topic-operator-kstreams},1649990539,0
{consumergroup=__strimzi-topic-operator-kstreams},1649990544,0
{consumergroup=__strimzi-topic-operator-kstreams},1649990549,0
{consumergroup=__strimzi-topic-operator-kstreams},1649990554,0
{consumergroup=__strimzi-topic-operator-kstreams},1649990559,0
{consumergroup=__strimzi-topic-operator-kstreams},1649990564,0
{consumergroup=__strimzi-topic-operator-kstreams},1649990569,0
{consumergroup=__strimzi-topic-operator-kstreams},1649990574,0
{consumergroup=__strimzi-topic-operator-kstreams},1649990579,0
{consumergroup=__strimzi-topic-operator-kstreams},1649990584,0
{consumergroup=__strimzi-topic-operator-kstreams},1649990589,0
{consumergroup=__strimzi-topic-operator-kstreams},1649990594,0
{consumergroup=__strimzi-topic-operator-kstreams},1649990599,1
{consumergroup=__strimzi-topic-operator-kstreams},1649990604,1
{consumergroup=__strimzi-topic-operator-kstreams},1649990609,1
{consumergroup=__strimzi-topic-operator-kstreams},1649990614,0
{consumergroup=__strimzi-topic-operator-kstreams},1649990619,0
{consumergroup=__strimzi-topic-operator-kstreams},1649990624,0
{consumergroup=__strimzi-topic-operator-kstreams},1649990629,0
{consumergroup=__strimzi-topic-operator-kstreams},1649990634,0
{consumergroup=__strimzi-topic-operator-kstreams},1649990639,0
{consumergroup=__strimzi-topic-operator-kstreams},1649990644,0
{consumergroup=__strimzi-topic-operator-kstreams},1649990649,0
{consumergroup=__strimzi-topic-operator-kstreams},1649990654,0
{consumergroup=__strimzi-topic-operator-kstreams},1649990659,0
{consumergroup=__strimzi-topic-operator-kstreams},1649990664,0
{consumergroup=__strimzi-topic-operator-kstreams},1649990669,0
{consumergroup=__strimzi-topic-operator-kstreams},1649990674,0
{consumergroup=__strimzi-topic-operator-kstreams},1649990679,0
{consumergroup=__strimzi-topic-operator-kstreams},1649990684,0
{consumergroup=__strimzi-topic-operator-kstreams},1649990689,0
{consumergroup=__strimzi-topic-operator-kstreams},1649990694,0
{consumergroup=__strimzi-topic-operator-kstreams},1649990699,0
{consumergroup=__strimzi-topic-operator-kstreams},1649990704,0
{consumergroup=__strimzi-topic-operator-kstreams},1649990709,0
{consumergroup=__strimzi-topic-operator-kstreams},1649990714,0
{consumergroup=__strimzi-topic-operator-kstreams},1649990719,0
{consumergroup=__strimzi-topic-operator-kstreams},1649990724,0
{consumergroup=__strimzi-topic-operator-kstreams},1649990729,0
{consumergroup=__strimzi-topic-operator-kstreams},1649990734,0
{consumergroup=__strimzi-topic-operator-kstreams},1649990739,0
{consumergroup=__strimzi-topic-operator-kstreams},1649990744,0
{consumergroup=__strimzi-topic-operator-kstreams},1649990749,0
{consumergroup=__strimzi-topic-operator-kstreams},1649990754,0
{consumergroup=__strimzi-topic-operator-kstreams},1649990759,0
{consumergroup=__strimzi-topic-operator-kstreams},1649990764,0
{consumergroup=__strimzi-topic-operator-kstreams},1649990769,0
{consumergroup=__strimzi-topic-operator-kstreams},1649990774,0
{consumergroup=__strimzi-topic-operator-kstreams},1649990779,0
{consumergroup=__strimzi-topic-operator-kstreams},1649990784,0
{consumergroup=__strimzi-topic-operator-kstreams},1649990789,0
{consumergroup=__strimzi-topic-operator-kstreams},1649990794,0
{consumergroup=__strimzi-topic-operator-kstreams},1649990799,0
{consumergroup=__strimzi-topic-operator-kstreams},1649990804,0
{consumergroup=__strimzi-topic-operator-kstreams},1649990809,0
{consumergroup=__strimzi-topic-operator-kstreams},1649990814,0
{consumergroup=__strimzi-topic-operator-kstreams},1649990819,0
{consumergroup=__strimzi-topic-operator-kstreams},1649990824,0
{consumergroup=__strimzi-topic-operator-kstreams},1649990829,0
{consumergroup=__strimzi-topic-operator-kstreams},1649990834,0
{consumergroup=__strimzi-topic-operator-kstreams},1649990839,0
{consumergroup=__strimzi-topic-operator-kstreams},1649990844,0
{consumergroup=__strimzi-topic-operator-kstreams},1649990849,0
{consumergroup=__strimzi-topic-operator-kstreams},1649990854,0
{consumergroup=__strimzi-topic-operator-kstreams},1649990859,0
{consumergroup=__strimzi-topic-operator-kstreams},1649990864,0
{consumergroup=__strimzi-topic-operator-kstreams},1649990869,0
{consumergroup=__strimzi-topic-operator-kstreams},1649990874,0
{consumergroup=__strimzi-topic-operator-kstreams},1649990879,0
{consumergroup=__strimzi-topic-operator-kstreams},1649990884,0
{consumergroup=__strimzi-topic-operator-kstreams},1649990889,0
{consumergroup=__strimzi-topic-operator-kstreams},1649990894,0
{consumergroup=__strimzi-topic-operator-kstreams},1649990899,0
{consumergroup=__strimzi-topic-operator-kstreams},1649990904,0
{consumergroup=__strimzi-topic-operator-kstreams},1649990909,0
{consumergroup=__strimzi-topic-operator-kstreams},1649990914,0
{consumergroup=__strimzi-topic-operator-kstreams},1649990919,0
{consumergroup=__strimzi-topic-operator-kstreams},1649990924,0
{consumergroup=__strimzi-topic-operator-kstreams},1649990929,0
{consumergroup=__strimzi-topic-operator-kstreams},1649990934,0
{consumergroup=__strimzi-topic-operator-kstreams},1649990939,0
{consumergroup=__strimzi-topic-operator-kstreams},1649990944,0
{consumergroup=__strimzi-topic-operator-kstreams},1649990949,0
{consumergroup=__strimzi-topic-operator-kstreams},1649990954,0
{consumergroup=__strimzi-topic-operator-kstreams},1649990959,0
