labels,timestamp,value
{},1649942669,0
{},1649942674,0
{},1649942679,0
{},1649942684,0
{},1649942689,0
{},1649942694,0
{},1649942699,0
{},1649942704,0
{},1649942709,0
{},1649942714,0
{},1649942719,0
{},1649942724,0
{},1649942729,0
{},1649942734,0
