labels,timestamp,value
{},1649958399,0
{},1649958404,0
{},1649958409,0
{},1649958414,0
{},1649958419,0
{},1649958424,0
{},1649958429,0
{},1649958434,0
{},1649958439,0
{},1649958444,0
{},1649958449,0
{},1649958454,0
{},1649958459,0
{},1649958464,0
