labels,timestamp,value
{consumergroup=__strimzi-topic-operator-kstreams},1649951155,0
{consumergroup=__strimzi-topic-operator-kstreams},1649951160,0
{consumergroup=__strimzi-topic-operator-kstreams},1649951165,0
{consumergroup=__strimzi-topic-operator-kstreams},1649951170,3
{consumergroup=__strimzi-topic-operator-kstreams},1649951175,3
{consumergroup=__strimzi-topic-operator-kstreams},1649951180,3
{consumergroup=__strimzi-topic-operator-kstreams},1649951185,0
{consumergroup=__strimzi-topic-operator-kstreams},1649951190,0
{consumergroup=__strimzi-topic-operator-kstreams},1649951195,0
{consumergroup=__strimzi-topic-operator-kstreams},1649951200,0
{consumergroup=__strimzi-topic-operator-kstreams},1649951205,0
{consumergroup=__strimzi-topic-operator-kstreams},1649951210,0
{consumergroup=__strimzi-topic-operator-kstreams},1649951215,0
{consumergroup=__strimzi-topic-operator-kstreams},1649951220,0
{consumergroup=__strimzi-topic-operator-kstreams},1649951225,0
{consumergroup=__strimzi-topic-operator-kstreams},1649951230,0
{consumergroup=__strimzi-topic-operator-kstreams},1649951235,0
{consumergroup=__strimzi-topic-operator-kstreams},1649951240,0
{consumergroup=__strimzi-topic-operator-kstreams},1649951245,0
{consumergroup=__strimzi-topic-operator-kstreams},1649951250,0
{consumergroup=__strimzi-topic-operator-kstreams},1649951255,0
{consumergroup=__strimzi-topic-operator-kstreams},1649951260,0
{consumergroup=__strimzi-topic-operator-kstreams},1649951265,0
{consumergroup=__strimzi-topic-operator-kstreams},1649951270,0
{consumergroup=__strimzi-topic-operator-kstreams},1649951275,0
{consumergroup=__strimzi-topic-operator-kstreams},1649951280,0
{consumergroup=__strimzi-topic-operator-kstreams},1649951285,0
{consumergroup=__strimzi-topic-operator-kstreams},1649951290,0
{consumergroup=__strimzi-topic-operator-kstreams},1649951295,0
{consumergroup=__strimzi-topic-operator-kstreams},1649951300,0
{consumergroup=__strimzi-topic-operator-kstreams},1649951305,0
{consumergroup=__strimzi-topic-operator-kstreams},1649951310,0
{consumergroup=__strimzi-topic-operator-kstreams},1649951315,0
{consumergroup=__strimzi-topic-operator-kstreams},1649951320,0
{consumergroup=__strimzi-topic-operator-kstreams},1649951325,0
{consumergroup=__strimzi-topic-operator-kstreams},1649951330,0
{consumergroup=__strimzi-topic-operator-kstreams},1649951335,0
{consumergroup=__strimzi-topic-operator-kstreams},1649951340,0
{consumergroup=__strimzi-topic-operator-kstreams},1649951345,0
{consumergroup=__strimzi-topic-operator-kstreams},1649951350,0
{consumergroup=__strimzi-topic-operator-kstreams},1649951355,0
{consumergroup=__strimzi-topic-operator-kstreams},1649951360,0
{consumergroup=__strimzi-topic-operator-kstreams},1649951365,0
{consumergroup=__strimzi-topic-operator-kstreams},1649951370,0
{consumergroup=__strimzi-topic-operator-kstreams},1649951375,0
{consumergroup=__strimzi-topic-operator-kstreams},1649951380,0
{consumergroup=__strimzi-topic-operator-kstreams},1649951385,0
{consumergroup=__strimzi-topic-operator-kstreams},1649951390,0
{consumergroup=__strimzi-topic-operator-kstreams},1649951395,0
{consumergroup=__strimzi-topic-operator-kstreams},1649951400,0
{consumergroup=__strimzi-topic-operator-kstreams},1649951405,0
{consumergroup=__strimzi-topic-operator-kstreams},1649951410,0
{consumergroup=__strimzi-topic-operator-kstreams},1649951415,0
{consumergroup=__strimzi-topic-operator-kstreams},1649951420,0
{consumergroup=__strimzi-topic-operator-kstreams},1649951425,0
{consumergroup=__strimzi-topic-operator-kstreams},1649951430,0
{consumergroup=__strimzi-topic-operator-kstreams},1649951435,0
{consumergroup=__strimzi-topic-operator-kstreams},1649951440,0
{consumergroup=__strimzi-topic-operator-kstreams},1649951445,0
{consumergroup=__strimzi-topic-operator-kstreams},1649951450,0
{consumergroup=__strimzi-topic-operator-kstreams},1649951455,0
{consumergroup=__strimzi-topic-operator-kstreams},1649951460,0
{consumergroup=__strimzi-topic-operator-kstreams},1649951465,0
{consumergroup=__strimzi-topic-operator-kstreams},1649951470,0
{consumergroup=__strimzi-topic-operator-kstreams},1649951475,0
{consumergroup=__strimzi-topic-operator-kstreams},1649951480,0
{consumergroup=__strimzi-topic-operator-kstreams},1649951485,0
{consumergroup=__strimzi-topic-operator-kstreams},1649951490,0
{consumergroup=__strimzi-topic-operator-kstreams},1649951495,0
{consumergroup=__strimzi-topic-operator-kstreams},1649951500,0
{consumergroup=__strimzi-topic-operator-kstreams},1649951505,0
{consumergroup=__strimzi-topic-operator-kstreams},1649951510,0
{consumergroup=__strimzi-topic-operator-kstreams},1649951515,0
{consumergroup=__strimzi-topic-operator-kstreams},1649951520,0
{consumergroup=__strimzi-topic-operator-kstreams},1649951525,0
{consumergroup=__strimzi-topic-operator-kstreams},1649951530,0
{consumergroup=__strimzi-topic-operator-kstreams},1649951535,0
{consumergroup=__strimzi-topic-operator-kstreams},1649951540,0
{consumergroup=__strimzi-topic-operator-kstreams},1649951545,0
{consumergroup=__strimzi-topic-operator-kstreams},1649951550,0
{consumergroup=__strimzi-topic-operator-kstreams},1649951555,0
{consumergroup=__strimzi-topic-operator-kstreams},1649951560,0
{consumergroup=__strimzi-topic-operator-kstreams},1649951565,0
{consumergroup=__strimzi-topic-operator-kstreams},1649951570,0
{consumergroup=__strimzi-topic-operator-kstreams},1649951575,0
{consumergroup=__strimzi-topic-operator-kstreams},1649951580,0
{consumergroup=__strimzi-topic-operator-kstreams},1649951585,0
{consumergroup=__strimzi-topic-operator-kstreams},1649951590,0
{consumergroup=__strimzi-topic-operator-kstreams},1649951595,0
{consumergroup=__strimzi-topic-operator-kstreams},1649951600,0
{consumergroup=__strimzi-topic-operator-kstreams},1649951605,0
{consumergroup=__strimzi-topic-operator-kstreams},1649951610,0
{consumergroup=__strimzi-topic-operator-kstreams},1649951615,0
{consumergroup=__strimzi-topic-operator-kstreams},1649951620,0
{consumergroup=__strimzi-topic-operator-kstreams},1649951625,0
{consumergroup=__strimzi-topic-operator-kstreams},1649951630,0
{consumergroup=__strimzi-topic-operator-kstreams},1649951635,0
{consumergroup=__strimzi-topic-operator-kstreams},1649951640,0
