labels,timestamp,value
{consumergroup=__strimzi-topic-operator-kstreams},1649966231,3
{consumergroup=__strimzi-topic-operator-kstreams},1649966236,3
{consumergroup=__strimzi-topic-operator-kstreams},1649966241,3
{consumergroup=__strimzi-topic-operator-kstreams},1649966246,11
{consumergroup=__strimzi-topic-operator-kstreams},1649966251,11
{consumergroup=__strimzi-topic-operator-kstreams},1649966256,11
{consumergroup=__strimzi-topic-operator-kstreams},1649966261,0
{consumergroup=__strimzi-topic-operator-kstreams},1649966266,0
{consumergroup=__strimzi-topic-operator-kstreams},1649966271,0
{consumergroup=__strimzi-topic-operator-kstreams},1649966276,0
{consumergroup=__strimzi-topic-operator-kstreams},1649966281,0
{consumergroup=__strimzi-topic-operator-kstreams},1649966286,0
{consumergroup=__strimzi-topic-operator-kstreams},1649966291,0
{consumergroup=__strimzi-topic-operator-kstreams},1649966296,0
{consumergroup=__strimzi-topic-operator-kstreams},1649966301,0
{consumergroup=__strimzi-topic-operator-kstreams},1649966306,0
{consumergroup=__strimzi-topic-operator-kstreams},1649966311,0
{consumergroup=__strimzi-topic-operator-kstreams},1649966316,0
{consumergroup=__strimzi-topic-operator-kstreams},1649966321,0
{consumergroup=__strimzi-topic-operator-kstreams},1649966326,0
{consumergroup=__strimzi-topic-operator-kstreams},1649966331,0
{consumergroup=__strimzi-topic-operator-kstreams},1649966336,0
{consumergroup=__strimzi-topic-operator-kstreams},1649966341,0
{consumergroup=__strimzi-topic-operator-kstreams},1649966346,0
{consumergroup=__strimzi-topic-operator-kstreams},1649966351,0
{consumergroup=__strimzi-topic-operator-kstreams},1649966356,0
{consumergroup=__strimzi-topic-operator-kstreams},1649966361,0
{consumergroup=__strimzi-topic-operator-kstreams},1649966366,0
{consumergroup=__strimzi-topic-operator-kstreams},1649966371,0
{consumergroup=__strimzi-topic-operator-kstreams},1649966376,0
{consumergroup=__strimzi-topic-operator-kstreams},1649966381,0
{consumergroup=__strimzi-topic-operator-kstreams},1649966386,0
{consumergroup=__strimzi-topic-operator-kstreams},1649966391,0
{consumergroup=__strimzi-topic-operator-kstreams},1649966396,0
{consumergroup=__strimzi-topic-operator-kstreams},1649966401,0
{consumergroup=__strimzi-topic-operator-kstreams},1649966406,0
{consumergroup=__strimzi-topic-operator-kstreams},1649966411,0
{consumergroup=__strimzi-topic-operator-kstreams},1649966416,0
{consumergroup=__strimzi-topic-operator-kstreams},1649966421,0
{consumergroup=__strimzi-topic-operator-kstreams},1649966426,0
{consumergroup=__strimzi-topic-operator-kstreams},1649966431,0
{consumergroup=__strimzi-topic-operator-kstreams},1649966436,0
{consumergroup=__strimzi-topic-operator-kstreams},1649966441,0
{consumergroup=__strimzi-topic-operator-kstreams},1649966446,0
{consumergroup=__strimzi-topic-operator-kstreams},1649966451,0
{consumergroup=__strimzi-topic-operator-kstreams},1649966456,0
{consumergroup=__strimzi-topic-operator-kstreams},1649966461,0
{consumergroup=__strimzi-topic-operator-kstreams},1649966466,0
{consumergroup=__strimzi-topic-operator-kstreams},1649966471,0
{consumergroup=__strimzi-topic-operator-kstreams},1649966476,0
{consumergroup=__strimzi-topic-operator-kstreams},1649966481,0
{consumergroup=__strimzi-topic-operator-kstreams},1649966486,0
{consumergroup=__strimzi-topic-operator-kstreams},1649966491,0
{consumergroup=__strimzi-topic-operator-kstreams},1649966496,0
{consumergroup=__strimzi-topic-operator-kstreams},1649966501,0
{consumergroup=__strimzi-topic-operator-kstreams},1649966506,0
{consumergroup=__strimzi-topic-operator-kstreams},1649966511,0
{consumergroup=__strimzi-topic-operator-kstreams},1649966516,0
{consumergroup=__strimzi-topic-operator-kstreams},1649966521,0
{consumergroup=__strimzi-topic-operator-kstreams},1649966526,0
{consumergroup=__strimzi-topic-operator-kstreams},1649966531,0
{consumergroup=__strimzi-topic-operator-kstreams},1649966536,0
{consumergroup=__strimzi-topic-operator-kstreams},1649966541,0
{consumergroup=__strimzi-topic-operator-kstreams},1649966546,0
{consumergroup=__strimzi-topic-operator-kstreams},1649966551,0
{consumergroup=__strimzi-topic-operator-kstreams},1649966556,0
{consumergroup=__strimzi-topic-operator-kstreams},1649966561,0
{consumergroup=__strimzi-topic-operator-kstreams},1649966566,0
{consumergroup=__strimzi-topic-operator-kstreams},1649966571,0
{consumergroup=__strimzi-topic-operator-kstreams},1649966576,0
{consumergroup=__strimzi-topic-operator-kstreams},1649966581,0
{consumergroup=__strimzi-topic-operator-kstreams},1649966586,0
{consumergroup=__strimzi-topic-operator-kstreams},1649966591,0
{consumergroup=__strimzi-topic-operator-kstreams},1649966596,0
{consumergroup=__strimzi-topic-operator-kstreams},1649966601,0
{consumergroup=__strimzi-topic-operator-kstreams},1649966606,0
{consumergroup=__strimzi-topic-operator-kstreams},1649966611,0
{consumergroup=__strimzi-topic-operator-kstreams},1649966616,0
{consumergroup=__strimzi-topic-operator-kstreams},1649966621,0
{consumergroup=__strimzi-topic-operator-kstreams},1649966626,0
{consumergroup=__strimzi-topic-operator-kstreams},1649966631,0
{consumergroup=__strimzi-topic-operator-kstreams},1649966636,0
{consumergroup=__strimzi-topic-operator-kstreams},1649966641,0
{consumergroup=__strimzi-topic-operator-kstreams},1649966646,0
{consumergroup=__strimzi-topic-operator-kstreams},1649966651,0
{consumergroup=__strimzi-topic-operator-kstreams},1649966656,0
{consumergroup=__strimzi-topic-operator-kstreams},1649966661,0
{consumergroup=__strimzi-topic-operator-kstreams},1649966666,0
{consumergroup=__strimzi-topic-operator-kstreams},1649966671,0
{consumergroup=__strimzi-topic-operator-kstreams},1649966676,0
{consumergroup=__strimzi-topic-operator-kstreams},1649966681,0
{consumergroup=__strimzi-topic-operator-kstreams},1649966686,0
{consumergroup=__strimzi-topic-operator-kstreams},1649966691,0
{consumergroup=__strimzi-topic-operator-kstreams},1649966696,0
{consumergroup=__strimzi-topic-operator-kstreams},1649966701,0
{consumergroup=__strimzi-topic-operator-kstreams},1649966706,0
{consumergroup=__strimzi-topic-operator-kstreams},1649966711,0
{consumergroup=__strimzi-topic-operator-kstreams},1649966716,0
{consumergroup=__strimzi-topic-operator-kstreams},1649966721,0
{consumergroup=__strimzi-topic-operator-kstreams},1649966726,0
