labels,timestamp,value
{},1649933702,0
{},1649933707,0
{},1649933712,0
{},1649933717,0
{},1649933722,0
{},1649933727,0
{},1649933732,0
{},1649933737,0
{},1649933742,0
{},1649933747,0
{},1649933752,0
{},1649933757,0
{},1649933762,0
{},1649933767,0
{},1649933772,0
{},1649933777,0
