labels,timestamp,value
{},1649986510,0
{},1649986515,0
{},1649986520,0
{},1649986525,0
{},1649986530,0
{},1649986535,0
{},1649986540,0
{},1649986545,0
{},1649986550,0
{},1649986555,0
{},1649986560,0
{},1649986565,0
{},1649986570,0
{},1649986575,0
{},1649986580,0
