labels,timestamp,value
{consumergroup=__strimzi-topic-operator-kstreams},1649968427,8
{consumergroup=__strimzi-topic-operator-kstreams},1649968432,8
{consumergroup=__strimzi-topic-operator-kstreams},1649968437,8
{consumergroup=__strimzi-topic-operator-kstreams},1649968442,0
{consumergroup=__strimzi-topic-operator-kstreams},1649968447,0
{consumergroup=__strimzi-topic-operator-kstreams},1649968452,0
{consumergroup=__strimzi-topic-operator-kstreams},1649968457,0
{consumergroup=__strimzi-topic-operator-kstreams},1649968462,0
{consumergroup=__strimzi-topic-operator-kstreams},1649968467,0
{consumergroup=__strimzi-topic-operator-kstreams},1649968472,0
{consumergroup=__strimzi-topic-operator-kstreams},1649968477,0
{consumergroup=__strimzi-topic-operator-kstreams},1649968482,0
{consumergroup=__strimzi-topic-operator-kstreams},1649968487,0
{consumergroup=__strimzi-topic-operator-kstreams},1649968492,0
{consumergroup=__strimzi-topic-operator-kstreams},1649968497,0
{consumergroup=__strimzi-topic-operator-kstreams},1649968502,0
{consumergroup=__strimzi-topic-operator-kstreams},1649968507,0
{consumergroup=__strimzi-topic-operator-kstreams},1649968512,0
{consumergroup=__strimzi-topic-operator-kstreams},1649968517,0
{consumergroup=__strimzi-topic-operator-kstreams},1649968522,0
{consumergroup=__strimzi-topic-operator-kstreams},1649968527,0
{consumergroup=__strimzi-topic-operator-kstreams},1649968532,0
{consumergroup=__strimzi-topic-operator-kstreams},1649968537,0
{consumergroup=__strimzi-topic-operator-kstreams},1649968542,0
{consumergroup=__strimzi-topic-operator-kstreams},1649968547,0
{consumergroup=__strimzi-topic-operator-kstreams},1649968552,0
{consumergroup=__strimzi-topic-operator-kstreams},1649968557,0
{consumergroup=__strimzi-topic-operator-kstreams},1649968562,0
{consumergroup=__strimzi-topic-operator-kstreams},1649968567,0
{consumergroup=__strimzi-topic-operator-kstreams},1649968572,0
{consumergroup=__strimzi-topic-operator-kstreams},1649968577,0
{consumergroup=__strimzi-topic-operator-kstreams},1649968582,0
{consumergroup=__strimzi-topic-operator-kstreams},1649968587,0
{consumergroup=__strimzi-topic-operator-kstreams},1649968592,0
{consumergroup=__strimzi-topic-operator-kstreams},1649968597,0
{consumergroup=__strimzi-topic-operator-kstreams},1649968602,0
{consumergroup=__strimzi-topic-operator-kstreams},1649968607,0
{consumergroup=__strimzi-topic-operator-kstreams},1649968612,0
{consumergroup=__strimzi-topic-operator-kstreams},1649968617,0
{consumergroup=__strimzi-topic-operator-kstreams},1649968622,0
{consumergroup=__strimzi-topic-operator-kstreams},1649968627,0
{consumergroup=__strimzi-topic-operator-kstreams},1649968632,0
{consumergroup=__strimzi-topic-operator-kstreams},1649968637,0
{consumergroup=__strimzi-topic-operator-kstreams},1649968642,0
{consumergroup=__strimzi-topic-operator-kstreams},1649968647,0
{consumergroup=__strimzi-topic-operator-kstreams},1649968652,0
{consumergroup=__strimzi-topic-operator-kstreams},1649968657,0
{consumergroup=__strimzi-topic-operator-kstreams},1649968662,0
{consumergroup=__strimzi-topic-operator-kstreams},1649968667,0
{consumergroup=__strimzi-topic-operator-kstreams},1649968672,0
{consumergroup=__strimzi-topic-operator-kstreams},1649968677,0
{consumergroup=__strimzi-topic-operator-kstreams},1649968682,0
{consumergroup=__strimzi-topic-operator-kstreams},1649968687,0
{consumergroup=__strimzi-topic-operator-kstreams},1649968692,0
{consumergroup=__strimzi-topic-operator-kstreams},1649968697,0
{consumergroup=__strimzi-topic-operator-kstreams},1649968702,0
{consumergroup=__strimzi-topic-operator-kstreams},1649968707,0
{consumergroup=__strimzi-topic-operator-kstreams},1649968712,0
{consumergroup=__strimzi-topic-operator-kstreams},1649968717,0
{consumergroup=__strimzi-topic-operator-kstreams},1649968722,0
{consumergroup=__strimzi-topic-operator-kstreams},1649968727,0
{consumergroup=__strimzi-topic-operator-kstreams},1649968732,0
{consumergroup=__strimzi-topic-operator-kstreams},1649968737,0
{consumergroup=__strimzi-topic-operator-kstreams},1649968742,0
{consumergroup=__strimzi-topic-operator-kstreams},1649968747,0
{consumergroup=__strimzi-topic-operator-kstreams},1649968752,0
{consumergroup=__strimzi-topic-operator-kstreams},1649968757,0
{consumergroup=__strimzi-topic-operator-kstreams},1649968762,0
{consumergroup=__strimzi-topic-operator-kstreams},1649968767,0
{consumergroup=__strimzi-topic-operator-kstreams},1649968772,0
{consumergroup=__strimzi-topic-operator-kstreams},1649968777,0
{consumergroup=__strimzi-topic-operator-kstreams},1649968782,0
{consumergroup=__strimzi-topic-operator-kstreams},1649968787,0
{consumergroup=__strimzi-topic-operator-kstreams},1649968792,0
{consumergroup=__strimzi-topic-operator-kstreams},1649968797,0
{consumergroup=__strimzi-topic-operator-kstreams},1649968802,0
{consumergroup=__strimzi-topic-operator-kstreams},1649968807,0
{consumergroup=__strimzi-topic-operator-kstreams},1649968812,0
{consumergroup=__strimzi-topic-operator-kstreams},1649968817,0
{consumergroup=__strimzi-topic-operator-kstreams},1649968822,0
{consumergroup=__strimzi-topic-operator-kstreams},1649968827,0
{consumergroup=__strimzi-topic-operator-kstreams},1649968832,0
{consumergroup=__strimzi-topic-operator-kstreams},1649968837,0
{consumergroup=__strimzi-topic-operator-kstreams},1649968842,0
{consumergroup=__strimzi-topic-operator-kstreams},1649968847,0
{consumergroup=__strimzi-topic-operator-kstreams},1649968852,0
{consumergroup=__strimzi-topic-operator-kstreams},1649968857,0
{consumergroup=__strimzi-topic-operator-kstreams},1649968862,0
{consumergroup=__strimzi-topic-operator-kstreams},1649968867,0
{consumergroup=__strimzi-topic-operator-kstreams},1649968872,0
{consumergroup=__strimzi-topic-operator-kstreams},1649968877,0
{consumergroup=__strimzi-topic-operator-kstreams},1649968882,0
{consumergroup=__strimzi-topic-operator-kstreams},1649968887,0
{consumergroup=__strimzi-topic-operator-kstreams},1649968892,0
{consumergroup=__strimzi-topic-operator-kstreams},1649968897,0
{consumergroup=__strimzi-topic-operator-kstreams},1649968902,0
{consumergroup=__strimzi-topic-operator-kstreams},1649968907,0
{consumergroup=__strimzi-topic-operator-kstreams},1649968912,0
