labels,timestamp,value
{consumergroup=__strimzi-topic-operator-kstreams},1648541514,3
{consumergroup=__strimzi-topic-operator-kstreams},1648541519,3
{consumergroup=__strimzi-topic-operator-kstreams},1648541524,3
{consumergroup=__strimzi-topic-operator-kstreams},1648541529,24
{consumergroup=__strimzi-topic-operator-kstreams},1648541534,24
{consumergroup=__strimzi-topic-operator-kstreams},1648541539,24
{consumergroup=__strimzi-topic-operator-kstreams},1648541544,0
{consumergroup=__strimzi-topic-operator-kstreams},1648541549,0
{consumergroup=__strimzi-topic-operator-kstreams},1648541554,0
{consumergroup=__strimzi-topic-operator-kstreams},1648541559,0
{consumergroup=__strimzi-topic-operator-kstreams},1648541564,0
{consumergroup=__strimzi-topic-operator-kstreams},1648541569,0
{consumergroup=__strimzi-topic-operator-kstreams},1648541574,0
{consumergroup=__strimzi-topic-operator-kstreams},1648541579,0
{consumergroup=__strimzi-topic-operator-kstreams},1648541584,0
{consumergroup=__strimzi-topic-operator-kstreams},1648541589,0
{consumergroup=__strimzi-topic-operator-kstreams},1648541594,0
{consumergroup=__strimzi-topic-operator-kstreams},1648541599,0
{consumergroup=__strimzi-topic-operator-kstreams},1648541604,0
{consumergroup=__strimzi-topic-operator-kstreams},1648541609,0
{consumergroup=__strimzi-topic-operator-kstreams},1648541614,0
{consumergroup=__strimzi-topic-operator-kstreams},1648541619,0
{consumergroup=__strimzi-topic-operator-kstreams},1648541624,0
{consumergroup=__strimzi-topic-operator-kstreams},1648541629,0
{consumergroup=__strimzi-topic-operator-kstreams},1648541634,0
{consumergroup=__strimzi-topic-operator-kstreams},1648541639,0
{consumergroup=__strimzi-topic-operator-kstreams},1648541644,0
{consumergroup=__strimzi-topic-operator-kstreams},1648541649,0
{consumergroup=__strimzi-topic-operator-kstreams},1648541654,0
{consumergroup=__strimzi-topic-operator-kstreams},1648541659,0
{consumergroup=__strimzi-topic-operator-kstreams},1648541664,0
{consumergroup=__strimzi-topic-operator-kstreams},1648541669,0
{consumergroup=__strimzi-topic-operator-kstreams},1648541674,0
{consumergroup=__strimzi-topic-operator-kstreams},1648541679,0
{consumergroup=__strimzi-topic-operator-kstreams},1648541684,0
{consumergroup=__strimzi-topic-operator-kstreams},1648541689,0
{consumergroup=__strimzi-topic-operator-kstreams},1648541694,0
{consumergroup=__strimzi-topic-operator-kstreams},1648541699,0
{consumergroup=__strimzi-topic-operator-kstreams},1648541704,0
{consumergroup=__strimzi-topic-operator-kstreams},1648541709,0
{consumergroup=__strimzi-topic-operator-kstreams},1648541714,0
{consumergroup=__strimzi-topic-operator-kstreams},1648541719,0
{consumergroup=__strimzi-topic-operator-kstreams},1648541724,0
{consumergroup=__strimzi-topic-operator-kstreams},1648541729,0
{consumergroup=__strimzi-topic-operator-kstreams},1648541734,0
{consumergroup=__strimzi-topic-operator-kstreams},1648541739,0
{consumergroup=__strimzi-topic-operator-kstreams},1648541744,0
{consumergroup=__strimzi-topic-operator-kstreams},1648541749,0
{consumergroup=__strimzi-topic-operator-kstreams},1648541754,0
{consumergroup=__strimzi-topic-operator-kstreams},1648541759,0
{consumergroup=__strimzi-topic-operator-kstreams},1648541764,0
{consumergroup=__strimzi-topic-operator-kstreams},1648541769,0
{consumergroup=__strimzi-topic-operator-kstreams},1648541774,0
{consumergroup=__strimzi-topic-operator-kstreams},1648541779,0
{consumergroup=__strimzi-topic-operator-kstreams},1648541784,0
{consumergroup=__strimzi-topic-operator-kstreams},1648541789,0
{consumergroup=__strimzi-topic-operator-kstreams},1648541794,0
{consumergroup=__strimzi-topic-operator-kstreams},1648541799,0
{consumergroup=__strimzi-topic-operator-kstreams},1648541804,0
{consumergroup=__strimzi-topic-operator-kstreams},1648541809,0
{consumergroup=__strimzi-topic-operator-kstreams},1648541814,0
{consumergroup=__strimzi-topic-operator-kstreams},1648541819,0
{consumergroup=__strimzi-topic-operator-kstreams},1648541824,0
{consumergroup=__strimzi-topic-operator-kstreams},1648541829,0
{consumergroup=__strimzi-topic-operator-kstreams},1648541834,0
{consumergroup=__strimzi-topic-operator-kstreams},1648541839,0
{consumergroup=__strimzi-topic-operator-kstreams},1648541844,0
{consumergroup=__strimzi-topic-operator-kstreams},1648541849,0
{consumergroup=__strimzi-topic-operator-kstreams},1648541854,0
{consumergroup=__strimzi-topic-operator-kstreams},1648541859,0
{consumergroup=__strimzi-topic-operator-kstreams},1648541864,0
{consumergroup=__strimzi-topic-operator-kstreams},1648541869,0
{consumergroup=__strimzi-topic-operator-kstreams},1648541874,0
{consumergroup=__strimzi-topic-operator-kstreams},1648541879,0
{consumergroup=__strimzi-topic-operator-kstreams},1648541884,0
{consumergroup=__strimzi-topic-operator-kstreams},1648541889,0
{consumergroup=__strimzi-topic-operator-kstreams},1648541894,0
{consumergroup=__strimzi-topic-operator-kstreams},1648541899,0
{consumergroup=__strimzi-topic-operator-kstreams},1648541904,0
{consumergroup=__strimzi-topic-operator-kstreams},1648541909,0
{consumergroup=__strimzi-topic-operator-kstreams},1648541914,0
{consumergroup=__strimzi-topic-operator-kstreams},1648541919,0
{consumergroup=__strimzi-topic-operator-kstreams},1648541924,0
{consumergroup=__strimzi-topic-operator-kstreams},1648541929,0
{consumergroup=__strimzi-topic-operator-kstreams},1648541934,0
{consumergroup=__strimzi-topic-operator-kstreams},1648541939,0
{consumergroup=__strimzi-topic-operator-kstreams},1648541944,0
{consumergroup=__strimzi-topic-operator-kstreams},1648541949,0
{consumergroup=__strimzi-topic-operator-kstreams},1648541954,0
{consumergroup=__strimzi-topic-operator-kstreams},1648541959,0
{consumergroup=__strimzi-topic-operator-kstreams},1648541964,0
{consumergroup=__strimzi-topic-operator-kstreams},1648541969,0
{consumergroup=__strimzi-topic-operator-kstreams},1648541974,0
{consumergroup=__strimzi-topic-operator-kstreams},1648541979,0
{consumergroup=__strimzi-topic-operator-kstreams},1648541984,0
{consumergroup=__strimzi-topic-operator-kstreams},1648541989,0
{consumergroup=__strimzi-topic-operator-kstreams},1648541994,0
{consumergroup=__strimzi-topic-operator-kstreams},1648541999,0
{consumergroup=__strimzi-topic-operator-kstreams},1648542004,0
{consumergroup=__strimzi-topic-operator-kstreams},1648542009,0
{consumergroup=__strimzi-topic-operator-kstreams},1648542014,0
