labels,timestamp,value
{consumergroup=__strimzi-topic-operator-kstreams},1648556733,0
{consumergroup=__strimzi-topic-operator-kstreams},1648556738,0
{consumergroup=__strimzi-topic-operator-kstreams},1648556743,0
{consumergroup=__strimzi-topic-operator-kstreams},1648556748,0
{consumergroup=__strimzi-topic-operator-kstreams},1648556753,0
{consumergroup=__strimzi-topic-operator-kstreams},1648556758,0
{consumergroup=__strimzi-topic-operator-kstreams},1648556763,0
{consumergroup=__strimzi-topic-operator-kstreams},1648556768,0
{consumergroup=__strimzi-topic-operator-kstreams},1648556773,0
{consumergroup=__strimzi-topic-operator-kstreams},1648556778,1
{consumergroup=__strimzi-topic-operator-kstreams},1648556783,1
{consumergroup=__strimzi-topic-operator-kstreams},1648556788,1
{consumergroup=__strimzi-topic-operator-kstreams},1648556793,0
{consumergroup=__strimzi-topic-operator-kstreams},1648556798,0
{consumergroup=__strimzi-topic-operator-kstreams},1648556803,0
{consumergroup=__strimzi-topic-operator-kstreams},1648556808,0
{consumergroup=__strimzi-topic-operator-kstreams},1648556813,0
{consumergroup=__strimzi-topic-operator-kstreams},1648556818,0
{consumergroup=__strimzi-topic-operator-kstreams},1648556823,0
{consumergroup=__strimzi-topic-operator-kstreams},1648556828,0
{consumergroup=__strimzi-topic-operator-kstreams},1648556833,0
{consumergroup=__strimzi-topic-operator-kstreams},1648556838,0
{consumergroup=__strimzi-topic-operator-kstreams},1648556843,0
{consumergroup=__strimzi-topic-operator-kstreams},1648556848,0
{consumergroup=__strimzi-topic-operator-kstreams},1648556853,0
{consumergroup=__strimzi-topic-operator-kstreams},1648556858,0
{consumergroup=__strimzi-topic-operator-kstreams},1648556863,0
{consumergroup=__strimzi-topic-operator-kstreams},1648556868,0
{consumergroup=__strimzi-topic-operator-kstreams},1648556873,0
{consumergroup=__strimzi-topic-operator-kstreams},1648556878,0
{consumergroup=__strimzi-topic-operator-kstreams},1648556883,0
{consumergroup=__strimzi-topic-operator-kstreams},1648556888,0
{consumergroup=__strimzi-topic-operator-kstreams},1648556893,0
{consumergroup=__strimzi-topic-operator-kstreams},1648556898,0
{consumergroup=__strimzi-topic-operator-kstreams},1648556903,0
{consumergroup=__strimzi-topic-operator-kstreams},1648556908,0
{consumergroup=__strimzi-topic-operator-kstreams},1648556913,0
{consumergroup=__strimzi-topic-operator-kstreams},1648556918,0
{consumergroup=__strimzi-topic-operator-kstreams},1648556923,0
{consumergroup=__strimzi-topic-operator-kstreams},1648556928,0
{consumergroup=__strimzi-topic-operator-kstreams},1648556933,0
{consumergroup=__strimzi-topic-operator-kstreams},1648556938,0
{consumergroup=__strimzi-topic-operator-kstreams},1648556943,0
{consumergroup=__strimzi-topic-operator-kstreams},1648556948,0
{consumergroup=__strimzi-topic-operator-kstreams},1648556953,0
{consumergroup=__strimzi-topic-operator-kstreams},1648556958,0
{consumergroup=__strimzi-topic-operator-kstreams},1648556963,0
{consumergroup=__strimzi-topic-operator-kstreams},1648556968,0
{consumergroup=__strimzi-topic-operator-kstreams},1648556973,0
{consumergroup=__strimzi-topic-operator-kstreams},1648556978,0
{consumergroup=__strimzi-topic-operator-kstreams},1648556983,0
{consumergroup=__strimzi-topic-operator-kstreams},1648556988,0
{consumergroup=__strimzi-topic-operator-kstreams},1648556993,0
{consumergroup=__strimzi-topic-operator-kstreams},1648556998,0
{consumergroup=__strimzi-topic-operator-kstreams},1648557003,0
{consumergroup=__strimzi-topic-operator-kstreams},1648557008,0
{consumergroup=__strimzi-topic-operator-kstreams},1648557013,0
{consumergroup=__strimzi-topic-operator-kstreams},1648557018,0
{consumergroup=__strimzi-topic-operator-kstreams},1648557023,0
{consumergroup=__strimzi-topic-operator-kstreams},1648557028,0
{consumergroup=__strimzi-topic-operator-kstreams},1648557033,0
{consumergroup=__strimzi-topic-operator-kstreams},1648557038,0
{consumergroup=__strimzi-topic-operator-kstreams},1648557043,0
{consumergroup=__strimzi-topic-operator-kstreams},1648557048,0
{consumergroup=__strimzi-topic-operator-kstreams},1648557053,0
{consumergroup=__strimzi-topic-operator-kstreams},1648557058,0
{consumergroup=__strimzi-topic-operator-kstreams},1648557063,0
{consumergroup=__strimzi-topic-operator-kstreams},1648557068,0
{consumergroup=__strimzi-topic-operator-kstreams},1648557073,0
{consumergroup=__strimzi-topic-operator-kstreams},1648557078,0
{consumergroup=__strimzi-topic-operator-kstreams},1648557083,0
{consumergroup=__strimzi-topic-operator-kstreams},1648557088,0
{consumergroup=__strimzi-topic-operator-kstreams},1648557093,0
{consumergroup=__strimzi-topic-operator-kstreams},1648557098,0
{consumergroup=__strimzi-topic-operator-kstreams},1648557103,0
{consumergroup=__strimzi-topic-operator-kstreams},1648557108,0
{consumergroup=__strimzi-topic-operator-kstreams},1648557113,0
{consumergroup=__strimzi-topic-operator-kstreams},1648557118,0
{consumergroup=__strimzi-topic-operator-kstreams},1648557123,0
{consumergroup=__strimzi-topic-operator-kstreams},1648557128,0
{consumergroup=__strimzi-topic-operator-kstreams},1648557133,0
{consumergroup=__strimzi-topic-operator-kstreams},1648557138,0
{consumergroup=__strimzi-topic-operator-kstreams},1648557143,0
{consumergroup=__strimzi-topic-operator-kstreams},1648557148,0
{consumergroup=__strimzi-topic-operator-kstreams},1648557153,0
{consumergroup=__strimzi-topic-operator-kstreams},1648557158,0
{consumergroup=__strimzi-topic-operator-kstreams},1648557163,0
{consumergroup=__strimzi-topic-operator-kstreams},1648557168,0
{consumergroup=__strimzi-topic-operator-kstreams},1648557173,0
{consumergroup=__strimzi-topic-operator-kstreams},1648557178,0
{consumergroup=__strimzi-topic-operator-kstreams},1648557183,0
{consumergroup=__strimzi-topic-operator-kstreams},1648557188,0
{consumergroup=__strimzi-topic-operator-kstreams},1648557193,0
{consumergroup=__strimzi-topic-operator-kstreams},1648557198,0
{consumergroup=__strimzi-topic-operator-kstreams},1648557203,0
{consumergroup=__strimzi-topic-operator-kstreams},1648557208,0
{consumergroup=__strimzi-topic-operator-kstreams},1648557213,0
{consumergroup=__strimzi-topic-operator-kstreams},1648557218,0
