labels,timestamp,value
{consumergroup=__strimzi-topic-operator-kstreams},1648556177,14
{consumergroup=__strimzi-topic-operator-kstreams},1648556182,14
{consumergroup=__strimzi-topic-operator-kstreams},1648556187,14
{consumergroup=__strimzi-topic-operator-kstreams},1648556192,0
{consumergroup=__strimzi-topic-operator-kstreams},1648556197,0
{consumergroup=__strimzi-topic-operator-kstreams},1648556202,0
{consumergroup=__strimzi-topic-operator-kstreams},1648556207,0
{consumergroup=__strimzi-topic-operator-kstreams},1648556212,0
{consumergroup=__strimzi-topic-operator-kstreams},1648556217,0
{consumergroup=__strimzi-topic-operator-kstreams},1648556222,0
{consumergroup=__strimzi-topic-operator-kstreams},1648556227,0
{consumergroup=__strimzi-topic-operator-kstreams},1648556232,0
{consumergroup=__strimzi-topic-operator-kstreams},1648556237,0
{consumergroup=__strimzi-topic-operator-kstreams},1648556242,0
{consumergroup=__strimzi-topic-operator-kstreams},1648556247,0
{consumergroup=__strimzi-topic-operator-kstreams},1648556252,0
{consumergroup=__strimzi-topic-operator-kstreams},1648556257,0
{consumergroup=__strimzi-topic-operator-kstreams},1648556262,0
{consumergroup=__strimzi-topic-operator-kstreams},1648556267,0
{consumergroup=__strimzi-topic-operator-kstreams},1648556272,0
{consumergroup=__strimzi-topic-operator-kstreams},1648556277,0
{consumergroup=__strimzi-topic-operator-kstreams},1648556282,0
{consumergroup=__strimzi-topic-operator-kstreams},1648556287,0
{consumergroup=__strimzi-topic-operator-kstreams},1648556292,0
{consumergroup=__strimzi-topic-operator-kstreams},1648556297,1
{consumergroup=__strimzi-topic-operator-kstreams},1648556302,1
{consumergroup=__strimzi-topic-operator-kstreams},1648556307,1
{consumergroup=__strimzi-topic-operator-kstreams},1648556312,0
{consumergroup=__strimzi-topic-operator-kstreams},1648556317,0
{consumergroup=__strimzi-topic-operator-kstreams},1648556322,0
{consumergroup=__strimzi-topic-operator-kstreams},1648556327,0
{consumergroup=__strimzi-topic-operator-kstreams},1648556332,0
{consumergroup=__strimzi-topic-operator-kstreams},1648556337,0
{consumergroup=__strimzi-topic-operator-kstreams},1648556342,0
{consumergroup=__strimzi-topic-operator-kstreams},1648556347,0
{consumergroup=__strimzi-topic-operator-kstreams},1648556352,0
{consumergroup=__strimzi-topic-operator-kstreams},1648556357,0
{consumergroup=__strimzi-topic-operator-kstreams},1648556362,0
{consumergroup=__strimzi-topic-operator-kstreams},1648556367,0
{consumergroup=__strimzi-topic-operator-kstreams},1648556372,0
{consumergroup=__strimzi-topic-operator-kstreams},1648556377,0
{consumergroup=__strimzi-topic-operator-kstreams},1648556382,0
{consumergroup=__strimzi-topic-operator-kstreams},1648556387,0
{consumergroup=__strimzi-topic-operator-kstreams},1648556392,0
{consumergroup=__strimzi-topic-operator-kstreams},1648556397,0
{consumergroup=__strimzi-topic-operator-kstreams},1648556402,0
{consumergroup=__strimzi-topic-operator-kstreams},1648556407,0
{consumergroup=__strimzi-topic-operator-kstreams},1648556412,0
{consumergroup=__strimzi-topic-operator-kstreams},1648556417,0
{consumergroup=__strimzi-topic-operator-kstreams},1648556422,0
{consumergroup=__strimzi-topic-operator-kstreams},1648556427,0
{consumergroup=__strimzi-topic-operator-kstreams},1648556432,0
{consumergroup=__strimzi-topic-operator-kstreams},1648556437,0
{consumergroup=__strimzi-topic-operator-kstreams},1648556442,0
{consumergroup=__strimzi-topic-operator-kstreams},1648556447,0
{consumergroup=__strimzi-topic-operator-kstreams},1648556452,0
{consumergroup=__strimzi-topic-operator-kstreams},1648556457,0
{consumergroup=__strimzi-topic-operator-kstreams},1648556462,0
{consumergroup=__strimzi-topic-operator-kstreams},1648556467,0
{consumergroup=__strimzi-topic-operator-kstreams},1648556472,0
{consumergroup=__strimzi-topic-operator-kstreams},1648556477,0
{consumergroup=__strimzi-topic-operator-kstreams},1648556482,0
{consumergroup=__strimzi-topic-operator-kstreams},1648556487,0
{consumergroup=__strimzi-topic-operator-kstreams},1648556492,0
{consumergroup=__strimzi-topic-operator-kstreams},1648556497,0
{consumergroup=__strimzi-topic-operator-kstreams},1648556502,0
{consumergroup=__strimzi-topic-operator-kstreams},1648556507,0
{consumergroup=__strimzi-topic-operator-kstreams},1648556512,0
{consumergroup=__strimzi-topic-operator-kstreams},1648556517,0
{consumergroup=__strimzi-topic-operator-kstreams},1648556522,0
{consumergroup=__strimzi-topic-operator-kstreams},1648556527,0
{consumergroup=__strimzi-topic-operator-kstreams},1648556532,0
{consumergroup=__strimzi-topic-operator-kstreams},1648556537,0
{consumergroup=__strimzi-topic-operator-kstreams},1648556542,0
{consumergroup=__strimzi-topic-operator-kstreams},1648556547,0
{consumergroup=__strimzi-topic-operator-kstreams},1648556552,0
{consumergroup=__strimzi-topic-operator-kstreams},1648556557,0
{consumergroup=__strimzi-topic-operator-kstreams},1648556562,0
{consumergroup=__strimzi-topic-operator-kstreams},1648556567,0
{consumergroup=__strimzi-topic-operator-kstreams},1648556572,0
{consumergroup=__strimzi-topic-operator-kstreams},1648556577,0
{consumergroup=__strimzi-topic-operator-kstreams},1648556582,0
{consumergroup=__strimzi-topic-operator-kstreams},1648556587,0
{consumergroup=__strimzi-topic-operator-kstreams},1648556592,0
{consumergroup=__strimzi-topic-operator-kstreams},1648556597,0
{consumergroup=__strimzi-topic-operator-kstreams},1648556602,0
{consumergroup=__strimzi-topic-operator-kstreams},1648556607,0
{consumergroup=__strimzi-topic-operator-kstreams},1648556612,0
{consumergroup=__strimzi-topic-operator-kstreams},1648556617,0
{consumergroup=__strimzi-topic-operator-kstreams},1648556622,0
{consumergroup=__strimzi-topic-operator-kstreams},1648556627,0
{consumergroup=__strimzi-topic-operator-kstreams},1648556632,0
{consumergroup=__strimzi-topic-operator-kstreams},1648556637,0
{consumergroup=__strimzi-topic-operator-kstreams},1648556642,0
{consumergroup=__strimzi-topic-operator-kstreams},1648556647,0
{consumergroup=__strimzi-topic-operator-kstreams},1648556652,0
{consumergroup=__strimzi-topic-operator-kstreams},1648556657,0
{consumergroup=__strimzi-topic-operator-kstreams},1648556662,0
{consumergroup=__strimzi-topic-operator-kstreams},1648556667,0
{consumergroup=__strimzi-topic-operator-kstreams},1648556672,0
