labels,timestamp,value
{consumergroup=__strimzi-topic-operator-kstreams},1648563258,20
{consumergroup=__strimzi-topic-operator-kstreams},1648563263,20
{consumergroup=__strimzi-topic-operator-kstreams},1648563268,20
{consumergroup=__strimzi-topic-operator-kstreams},1648563273,0
{consumergroup=__strimzi-topic-operator-kstreams},1648563278,0
{consumergroup=__strimzi-topic-operator-kstreams},1648563283,0
{consumergroup=__strimzi-topic-operator-kstreams},1648563288,0
{consumergroup=__strimzi-topic-operator-kstreams},1648563293,0
{consumergroup=__strimzi-topic-operator-kstreams},1648563298,0
{consumergroup=__strimzi-topic-operator-kstreams},1648563303,0
{consumergroup=__strimzi-topic-operator-kstreams},1648563308,0
{consumergroup=__strimzi-topic-operator-kstreams},1648563313,0
{consumergroup=__strimzi-topic-operator-kstreams},1648563318,0
{consumergroup=__strimzi-topic-operator-kstreams},1648563323,0
{consumergroup=__strimzi-topic-operator-kstreams},1648563328,0
{consumergroup=__strimzi-topic-operator-kstreams},1648563333,0
{consumergroup=__strimzi-topic-operator-kstreams},1648563338,0
{consumergroup=__strimzi-topic-operator-kstreams},1648563343,0
{consumergroup=__strimzi-topic-operator-kstreams},1648563348,0
{consumergroup=__strimzi-topic-operator-kstreams},1648563353,0
{consumergroup=__strimzi-topic-operator-kstreams},1648563358,0
{consumergroup=__strimzi-topic-operator-kstreams},1648563363,0
{consumergroup=__strimzi-topic-operator-kstreams},1648563368,0
{consumergroup=__strimzi-topic-operator-kstreams},1648563373,0
{consumergroup=__strimzi-topic-operator-kstreams},1648563378,0
{consumergroup=__strimzi-topic-operator-kstreams},1648563383,0
{consumergroup=__strimzi-topic-operator-kstreams},1648563388,0
{consumergroup=__strimzi-topic-operator-kstreams},1648563393,0
{consumergroup=__strimzi-topic-operator-kstreams},1648563398,0
{consumergroup=__strimzi-topic-operator-kstreams},1648563403,0
{consumergroup=__strimzi-topic-operator-kstreams},1648563408,0
{consumergroup=__strimzi-topic-operator-kstreams},1648563413,0
{consumergroup=__strimzi-topic-operator-kstreams},1648563418,0
{consumergroup=__strimzi-topic-operator-kstreams},1648563423,0
{consumergroup=__strimzi-topic-operator-kstreams},1648563428,0
{consumergroup=__strimzi-topic-operator-kstreams},1648563433,0
{consumergroup=__strimzi-topic-operator-kstreams},1648563438,0
{consumergroup=__strimzi-topic-operator-kstreams},1648563443,0
{consumergroup=__strimzi-topic-operator-kstreams},1648563448,0
{consumergroup=__strimzi-topic-operator-kstreams},1648563453,0
{consumergroup=__strimzi-topic-operator-kstreams},1648563458,0
{consumergroup=__strimzi-topic-operator-kstreams},1648563463,0
{consumergroup=__strimzi-topic-operator-kstreams},1648563468,0
{consumergroup=__strimzi-topic-operator-kstreams},1648563473,0
{consumergroup=__strimzi-topic-operator-kstreams},1648563478,0
{consumergroup=__strimzi-topic-operator-kstreams},1648563483,0
{consumergroup=__strimzi-topic-operator-kstreams},1648563488,0
{consumergroup=__strimzi-topic-operator-kstreams},1648563493,0
{consumergroup=__strimzi-topic-operator-kstreams},1648563498,0
{consumergroup=__strimzi-topic-operator-kstreams},1648563503,0
{consumergroup=__strimzi-topic-operator-kstreams},1648563508,0
{consumergroup=__strimzi-topic-operator-kstreams},1648563513,0
{consumergroup=__strimzi-topic-operator-kstreams},1648563518,0
{consumergroup=__strimzi-topic-operator-kstreams},1648563523,0
{consumergroup=__strimzi-topic-operator-kstreams},1648563528,0
{consumergroup=__strimzi-topic-operator-kstreams},1648563533,0
{consumergroup=__strimzi-topic-operator-kstreams},1648563538,0
{consumergroup=__strimzi-topic-operator-kstreams},1648563543,0
{consumergroup=__strimzi-topic-operator-kstreams},1648563548,0
{consumergroup=__strimzi-topic-operator-kstreams},1648563553,0
{consumergroup=__strimzi-topic-operator-kstreams},1648563558,0
{consumergroup=__strimzi-topic-operator-kstreams},1648563563,0
{consumergroup=__strimzi-topic-operator-kstreams},1648563568,0
{consumergroup=__strimzi-topic-operator-kstreams},1648563573,0
{consumergroup=__strimzi-topic-operator-kstreams},1648563578,0
{consumergroup=__strimzi-topic-operator-kstreams},1648563583,0
{consumergroup=__strimzi-topic-operator-kstreams},1648563588,0
{consumergroup=__strimzi-topic-operator-kstreams},1648563593,0
{consumergroup=__strimzi-topic-operator-kstreams},1648563598,0
{consumergroup=__strimzi-topic-operator-kstreams},1648563603,0
{consumergroup=__strimzi-topic-operator-kstreams},1648563608,0
{consumergroup=__strimzi-topic-operator-kstreams},1648563613,0
{consumergroup=__strimzi-topic-operator-kstreams},1648563618,0
{consumergroup=__strimzi-topic-operator-kstreams},1648563623,0
{consumergroup=__strimzi-topic-operator-kstreams},1648563628,0
{consumergroup=__strimzi-topic-operator-kstreams},1648563633,0
{consumergroup=__strimzi-topic-operator-kstreams},1648563638,0
{consumergroup=__strimzi-topic-operator-kstreams},1648563643,0
{consumergroup=__strimzi-topic-operator-kstreams},1648563648,0
{consumergroup=__strimzi-topic-operator-kstreams},1648563653,0
{consumergroup=__strimzi-topic-operator-kstreams},1648563658,0
{consumergroup=__strimzi-topic-operator-kstreams},1648563663,0
{consumergroup=__strimzi-topic-operator-kstreams},1648563668,0
{consumergroup=__strimzi-topic-operator-kstreams},1648563673,0
{consumergroup=__strimzi-topic-operator-kstreams},1648563678,0
{consumergroup=__strimzi-topic-operator-kstreams},1648563683,0
{consumergroup=__strimzi-topic-operator-kstreams},1648563688,0
{consumergroup=__strimzi-topic-operator-kstreams},1648563693,0
{consumergroup=__strimzi-topic-operator-kstreams},1648563698,0
{consumergroup=__strimzi-topic-operator-kstreams},1648563703,0
{consumergroup=__strimzi-topic-operator-kstreams},1648563708,0
{consumergroup=__strimzi-topic-operator-kstreams},1648563713,0
{consumergroup=__strimzi-topic-operator-kstreams},1648563718,0
{consumergroup=__strimzi-topic-operator-kstreams},1648563723,0
{consumergroup=__strimzi-topic-operator-kstreams},1648563728,0
{consumergroup=__strimzi-topic-operator-kstreams},1648563733,0
{consumergroup=__strimzi-topic-operator-kstreams},1648563738,0
{consumergroup=__strimzi-topic-operator-kstreams},1648563743,0
