labels,timestamp,value
{consumergroup=__strimzi-topic-operator-kstreams},1648548546,17
{consumergroup=__strimzi-topic-operator-kstreams},1648548551,17
{consumergroup=__strimzi-topic-operator-kstreams},1648548556,17
{consumergroup=__strimzi-topic-operator-kstreams},1648548561,0
{consumergroup=__strimzi-topic-operator-kstreams},1648548566,0
{consumergroup=__strimzi-topic-operator-kstreams},1648548571,0
{consumergroup=__strimzi-topic-operator-kstreams},1648548576,0
{consumergroup=__strimzi-topic-operator-kstreams},1648548581,0
{consumergroup=__strimzi-topic-operator-kstreams},1648548586,0
{consumergroup=__strimzi-topic-operator-kstreams},1648548591,1
{consumergroup=__strimzi-topic-operator-kstreams},1648548596,1
{consumergroup=__strimzi-topic-operator-kstreams},1648548601,1
{consumergroup=__strimzi-topic-operator-kstreams},1648548606,1
{consumergroup=__strimzi-topic-operator-kstreams},1648548611,1
{consumergroup=__strimzi-topic-operator-kstreams},1648548616,1
{consumergroup=__strimzi-topic-operator-kstreams},1648548621,0
{consumergroup=__strimzi-topic-operator-kstreams},1648548626,0
{consumergroup=__strimzi-topic-operator-kstreams},1648548631,0
{consumergroup=__strimzi-topic-operator-kstreams},1648548636,0
{consumergroup=__strimzi-topic-operator-kstreams},1648548641,0
{consumergroup=__strimzi-topic-operator-kstreams},1648548646,0
{consumergroup=__strimzi-topic-operator-kstreams},1648548651,0
{consumergroup=__strimzi-topic-operator-kstreams},1648548656,0
{consumergroup=__strimzi-topic-operator-kstreams},1648548661,0
{consumergroup=__strimzi-topic-operator-kstreams},1648548666,0
{consumergroup=__strimzi-topic-operator-kstreams},1648548671,0
{consumergroup=__strimzi-topic-operator-kstreams},1648548676,0
{consumergroup=__strimzi-topic-operator-kstreams},1648548681,0
{consumergroup=__strimzi-topic-operator-kstreams},1648548686,0
{consumergroup=__strimzi-topic-operator-kstreams},1648548691,0
{consumergroup=__strimzi-topic-operator-kstreams},1648548696,0
{consumergroup=__strimzi-topic-operator-kstreams},1648548701,0
{consumergroup=__strimzi-topic-operator-kstreams},1648548706,0
{consumergroup=__strimzi-topic-operator-kstreams},1648548711,0
{consumergroup=__strimzi-topic-operator-kstreams},1648548716,0
{consumergroup=__strimzi-topic-operator-kstreams},1648548721,0
{consumergroup=__strimzi-topic-operator-kstreams},1648548726,0
{consumergroup=__strimzi-topic-operator-kstreams},1648548731,0
{consumergroup=__strimzi-topic-operator-kstreams},1648548736,0
{consumergroup=__strimzi-topic-operator-kstreams},1648548741,0
{consumergroup=__strimzi-topic-operator-kstreams},1648548746,0
{consumergroup=__strimzi-topic-operator-kstreams},1648548751,0
{consumergroup=__strimzi-topic-operator-kstreams},1648548756,0
{consumergroup=__strimzi-topic-operator-kstreams},1648548761,0
{consumergroup=__strimzi-topic-operator-kstreams},1648548766,0
{consumergroup=__strimzi-topic-operator-kstreams},1648548771,0
{consumergroup=__strimzi-topic-operator-kstreams},1648548776,0
{consumergroup=__strimzi-topic-operator-kstreams},1648548781,0
{consumergroup=__strimzi-topic-operator-kstreams},1648548786,0
{consumergroup=__strimzi-topic-operator-kstreams},1648548791,0
{consumergroup=__strimzi-topic-operator-kstreams},1648548796,0
{consumergroup=__strimzi-topic-operator-kstreams},1648548801,0
{consumergroup=__strimzi-topic-operator-kstreams},1648548806,0
{consumergroup=__strimzi-topic-operator-kstreams},1648548811,0
{consumergroup=__strimzi-topic-operator-kstreams},1648548816,0
{consumergroup=__strimzi-topic-operator-kstreams},1648548821,0
{consumergroup=__strimzi-topic-operator-kstreams},1648548826,0
{consumergroup=__strimzi-topic-operator-kstreams},1648548831,0
{consumergroup=__strimzi-topic-operator-kstreams},1648548836,0
{consumergroup=__strimzi-topic-operator-kstreams},1648548841,0
{consumergroup=__strimzi-topic-operator-kstreams},1648548846,0
{consumergroup=__strimzi-topic-operator-kstreams},1648548851,0
{consumergroup=__strimzi-topic-operator-kstreams},1648548856,0
{consumergroup=__strimzi-topic-operator-kstreams},1648548861,0
{consumergroup=__strimzi-topic-operator-kstreams},1648548866,0
{consumergroup=__strimzi-topic-operator-kstreams},1648548871,0
{consumergroup=__strimzi-topic-operator-kstreams},1648548876,0
{consumergroup=__strimzi-topic-operator-kstreams},1648548881,0
{consumergroup=__strimzi-topic-operator-kstreams},1648548886,0
{consumergroup=__strimzi-topic-operator-kstreams},1648548891,0
{consumergroup=__strimzi-topic-operator-kstreams},1648548896,0
{consumergroup=__strimzi-topic-operator-kstreams},1648548901,0
{consumergroup=__strimzi-topic-operator-kstreams},1648548906,0
{consumergroup=__strimzi-topic-operator-kstreams},1648548911,0
{consumergroup=__strimzi-topic-operator-kstreams},1648548916,0
{consumergroup=__strimzi-topic-operator-kstreams},1648548921,0
{consumergroup=__strimzi-topic-operator-kstreams},1648548926,0
{consumergroup=__strimzi-topic-operator-kstreams},1648548931,0
{consumergroup=__strimzi-topic-operator-kstreams},1648548936,0
{consumergroup=__strimzi-topic-operator-kstreams},1648548941,0
{consumergroup=__strimzi-topic-operator-kstreams},1648548946,0
{consumergroup=__strimzi-topic-operator-kstreams},1648548951,0
{consumergroup=__strimzi-topic-operator-kstreams},1648548956,0
{consumergroup=__strimzi-topic-operator-kstreams},1648548961,0
{consumergroup=__strimzi-topic-operator-kstreams},1648548966,0
{consumergroup=__strimzi-topic-operator-kstreams},1648548971,0
{consumergroup=__strimzi-topic-operator-kstreams},1648548976,0
{consumergroup=__strimzi-topic-operator-kstreams},1648548981,0
{consumergroup=__strimzi-topic-operator-kstreams},1648548986,0
{consumergroup=__strimzi-topic-operator-kstreams},1648548991,0
{consumergroup=__strimzi-topic-operator-kstreams},1648548996,0
{consumergroup=__strimzi-topic-operator-kstreams},1648549001,0
{consumergroup=__strimzi-topic-operator-kstreams},1648549006,0
{consumergroup=__strimzi-topic-operator-kstreams},1648549011,0
{consumergroup=__strimzi-topic-operator-kstreams},1648549016,0
{consumergroup=__strimzi-topic-operator-kstreams},1648549021,0
{consumergroup=__strimzi-topic-operator-kstreams},1648549026,0
{consumergroup=__strimzi-topic-operator-kstreams},1648549031,0
{consumergroup=__strimzi-topic-operator-kstreams},1648549036,0
{consumergroup=__strimzi-topic-operator-kstreams},1648549041,0
