labels,timestamp,value
{consumergroup=__strimzi-topic-operator-kstreams},1648555086,10
{consumergroup=__strimzi-topic-operator-kstreams},1648555091,10
{consumergroup=__strimzi-topic-operator-kstreams},1648555096,10
{consumergroup=__strimzi-topic-operator-kstreams},1648555101,10
{consumergroup=__strimzi-topic-operator-kstreams},1648555106,10
{consumergroup=__strimzi-topic-operator-kstreams},1648555111,10
{consumergroup=__strimzi-topic-operator-kstreams},1648555116,0
{consumergroup=__strimzi-topic-operator-kstreams},1648555121,0
{consumergroup=__strimzi-topic-operator-kstreams},1648555126,0
{consumergroup=__strimzi-topic-operator-kstreams},1648555131,0
{consumergroup=__strimzi-topic-operator-kstreams},1648555136,0
{consumergroup=__strimzi-topic-operator-kstreams},1648555141,0
{consumergroup=__strimzi-topic-operator-kstreams},1648555146,0
{consumergroup=__strimzi-topic-operator-kstreams},1648555151,0
{consumergroup=__strimzi-topic-operator-kstreams},1648555156,0
{consumergroup=__strimzi-topic-operator-kstreams},1648555161,0
{consumergroup=__strimzi-topic-operator-kstreams},1648555166,0
{consumergroup=__strimzi-topic-operator-kstreams},1648555171,0
{consumergroup=__strimzi-topic-operator-kstreams},1648555176,0
{consumergroup=__strimzi-topic-operator-kstreams},1648555181,0
{consumergroup=__strimzi-topic-operator-kstreams},1648555186,0
{consumergroup=__strimzi-topic-operator-kstreams},1648555191,0
{consumergroup=__strimzi-topic-operator-kstreams},1648555196,0
{consumergroup=__strimzi-topic-operator-kstreams},1648555201,0
{consumergroup=__strimzi-topic-operator-kstreams},1648555206,1
{consumergroup=__strimzi-topic-operator-kstreams},1648555211,1
{consumergroup=__strimzi-topic-operator-kstreams},1648555216,1
{consumergroup=__strimzi-topic-operator-kstreams},1648555221,1
{consumergroup=__strimzi-topic-operator-kstreams},1648555226,1
{consumergroup=__strimzi-topic-operator-kstreams},1648555231,1
{consumergroup=__strimzi-topic-operator-kstreams},1648555236,0
{consumergroup=__strimzi-topic-operator-kstreams},1648555241,0
{consumergroup=__strimzi-topic-operator-kstreams},1648555246,0
{consumergroup=__strimzi-topic-operator-kstreams},1648555251,0
{consumergroup=__strimzi-topic-operator-kstreams},1648555256,0
{consumergroup=__strimzi-topic-operator-kstreams},1648555261,0
{consumergroup=__strimzi-topic-operator-kstreams},1648555266,0
{consumergroup=__strimzi-topic-operator-kstreams},1648555271,0
{consumergroup=__strimzi-topic-operator-kstreams},1648555276,0
{consumergroup=__strimzi-topic-operator-kstreams},1648555281,0
{consumergroup=__strimzi-topic-operator-kstreams},1648555286,0
{consumergroup=__strimzi-topic-operator-kstreams},1648555291,0
{consumergroup=__strimzi-topic-operator-kstreams},1648555296,0
{consumergroup=__strimzi-topic-operator-kstreams},1648555301,0
{consumergroup=__strimzi-topic-operator-kstreams},1648555306,0
{consumergroup=__strimzi-topic-operator-kstreams},1648555311,0
{consumergroup=__strimzi-topic-operator-kstreams},1648555316,0
{consumergroup=__strimzi-topic-operator-kstreams},1648555321,0
{consumergroup=__strimzi-topic-operator-kstreams},1648555326,0
{consumergroup=__strimzi-topic-operator-kstreams},1648555331,0
{consumergroup=__strimzi-topic-operator-kstreams},1648555336,0
{consumergroup=__strimzi-topic-operator-kstreams},1648555341,0
{consumergroup=__strimzi-topic-operator-kstreams},1648555346,0
{consumergroup=__strimzi-topic-operator-kstreams},1648555351,0
{consumergroup=__strimzi-topic-operator-kstreams},1648555356,0
{consumergroup=__strimzi-topic-operator-kstreams},1648555361,0
{consumergroup=__strimzi-topic-operator-kstreams},1648555366,0
{consumergroup=__strimzi-topic-operator-kstreams},1648555371,0
{consumergroup=__strimzi-topic-operator-kstreams},1648555376,0
{consumergroup=__strimzi-topic-operator-kstreams},1648555381,0
{consumergroup=__strimzi-topic-operator-kstreams},1648555386,0
{consumergroup=__strimzi-topic-operator-kstreams},1648555391,0
{consumergroup=__strimzi-topic-operator-kstreams},1648555396,0
{consumergroup=__strimzi-topic-operator-kstreams},1648555401,0
{consumergroup=__strimzi-topic-operator-kstreams},1648555406,0
{consumergroup=__strimzi-topic-operator-kstreams},1648555411,0
{consumergroup=__strimzi-topic-operator-kstreams},1648555416,0
{consumergroup=__strimzi-topic-operator-kstreams},1648555421,0
{consumergroup=__strimzi-topic-operator-kstreams},1648555426,0
{consumergroup=__strimzi-topic-operator-kstreams},1648555431,0
{consumergroup=__strimzi-topic-operator-kstreams},1648555436,0
{consumergroup=__strimzi-topic-operator-kstreams},1648555441,0
{consumergroup=__strimzi-topic-operator-kstreams},1648555446,0
{consumergroup=__strimzi-topic-operator-kstreams},1648555451,0
{consumergroup=__strimzi-topic-operator-kstreams},1648555456,0
{consumergroup=__strimzi-topic-operator-kstreams},1648555461,0
{consumergroup=__strimzi-topic-operator-kstreams},1648555466,0
{consumergroup=__strimzi-topic-operator-kstreams},1648555471,0
{consumergroup=__strimzi-topic-operator-kstreams},1648555476,0
{consumergroup=__strimzi-topic-operator-kstreams},1648555481,0
{consumergroup=__strimzi-topic-operator-kstreams},1648555486,0
{consumergroup=__strimzi-topic-operator-kstreams},1648555491,0
{consumergroup=__strimzi-topic-operator-kstreams},1648555496,0
{consumergroup=__strimzi-topic-operator-kstreams},1648555501,0
{consumergroup=__strimzi-topic-operator-kstreams},1648555506,0
{consumergroup=__strimzi-topic-operator-kstreams},1648555511,0
{consumergroup=__strimzi-topic-operator-kstreams},1648555516,0
{consumergroup=__strimzi-topic-operator-kstreams},1648555521,0
{consumergroup=__strimzi-topic-operator-kstreams},1648555526,0
{consumergroup=__strimzi-topic-operator-kstreams},1648555531,0
{consumergroup=__strimzi-topic-operator-kstreams},1648555536,0
{consumergroup=__strimzi-topic-operator-kstreams},1648555541,0
{consumergroup=__strimzi-topic-operator-kstreams},1648555546,0
{consumergroup=__strimzi-topic-operator-kstreams},1648555551,0
{consumergroup=__strimzi-topic-operator-kstreams},1648555556,0
{consumergroup=__strimzi-topic-operator-kstreams},1648555561,0
{consumergroup=__strimzi-topic-operator-kstreams},1648555566,0
{consumergroup=__strimzi-topic-operator-kstreams},1648555571,0
{consumergroup=__strimzi-topic-operator-kstreams},1648555576,0
{consumergroup=__strimzi-topic-operator-kstreams},1648555581,0
