labels,timestamp,value
{consumergroup=__strimzi-topic-operator-kstreams},1650605635,6
{consumergroup=__strimzi-topic-operator-kstreams},1650605640,6
{consumergroup=__strimzi-topic-operator-kstreams},1650605645,6
{consumergroup=__strimzi-topic-operator-kstreams},1650605650,8
{consumergroup=__strimzi-topic-operator-kstreams},1650605655,8
{consumergroup=__strimzi-topic-operator-kstreams},1650605660,8
{consumergroup=__strimzi-topic-operator-kstreams},1650605665,0
{consumergroup=__strimzi-topic-operator-kstreams},1650605670,0
{consumergroup=__strimzi-topic-operator-kstreams},1650605675,0
{consumergroup=__strimzi-topic-operator-kstreams},1650605680,0
{consumergroup=__strimzi-topic-operator-kstreams},1650605685,0
{consumergroup=__strimzi-topic-operator-kstreams},1650605690,0
{consumergroup=__strimzi-topic-operator-kstreams},1650605695,0
{consumergroup=__strimzi-topic-operator-kstreams},1650605700,0
{consumergroup=__strimzi-topic-operator-kstreams},1650605705,0
{consumergroup=__strimzi-topic-operator-kstreams},1650605710,0
{consumergroup=__strimzi-topic-operator-kstreams},1650605715,0
{consumergroup=__strimzi-topic-operator-kstreams},1650605720,0
{consumergroup=__strimzi-topic-operator-kstreams},1650605725,0
{consumergroup=__strimzi-topic-operator-kstreams},1650605730,0
{consumergroup=__strimzi-topic-operator-kstreams},1650605735,0
{consumergroup=__strimzi-topic-operator-kstreams},1650605740,0
{consumergroup=__strimzi-topic-operator-kstreams},1650605745,0
{consumergroup=__strimzi-topic-operator-kstreams},1650605750,0
{consumergroup=__strimzi-topic-operator-kstreams},1650605755,0
{consumergroup=__strimzi-topic-operator-kstreams},1650605760,0
{consumergroup=__strimzi-topic-operator-kstreams},1650605765,0
{consumergroup=__strimzi-topic-operator-kstreams},1650605770,0
{consumergroup=__strimzi-topic-operator-kstreams},1650605775,0
{consumergroup=__strimzi-topic-operator-kstreams},1650605780,0
{consumergroup=__strimzi-topic-operator-kstreams},1650605785,0
{consumergroup=__strimzi-topic-operator-kstreams},1650605790,0
{consumergroup=__strimzi-topic-operator-kstreams},1650605795,0
{consumergroup=__strimzi-topic-operator-kstreams},1650605800,0
{consumergroup=__strimzi-topic-operator-kstreams},1650605805,0
{consumergroup=__strimzi-topic-operator-kstreams},1650605810,0
{consumergroup=__strimzi-topic-operator-kstreams},1650605815,0
{consumergroup=__strimzi-topic-operator-kstreams},1650605820,0
{consumergroup=__strimzi-topic-operator-kstreams},1650605825,0
{consumergroup=__strimzi-topic-operator-kstreams},1650605830,0
{consumergroup=__strimzi-topic-operator-kstreams},1650605835,0
{consumergroup=__strimzi-topic-operator-kstreams},1650605840,0
{consumergroup=__strimzi-topic-operator-kstreams},1650605845,0
{consumergroup=__strimzi-topic-operator-kstreams},1650605850,0
{consumergroup=__strimzi-topic-operator-kstreams},1650605855,0
{consumergroup=__strimzi-topic-operator-kstreams},1650605860,0
{consumergroup=__strimzi-topic-operator-kstreams},1650605865,0
{consumergroup=__strimzi-topic-operator-kstreams},1650605870,0
{consumergroup=__strimzi-topic-operator-kstreams},1650605875,0
{consumergroup=__strimzi-topic-operator-kstreams},1650605880,0
{consumergroup=__strimzi-topic-operator-kstreams},1650605885,0
{consumergroup=__strimzi-topic-operator-kstreams},1650605890,0
{consumergroup=__strimzi-topic-operator-kstreams},1650605895,0
{consumergroup=__strimzi-topic-operator-kstreams},1650605900,0
{consumergroup=__strimzi-topic-operator-kstreams},1650605905,0
{consumergroup=__strimzi-topic-operator-kstreams},1650605910,0
{consumergroup=__strimzi-topic-operator-kstreams},1650605915,0
{consumergroup=__strimzi-topic-operator-kstreams},1650605920,0
{consumergroup=__strimzi-topic-operator-kstreams},1650605925,0
{consumergroup=__strimzi-topic-operator-kstreams},1650605930,0
{consumergroup=__strimzi-topic-operator-kstreams},1650605935,0
{consumergroup=__strimzi-topic-operator-kstreams},1650605940,0
{consumergroup=__strimzi-topic-operator-kstreams},1650605945,0
{consumergroup=__strimzi-topic-operator-kstreams},1650605950,0
{consumergroup=__strimzi-topic-operator-kstreams},1650605955,0
{consumergroup=__strimzi-topic-operator-kstreams},1650605960,0
{consumergroup=__strimzi-topic-operator-kstreams},1650605965,0
{consumergroup=__strimzi-topic-operator-kstreams},1650605970,0
{consumergroup=__strimzi-topic-operator-kstreams},1650605975,0
{consumergroup=__strimzi-topic-operator-kstreams},1650605980,0
{consumergroup=__strimzi-topic-operator-kstreams},1650605985,0
{consumergroup=__strimzi-topic-operator-kstreams},1650605990,0
{consumergroup=__strimzi-topic-operator-kstreams},1650605995,0
{consumergroup=__strimzi-topic-operator-kstreams},1650606000,0
{consumergroup=__strimzi-topic-operator-kstreams},1650606005,0
{consumergroup=__strimzi-topic-operator-kstreams},1650606010,0
{consumergroup=__strimzi-topic-operator-kstreams},1650606015,0
{consumergroup=__strimzi-topic-operator-kstreams},1650606020,0
{consumergroup=__strimzi-topic-operator-kstreams},1650606025,0
{consumergroup=__strimzi-topic-operator-kstreams},1650606030,0
{consumergroup=__strimzi-topic-operator-kstreams},1650606035,0
{consumergroup=__strimzi-topic-operator-kstreams},1650606040,0
{consumergroup=__strimzi-topic-operator-kstreams},1650606045,0
{consumergroup=__strimzi-topic-operator-kstreams},1650606050,0
{consumergroup=__strimzi-topic-operator-kstreams},1650606055,0
{consumergroup=__strimzi-topic-operator-kstreams},1650606060,0
{consumergroup=__strimzi-topic-operator-kstreams},1650606065,0
{consumergroup=__strimzi-topic-operator-kstreams},1650606070,0
{consumergroup=__strimzi-topic-operator-kstreams},1650606075,0
{consumergroup=__strimzi-topic-operator-kstreams},1650606080,0
{consumergroup=__strimzi-topic-operator-kstreams},1650606085,0
{consumergroup=__strimzi-topic-operator-kstreams},1650606090,0
{consumergroup=__strimzi-topic-operator-kstreams},1650606095,0
{consumergroup=__strimzi-topic-operator-kstreams},1650606100,0
{consumergroup=__strimzi-topic-operator-kstreams},1650606105,0
{consumergroup=__strimzi-topic-operator-kstreams},1650606110,0
{consumergroup=__strimzi-topic-operator-kstreams},1650606115,0
{consumergroup=__strimzi-topic-operator-kstreams},1650606120,0
{consumergroup=__strimzi-topic-operator-kstreams},1650606125,0
{consumergroup=__strimzi-topic-operator-kstreams},1650606130,0
