labels,timestamp,value
{consumergroup=__strimzi-topic-operator-kstreams},1650571758,0
{consumergroup=__strimzi-topic-operator-kstreams},1650571763,0
{consumergroup=__strimzi-topic-operator-kstreams},1650571768,0
{consumergroup=__strimzi-topic-operator-kstreams},1650571773,0
{consumergroup=__strimzi-topic-operator-kstreams},1650571778,0
{consumergroup=__strimzi-topic-operator-kstreams},1650571783,0
{consumergroup=__strimzi-topic-operator-kstreams},1650571788,0
{consumergroup=__strimzi-topic-operator-kstreams},1650571793,0
{consumergroup=__strimzi-topic-operator-kstreams},1650571798,0
{consumergroup=__strimzi-topic-operator-kstreams},1650571803,0
{consumergroup=__strimzi-topic-operator-kstreams},1650571808,0
{consumergroup=__strimzi-topic-operator-kstreams},1650571813,0
{consumergroup=__strimzi-topic-operator-kstreams},1650571818,0
{consumergroup=__strimzi-topic-operator-kstreams},1650571823,0
{consumergroup=__strimzi-topic-operator-kstreams},1650571828,0
{consumergroup=__strimzi-topic-operator-kstreams},1650571833,0
{consumergroup=__strimzi-topic-operator-kstreams},1650571838,0
{consumergroup=__strimzi-topic-operator-kstreams},1650571843,0
{consumergroup=__strimzi-topic-operator-kstreams},1650571848,0
{consumergroup=__strimzi-topic-operator-kstreams},1650571853,0
{consumergroup=__strimzi-topic-operator-kstreams},1650571858,0
{consumergroup=__strimzi-topic-operator-kstreams},1650571863,0
{consumergroup=__strimzi-topic-operator-kstreams},1650571868,0
{consumergroup=__strimzi-topic-operator-kstreams},1650571873,0
{consumergroup=__strimzi-topic-operator-kstreams},1650571878,0
{consumergroup=__strimzi-topic-operator-kstreams},1650571883,0
{consumergroup=__strimzi-topic-operator-kstreams},1650571888,0
{consumergroup=__strimzi-topic-operator-kstreams},1650571893,0
{consumergroup=__strimzi-topic-operator-kstreams},1650571898,0
{consumergroup=__strimzi-topic-operator-kstreams},1650571903,0
{consumergroup=__strimzi-topic-operator-kstreams},1650571908,0
{consumergroup=__strimzi-topic-operator-kstreams},1650571913,0
{consumergroup=__strimzi-topic-operator-kstreams},1650571918,0
{consumergroup=__strimzi-topic-operator-kstreams},1650571923,0
{consumergroup=__strimzi-topic-operator-kstreams},1650571928,0
{consumergroup=__strimzi-topic-operator-kstreams},1650571933,0
{consumergroup=__strimzi-topic-operator-kstreams},1650571938,0
{consumergroup=__strimzi-topic-operator-kstreams},1650571943,0
{consumergroup=__strimzi-topic-operator-kstreams},1650571948,0
{consumergroup=__strimzi-topic-operator-kstreams},1650571953,0
{consumergroup=__strimzi-topic-operator-kstreams},1650571958,0
{consumergroup=__strimzi-topic-operator-kstreams},1650571963,0
{consumergroup=__strimzi-topic-operator-kstreams},1650571968,0
{consumergroup=__strimzi-topic-operator-kstreams},1650571973,0
{consumergroup=__strimzi-topic-operator-kstreams},1650571978,0
{consumergroup=__strimzi-topic-operator-kstreams},1650571983,0
{consumergroup=__strimzi-topic-operator-kstreams},1650571988,0
{consumergroup=__strimzi-topic-operator-kstreams},1650571993,0
{consumergroup=__strimzi-topic-operator-kstreams},1650571998,0
{consumergroup=__strimzi-topic-operator-kstreams},1650572003,0
{consumergroup=__strimzi-topic-operator-kstreams},1650572008,0
{consumergroup=__strimzi-topic-operator-kstreams},1650572013,0
{consumergroup=__strimzi-topic-operator-kstreams},1650572018,0
{consumergroup=__strimzi-topic-operator-kstreams},1650572023,0
{consumergroup=__strimzi-topic-operator-kstreams},1650572028,0
{consumergroup=__strimzi-topic-operator-kstreams},1650572033,0
{consumergroup=__strimzi-topic-operator-kstreams},1650572038,0
{consumergroup=__strimzi-topic-operator-kstreams},1650572043,0
{consumergroup=__strimzi-topic-operator-kstreams},1650572048,0
{consumergroup=__strimzi-topic-operator-kstreams},1650572053,0
{consumergroup=__strimzi-topic-operator-kstreams},1650572058,0
{consumergroup=__strimzi-topic-operator-kstreams},1650572063,0
{consumergroup=__strimzi-topic-operator-kstreams},1650572068,0
{consumergroup=__strimzi-topic-operator-kstreams},1650572073,0
{consumergroup=__strimzi-topic-operator-kstreams},1650572078,0
{consumergroup=__strimzi-topic-operator-kstreams},1650572083,0
{consumergroup=__strimzi-topic-operator-kstreams},1650572088,0
{consumergroup=__strimzi-topic-operator-kstreams},1650572093,0
{consumergroup=__strimzi-topic-operator-kstreams},1650572098,0
{consumergroup=__strimzi-topic-operator-kstreams},1650572103,0
{consumergroup=__strimzi-topic-operator-kstreams},1650572108,0
{consumergroup=__strimzi-topic-operator-kstreams},1650572113,0
{consumergroup=__strimzi-topic-operator-kstreams},1650572118,0
{consumergroup=__strimzi-topic-operator-kstreams},1650572123,0
{consumergroup=__strimzi-topic-operator-kstreams},1650572128,0
{consumergroup=__strimzi-topic-operator-kstreams},1650572133,0
{consumergroup=__strimzi-topic-operator-kstreams},1650572138,0
{consumergroup=__strimzi-topic-operator-kstreams},1650572143,0
{consumergroup=__strimzi-topic-operator-kstreams},1650572148,0
{consumergroup=__strimzi-topic-operator-kstreams},1650572153,0
{consumergroup=__strimzi-topic-operator-kstreams},1650572158,0
{consumergroup=__strimzi-topic-operator-kstreams},1650572163,0
{consumergroup=__strimzi-topic-operator-kstreams},1650572168,0
{consumergroup=__strimzi-topic-operator-kstreams},1650572173,0
{consumergroup=__strimzi-topic-operator-kstreams},1650572178,0
{consumergroup=__strimzi-topic-operator-kstreams},1650572183,0
{consumergroup=__strimzi-topic-operator-kstreams},1650572188,0
{consumergroup=__strimzi-topic-operator-kstreams},1650572193,0
{consumergroup=__strimzi-topic-operator-kstreams},1650572198,0
{consumergroup=__strimzi-topic-operator-kstreams},1650572203,0
{consumergroup=__strimzi-topic-operator-kstreams},1650572208,0
{consumergroup=__strimzi-topic-operator-kstreams},1650572213,0
{consumergroup=__strimzi-topic-operator-kstreams},1650572218,0
{consumergroup=__strimzi-topic-operator-kstreams},1650572223,0
{consumergroup=__strimzi-topic-operator-kstreams},1650572228,0
{consumergroup=__strimzi-topic-operator-kstreams},1650572233,0
{consumergroup=__strimzi-topic-operator-kstreams},1650572238,0
{consumergroup=__strimzi-topic-operator-kstreams},1650572243,0
