labels,timestamp,value
{consumergroup=__strimzi-topic-operator-kstreams},1650610484,0
{consumergroup=__strimzi-topic-operator-kstreams},1650610489,0
{consumergroup=__strimzi-topic-operator-kstreams},1650610494,0
{consumergroup=__strimzi-topic-operator-kstreams},1650610499,0
{consumergroup=__strimzi-topic-operator-kstreams},1650610504,0
{consumergroup=__strimzi-topic-operator-kstreams},1650610509,0
{consumergroup=__strimzi-topic-operator-kstreams},1650610514,0
{consumergroup=__strimzi-topic-operator-kstreams},1650610519,0
{consumergroup=__strimzi-topic-operator-kstreams},1650610524,0
{consumergroup=__strimzi-topic-operator-kstreams},1650610529,0
{consumergroup=__strimzi-topic-operator-kstreams},1650610534,0
{consumergroup=__strimzi-topic-operator-kstreams},1650610539,0
{consumergroup=__strimzi-topic-operator-kstreams},1650610544,0
{consumergroup=__strimzi-topic-operator-kstreams},1650610549,0
{consumergroup=__strimzi-topic-operator-kstreams},1650610554,0
{consumergroup=__strimzi-topic-operator-kstreams},1650610559,0
{consumergroup=__strimzi-topic-operator-kstreams},1650610564,0
{consumergroup=__strimzi-topic-operator-kstreams},1650610569,0
{consumergroup=__strimzi-topic-operator-kstreams},1650610574,0
{consumergroup=__strimzi-topic-operator-kstreams},1650610579,0
{consumergroup=__strimzi-topic-operator-kstreams},1650610584,0
{consumergroup=__strimzi-topic-operator-kstreams},1650610589,0
{consumergroup=__strimzi-topic-operator-kstreams},1650610594,0
{consumergroup=__strimzi-topic-operator-kstreams},1650610599,0
{consumergroup=__strimzi-topic-operator-kstreams},1650610604,0
{consumergroup=__strimzi-topic-operator-kstreams},1650610609,0
{consumergroup=__strimzi-topic-operator-kstreams},1650610614,0
{consumergroup=__strimzi-topic-operator-kstreams},1650610619,0
{consumergroup=__strimzi-topic-operator-kstreams},1650610624,0
{consumergroup=__strimzi-topic-operator-kstreams},1650610629,0
{consumergroup=__strimzi-topic-operator-kstreams},1650610634,0
{consumergroup=__strimzi-topic-operator-kstreams},1650610639,0
{consumergroup=__strimzi-topic-operator-kstreams},1650610644,0
{consumergroup=__strimzi-topic-operator-kstreams},1650610649,0
{consumergroup=__strimzi-topic-operator-kstreams},1650610654,0
{consumergroup=__strimzi-topic-operator-kstreams},1650610659,0
{consumergroup=__strimzi-topic-operator-kstreams},1650610664,0
{consumergroup=__strimzi-topic-operator-kstreams},1650610669,0
{consumergroup=__strimzi-topic-operator-kstreams},1650610674,0
{consumergroup=__strimzi-topic-operator-kstreams},1650610679,0
{consumergroup=__strimzi-topic-operator-kstreams},1650610684,0
{consumergroup=__strimzi-topic-operator-kstreams},1650610689,0
{consumergroup=__strimzi-topic-operator-kstreams},1650610694,0
{consumergroup=__strimzi-topic-operator-kstreams},1650610699,0
{consumergroup=__strimzi-topic-operator-kstreams},1650610704,0
{consumergroup=__strimzi-topic-operator-kstreams},1650610709,0
{consumergroup=__strimzi-topic-operator-kstreams},1650610714,0
{consumergroup=__strimzi-topic-operator-kstreams},1650610719,0
{consumergroup=__strimzi-topic-operator-kstreams},1650610724,0
{consumergroup=__strimzi-topic-operator-kstreams},1650610729,0
{consumergroup=__strimzi-topic-operator-kstreams},1650610734,0
{consumergroup=__strimzi-topic-operator-kstreams},1650610739,0
{consumergroup=__strimzi-topic-operator-kstreams},1650610744,0
{consumergroup=__strimzi-topic-operator-kstreams},1650610749,0
{consumergroup=__strimzi-topic-operator-kstreams},1650610754,0
{consumergroup=__strimzi-topic-operator-kstreams},1650610759,0
{consumergroup=__strimzi-topic-operator-kstreams},1650610764,0
{consumergroup=__strimzi-topic-operator-kstreams},1650610769,0
{consumergroup=__strimzi-topic-operator-kstreams},1650610774,0
{consumergroup=__strimzi-topic-operator-kstreams},1650610779,0
{consumergroup=__strimzi-topic-operator-kstreams},1650610784,0
{consumergroup=__strimzi-topic-operator-kstreams},1650610789,0
{consumergroup=__strimzi-topic-operator-kstreams},1650610794,0
{consumergroup=__strimzi-topic-operator-kstreams},1650610799,0
{consumergroup=__strimzi-topic-operator-kstreams},1650610804,0
{consumergroup=__strimzi-topic-operator-kstreams},1650610809,0
{consumergroup=__strimzi-topic-operator-kstreams},1650610814,0
{consumergroup=__strimzi-topic-operator-kstreams},1650610819,0
{consumergroup=__strimzi-topic-operator-kstreams},1650610824,0
{consumergroup=__strimzi-topic-operator-kstreams},1650610829,0
{consumergroup=__strimzi-topic-operator-kstreams},1650610834,0
{consumergroup=__strimzi-topic-operator-kstreams},1650610839,0
{consumergroup=__strimzi-topic-operator-kstreams},1650610844,0
{consumergroup=__strimzi-topic-operator-kstreams},1650610849,0
{consumergroup=__strimzi-topic-operator-kstreams},1650610854,0
{consumergroup=__strimzi-topic-operator-kstreams},1650610859,0
{consumergroup=__strimzi-topic-operator-kstreams},1650610864,0
{consumergroup=__strimzi-topic-operator-kstreams},1650610869,0
{consumergroup=__strimzi-topic-operator-kstreams},1650610874,0
{consumergroup=__strimzi-topic-operator-kstreams},1650610879,0
{consumergroup=__strimzi-topic-operator-kstreams},1650610884,0
{consumergroup=__strimzi-topic-operator-kstreams},1650610889,0
{consumergroup=__strimzi-topic-operator-kstreams},1650610894,0
{consumergroup=__strimzi-topic-operator-kstreams},1650610899,0
{consumergroup=__strimzi-topic-operator-kstreams},1650610904,0
{consumergroup=__strimzi-topic-operator-kstreams},1650610909,0
{consumergroup=__strimzi-topic-operator-kstreams},1650610914,0
{consumergroup=__strimzi-topic-operator-kstreams},1650610919,0
{consumergroup=__strimzi-topic-operator-kstreams},1650610924,0
{consumergroup=__strimzi-topic-operator-kstreams},1650610929,0
{consumergroup=__strimzi-topic-operator-kstreams},1650610934,0
{consumergroup=__strimzi-topic-operator-kstreams},1650610939,0
{consumergroup=__strimzi-topic-operator-kstreams},1650610944,0
{consumergroup=__strimzi-topic-operator-kstreams},1650610949,0
{consumergroup=__strimzi-topic-operator-kstreams},1650610954,0
{consumergroup=__strimzi-topic-operator-kstreams},1650610959,0
{consumergroup=__strimzi-topic-operator-kstreams},1650610964,0
