labels,timestamp,value
{consumergroup=__strimzi-topic-operator-kstreams},1650568562,16
{consumergroup=__strimzi-topic-operator-kstreams},1650568567,16
{consumergroup=__strimzi-topic-operator-kstreams},1650568572,16
{consumergroup=__strimzi-topic-operator-kstreams},1650568577,0
{consumergroup=__strimzi-topic-operator-kstreams},1650568582,0
{consumergroup=__strimzi-topic-operator-kstreams},1650568587,0
{consumergroup=__strimzi-topic-operator-kstreams},1650568592,0
{consumergroup=__strimzi-topic-operator-kstreams},1650568597,0
{consumergroup=__strimzi-topic-operator-kstreams},1650568602,0
{consumergroup=__strimzi-topic-operator-kstreams},1650568607,0
{consumergroup=__strimzi-topic-operator-kstreams},1650568612,0
{consumergroup=__strimzi-topic-operator-kstreams},1650568617,0
{consumergroup=__strimzi-topic-operator-kstreams},1650568622,0
{consumergroup=__strimzi-topic-operator-kstreams},1650568627,0
{consumergroup=__strimzi-topic-operator-kstreams},1650568632,0
{consumergroup=__strimzi-topic-operator-kstreams},1650568637,0
{consumergroup=__strimzi-topic-operator-kstreams},1650568642,0
{consumergroup=__strimzi-topic-operator-kstreams},1650568647,0
{consumergroup=__strimzi-topic-operator-kstreams},1650568652,0
{consumergroup=__strimzi-topic-operator-kstreams},1650568657,0
{consumergroup=__strimzi-topic-operator-kstreams},1650568662,0
{consumergroup=__strimzi-topic-operator-kstreams},1650568667,0
{consumergroup=__strimzi-topic-operator-kstreams},1650568672,0
{consumergroup=__strimzi-topic-operator-kstreams},1650568677,0
{consumergroup=__strimzi-topic-operator-kstreams},1650568682,0
{consumergroup=__strimzi-topic-operator-kstreams},1650568687,0
{consumergroup=__strimzi-topic-operator-kstreams},1650568692,0
{consumergroup=__strimzi-topic-operator-kstreams},1650568697,0
{consumergroup=__strimzi-topic-operator-kstreams},1650568702,0
{consumergroup=__strimzi-topic-operator-kstreams},1650568707,0
{consumergroup=__strimzi-topic-operator-kstreams},1650568712,0
{consumergroup=__strimzi-topic-operator-kstreams},1650568717,0
{consumergroup=__strimzi-topic-operator-kstreams},1650568722,0
{consumergroup=__strimzi-topic-operator-kstreams},1650568727,0
{consumergroup=__strimzi-topic-operator-kstreams},1650568732,0
{consumergroup=__strimzi-topic-operator-kstreams},1650568737,0
{consumergroup=__strimzi-topic-operator-kstreams},1650568742,0
{consumergroup=__strimzi-topic-operator-kstreams},1650568747,0
{consumergroup=__strimzi-topic-operator-kstreams},1650568752,0
{consumergroup=__strimzi-topic-operator-kstreams},1650568757,0
{consumergroup=__strimzi-topic-operator-kstreams},1650568762,0
{consumergroup=__strimzi-topic-operator-kstreams},1650568767,0
{consumergroup=__strimzi-topic-operator-kstreams},1650568772,0
{consumergroup=__strimzi-topic-operator-kstreams},1650568777,0
{consumergroup=__strimzi-topic-operator-kstreams},1650568782,0
{consumergroup=__strimzi-topic-operator-kstreams},1650568787,0
{consumergroup=__strimzi-topic-operator-kstreams},1650568792,0
{consumergroup=__strimzi-topic-operator-kstreams},1650568797,0
{consumergroup=__strimzi-topic-operator-kstreams},1650568802,0
{consumergroup=__strimzi-topic-operator-kstreams},1650568807,0
{consumergroup=__strimzi-topic-operator-kstreams},1650568812,0
{consumergroup=__strimzi-topic-operator-kstreams},1650568817,0
{consumergroup=__strimzi-topic-operator-kstreams},1650568822,0
{consumergroup=__strimzi-topic-operator-kstreams},1650568827,0
{consumergroup=__strimzi-topic-operator-kstreams},1650568832,0
{consumergroup=__strimzi-topic-operator-kstreams},1650568837,0
{consumergroup=__strimzi-topic-operator-kstreams},1650568842,0
{consumergroup=__strimzi-topic-operator-kstreams},1650568847,0
{consumergroup=__strimzi-topic-operator-kstreams},1650568852,0
{consumergroup=__strimzi-topic-operator-kstreams},1650568857,0
{consumergroup=__strimzi-topic-operator-kstreams},1650568862,0
{consumergroup=__strimzi-topic-operator-kstreams},1650568867,0
{consumergroup=__strimzi-topic-operator-kstreams},1650568872,0
{consumergroup=__strimzi-topic-operator-kstreams},1650568877,0
{consumergroup=__strimzi-topic-operator-kstreams},1650568882,0
{consumergroup=__strimzi-topic-operator-kstreams},1650568887,0
{consumergroup=__strimzi-topic-operator-kstreams},1650568892,0
{consumergroup=__strimzi-topic-operator-kstreams},1650568897,0
{consumergroup=__strimzi-topic-operator-kstreams},1650568902,0
{consumergroup=__strimzi-topic-operator-kstreams},1650568907,0
{consumergroup=__strimzi-topic-operator-kstreams},1650568912,0
{consumergroup=__strimzi-topic-operator-kstreams},1650568917,0
{consumergroup=__strimzi-topic-operator-kstreams},1650568922,0
{consumergroup=__strimzi-topic-operator-kstreams},1650568927,0
{consumergroup=__strimzi-topic-operator-kstreams},1650568932,0
{consumergroup=__strimzi-topic-operator-kstreams},1650568937,0
{consumergroup=__strimzi-topic-operator-kstreams},1650568942,0
{consumergroup=__strimzi-topic-operator-kstreams},1650568947,0
{consumergroup=__strimzi-topic-operator-kstreams},1650568952,0
{consumergroup=__strimzi-topic-operator-kstreams},1650568957,0
{consumergroup=__strimzi-topic-operator-kstreams},1650568962,0
{consumergroup=__strimzi-topic-operator-kstreams},1650568967,0
{consumergroup=__strimzi-topic-operator-kstreams},1650568972,0
{consumergroup=__strimzi-topic-operator-kstreams},1650568977,0
{consumergroup=__strimzi-topic-operator-kstreams},1650568982,0
{consumergroup=__strimzi-topic-operator-kstreams},1650568987,0
{consumergroup=__strimzi-topic-operator-kstreams},1650568992,0
{consumergroup=__strimzi-topic-operator-kstreams},1650568997,0
{consumergroup=__strimzi-topic-operator-kstreams},1650569002,0
{consumergroup=__strimzi-topic-operator-kstreams},1650569007,0
{consumergroup=__strimzi-topic-operator-kstreams},1650569012,0
{consumergroup=__strimzi-topic-operator-kstreams},1650569017,0
{consumergroup=__strimzi-topic-operator-kstreams},1650569022,0
{consumergroup=__strimzi-topic-operator-kstreams},1650569027,0
{consumergroup=__strimzi-topic-operator-kstreams},1650569032,0
{consumergroup=__strimzi-topic-operator-kstreams},1650569037,0
{consumergroup=__strimzi-topic-operator-kstreams},1650569042,0
{consumergroup=__strimzi-topic-operator-kstreams},1650569047,0
{consumergroup=__strimzi-topic-operator-kstreams},1650569052,0
