labels,timestamp,value
{consumergroup=__strimzi-topic-operator-kstreams},1650571201,8
{consumergroup=__strimzi-topic-operator-kstreams},1650571206,8
{consumergroup=__strimzi-topic-operator-kstreams},1650571211,8
{consumergroup=__strimzi-topic-operator-kstreams},1650571216,0
{consumergroup=__strimzi-topic-operator-kstreams},1650571221,0
{consumergroup=__strimzi-topic-operator-kstreams},1650571226,0
{consumergroup=__strimzi-topic-operator-kstreams},1650571231,0
{consumergroup=__strimzi-topic-operator-kstreams},1650571236,0
{consumergroup=__strimzi-topic-operator-kstreams},1650571241,0
{consumergroup=__strimzi-topic-operator-kstreams},1650571246,0
{consumergroup=__strimzi-topic-operator-kstreams},1650571251,0
{consumergroup=__strimzi-topic-operator-kstreams},1650571256,0
{consumergroup=__strimzi-topic-operator-kstreams},1650571261,0
{consumergroup=__strimzi-topic-operator-kstreams},1650571266,0
{consumergroup=__strimzi-topic-operator-kstreams},1650571271,0
{consumergroup=__strimzi-topic-operator-kstreams},1650571276,0
{consumergroup=__strimzi-topic-operator-kstreams},1650571281,0
{consumergroup=__strimzi-topic-operator-kstreams},1650571286,0
{consumergroup=__strimzi-topic-operator-kstreams},1650571291,0
{consumergroup=__strimzi-topic-operator-kstreams},1650571296,0
{consumergroup=__strimzi-topic-operator-kstreams},1650571301,0
{consumergroup=__strimzi-topic-operator-kstreams},1650571306,0
{consumergroup=__strimzi-topic-operator-kstreams},1650571311,0
{consumergroup=__strimzi-topic-operator-kstreams},1650571316,0
{consumergroup=__strimzi-topic-operator-kstreams},1650571321,0
{consumergroup=__strimzi-topic-operator-kstreams},1650571326,0
{consumergroup=__strimzi-topic-operator-kstreams},1650571331,0
{consumergroup=__strimzi-topic-operator-kstreams},1650571336,0
{consumergroup=__strimzi-topic-operator-kstreams},1650571341,0
{consumergroup=__strimzi-topic-operator-kstreams},1650571346,0
{consumergroup=__strimzi-topic-operator-kstreams},1650571351,0
{consumergroup=__strimzi-topic-operator-kstreams},1650571356,0
{consumergroup=__strimzi-topic-operator-kstreams},1650571361,0
{consumergroup=__strimzi-topic-operator-kstreams},1650571366,0
{consumergroup=__strimzi-topic-operator-kstreams},1650571371,0
{consumergroup=__strimzi-topic-operator-kstreams},1650571376,0
{consumergroup=__strimzi-topic-operator-kstreams},1650571381,0
{consumergroup=__strimzi-topic-operator-kstreams},1650571386,0
{consumergroup=__strimzi-topic-operator-kstreams},1650571391,0
{consumergroup=__strimzi-topic-operator-kstreams},1650571396,0
{consumergroup=__strimzi-topic-operator-kstreams},1650571401,0
{consumergroup=__strimzi-topic-operator-kstreams},1650571406,0
{consumergroup=__strimzi-topic-operator-kstreams},1650571411,0
{consumergroup=__strimzi-topic-operator-kstreams},1650571416,0
{consumergroup=__strimzi-topic-operator-kstreams},1650571421,0
{consumergroup=__strimzi-topic-operator-kstreams},1650571426,0
{consumergroup=__strimzi-topic-operator-kstreams},1650571431,0
{consumergroup=__strimzi-topic-operator-kstreams},1650571436,0
{consumergroup=__strimzi-topic-operator-kstreams},1650571441,0
{consumergroup=__strimzi-topic-operator-kstreams},1650571446,0
{consumergroup=__strimzi-topic-operator-kstreams},1650571451,0
{consumergroup=__strimzi-topic-operator-kstreams},1650571456,0
{consumergroup=__strimzi-topic-operator-kstreams},1650571461,0
{consumergroup=__strimzi-topic-operator-kstreams},1650571466,0
{consumergroup=__strimzi-topic-operator-kstreams},1650571471,0
{consumergroup=__strimzi-topic-operator-kstreams},1650571476,0
{consumergroup=__strimzi-topic-operator-kstreams},1650571481,0
{consumergroup=__strimzi-topic-operator-kstreams},1650571486,0
{consumergroup=__strimzi-topic-operator-kstreams},1650571491,0
{consumergroup=__strimzi-topic-operator-kstreams},1650571496,0
{consumergroup=__strimzi-topic-operator-kstreams},1650571501,0
{consumergroup=__strimzi-topic-operator-kstreams},1650571506,0
{consumergroup=__strimzi-topic-operator-kstreams},1650571511,0
{consumergroup=__strimzi-topic-operator-kstreams},1650571516,0
{consumergroup=__strimzi-topic-operator-kstreams},1650571521,0
{consumergroup=__strimzi-topic-operator-kstreams},1650571526,0
{consumergroup=__strimzi-topic-operator-kstreams},1650571531,0
{consumergroup=__strimzi-topic-operator-kstreams},1650571536,0
{consumergroup=__strimzi-topic-operator-kstreams},1650571541,0
{consumergroup=__strimzi-topic-operator-kstreams},1650571546,0
{consumergroup=__strimzi-topic-operator-kstreams},1650571551,0
{consumergroup=__strimzi-topic-operator-kstreams},1650571556,0
{consumergroup=__strimzi-topic-operator-kstreams},1650571561,0
{consumergroup=__strimzi-topic-operator-kstreams},1650571566,0
{consumergroup=__strimzi-topic-operator-kstreams},1650571571,0
{consumergroup=__strimzi-topic-operator-kstreams},1650571576,0
{consumergroup=__strimzi-topic-operator-kstreams},1650571581,0
{consumergroup=__strimzi-topic-operator-kstreams},1650571586,0
{consumergroup=__strimzi-topic-operator-kstreams},1650571591,0
{consumergroup=__strimzi-topic-operator-kstreams},1650571596,0
{consumergroup=__strimzi-topic-operator-kstreams},1650571601,0
{consumergroup=__strimzi-topic-operator-kstreams},1650571606,0
{consumergroup=__strimzi-topic-operator-kstreams},1650571611,0
{consumergroup=__strimzi-topic-operator-kstreams},1650571616,0
{consumergroup=__strimzi-topic-operator-kstreams},1650571621,0
{consumergroup=__strimzi-topic-operator-kstreams},1650571626,0
{consumergroup=__strimzi-topic-operator-kstreams},1650571631,0
{consumergroup=__strimzi-topic-operator-kstreams},1650571636,0
{consumergroup=__strimzi-topic-operator-kstreams},1650571641,0
{consumergroup=__strimzi-topic-operator-kstreams},1650571646,0
{consumergroup=__strimzi-topic-operator-kstreams},1650571651,0
{consumergroup=__strimzi-topic-operator-kstreams},1650571656,0
{consumergroup=__strimzi-topic-operator-kstreams},1650571661,0
{consumergroup=__strimzi-topic-operator-kstreams},1650571666,0
{consumergroup=__strimzi-topic-operator-kstreams},1650571671,0
{consumergroup=__strimzi-topic-operator-kstreams},1650571676,0
{consumergroup=__strimzi-topic-operator-kstreams},1650571681,0
{consumergroup=__strimzi-topic-operator-kstreams},1650571686,0
{consumergroup=__strimzi-topic-operator-kstreams},1650571691,0
{consumergroup=__strimzi-topic-operator-kstreams},1650571696,0
{consumergroup=__strimzi-topic-operator-kstreams},1650571701,0
