labels,timestamp,value
{consumergroup=__strimzi-topic-operator-kstreams},1650590606,10
{consumergroup=__strimzi-topic-operator-kstreams},1650590611,10
{consumergroup=__strimzi-topic-operator-kstreams},1650590616,10
{consumergroup=__strimzi-topic-operator-kstreams},1650590621,0
{consumergroup=__strimzi-topic-operator-kstreams},1650590626,0
{consumergroup=__strimzi-topic-operator-kstreams},1650590631,0
{consumergroup=__strimzi-topic-operator-kstreams},1650590636,0
{consumergroup=__strimzi-topic-operator-kstreams},1650590641,0
{consumergroup=__strimzi-topic-operator-kstreams},1650590646,0
{consumergroup=__strimzi-topic-operator-kstreams},1650590651,0
{consumergroup=__strimzi-topic-operator-kstreams},1650590656,0
{consumergroup=__strimzi-topic-operator-kstreams},1650590661,0
{consumergroup=__strimzi-topic-operator-kstreams},1650590666,0
{consumergroup=__strimzi-topic-operator-kstreams},1650590671,0
{consumergroup=__strimzi-topic-operator-kstreams},1650590676,0
{consumergroup=__strimzi-topic-operator-kstreams},1650590681,0
{consumergroup=__strimzi-topic-operator-kstreams},1650590686,0
{consumergroup=__strimzi-topic-operator-kstreams},1650590691,0
{consumergroup=__strimzi-topic-operator-kstreams},1650590696,0
{consumergroup=__strimzi-topic-operator-kstreams},1650590701,0
{consumergroup=__strimzi-topic-operator-kstreams},1650590706,0
{consumergroup=__strimzi-topic-operator-kstreams},1650590711,0
{consumergroup=__strimzi-topic-operator-kstreams},1650590716,0
{consumergroup=__strimzi-topic-operator-kstreams},1650590721,0
{consumergroup=__strimzi-topic-operator-kstreams},1650590726,0
{consumergroup=__strimzi-topic-operator-kstreams},1650590731,0
{consumergroup=__strimzi-topic-operator-kstreams},1650590736,0
{consumergroup=__strimzi-topic-operator-kstreams},1650590741,0
{consumergroup=__strimzi-topic-operator-kstreams},1650590746,0
{consumergroup=__strimzi-topic-operator-kstreams},1650590751,0
{consumergroup=__strimzi-topic-operator-kstreams},1650590756,0
{consumergroup=__strimzi-topic-operator-kstreams},1650590761,0
{consumergroup=__strimzi-topic-operator-kstreams},1650590766,0
{consumergroup=__strimzi-topic-operator-kstreams},1650590771,0
{consumergroup=__strimzi-topic-operator-kstreams},1650590776,0
{consumergroup=__strimzi-topic-operator-kstreams},1650590781,0
{consumergroup=__strimzi-topic-operator-kstreams},1650590786,0
{consumergroup=__strimzi-topic-operator-kstreams},1650590791,0
{consumergroup=__strimzi-topic-operator-kstreams},1650590796,0
{consumergroup=__strimzi-topic-operator-kstreams},1650590801,0
{consumergroup=__strimzi-topic-operator-kstreams},1650590806,0
{consumergroup=__strimzi-topic-operator-kstreams},1650590811,0
{consumergroup=__strimzi-topic-operator-kstreams},1650590816,0
{consumergroup=__strimzi-topic-operator-kstreams},1650590821,0
{consumergroup=__strimzi-topic-operator-kstreams},1650590826,0
{consumergroup=__strimzi-topic-operator-kstreams},1650590831,0
{consumergroup=__strimzi-topic-operator-kstreams},1650590836,0
{consumergroup=__strimzi-topic-operator-kstreams},1650590841,0
{consumergroup=__strimzi-topic-operator-kstreams},1650590846,0
{consumergroup=__strimzi-topic-operator-kstreams},1650590851,0
{consumergroup=__strimzi-topic-operator-kstreams},1650590856,0
{consumergroup=__strimzi-topic-operator-kstreams},1650590861,0
{consumergroup=__strimzi-topic-operator-kstreams},1650590866,0
{consumergroup=__strimzi-topic-operator-kstreams},1650590871,0
{consumergroup=__strimzi-topic-operator-kstreams},1650590876,0
{consumergroup=__strimzi-topic-operator-kstreams},1650590881,0
{consumergroup=__strimzi-topic-operator-kstreams},1650590886,0
{consumergroup=__strimzi-topic-operator-kstreams},1650590891,0
{consumergroup=__strimzi-topic-operator-kstreams},1650590896,0
{consumergroup=__strimzi-topic-operator-kstreams},1650590901,0
{consumergroup=__strimzi-topic-operator-kstreams},1650590906,0
{consumergroup=__strimzi-topic-operator-kstreams},1650590911,0
{consumergroup=__strimzi-topic-operator-kstreams},1650590916,0
{consumergroup=__strimzi-topic-operator-kstreams},1650590921,0
{consumergroup=__strimzi-topic-operator-kstreams},1650590926,0
{consumergroup=__strimzi-topic-operator-kstreams},1650590931,0
{consumergroup=__strimzi-topic-operator-kstreams},1650590936,0
{consumergroup=__strimzi-topic-operator-kstreams},1650590941,0
{consumergroup=__strimzi-topic-operator-kstreams},1650590946,0
{consumergroup=__strimzi-topic-operator-kstreams},1650590951,0
{consumergroup=__strimzi-topic-operator-kstreams},1650590956,0
{consumergroup=__strimzi-topic-operator-kstreams},1650590961,0
{consumergroup=__strimzi-topic-operator-kstreams},1650590966,0
{consumergroup=__strimzi-topic-operator-kstreams},1650590971,0
{consumergroup=__strimzi-topic-operator-kstreams},1650590976,0
{consumergroup=__strimzi-topic-operator-kstreams},1650590981,0
{consumergroup=__strimzi-topic-operator-kstreams},1650590986,0
{consumergroup=__strimzi-topic-operator-kstreams},1650590991,0
{consumergroup=__strimzi-topic-operator-kstreams},1650590996,0
{consumergroup=__strimzi-topic-operator-kstreams},1650591001,0
{consumergroup=__strimzi-topic-operator-kstreams},1650591006,0
{consumergroup=__strimzi-topic-operator-kstreams},1650591011,0
{consumergroup=__strimzi-topic-operator-kstreams},1650591016,0
{consumergroup=__strimzi-topic-operator-kstreams},1650591021,0
{consumergroup=__strimzi-topic-operator-kstreams},1650591026,0
{consumergroup=__strimzi-topic-operator-kstreams},1650591031,0
{consumergroup=__strimzi-topic-operator-kstreams},1650591036,0
{consumergroup=__strimzi-topic-operator-kstreams},1650591041,0
{consumergroup=__strimzi-topic-operator-kstreams},1650591046,0
{consumergroup=__strimzi-topic-operator-kstreams},1650591051,0
{consumergroup=__strimzi-topic-operator-kstreams},1650591056,0
{consumergroup=__strimzi-topic-operator-kstreams},1650591061,0
{consumergroup=__strimzi-topic-operator-kstreams},1650591066,0
{consumergroup=__strimzi-topic-operator-kstreams},1650591071,0
{consumergroup=__strimzi-topic-operator-kstreams},1650591076,0
{consumergroup=__strimzi-topic-operator-kstreams},1650591081,0
{consumergroup=__strimzi-topic-operator-kstreams},1650591086,0
{consumergroup=__strimzi-topic-operator-kstreams},1650591091,0
{consumergroup=__strimzi-topic-operator-kstreams},1650591096,0
