labels,timestamp,value
{consumergroup=__strimzi-topic-operator-kstreams},1650582987,0
{consumergroup=__strimzi-topic-operator-kstreams},1650582992,0
{consumergroup=__strimzi-topic-operator-kstreams},1650582997,20
{consumergroup=__strimzi-topic-operator-kstreams},1650583002,20
{consumergroup=__strimzi-topic-operator-kstreams},1650583007,20
{consumergroup=__strimzi-topic-operator-kstreams},1650583012,0
{consumergroup=__strimzi-topic-operator-kstreams},1650583017,0
{consumergroup=__strimzi-topic-operator-kstreams},1650583022,0
{consumergroup=__strimzi-topic-operator-kstreams},1650583027,0
{consumergroup=__strimzi-topic-operator-kstreams},1650583032,0
{consumergroup=__strimzi-topic-operator-kstreams},1650583037,0
{consumergroup=__strimzi-topic-operator-kstreams},1650583042,0
{consumergroup=__strimzi-topic-operator-kstreams},1650583047,0
{consumergroup=__strimzi-topic-operator-kstreams},1650583052,0
{consumergroup=__strimzi-topic-operator-kstreams},1650583057,0
{consumergroup=__strimzi-topic-operator-kstreams},1650583062,0
{consumergroup=__strimzi-topic-operator-kstreams},1650583067,0
{consumergroup=__strimzi-topic-operator-kstreams},1650583072,0
{consumergroup=__strimzi-topic-operator-kstreams},1650583077,0
{consumergroup=__strimzi-topic-operator-kstreams},1650583082,0
{consumergroup=__strimzi-topic-operator-kstreams},1650583087,0
{consumergroup=__strimzi-topic-operator-kstreams},1650583092,0
{consumergroup=__strimzi-topic-operator-kstreams},1650583097,0
{consumergroup=__strimzi-topic-operator-kstreams},1650583102,0
{consumergroup=__strimzi-topic-operator-kstreams},1650583107,0
{consumergroup=__strimzi-topic-operator-kstreams},1650583112,0
{consumergroup=__strimzi-topic-operator-kstreams},1650583117,0
{consumergroup=__strimzi-topic-operator-kstreams},1650583122,0
{consumergroup=__strimzi-topic-operator-kstreams},1650583127,0
{consumergroup=__strimzi-topic-operator-kstreams},1650583132,0
{consumergroup=__strimzi-topic-operator-kstreams},1650583137,0
{consumergroup=__strimzi-topic-operator-kstreams},1650583142,0
{consumergroup=__strimzi-topic-operator-kstreams},1650583147,0
{consumergroup=__strimzi-topic-operator-kstreams},1650583152,0
{consumergroup=__strimzi-topic-operator-kstreams},1650583157,0
{consumergroup=__strimzi-topic-operator-kstreams},1650583162,0
{consumergroup=__strimzi-topic-operator-kstreams},1650583167,0
{consumergroup=__strimzi-topic-operator-kstreams},1650583172,0
{consumergroup=__strimzi-topic-operator-kstreams},1650583177,0
{consumergroup=__strimzi-topic-operator-kstreams},1650583182,0
{consumergroup=__strimzi-topic-operator-kstreams},1650583187,0
{consumergroup=__strimzi-topic-operator-kstreams},1650583192,0
{consumergroup=__strimzi-topic-operator-kstreams},1650583197,0
{consumergroup=__strimzi-topic-operator-kstreams},1650583202,0
{consumergroup=__strimzi-topic-operator-kstreams},1650583207,0
{consumergroup=__strimzi-topic-operator-kstreams},1650583212,0
{consumergroup=__strimzi-topic-operator-kstreams},1650583217,0
{consumergroup=__strimzi-topic-operator-kstreams},1650583222,0
{consumergroup=__strimzi-topic-operator-kstreams},1650583227,0
{consumergroup=__strimzi-topic-operator-kstreams},1650583232,0
{consumergroup=__strimzi-topic-operator-kstreams},1650583237,0
{consumergroup=__strimzi-topic-operator-kstreams},1650583242,0
{consumergroup=__strimzi-topic-operator-kstreams},1650583247,0
{consumergroup=__strimzi-topic-operator-kstreams},1650583252,0
{consumergroup=__strimzi-topic-operator-kstreams},1650583257,0
{consumergroup=__strimzi-topic-operator-kstreams},1650583262,0
{consumergroup=__strimzi-topic-operator-kstreams},1650583267,0
{consumergroup=__strimzi-topic-operator-kstreams},1650583272,0
{consumergroup=__strimzi-topic-operator-kstreams},1650583277,0
{consumergroup=__strimzi-topic-operator-kstreams},1650583282,0
{consumergroup=__strimzi-topic-operator-kstreams},1650583287,0
{consumergroup=__strimzi-topic-operator-kstreams},1650583292,0
{consumergroup=__strimzi-topic-operator-kstreams},1650583297,0
{consumergroup=__strimzi-topic-operator-kstreams},1650583302,0
{consumergroup=__strimzi-topic-operator-kstreams},1650583307,0
{consumergroup=__strimzi-topic-operator-kstreams},1650583312,0
{consumergroup=__strimzi-topic-operator-kstreams},1650583317,0
{consumergroup=__strimzi-topic-operator-kstreams},1650583322,0
{consumergroup=__strimzi-topic-operator-kstreams},1650583327,0
{consumergroup=__strimzi-topic-operator-kstreams},1650583332,0
{consumergroup=__strimzi-topic-operator-kstreams},1650583337,0
{consumergroup=__strimzi-topic-operator-kstreams},1650583342,0
{consumergroup=__strimzi-topic-operator-kstreams},1650583347,0
{consumergroup=__strimzi-topic-operator-kstreams},1650583352,0
{consumergroup=__strimzi-topic-operator-kstreams},1650583357,0
{consumergroup=__strimzi-topic-operator-kstreams},1650583362,0
{consumergroup=__strimzi-topic-operator-kstreams},1650583367,0
{consumergroup=__strimzi-topic-operator-kstreams},1650583372,0
{consumergroup=__strimzi-topic-operator-kstreams},1650583377,0
{consumergroup=__strimzi-topic-operator-kstreams},1650583382,0
{consumergroup=__strimzi-topic-operator-kstreams},1650583387,0
{consumergroup=__strimzi-topic-operator-kstreams},1650583392,0
{consumergroup=__strimzi-topic-operator-kstreams},1650583397,0
{consumergroup=__strimzi-topic-operator-kstreams},1650583402,0
{consumergroup=__strimzi-topic-operator-kstreams},1650583407,0
{consumergroup=__strimzi-topic-operator-kstreams},1650583412,0
{consumergroup=__strimzi-topic-operator-kstreams},1650583417,0
{consumergroup=__strimzi-topic-operator-kstreams},1650583422,0
{consumergroup=__strimzi-topic-operator-kstreams},1650583427,0
{consumergroup=__strimzi-topic-operator-kstreams},1650583432,0
{consumergroup=__strimzi-topic-operator-kstreams},1650583437,0
{consumergroup=__strimzi-topic-operator-kstreams},1650583442,0
{consumergroup=__strimzi-topic-operator-kstreams},1650583447,0
{consumergroup=__strimzi-topic-operator-kstreams},1650583452,0
{consumergroup=__strimzi-topic-operator-kstreams},1650583457,0
{consumergroup=__strimzi-topic-operator-kstreams},1650583462,0
{consumergroup=__strimzi-topic-operator-kstreams},1650583467,0
{consumergroup=__strimzi-topic-operator-kstreams},1650583472,0
{consumergroup=__strimzi-topic-operator-kstreams},1650583477,0
{consumergroup=__strimzi-topic-operator-kstreams},1650583482,0
{consumergroup=__strimzi-topic-operator-kstreams},1650583487,0
