labels,timestamp,value
{consumergroup=__strimzi-topic-operator-kstreams},1650578178,8
{consumergroup=__strimzi-topic-operator-kstreams},1650578183,8
{consumergroup=__strimzi-topic-operator-kstreams},1650578188,8
{consumergroup=__strimzi-topic-operator-kstreams},1650578193,11
{consumergroup=__strimzi-topic-operator-kstreams},1650578198,11
{consumergroup=__strimzi-topic-operator-kstreams},1650578203,11
{consumergroup=__strimzi-topic-operator-kstreams},1650578208,0
{consumergroup=__strimzi-topic-operator-kstreams},1650578213,0
{consumergroup=__strimzi-topic-operator-kstreams},1650578218,0
{consumergroup=__strimzi-topic-operator-kstreams},1650578223,0
{consumergroup=__strimzi-topic-operator-kstreams},1650578228,0
{consumergroup=__strimzi-topic-operator-kstreams},1650578233,0
{consumergroup=__strimzi-topic-operator-kstreams},1650578238,0
{consumergroup=__strimzi-topic-operator-kstreams},1650578243,0
{consumergroup=__strimzi-topic-operator-kstreams},1650578248,0
{consumergroup=__strimzi-topic-operator-kstreams},1650578253,0
{consumergroup=__strimzi-topic-operator-kstreams},1650578258,0
{consumergroup=__strimzi-topic-operator-kstreams},1650578263,0
{consumergroup=__strimzi-topic-operator-kstreams},1650578268,0
{consumergroup=__strimzi-topic-operator-kstreams},1650578273,0
{consumergroup=__strimzi-topic-operator-kstreams},1650578278,0
{consumergroup=__strimzi-topic-operator-kstreams},1650578283,0
{consumergroup=__strimzi-topic-operator-kstreams},1650578288,0
{consumergroup=__strimzi-topic-operator-kstreams},1650578293,0
{consumergroup=__strimzi-topic-operator-kstreams},1650578298,0
{consumergroup=__strimzi-topic-operator-kstreams},1650578303,0
{consumergroup=__strimzi-topic-operator-kstreams},1650578308,0
{consumergroup=__strimzi-topic-operator-kstreams},1650578313,0
{consumergroup=__strimzi-topic-operator-kstreams},1650578318,0
{consumergroup=__strimzi-topic-operator-kstreams},1650578323,0
{consumergroup=__strimzi-topic-operator-kstreams},1650578328,0
{consumergroup=__strimzi-topic-operator-kstreams},1650578333,0
{consumergroup=__strimzi-topic-operator-kstreams},1650578338,0
{consumergroup=__strimzi-topic-operator-kstreams},1650578343,0
{consumergroup=__strimzi-topic-operator-kstreams},1650578348,0
{consumergroup=__strimzi-topic-operator-kstreams},1650578353,0
{consumergroup=__strimzi-topic-operator-kstreams},1650578358,0
{consumergroup=__strimzi-topic-operator-kstreams},1650578363,0
{consumergroup=__strimzi-topic-operator-kstreams},1650578368,0
{consumergroup=__strimzi-topic-operator-kstreams},1650578373,0
{consumergroup=__strimzi-topic-operator-kstreams},1650578378,0
{consumergroup=__strimzi-topic-operator-kstreams},1650578383,0
{consumergroup=__strimzi-topic-operator-kstreams},1650578388,0
{consumergroup=__strimzi-topic-operator-kstreams},1650578393,0
{consumergroup=__strimzi-topic-operator-kstreams},1650578398,0
{consumergroup=__strimzi-topic-operator-kstreams},1650578403,0
{consumergroup=__strimzi-topic-operator-kstreams},1650578408,0
{consumergroup=__strimzi-topic-operator-kstreams},1650578413,0
{consumergroup=__strimzi-topic-operator-kstreams},1650578418,0
{consumergroup=__strimzi-topic-operator-kstreams},1650578423,0
{consumergroup=__strimzi-topic-operator-kstreams},1650578428,0
{consumergroup=__strimzi-topic-operator-kstreams},1650578433,0
{consumergroup=__strimzi-topic-operator-kstreams},1650578438,0
{consumergroup=__strimzi-topic-operator-kstreams},1650578443,0
{consumergroup=__strimzi-topic-operator-kstreams},1650578448,0
{consumergroup=__strimzi-topic-operator-kstreams},1650578453,0
{consumergroup=__strimzi-topic-operator-kstreams},1650578458,0
{consumergroup=__strimzi-topic-operator-kstreams},1650578463,0
{consumergroup=__strimzi-topic-operator-kstreams},1650578468,0
{consumergroup=__strimzi-topic-operator-kstreams},1650578473,0
{consumergroup=__strimzi-topic-operator-kstreams},1650578478,0
{consumergroup=__strimzi-topic-operator-kstreams},1650578483,0
{consumergroup=__strimzi-topic-operator-kstreams},1650578488,0
{consumergroup=__strimzi-topic-operator-kstreams},1650578493,0
{consumergroup=__strimzi-topic-operator-kstreams},1650578498,0
{consumergroup=__strimzi-topic-operator-kstreams},1650578503,0
{consumergroup=__strimzi-topic-operator-kstreams},1650578508,0
{consumergroup=__strimzi-topic-operator-kstreams},1650578513,0
{consumergroup=__strimzi-topic-operator-kstreams},1650578518,0
{consumergroup=__strimzi-topic-operator-kstreams},1650578523,0
{consumergroup=__strimzi-topic-operator-kstreams},1650578528,0
{consumergroup=__strimzi-topic-operator-kstreams},1650578533,0
{consumergroup=__strimzi-topic-operator-kstreams},1650578538,0
{consumergroup=__strimzi-topic-operator-kstreams},1650578543,0
{consumergroup=__strimzi-topic-operator-kstreams},1650578548,0
{consumergroup=__strimzi-topic-operator-kstreams},1650578553,0
{consumergroup=__strimzi-topic-operator-kstreams},1650578558,0
{consumergroup=__strimzi-topic-operator-kstreams},1650578563,0
{consumergroup=__strimzi-topic-operator-kstreams},1650578568,0
{consumergroup=__strimzi-topic-operator-kstreams},1650578573,0
{consumergroup=__strimzi-topic-operator-kstreams},1650578578,0
{consumergroup=__strimzi-topic-operator-kstreams},1650578583,0
{consumergroup=__strimzi-topic-operator-kstreams},1650578588,0
{consumergroup=__strimzi-topic-operator-kstreams},1650578593,0
{consumergroup=__strimzi-topic-operator-kstreams},1650578598,0
{consumergroup=__strimzi-topic-operator-kstreams},1650578603,0
{consumergroup=__strimzi-topic-operator-kstreams},1650578608,0
{consumergroup=__strimzi-topic-operator-kstreams},1650578613,0
{consumergroup=__strimzi-topic-operator-kstreams},1650578618,0
{consumergroup=__strimzi-topic-operator-kstreams},1650578623,0
{consumergroup=__strimzi-topic-operator-kstreams},1650578628,0
{consumergroup=__strimzi-topic-operator-kstreams},1650578633,0
{consumergroup=__strimzi-topic-operator-kstreams},1650578638,0
{consumergroup=__strimzi-topic-operator-kstreams},1650578643,0
{consumergroup=__strimzi-topic-operator-kstreams},1650578648,0
{consumergroup=__strimzi-topic-operator-kstreams},1650578653,0
{consumergroup=__strimzi-topic-operator-kstreams},1650578658,0
{consumergroup=__strimzi-topic-operator-kstreams},1650578663,0
{consumergroup=__strimzi-topic-operator-kstreams},1650578668,0
{consumergroup=__strimzi-topic-operator-kstreams},1650578673,0
