labels,timestamp,value
{consumergroup=__strimzi-topic-operator-kstreams},1650582456,0
{consumergroup=__strimzi-topic-operator-kstreams},1650582471,4
{consumergroup=__strimzi-topic-operator-kstreams},1650582476,4
{consumergroup=__strimzi-topic-operator-kstreams},1650582481,4
{consumergroup=__strimzi-topic-operator-kstreams},1650582486,4
{consumergroup=__strimzi-topic-operator-kstreams},1650582491,4
{consumergroup=__strimzi-topic-operator-kstreams},1650582496,4
{consumergroup=__strimzi-topic-operator-kstreams},1650582501,0
{consumergroup=__strimzi-topic-operator-kstreams},1650582506,0
{consumergroup=__strimzi-topic-operator-kstreams},1650582511,0
{consumergroup=__strimzi-topic-operator-kstreams},1650582516,0
{consumergroup=__strimzi-topic-operator-kstreams},1650582521,0
{consumergroup=__strimzi-topic-operator-kstreams},1650582526,0
{consumergroup=__strimzi-topic-operator-kstreams},1650582531,0
{consumergroup=__strimzi-topic-operator-kstreams},1650582536,0
{consumergroup=__strimzi-topic-operator-kstreams},1650582541,0
{consumergroup=__strimzi-topic-operator-kstreams},1650582546,0
{consumergroup=__strimzi-topic-operator-kstreams},1650582551,0
{consumergroup=__strimzi-topic-operator-kstreams},1650582556,0
{consumergroup=__strimzi-topic-operator-kstreams},1650582561,0
{consumergroup=__strimzi-topic-operator-kstreams},1650582566,0
{consumergroup=__strimzi-topic-operator-kstreams},1650582571,0
{consumergroup=__strimzi-topic-operator-kstreams},1650582576,0
{consumergroup=__strimzi-topic-operator-kstreams},1650582581,0
{consumergroup=__strimzi-topic-operator-kstreams},1650582586,0
{consumergroup=__strimzi-topic-operator-kstreams},1650582591,0
{consumergroup=__strimzi-topic-operator-kstreams},1650582596,0
{consumergroup=__strimzi-topic-operator-kstreams},1650582601,0
{consumergroup=__strimzi-topic-operator-kstreams},1650582606,0
{consumergroup=__strimzi-topic-operator-kstreams},1650582611,0
{consumergroup=__strimzi-topic-operator-kstreams},1650582616,0
{consumergroup=__strimzi-topic-operator-kstreams},1650582621,0
{consumergroup=__strimzi-topic-operator-kstreams},1650582626,0
{consumergroup=__strimzi-topic-operator-kstreams},1650582631,0
{consumergroup=__strimzi-topic-operator-kstreams},1650582636,0
{consumergroup=__strimzi-topic-operator-kstreams},1650582641,0
{consumergroup=__strimzi-topic-operator-kstreams},1650582646,0
{consumergroup=__strimzi-topic-operator-kstreams},1650582651,0
{consumergroup=__strimzi-topic-operator-kstreams},1650582656,0
{consumergroup=__strimzi-topic-operator-kstreams},1650582661,0
{consumergroup=__strimzi-topic-operator-kstreams},1650582666,0
{consumergroup=__strimzi-topic-operator-kstreams},1650582671,0
{consumergroup=__strimzi-topic-operator-kstreams},1650582676,0
{consumergroup=__strimzi-topic-operator-kstreams},1650582681,0
{consumergroup=__strimzi-topic-operator-kstreams},1650582686,0
{consumergroup=__strimzi-topic-operator-kstreams},1650582691,0
{consumergroup=__strimzi-topic-operator-kstreams},1650582696,0
{consumergroup=__strimzi-topic-operator-kstreams},1650582701,0
{consumergroup=__strimzi-topic-operator-kstreams},1650582706,0
{consumergroup=__strimzi-topic-operator-kstreams},1650582711,0
{consumergroup=__strimzi-topic-operator-kstreams},1650582716,0
{consumergroup=__strimzi-topic-operator-kstreams},1650582721,0
{consumergroup=__strimzi-topic-operator-kstreams},1650582726,0
{consumergroup=__strimzi-topic-operator-kstreams},1650582731,0
{consumergroup=__strimzi-topic-operator-kstreams},1650582736,0
{consumergroup=__strimzi-topic-operator-kstreams},1650582741,0
{consumergroup=__strimzi-topic-operator-kstreams},1650582746,0
{consumergroup=__strimzi-topic-operator-kstreams},1650582751,0
{consumergroup=__strimzi-topic-operator-kstreams},1650582756,0
{consumergroup=__strimzi-topic-operator-kstreams},1650582761,0
{consumergroup=__strimzi-topic-operator-kstreams},1650582766,0
{consumergroup=__strimzi-topic-operator-kstreams},1650582771,0
{consumergroup=__strimzi-topic-operator-kstreams},1650582776,0
{consumergroup=__strimzi-topic-operator-kstreams},1650582781,0
{consumergroup=__strimzi-topic-operator-kstreams},1650582786,0
{consumergroup=__strimzi-topic-operator-kstreams},1650582791,0
{consumergroup=__strimzi-topic-operator-kstreams},1650582796,0
{consumergroup=__strimzi-topic-operator-kstreams},1650582801,0
{consumergroup=__strimzi-topic-operator-kstreams},1650582806,0
{consumergroup=__strimzi-topic-operator-kstreams},1650582811,0
{consumergroup=__strimzi-topic-operator-kstreams},1650582816,0
{consumergroup=__strimzi-topic-operator-kstreams},1650582821,0
{consumergroup=__strimzi-topic-operator-kstreams},1650582826,0
{consumergroup=__strimzi-topic-operator-kstreams},1650582831,0
{consumergroup=__strimzi-topic-operator-kstreams},1650582836,0
{consumergroup=__strimzi-topic-operator-kstreams},1650582841,0
{consumergroup=__strimzi-topic-operator-kstreams},1650582846,0
{consumergroup=__strimzi-topic-operator-kstreams},1650582851,0
{consumergroup=__strimzi-topic-operator-kstreams},1650582856,0
{consumergroup=__strimzi-topic-operator-kstreams},1650582861,0
{consumergroup=__strimzi-topic-operator-kstreams},1650582866,0
{consumergroup=__strimzi-topic-operator-kstreams},1650582871,0
{consumergroup=__strimzi-topic-operator-kstreams},1650582876,0
{consumergroup=__strimzi-topic-operator-kstreams},1650582881,0
{consumergroup=__strimzi-topic-operator-kstreams},1650582886,0
{consumergroup=__strimzi-topic-operator-kstreams},1650582891,0
{consumergroup=__strimzi-topic-operator-kstreams},1650582896,0
{consumergroup=__strimzi-topic-operator-kstreams},1650582901,0
{consumergroup=__strimzi-topic-operator-kstreams},1650582906,0
{consumergroup=__strimzi-topic-operator-kstreams},1650582911,0
{consumergroup=__strimzi-topic-operator-kstreams},1650582916,0
{consumergroup=__strimzi-topic-operator-kstreams},1650582921,0
{consumergroup=__strimzi-topic-operator-kstreams},1650582926,0
{consumergroup=__strimzi-topic-operator-kstreams},1650582931,0
{consumergroup=__strimzi-topic-operator-kstreams},1650582936,0
{consumergroup=__strimzi-topic-operator-kstreams},1650582941,0
{consumergroup=__strimzi-topic-operator-kstreams},1650582946,0
{consumergroup=__strimzi-topic-operator-kstreams},1650582951,0
{consumergroup=__strimzi-topic-operator-kstreams},1650582956,0
