labels,timestamp,value
{consumergroup=__strimzi-topic-operator-kstreams},1650586274,15
{consumergroup=__strimzi-topic-operator-kstreams},1650586279,15
{consumergroup=__strimzi-topic-operator-kstreams},1650586284,15
{consumergroup=__strimzi-topic-operator-kstreams},1650586289,0
{consumergroup=__strimzi-topic-operator-kstreams},1650586294,0
{consumergroup=__strimzi-topic-operator-kstreams},1650586299,0
{consumergroup=__strimzi-topic-operator-kstreams},1650586304,0
{consumergroup=__strimzi-topic-operator-kstreams},1650586309,0
{consumergroup=__strimzi-topic-operator-kstreams},1650586314,0
{consumergroup=__strimzi-topic-operator-kstreams},1650586319,0
{consumergroup=__strimzi-topic-operator-kstreams},1650586324,0
{consumergroup=__strimzi-topic-operator-kstreams},1650586329,0
{consumergroup=__strimzi-topic-operator-kstreams},1650586334,0
{consumergroup=__strimzi-topic-operator-kstreams},1650586339,0
{consumergroup=__strimzi-topic-operator-kstreams},1650586344,0
{consumergroup=__strimzi-topic-operator-kstreams},1650586349,0
{consumergroup=__strimzi-topic-operator-kstreams},1650586354,0
{consumergroup=__strimzi-topic-operator-kstreams},1650586359,0
{consumergroup=__strimzi-topic-operator-kstreams},1650586364,0
{consumergroup=__strimzi-topic-operator-kstreams},1650586369,0
{consumergroup=__strimzi-topic-operator-kstreams},1650586374,0
{consumergroup=__strimzi-topic-operator-kstreams},1650586379,0
{consumergroup=__strimzi-topic-operator-kstreams},1650586384,0
{consumergroup=__strimzi-topic-operator-kstreams},1650586389,0
{consumergroup=__strimzi-topic-operator-kstreams},1650586394,0
{consumergroup=__strimzi-topic-operator-kstreams},1650586399,0
{consumergroup=__strimzi-topic-operator-kstreams},1650586404,0
{consumergroup=__strimzi-topic-operator-kstreams},1650586409,0
{consumergroup=__strimzi-topic-operator-kstreams},1650586414,0
{consumergroup=__strimzi-topic-operator-kstreams},1650586419,0
{consumergroup=__strimzi-topic-operator-kstreams},1650586424,0
{consumergroup=__strimzi-topic-operator-kstreams},1650586429,0
{consumergroup=__strimzi-topic-operator-kstreams},1650586434,0
{consumergroup=__strimzi-topic-operator-kstreams},1650586439,0
{consumergroup=__strimzi-topic-operator-kstreams},1650586444,0
{consumergroup=__strimzi-topic-operator-kstreams},1650586449,0
{consumergroup=__strimzi-topic-operator-kstreams},1650586454,0
{consumergroup=__strimzi-topic-operator-kstreams},1650586459,0
{consumergroup=__strimzi-topic-operator-kstreams},1650586464,0
{consumergroup=__strimzi-topic-operator-kstreams},1650586469,0
{consumergroup=__strimzi-topic-operator-kstreams},1650586474,0
{consumergroup=__strimzi-topic-operator-kstreams},1650586479,0
{consumergroup=__strimzi-topic-operator-kstreams},1650586484,0
{consumergroup=__strimzi-topic-operator-kstreams},1650586489,0
{consumergroup=__strimzi-topic-operator-kstreams},1650586494,0
{consumergroup=__strimzi-topic-operator-kstreams},1650586499,0
{consumergroup=__strimzi-topic-operator-kstreams},1650586504,0
{consumergroup=__strimzi-topic-operator-kstreams},1650586509,0
{consumergroup=__strimzi-topic-operator-kstreams},1650586514,0
{consumergroup=__strimzi-topic-operator-kstreams},1650586519,0
{consumergroup=__strimzi-topic-operator-kstreams},1650586524,0
{consumergroup=__strimzi-topic-operator-kstreams},1650586529,0
{consumergroup=__strimzi-topic-operator-kstreams},1650586534,0
{consumergroup=__strimzi-topic-operator-kstreams},1650586539,0
{consumergroup=__strimzi-topic-operator-kstreams},1650586544,0
{consumergroup=__strimzi-topic-operator-kstreams},1650586549,0
{consumergroup=__strimzi-topic-operator-kstreams},1650586554,0
{consumergroup=__strimzi-topic-operator-kstreams},1650586559,0
{consumergroup=__strimzi-topic-operator-kstreams},1650586564,0
{consumergroup=__strimzi-topic-operator-kstreams},1650586569,0
{consumergroup=__strimzi-topic-operator-kstreams},1650586574,0
{consumergroup=__strimzi-topic-operator-kstreams},1650586579,0
{consumergroup=__strimzi-topic-operator-kstreams},1650586584,0
{consumergroup=__strimzi-topic-operator-kstreams},1650586589,0
{consumergroup=__strimzi-topic-operator-kstreams},1650586594,0
{consumergroup=__strimzi-topic-operator-kstreams},1650586599,0
{consumergroup=__strimzi-topic-operator-kstreams},1650586604,0
{consumergroup=__strimzi-topic-operator-kstreams},1650586609,0
{consumergroup=__strimzi-topic-operator-kstreams},1650586614,0
{consumergroup=__strimzi-topic-operator-kstreams},1650586619,0
{consumergroup=__strimzi-topic-operator-kstreams},1650586624,0
{consumergroup=__strimzi-topic-operator-kstreams},1650586629,0
{consumergroup=__strimzi-topic-operator-kstreams},1650586634,0
{consumergroup=__strimzi-topic-operator-kstreams},1650586639,0
{consumergroup=__strimzi-topic-operator-kstreams},1650586644,0
{consumergroup=__strimzi-topic-operator-kstreams},1650586649,0
{consumergroup=__strimzi-topic-operator-kstreams},1650586654,0
{consumergroup=__strimzi-topic-operator-kstreams},1650586659,0
{consumergroup=__strimzi-topic-operator-kstreams},1650586664,0
{consumergroup=__strimzi-topic-operator-kstreams},1650586669,0
{consumergroup=__strimzi-topic-operator-kstreams},1650586674,0
{consumergroup=__strimzi-topic-operator-kstreams},1650586679,0
{consumergroup=__strimzi-topic-operator-kstreams},1650586684,0
{consumergroup=__strimzi-topic-operator-kstreams},1650586689,0
{consumergroup=__strimzi-topic-operator-kstreams},1650586694,0
{consumergroup=__strimzi-topic-operator-kstreams},1650586699,0
{consumergroup=__strimzi-topic-operator-kstreams},1650586704,0
{consumergroup=__strimzi-topic-operator-kstreams},1650586709,0
{consumergroup=__strimzi-topic-operator-kstreams},1650586714,0
{consumergroup=__strimzi-topic-operator-kstreams},1650586719,0
{consumergroup=__strimzi-topic-operator-kstreams},1650586724,0
{consumergroup=__strimzi-topic-operator-kstreams},1650586729,0
{consumergroup=__strimzi-topic-operator-kstreams},1650586734,0
{consumergroup=__strimzi-topic-operator-kstreams},1650586739,0
{consumergroup=__strimzi-topic-operator-kstreams},1650586744,0
{consumergroup=__strimzi-topic-operator-kstreams},1650586749,0
{consumergroup=__strimzi-topic-operator-kstreams},1650586754,0
{consumergroup=__strimzi-topic-operator-kstreams},1650586759,0
{consumergroup=__strimzi-topic-operator-kstreams},1650586764,0
