labels,timestamp,value
{},1650559101,0
{},1650559106,0
{},1650559111,0
{},1650559116,0
{},1650559121,0
{},1650559126,0
{},1650559131,0
{},1650559136,0
{},1650559141,0
{},1650559146,0
{},1650559151,0
{},1650559156,0
{},1650559161,0
{},1650559166,0
{},1650559171,0
