labels,timestamp,value
{},1650545542,0
{},1650545547,0
{},1650545552,0
{},1650545557,0
{},1650545562,0
{},1650545567,0
{},1650545572,0
{},1650545577,0
{},1650545582,0
{},1650545587,0
{},1650545592,0
{},1650545597,0
{},1650545602,0
{},1650545607,0
