labels,timestamp,value
{consumergroup=__strimzi-topic-operator-kstreams},1650559101,3
{consumergroup=__strimzi-topic-operator-kstreams},1650559106,3
{consumergroup=__strimzi-topic-operator-kstreams},1650559111,3
{consumergroup=__strimzi-topic-operator-kstreams},1650559116,11
{consumergroup=__strimzi-topic-operator-kstreams},1650559121,11
{consumergroup=__strimzi-topic-operator-kstreams},1650559126,11
{consumergroup=__strimzi-topic-operator-kstreams},1650559131,0
{consumergroup=__strimzi-topic-operator-kstreams},1650559136,0
{consumergroup=__strimzi-topic-operator-kstreams},1650559141,0
{consumergroup=__strimzi-topic-operator-kstreams},1650559146,0
{consumergroup=__strimzi-topic-operator-kstreams},1650559151,0
{consumergroup=__strimzi-topic-operator-kstreams},1650559156,0
{consumergroup=__strimzi-topic-operator-kstreams},1650559161,0
{consumergroup=__strimzi-topic-operator-kstreams},1650559166,0
{consumergroup=__strimzi-topic-operator-kstreams},1650559171,0
{consumergroup=__strimzi-topic-operator-kstreams},1650559176,0
{consumergroup=__strimzi-topic-operator-kstreams},1650559181,0
{consumergroup=__strimzi-topic-operator-kstreams},1650559186,0
{consumergroup=__strimzi-topic-operator-kstreams},1650559191,0
{consumergroup=__strimzi-topic-operator-kstreams},1650559196,0
{consumergroup=__strimzi-topic-operator-kstreams},1650559201,0
{consumergroup=__strimzi-topic-operator-kstreams},1650559206,0
{consumergroup=__strimzi-topic-operator-kstreams},1650559211,0
{consumergroup=__strimzi-topic-operator-kstreams},1650559216,0
{consumergroup=__strimzi-topic-operator-kstreams},1650559221,0
{consumergroup=__strimzi-topic-operator-kstreams},1650559226,0
{consumergroup=__strimzi-topic-operator-kstreams},1650559231,0
{consumergroup=__strimzi-topic-operator-kstreams},1650559236,0
{consumergroup=__strimzi-topic-operator-kstreams},1650559241,0
{consumergroup=__strimzi-topic-operator-kstreams},1650559246,0
{consumergroup=__strimzi-topic-operator-kstreams},1650559251,0
{consumergroup=__strimzi-topic-operator-kstreams},1650559256,0
{consumergroup=__strimzi-topic-operator-kstreams},1650559261,0
{consumergroup=__strimzi-topic-operator-kstreams},1650559266,0
{consumergroup=__strimzi-topic-operator-kstreams},1650559271,0
{consumergroup=__strimzi-topic-operator-kstreams},1650559276,0
{consumergroup=__strimzi-topic-operator-kstreams},1650559281,0
{consumergroup=__strimzi-topic-operator-kstreams},1650559286,0
{consumergroup=__strimzi-topic-operator-kstreams},1650559291,0
{consumergroup=__strimzi-topic-operator-kstreams},1650559296,0
{consumergroup=__strimzi-topic-operator-kstreams},1650559301,0
{consumergroup=__strimzi-topic-operator-kstreams},1650559306,0
{consumergroup=__strimzi-topic-operator-kstreams},1650559311,0
{consumergroup=__strimzi-topic-operator-kstreams},1650559316,0
{consumergroup=__strimzi-topic-operator-kstreams},1650559321,0
{consumergroup=__strimzi-topic-operator-kstreams},1650559326,0
{consumergroup=__strimzi-topic-operator-kstreams},1650559331,0
{consumergroup=__strimzi-topic-operator-kstreams},1650559336,0
{consumergroup=__strimzi-topic-operator-kstreams},1650559341,0
{consumergroup=__strimzi-topic-operator-kstreams},1650559346,0
{consumergroup=__strimzi-topic-operator-kstreams},1650559351,0
{consumergroup=__strimzi-topic-operator-kstreams},1650559356,0
{consumergroup=__strimzi-topic-operator-kstreams},1650559361,0
{consumergroup=__strimzi-topic-operator-kstreams},1650559366,0
{consumergroup=__strimzi-topic-operator-kstreams},1650559371,0
{consumergroup=__strimzi-topic-operator-kstreams},1650559376,0
{consumergroup=__strimzi-topic-operator-kstreams},1650559381,0
{consumergroup=__strimzi-topic-operator-kstreams},1650559386,0
{consumergroup=__strimzi-topic-operator-kstreams},1650559391,0
{consumergroup=__strimzi-topic-operator-kstreams},1650559396,0
{consumergroup=__strimzi-topic-operator-kstreams},1650559401,0
{consumergroup=__strimzi-topic-operator-kstreams},1650559406,0
{consumergroup=__strimzi-topic-operator-kstreams},1650559411,0
{consumergroup=__strimzi-topic-operator-kstreams},1650559416,0
{consumergroup=__strimzi-topic-operator-kstreams},1650559421,0
{consumergroup=__strimzi-topic-operator-kstreams},1650559426,0
{consumergroup=__strimzi-topic-operator-kstreams},1650559431,0
{consumergroup=__strimzi-topic-operator-kstreams},1650559436,0
{consumergroup=__strimzi-topic-operator-kstreams},1650559441,0
{consumergroup=__strimzi-topic-operator-kstreams},1650559446,0
{consumergroup=__strimzi-topic-operator-kstreams},1650559451,0
{consumergroup=__strimzi-topic-operator-kstreams},1650559456,0
{consumergroup=__strimzi-topic-operator-kstreams},1650559461,0
{consumergroup=__strimzi-topic-operator-kstreams},1650559466,0
{consumergroup=__strimzi-topic-operator-kstreams},1650559471,0
{consumergroup=__strimzi-topic-operator-kstreams},1650559476,0
{consumergroup=__strimzi-topic-operator-kstreams},1650559481,0
{consumergroup=__strimzi-topic-operator-kstreams},1650559486,0
{consumergroup=__strimzi-topic-operator-kstreams},1650559491,0
{consumergroup=__strimzi-topic-operator-kstreams},1650559496,0
{consumergroup=__strimzi-topic-operator-kstreams},1650559501,0
{consumergroup=__strimzi-topic-operator-kstreams},1650559506,0
{consumergroup=__strimzi-topic-operator-kstreams},1650559511,0
{consumergroup=__strimzi-topic-operator-kstreams},1650559516,0
{consumergroup=__strimzi-topic-operator-kstreams},1650559521,0
{consumergroup=__strimzi-topic-operator-kstreams},1650559526,0
{consumergroup=__strimzi-topic-operator-kstreams},1650559531,0
{consumergroup=__strimzi-topic-operator-kstreams},1650559536,0
{consumergroup=__strimzi-topic-operator-kstreams},1650559541,0
{consumergroup=__strimzi-topic-operator-kstreams},1650559546,0
{consumergroup=__strimzi-topic-operator-kstreams},1650559551,0
{consumergroup=__strimzi-topic-operator-kstreams},1650559556,0
{consumergroup=__strimzi-topic-operator-kstreams},1650559561,0
{consumergroup=__strimzi-topic-operator-kstreams},1650559566,0
{consumergroup=__strimzi-topic-operator-kstreams},1650559571,0
{consumergroup=__strimzi-topic-operator-kstreams},1650559576,0
{consumergroup=__strimzi-topic-operator-kstreams},1650559581,0
{consumergroup=__strimzi-topic-operator-kstreams},1650559586,0
{consumergroup=__strimzi-topic-operator-kstreams},1650559591,0
{consumergroup=__strimzi-topic-operator-kstreams},1650559596,0
{consumergroup=__strimzi-topic-operator-kstreams},1650559601,0
