labels,timestamp,value
{consumergroup=__strimzi-topic-operator-kstreams},1650540471,11
{consumergroup=__strimzi-topic-operator-kstreams},1650540476,11
{consumergroup=__strimzi-topic-operator-kstreams},1650540481,11
{consumergroup=__strimzi-topic-operator-kstreams},1650540486,3
{consumergroup=__strimzi-topic-operator-kstreams},1650540491,3
{consumergroup=__strimzi-topic-operator-kstreams},1650540496,3
{consumergroup=__strimzi-topic-operator-kstreams},1650540501,3
{consumergroup=__strimzi-topic-operator-kstreams},1650540506,3
{consumergroup=__strimzi-topic-operator-kstreams},1650540511,3
{consumergroup=__strimzi-topic-operator-kstreams},1650540516,0
{consumergroup=__strimzi-topic-operator-kstreams},1650540521,0
{consumergroup=__strimzi-topic-operator-kstreams},1650540526,0
{consumergroup=__strimzi-topic-operator-kstreams},1650540531,0
{consumergroup=__strimzi-topic-operator-kstreams},1650540536,0
{consumergroup=__strimzi-topic-operator-kstreams},1650540541,0
{consumergroup=__strimzi-topic-operator-kstreams},1650540546,0
{consumergroup=__strimzi-topic-operator-kstreams},1650540551,0
{consumergroup=__strimzi-topic-operator-kstreams},1650540556,0
{consumergroup=__strimzi-topic-operator-kstreams},1650540561,0
{consumergroup=__strimzi-topic-operator-kstreams},1650540566,0
{consumergroup=__strimzi-topic-operator-kstreams},1650540571,0
{consumergroup=__strimzi-topic-operator-kstreams},1650540576,0
{consumergroup=__strimzi-topic-operator-kstreams},1650540581,0
{consumergroup=__strimzi-topic-operator-kstreams},1650540586,0
{consumergroup=__strimzi-topic-operator-kstreams},1650540591,0
{consumergroup=__strimzi-topic-operator-kstreams},1650540596,0
{consumergroup=__strimzi-topic-operator-kstreams},1650540601,0
{consumergroup=__strimzi-topic-operator-kstreams},1650540606,0
{consumergroup=__strimzi-topic-operator-kstreams},1650540611,0
{consumergroup=__strimzi-topic-operator-kstreams},1650540616,0
{consumergroup=__strimzi-topic-operator-kstreams},1650540621,0
{consumergroup=__strimzi-topic-operator-kstreams},1650540626,0
{consumergroup=__strimzi-topic-operator-kstreams},1650540631,0
{consumergroup=__strimzi-topic-operator-kstreams},1650540636,0
{consumergroup=__strimzi-topic-operator-kstreams},1650540641,0
{consumergroup=__strimzi-topic-operator-kstreams},1650540646,0
{consumergroup=__strimzi-topic-operator-kstreams},1650540651,0
{consumergroup=__strimzi-topic-operator-kstreams},1650540656,0
{consumergroup=__strimzi-topic-operator-kstreams},1650540661,0
{consumergroup=__strimzi-topic-operator-kstreams},1650540666,0
{consumergroup=__strimzi-topic-operator-kstreams},1650540671,0
{consumergroup=__strimzi-topic-operator-kstreams},1650540676,0
{consumergroup=__strimzi-topic-operator-kstreams},1650540681,0
{consumergroup=__strimzi-topic-operator-kstreams},1650540686,0
{consumergroup=__strimzi-topic-operator-kstreams},1650540691,0
{consumergroup=__strimzi-topic-operator-kstreams},1650540696,0
{consumergroup=__strimzi-topic-operator-kstreams},1650540701,0
{consumergroup=__strimzi-topic-operator-kstreams},1650540706,0
{consumergroup=__strimzi-topic-operator-kstreams},1650540711,0
{consumergroup=__strimzi-topic-operator-kstreams},1650540716,0
{consumergroup=__strimzi-topic-operator-kstreams},1650540721,0
{consumergroup=__strimzi-topic-operator-kstreams},1650540726,0
{consumergroup=__strimzi-topic-operator-kstreams},1650540731,0
{consumergroup=__strimzi-topic-operator-kstreams},1650540736,0
{consumergroup=__strimzi-topic-operator-kstreams},1650540741,0
{consumergroup=__strimzi-topic-operator-kstreams},1650540746,0
{consumergroup=__strimzi-topic-operator-kstreams},1650540751,0
{consumergroup=__strimzi-topic-operator-kstreams},1650540756,0
{consumergroup=__strimzi-topic-operator-kstreams},1650540761,0
{consumergroup=__strimzi-topic-operator-kstreams},1650540766,0
{consumergroup=__strimzi-topic-operator-kstreams},1650540771,0
{consumergroup=__strimzi-topic-operator-kstreams},1650540776,0
{consumergroup=__strimzi-topic-operator-kstreams},1650540781,0
{consumergroup=__strimzi-topic-operator-kstreams},1650540786,0
{consumergroup=__strimzi-topic-operator-kstreams},1650540791,0
{consumergroup=__strimzi-topic-operator-kstreams},1650540796,0
{consumergroup=__strimzi-topic-operator-kstreams},1650540801,0
{consumergroup=__strimzi-topic-operator-kstreams},1650540806,0
{consumergroup=__strimzi-topic-operator-kstreams},1650540811,0
{consumergroup=__strimzi-topic-operator-kstreams},1650540816,0
{consumergroup=__strimzi-topic-operator-kstreams},1650540821,0
{consumergroup=__strimzi-topic-operator-kstreams},1650540826,0
{consumergroup=__strimzi-topic-operator-kstreams},1650540831,0
{consumergroup=__strimzi-topic-operator-kstreams},1650540836,0
{consumergroup=__strimzi-topic-operator-kstreams},1650540841,0
{consumergroup=__strimzi-topic-operator-kstreams},1650540846,0
{consumergroup=__strimzi-topic-operator-kstreams},1650540851,0
{consumergroup=__strimzi-topic-operator-kstreams},1650540856,0
{consumergroup=__strimzi-topic-operator-kstreams},1650540861,0
{consumergroup=__strimzi-topic-operator-kstreams},1650540866,0
{consumergroup=__strimzi-topic-operator-kstreams},1650540871,0
{consumergroup=__strimzi-topic-operator-kstreams},1650540876,0
{consumergroup=__strimzi-topic-operator-kstreams},1650540881,0
{consumergroup=__strimzi-topic-operator-kstreams},1650540886,0
{consumergroup=__strimzi-topic-operator-kstreams},1650540891,0
{consumergroup=__strimzi-topic-operator-kstreams},1650540896,0
{consumergroup=__strimzi-topic-operator-kstreams},1650540901,0
{consumergroup=__strimzi-topic-operator-kstreams},1650540906,0
{consumergroup=__strimzi-topic-operator-kstreams},1650540911,0
{consumergroup=__strimzi-topic-operator-kstreams},1650540916,0
{consumergroup=__strimzi-topic-operator-kstreams},1650540921,0
{consumergroup=__strimzi-topic-operator-kstreams},1650540926,0
{consumergroup=__strimzi-topic-operator-kstreams},1650540931,0
{consumergroup=__strimzi-topic-operator-kstreams},1650540936,0
{consumergroup=__strimzi-topic-operator-kstreams},1650540941,0
{consumergroup=__strimzi-topic-operator-kstreams},1650540946,0
{consumergroup=__strimzi-topic-operator-kstreams},1650540951,0
{consumergroup=__strimzi-topic-operator-kstreams},1650540956,0
{consumergroup=__strimzi-topic-operator-kstreams},1650540961,0
