labels,timestamp,value
{consumergroup=__strimzi-topic-operator-kstreams},1650565953,0
{consumergroup=__strimzi-topic-operator-kstreams},1650565958,0
{consumergroup=__strimzi-topic-operator-kstreams},1650565963,0
{consumergroup=__strimzi-topic-operator-kstreams},1650565968,2
{consumergroup=__strimzi-topic-operator-kstreams},1650565973,2
{consumergroup=__strimzi-topic-operator-kstreams},1650565978,2
{consumergroup=__strimzi-topic-operator-kstreams},1650565983,0
{consumergroup=__strimzi-topic-operator-kstreams},1650565988,0
{consumergroup=__strimzi-topic-operator-kstreams},1650565993,0
{consumergroup=__strimzi-topic-operator-kstreams},1650565998,0
{consumergroup=__strimzi-topic-operator-kstreams},1650566003,0
{consumergroup=__strimzi-topic-operator-kstreams},1650566008,0
{consumergroup=__strimzi-topic-operator-kstreams},1650566013,0
{consumergroup=__strimzi-topic-operator-kstreams},1650566018,0
{consumergroup=__strimzi-topic-operator-kstreams},1650566023,0
{consumergroup=__strimzi-topic-operator-kstreams},1650566028,1
{consumergroup=__strimzi-topic-operator-kstreams},1650566033,1
{consumergroup=__strimzi-topic-operator-kstreams},1650566038,1
{consumergroup=__strimzi-topic-operator-kstreams},1650566043,0
{consumergroup=__strimzi-topic-operator-kstreams},1650566048,0
{consumergroup=__strimzi-topic-operator-kstreams},1650566053,0
{consumergroup=__strimzi-topic-operator-kstreams},1650566058,0
{consumergroup=__strimzi-topic-operator-kstreams},1650566063,0
{consumergroup=__strimzi-topic-operator-kstreams},1650566068,0
{consumergroup=__strimzi-topic-operator-kstreams},1650566073,0
{consumergroup=__strimzi-topic-operator-kstreams},1650566078,0
{consumergroup=__strimzi-topic-operator-kstreams},1650566083,0
{consumergroup=__strimzi-topic-operator-kstreams},1650566088,0
{consumergroup=__strimzi-topic-operator-kstreams},1650566093,0
{consumergroup=__strimzi-topic-operator-kstreams},1650566098,0
{consumergroup=__strimzi-topic-operator-kstreams},1650566103,0
{consumergroup=__strimzi-topic-operator-kstreams},1650566108,0
{consumergroup=__strimzi-topic-operator-kstreams},1650566113,0
{consumergroup=__strimzi-topic-operator-kstreams},1650566118,0
{consumergroup=__strimzi-topic-operator-kstreams},1650566123,0
{consumergroup=__strimzi-topic-operator-kstreams},1650566128,0
{consumergroup=__strimzi-topic-operator-kstreams},1650566133,0
{consumergroup=__strimzi-topic-operator-kstreams},1650566138,0
{consumergroup=__strimzi-topic-operator-kstreams},1650566143,0
{consumergroup=__strimzi-topic-operator-kstreams},1650566148,0
{consumergroup=__strimzi-topic-operator-kstreams},1650566153,0
{consumergroup=__strimzi-topic-operator-kstreams},1650566158,0
{consumergroup=__strimzi-topic-operator-kstreams},1650566163,0
{consumergroup=__strimzi-topic-operator-kstreams},1650566168,0
{consumergroup=__strimzi-topic-operator-kstreams},1650566173,0
{consumergroup=__strimzi-topic-operator-kstreams},1650566178,0
{consumergroup=__strimzi-topic-operator-kstreams},1650566183,0
{consumergroup=__strimzi-topic-operator-kstreams},1650566188,0
{consumergroup=__strimzi-topic-operator-kstreams},1650566193,0
{consumergroup=__strimzi-topic-operator-kstreams},1650566198,0
{consumergroup=__strimzi-topic-operator-kstreams},1650566203,0
{consumergroup=__strimzi-topic-operator-kstreams},1650566208,0
{consumergroup=__strimzi-topic-operator-kstreams},1650566213,0
{consumergroup=__strimzi-topic-operator-kstreams},1650566218,0
{consumergroup=__strimzi-topic-operator-kstreams},1650566223,0
{consumergroup=__strimzi-topic-operator-kstreams},1650566228,0
{consumergroup=__strimzi-topic-operator-kstreams},1650566233,0
{consumergroup=__strimzi-topic-operator-kstreams},1650566238,0
{consumergroup=__strimzi-topic-operator-kstreams},1650566243,0
{consumergroup=__strimzi-topic-operator-kstreams},1650566248,0
{consumergroup=__strimzi-topic-operator-kstreams},1650566253,0
{consumergroup=__strimzi-topic-operator-kstreams},1650566258,0
{consumergroup=__strimzi-topic-operator-kstreams},1650566263,0
{consumergroup=__strimzi-topic-operator-kstreams},1650566268,0
{consumergroup=__strimzi-topic-operator-kstreams},1650566273,0
{consumergroup=__strimzi-topic-operator-kstreams},1650566278,0
{consumergroup=__strimzi-topic-operator-kstreams},1650566283,0
{consumergroup=__strimzi-topic-operator-kstreams},1650566288,0
{consumergroup=__strimzi-topic-operator-kstreams},1650566293,0
{consumergroup=__strimzi-topic-operator-kstreams},1650566298,0
{consumergroup=__strimzi-topic-operator-kstreams},1650566303,0
{consumergroup=__strimzi-topic-operator-kstreams},1650566308,0
{consumergroup=__strimzi-topic-operator-kstreams},1650566313,0
{consumergroup=__strimzi-topic-operator-kstreams},1650566318,0
{consumergroup=__strimzi-topic-operator-kstreams},1650566323,0
{consumergroup=__strimzi-topic-operator-kstreams},1650566328,0
{consumergroup=__strimzi-topic-operator-kstreams},1650566333,0
{consumergroup=__strimzi-topic-operator-kstreams},1650566338,0
{consumergroup=__strimzi-topic-operator-kstreams},1650566343,0
{consumergroup=__strimzi-topic-operator-kstreams},1650566348,0
{consumergroup=__strimzi-topic-operator-kstreams},1650566353,0
{consumergroup=__strimzi-topic-operator-kstreams},1650566358,0
{consumergroup=__strimzi-topic-operator-kstreams},1650566363,0
{consumergroup=__strimzi-topic-operator-kstreams},1650566368,0
{consumergroup=__strimzi-topic-operator-kstreams},1650566373,0
{consumergroup=__strimzi-topic-operator-kstreams},1650566378,0
{consumergroup=__strimzi-topic-operator-kstreams},1650566383,0
{consumergroup=__strimzi-topic-operator-kstreams},1650566388,0
{consumergroup=__strimzi-topic-operator-kstreams},1650566393,0
{consumergroup=__strimzi-topic-operator-kstreams},1650566398,0
{consumergroup=__strimzi-topic-operator-kstreams},1650566403,0
{consumergroup=__strimzi-topic-operator-kstreams},1650566408,0
{consumergroup=__strimzi-topic-operator-kstreams},1650566413,0
{consumergroup=__strimzi-topic-operator-kstreams},1650566418,0
{consumergroup=__strimzi-topic-operator-kstreams},1650566423,0
{consumergroup=__strimzi-topic-operator-kstreams},1650566428,0
{consumergroup=__strimzi-topic-operator-kstreams},1650566433,0
{consumergroup=__strimzi-topic-operator-kstreams},1650566438,0
{consumergroup=__strimzi-topic-operator-kstreams},1650566443,0
