labels,timestamp,value
{consumergroup=__strimzi-topic-operator-kstreams},1650555126,0
{consumergroup=__strimzi-topic-operator-kstreams},1650555131,0
{consumergroup=__strimzi-topic-operator-kstreams},1650555136,0
{consumergroup=__strimzi-topic-operator-kstreams},1650555141,8
{consumergroup=__strimzi-topic-operator-kstreams},1650555146,8
{consumergroup=__strimzi-topic-operator-kstreams},1650555151,8
{consumergroup=__strimzi-topic-operator-kstreams},1650555156,0
{consumergroup=__strimzi-topic-operator-kstreams},1650555161,0
{consumergroup=__strimzi-topic-operator-kstreams},1650555166,0
{consumergroup=__strimzi-topic-operator-kstreams},1650555171,0
{consumergroup=__strimzi-topic-operator-kstreams},1650555176,0
{consumergroup=__strimzi-topic-operator-kstreams},1650555181,0
{consumergroup=__strimzi-topic-operator-kstreams},1650555186,0
{consumergroup=__strimzi-topic-operator-kstreams},1650555191,0
{consumergroup=__strimzi-topic-operator-kstreams},1650555196,0
{consumergroup=__strimzi-topic-operator-kstreams},1650555201,0
{consumergroup=__strimzi-topic-operator-kstreams},1650555206,0
{consumergroup=__strimzi-topic-operator-kstreams},1650555211,0
{consumergroup=__strimzi-topic-operator-kstreams},1650555216,0
{consumergroup=__strimzi-topic-operator-kstreams},1650555221,0
{consumergroup=__strimzi-topic-operator-kstreams},1650555226,0
{consumergroup=__strimzi-topic-operator-kstreams},1650555231,0
{consumergroup=__strimzi-topic-operator-kstreams},1650555236,0
{consumergroup=__strimzi-topic-operator-kstreams},1650555241,0
{consumergroup=__strimzi-topic-operator-kstreams},1650555246,0
{consumergroup=__strimzi-topic-operator-kstreams},1650555251,0
{consumergroup=__strimzi-topic-operator-kstreams},1650555256,0
{consumergroup=__strimzi-topic-operator-kstreams},1650555261,0
{consumergroup=__strimzi-topic-operator-kstreams},1650555266,0
{consumergroup=__strimzi-topic-operator-kstreams},1650555271,0
{consumergroup=__strimzi-topic-operator-kstreams},1650555276,0
{consumergroup=__strimzi-topic-operator-kstreams},1650555281,0
{consumergroup=__strimzi-topic-operator-kstreams},1650555286,0
{consumergroup=__strimzi-topic-operator-kstreams},1650555291,0
{consumergroup=__strimzi-topic-operator-kstreams},1650555296,0
{consumergroup=__strimzi-topic-operator-kstreams},1650555301,0
{consumergroup=__strimzi-topic-operator-kstreams},1650555306,0
{consumergroup=__strimzi-topic-operator-kstreams},1650555311,0
{consumergroup=__strimzi-topic-operator-kstreams},1650555316,0
{consumergroup=__strimzi-topic-operator-kstreams},1650555321,0
{consumergroup=__strimzi-topic-operator-kstreams},1650555326,0
{consumergroup=__strimzi-topic-operator-kstreams},1650555331,0
{consumergroup=__strimzi-topic-operator-kstreams},1650555336,0
{consumergroup=__strimzi-topic-operator-kstreams},1650555341,0
{consumergroup=__strimzi-topic-operator-kstreams},1650555346,0
{consumergroup=__strimzi-topic-operator-kstreams},1650555351,0
{consumergroup=__strimzi-topic-operator-kstreams},1650555356,0
{consumergroup=__strimzi-topic-operator-kstreams},1650555361,0
{consumergroup=__strimzi-topic-operator-kstreams},1650555366,0
{consumergroup=__strimzi-topic-operator-kstreams},1650555371,0
{consumergroup=__strimzi-topic-operator-kstreams},1650555376,0
{consumergroup=__strimzi-topic-operator-kstreams},1650555381,0
{consumergroup=__strimzi-topic-operator-kstreams},1650555386,0
{consumergroup=__strimzi-topic-operator-kstreams},1650555391,0
{consumergroup=__strimzi-topic-operator-kstreams},1650555396,0
{consumergroup=__strimzi-topic-operator-kstreams},1650555401,0
{consumergroup=__strimzi-topic-operator-kstreams},1650555406,0
{consumergroup=__strimzi-topic-operator-kstreams},1650555411,0
{consumergroup=__strimzi-topic-operator-kstreams},1650555416,0
{consumergroup=__strimzi-topic-operator-kstreams},1650555421,0
{consumergroup=__strimzi-topic-operator-kstreams},1650555426,0
{consumergroup=__strimzi-topic-operator-kstreams},1650555431,0
{consumergroup=__strimzi-topic-operator-kstreams},1650555436,0
{consumergroup=__strimzi-topic-operator-kstreams},1650555441,0
{consumergroup=__strimzi-topic-operator-kstreams},1650555446,0
{consumergroup=__strimzi-topic-operator-kstreams},1650555451,0
{consumergroup=__strimzi-topic-operator-kstreams},1650555456,0
{consumergroup=__strimzi-topic-operator-kstreams},1650555461,0
{consumergroup=__strimzi-topic-operator-kstreams},1650555466,0
{consumergroup=__strimzi-topic-operator-kstreams},1650555471,0
{consumergroup=__strimzi-topic-operator-kstreams},1650555476,0
{consumergroup=__strimzi-topic-operator-kstreams},1650555481,0
{consumergroup=__strimzi-topic-operator-kstreams},1650555486,0
{consumergroup=__strimzi-topic-operator-kstreams},1650555491,0
{consumergroup=__strimzi-topic-operator-kstreams},1650555496,0
{consumergroup=__strimzi-topic-operator-kstreams},1650555501,0
{consumergroup=__strimzi-topic-operator-kstreams},1650555506,0
{consumergroup=__strimzi-topic-operator-kstreams},1650555511,0
{consumergroup=__strimzi-topic-operator-kstreams},1650555516,0
{consumergroup=__strimzi-topic-operator-kstreams},1650555521,0
{consumergroup=__strimzi-topic-operator-kstreams},1650555526,0
{consumergroup=__strimzi-topic-operator-kstreams},1650555531,0
{consumergroup=__strimzi-topic-operator-kstreams},1650555536,0
{consumergroup=__strimzi-topic-operator-kstreams},1650555541,0
{consumergroup=__strimzi-topic-operator-kstreams},1650555546,0
{consumergroup=__strimzi-topic-operator-kstreams},1650555551,0
{consumergroup=__strimzi-topic-operator-kstreams},1650555556,0
{consumergroup=__strimzi-topic-operator-kstreams},1650555561,0
{consumergroup=__strimzi-topic-operator-kstreams},1650555566,0
{consumergroup=__strimzi-topic-operator-kstreams},1650555571,0
{consumergroup=__strimzi-topic-operator-kstreams},1650555576,0
{consumergroup=__strimzi-topic-operator-kstreams},1650555581,0
{consumergroup=__strimzi-topic-operator-kstreams},1650555586,0
{consumergroup=__strimzi-topic-operator-kstreams},1650555591,0
{consumergroup=__strimzi-topic-operator-kstreams},1650555596,0
{consumergroup=__strimzi-topic-operator-kstreams},1650555601,0
{consumergroup=__strimzi-topic-operator-kstreams},1650555606,0
{consumergroup=__strimzi-topic-operator-kstreams},1650555611,0
{consumergroup=__strimzi-topic-operator-kstreams},1650555616,0
{consumergroup=__strimzi-topic-operator-kstreams},1650555621,0
{consumergroup=__strimzi-topic-operator-kstreams},1650555626,0
