labels,timestamp,value
{consumergroup=__strimzi-topic-operator-kstreams},1648485275,14
{consumergroup=__strimzi-topic-operator-kstreams},1648485280,14
{consumergroup=__strimzi-topic-operator-kstreams},1648485285,14
{consumergroup=__strimzi-topic-operator-kstreams},1648485290,0
{consumergroup=__strimzi-topic-operator-kstreams},1648485295,0
{consumergroup=__strimzi-topic-operator-kstreams},1648485300,0
{consumergroup=__strimzi-topic-operator-kstreams},1648485305,0
{consumergroup=__strimzi-topic-operator-kstreams},1648485310,0
{consumergroup=__strimzi-topic-operator-kstreams},1648485315,0
{consumergroup=__strimzi-topic-operator-kstreams},1648485320,0
{consumergroup=__strimzi-topic-operator-kstreams},1648485325,0
{consumergroup=__strimzi-topic-operator-kstreams},1648485330,0
{consumergroup=__strimzi-topic-operator-kstreams},1648485335,0
{consumergroup=__strimzi-topic-operator-kstreams},1648485340,0
{consumergroup=__strimzi-topic-operator-kstreams},1648485345,0
{consumergroup=__strimzi-topic-operator-kstreams},1648485350,0
{consumergroup=__strimzi-topic-operator-kstreams},1648485355,0
{consumergroup=__strimzi-topic-operator-kstreams},1648485360,0
{consumergroup=__strimzi-topic-operator-kstreams},1648485365,0
{consumergroup=__strimzi-topic-operator-kstreams},1648485370,0
{consumergroup=__strimzi-topic-operator-kstreams},1648485375,0
{consumergroup=__strimzi-topic-operator-kstreams},1648485380,0
{consumergroup=__strimzi-topic-operator-kstreams},1648485385,0
{consumergroup=__strimzi-topic-operator-kstreams},1648485390,0
{consumergroup=__strimzi-topic-operator-kstreams},1648485395,0
{consumergroup=__strimzi-topic-operator-kstreams},1648485400,0
{consumergroup=__strimzi-topic-operator-kstreams},1648485405,0
{consumergroup=__strimzi-topic-operator-kstreams},1648485410,0
{consumergroup=__strimzi-topic-operator-kstreams},1648485415,0
{consumergroup=__strimzi-topic-operator-kstreams},1648485420,0
{consumergroup=__strimzi-topic-operator-kstreams},1648485425,0
{consumergroup=__strimzi-topic-operator-kstreams},1648485430,0
{consumergroup=__strimzi-topic-operator-kstreams},1648485435,0
{consumergroup=__strimzi-topic-operator-kstreams},1648485440,0
{consumergroup=__strimzi-topic-operator-kstreams},1648485445,0
{consumergroup=__strimzi-topic-operator-kstreams},1648485450,0
{consumergroup=__strimzi-topic-operator-kstreams},1648485455,0
{consumergroup=__strimzi-topic-operator-kstreams},1648485460,0
{consumergroup=__strimzi-topic-operator-kstreams},1648485465,0
{consumergroup=__strimzi-topic-operator-kstreams},1648485470,0
{consumergroup=__strimzi-topic-operator-kstreams},1648485475,0
{consumergroup=__strimzi-topic-operator-kstreams},1648485480,0
{consumergroup=__strimzi-topic-operator-kstreams},1648485485,0
{consumergroup=__strimzi-topic-operator-kstreams},1648485490,0
{consumergroup=__strimzi-topic-operator-kstreams},1648485495,0
{consumergroup=__strimzi-topic-operator-kstreams},1648485500,0
{consumergroup=__strimzi-topic-operator-kstreams},1648485505,0
{consumergroup=__strimzi-topic-operator-kstreams},1648485510,0
{consumergroup=__strimzi-topic-operator-kstreams},1648485515,0
{consumergroup=__strimzi-topic-operator-kstreams},1648485520,0
{consumergroup=__strimzi-topic-operator-kstreams},1648485525,0
{consumergroup=__strimzi-topic-operator-kstreams},1648485530,0
{consumergroup=__strimzi-topic-operator-kstreams},1648485535,0
{consumergroup=__strimzi-topic-operator-kstreams},1648485540,0
{consumergroup=__strimzi-topic-operator-kstreams},1648485545,0
{consumergroup=__strimzi-topic-operator-kstreams},1648485550,0
{consumergroup=__strimzi-topic-operator-kstreams},1648485555,0
{consumergroup=__strimzi-topic-operator-kstreams},1648485560,0
{consumergroup=__strimzi-topic-operator-kstreams},1648485565,0
{consumergroup=__strimzi-topic-operator-kstreams},1648485570,0
{consumergroup=__strimzi-topic-operator-kstreams},1648485575,0
{consumergroup=__strimzi-topic-operator-kstreams},1648485580,0
{consumergroup=__strimzi-topic-operator-kstreams},1648485585,0
{consumergroup=__strimzi-topic-operator-kstreams},1648485590,0
{consumergroup=__strimzi-topic-operator-kstreams},1648485595,0
{consumergroup=__strimzi-topic-operator-kstreams},1648485600,0
{consumergroup=__strimzi-topic-operator-kstreams},1648485605,0
{consumergroup=__strimzi-topic-operator-kstreams},1648485610,0
{consumergroup=__strimzi-topic-operator-kstreams},1648485615,0
{consumergroup=__strimzi-topic-operator-kstreams},1648485620,0
{consumergroup=__strimzi-topic-operator-kstreams},1648485625,0
{consumergroup=__strimzi-topic-operator-kstreams},1648485630,0
{consumergroup=__strimzi-topic-operator-kstreams},1648485635,0
{consumergroup=__strimzi-topic-operator-kstreams},1648485640,0
{consumergroup=__strimzi-topic-operator-kstreams},1648485645,0
{consumergroup=__strimzi-topic-operator-kstreams},1648485650,0
{consumergroup=__strimzi-topic-operator-kstreams},1648485655,0
{consumergroup=__strimzi-topic-operator-kstreams},1648485660,0
{consumergroup=__strimzi-topic-operator-kstreams},1648485665,0
{consumergroup=__strimzi-topic-operator-kstreams},1648485670,0
{consumergroup=__strimzi-topic-operator-kstreams},1648485675,0
{consumergroup=__strimzi-topic-operator-kstreams},1648485680,0
{consumergroup=__strimzi-topic-operator-kstreams},1648485685,0
{consumergroup=__strimzi-topic-operator-kstreams},1648485690,0
{consumergroup=__strimzi-topic-operator-kstreams},1648485695,0
{consumergroup=__strimzi-topic-operator-kstreams},1648485700,0
{consumergroup=__strimzi-topic-operator-kstreams},1648485705,0
{consumergroup=__strimzi-topic-operator-kstreams},1648485710,0
{consumergroup=__strimzi-topic-operator-kstreams},1648485715,0
{consumergroup=__strimzi-topic-operator-kstreams},1648485720,0
{consumergroup=__strimzi-topic-operator-kstreams},1648485725,0
{consumergroup=__strimzi-topic-operator-kstreams},1648485730,0
{consumergroup=__strimzi-topic-operator-kstreams},1648485735,0
{consumergroup=__strimzi-topic-operator-kstreams},1648485740,0
{consumergroup=__strimzi-topic-operator-kstreams},1648485745,0
{consumergroup=__strimzi-topic-operator-kstreams},1648485750,0
{consumergroup=__strimzi-topic-operator-kstreams},1648485755,0
{consumergroup=__strimzi-topic-operator-kstreams},1648485760,0
{consumergroup=__strimzi-topic-operator-kstreams},1648485765,0
{consumergroup=__strimzi-topic-operator-kstreams},1648485770,0
