labels,timestamp,value
{consumergroup=__strimzi-topic-operator-kstreams},1648476629,9
{consumergroup=__strimzi-topic-operator-kstreams},1648476634,9
{consumergroup=__strimzi-topic-operator-kstreams},1648476639,9
{consumergroup=__strimzi-topic-operator-kstreams},1648476644,9
{consumergroup=__strimzi-topic-operator-kstreams},1648476649,9
{consumergroup=__strimzi-topic-operator-kstreams},1648476654,9
{consumergroup=__strimzi-topic-operator-kstreams},1648476659,0
{consumergroup=__strimzi-topic-operator-kstreams},1648476664,0
{consumergroup=__strimzi-topic-operator-kstreams},1648476669,0
{consumergroup=__strimzi-topic-operator-kstreams},1648476674,0
{consumergroup=__strimzi-topic-operator-kstreams},1648476679,0
{consumergroup=__strimzi-topic-operator-kstreams},1648476684,0
{consumergroup=__strimzi-topic-operator-kstreams},1648476689,1
{consumergroup=__strimzi-topic-operator-kstreams},1648476694,1
{consumergroup=__strimzi-topic-operator-kstreams},1648476699,1
{consumergroup=__strimzi-topic-operator-kstreams},1648476704,1
{consumergroup=__strimzi-topic-operator-kstreams},1648476709,1
{consumergroup=__strimzi-topic-operator-kstreams},1648476714,1
{consumergroup=__strimzi-topic-operator-kstreams},1648476719,0
{consumergroup=__strimzi-topic-operator-kstreams},1648476724,0
{consumergroup=__strimzi-topic-operator-kstreams},1648476729,0
{consumergroup=__strimzi-topic-operator-kstreams},1648476734,0
{consumergroup=__strimzi-topic-operator-kstreams},1648476739,0
{consumergroup=__strimzi-topic-operator-kstreams},1648476744,0
{consumergroup=__strimzi-topic-operator-kstreams},1648476749,0
{consumergroup=__strimzi-topic-operator-kstreams},1648476754,0
{consumergroup=__strimzi-topic-operator-kstreams},1648476759,0
{consumergroup=__strimzi-topic-operator-kstreams},1648476764,0
{consumergroup=__strimzi-topic-operator-kstreams},1648476769,0
{consumergroup=__strimzi-topic-operator-kstreams},1648476774,0
{consumergroup=__strimzi-topic-operator-kstreams},1648476779,0
{consumergroup=__strimzi-topic-operator-kstreams},1648476784,0
{consumergroup=__strimzi-topic-operator-kstreams},1648476789,0
{consumergroup=__strimzi-topic-operator-kstreams},1648476794,0
{consumergroup=__strimzi-topic-operator-kstreams},1648476799,0
{consumergroup=__strimzi-topic-operator-kstreams},1648476804,0
{consumergroup=__strimzi-topic-operator-kstreams},1648476809,0
{consumergroup=__strimzi-topic-operator-kstreams},1648476814,0
{consumergroup=__strimzi-topic-operator-kstreams},1648476819,0
{consumergroup=__strimzi-topic-operator-kstreams},1648476824,0
{consumergroup=__strimzi-topic-operator-kstreams},1648476829,0
{consumergroup=__strimzi-topic-operator-kstreams},1648476834,0
{consumergroup=__strimzi-topic-operator-kstreams},1648476839,0
{consumergroup=__strimzi-topic-operator-kstreams},1648476844,0
{consumergroup=__strimzi-topic-operator-kstreams},1648476849,0
{consumergroup=__strimzi-topic-operator-kstreams},1648476854,0
{consumergroup=__strimzi-topic-operator-kstreams},1648476859,0
{consumergroup=__strimzi-topic-operator-kstreams},1648476864,0
{consumergroup=__strimzi-topic-operator-kstreams},1648476869,0
{consumergroup=__strimzi-topic-operator-kstreams},1648476874,0
{consumergroup=__strimzi-topic-operator-kstreams},1648476879,0
{consumergroup=__strimzi-topic-operator-kstreams},1648476884,0
{consumergroup=__strimzi-topic-operator-kstreams},1648476889,0
{consumergroup=__strimzi-topic-operator-kstreams},1648476894,0
{consumergroup=__strimzi-topic-operator-kstreams},1648476899,0
{consumergroup=__strimzi-topic-operator-kstreams},1648476904,0
{consumergroup=__strimzi-topic-operator-kstreams},1648476909,0
{consumergroup=__strimzi-topic-operator-kstreams},1648476914,0
{consumergroup=__strimzi-topic-operator-kstreams},1648476919,0
{consumergroup=__strimzi-topic-operator-kstreams},1648476924,0
{consumergroup=__strimzi-topic-operator-kstreams},1648476929,0
{consumergroup=__strimzi-topic-operator-kstreams},1648476934,0
{consumergroup=__strimzi-topic-operator-kstreams},1648476939,0
{consumergroup=__strimzi-topic-operator-kstreams},1648476944,0
{consumergroup=__strimzi-topic-operator-kstreams},1648476949,0
{consumergroup=__strimzi-topic-operator-kstreams},1648476954,0
{consumergroup=__strimzi-topic-operator-kstreams},1648476959,0
{consumergroup=__strimzi-topic-operator-kstreams},1648476964,0
{consumergroup=__strimzi-topic-operator-kstreams},1648476969,0
{consumergroup=__strimzi-topic-operator-kstreams},1648476974,0
{consumergroup=__strimzi-topic-operator-kstreams},1648476979,0
{consumergroup=__strimzi-topic-operator-kstreams},1648476984,0
{consumergroup=__strimzi-topic-operator-kstreams},1648476989,0
{consumergroup=__strimzi-topic-operator-kstreams},1648476994,0
{consumergroup=__strimzi-topic-operator-kstreams},1648476999,0
{consumergroup=__strimzi-topic-operator-kstreams},1648477004,0
{consumergroup=__strimzi-topic-operator-kstreams},1648477009,0
{consumergroup=__strimzi-topic-operator-kstreams},1648477014,0
{consumergroup=__strimzi-topic-operator-kstreams},1648477019,0
{consumergroup=__strimzi-topic-operator-kstreams},1648477024,0
{consumergroup=__strimzi-topic-operator-kstreams},1648477029,0
{consumergroup=__strimzi-topic-operator-kstreams},1648477034,0
{consumergroup=__strimzi-topic-operator-kstreams},1648477039,0
{consumergroup=__strimzi-topic-operator-kstreams},1648477044,0
{consumergroup=__strimzi-topic-operator-kstreams},1648477049,0
{consumergroup=__strimzi-topic-operator-kstreams},1648477054,0
{consumergroup=__strimzi-topic-operator-kstreams},1648477059,0
{consumergroup=__strimzi-topic-operator-kstreams},1648477064,0
{consumergroup=__strimzi-topic-operator-kstreams},1648477069,0
{consumergroup=__strimzi-topic-operator-kstreams},1648477074,0
{consumergroup=__strimzi-topic-operator-kstreams},1648477079,0
{consumergroup=__strimzi-topic-operator-kstreams},1648477084,0
{consumergroup=__strimzi-topic-operator-kstreams},1648477089,0
{consumergroup=__strimzi-topic-operator-kstreams},1648477094,0
{consumergroup=__strimzi-topic-operator-kstreams},1648477099,0
{consumergroup=__strimzi-topic-operator-kstreams},1648477104,0
{consumergroup=__strimzi-topic-operator-kstreams},1648477109,0
{consumergroup=__strimzi-topic-operator-kstreams},1648477114,0
{consumergroup=__strimzi-topic-operator-kstreams},1648477119,0
