labels,timestamp,value
{consumergroup=__strimzi-topic-operator-kstreams},1648490690,11
{consumergroup=__strimzi-topic-operator-kstreams},1648490695,11
{consumergroup=__strimzi-topic-operator-kstreams},1648490700,11
{consumergroup=__strimzi-topic-operator-kstreams},1648490705,0
{consumergroup=__strimzi-topic-operator-kstreams},1648490710,0
{consumergroup=__strimzi-topic-operator-kstreams},1648490715,0
{consumergroup=__strimzi-topic-operator-kstreams},1648490720,0
{consumergroup=__strimzi-topic-operator-kstreams},1648490725,0
{consumergroup=__strimzi-topic-operator-kstreams},1648490730,0
{consumergroup=__strimzi-topic-operator-kstreams},1648490735,0
{consumergroup=__strimzi-topic-operator-kstreams},1648490740,0
{consumergroup=__strimzi-topic-operator-kstreams},1648490745,0
{consumergroup=__strimzi-topic-operator-kstreams},1648490750,1
{consumergroup=__strimzi-topic-operator-kstreams},1648490755,1
{consumergroup=__strimzi-topic-operator-kstreams},1648490760,1
{consumergroup=__strimzi-topic-operator-kstreams},1648490765,0
{consumergroup=__strimzi-topic-operator-kstreams},1648490770,0
{consumergroup=__strimzi-topic-operator-kstreams},1648490775,0
{consumergroup=__strimzi-topic-operator-kstreams},1648490780,0
{consumergroup=__strimzi-topic-operator-kstreams},1648490785,0
{consumergroup=__strimzi-topic-operator-kstreams},1648490790,0
{consumergroup=__strimzi-topic-operator-kstreams},1648490795,0
{consumergroup=__strimzi-topic-operator-kstreams},1648490800,0
{consumergroup=__strimzi-topic-operator-kstreams},1648490805,0
{consumergroup=__strimzi-topic-operator-kstreams},1648490810,0
{consumergroup=__strimzi-topic-operator-kstreams},1648490815,0
{consumergroup=__strimzi-topic-operator-kstreams},1648490820,0
{consumergroup=__strimzi-topic-operator-kstreams},1648490825,0
{consumergroup=__strimzi-topic-operator-kstreams},1648490830,0
{consumergroup=__strimzi-topic-operator-kstreams},1648490835,0
{consumergroup=__strimzi-topic-operator-kstreams},1648490840,0
{consumergroup=__strimzi-topic-operator-kstreams},1648490845,0
{consumergroup=__strimzi-topic-operator-kstreams},1648490850,0
{consumergroup=__strimzi-topic-operator-kstreams},1648490855,0
{consumergroup=__strimzi-topic-operator-kstreams},1648490860,0
{consumergroup=__strimzi-topic-operator-kstreams},1648490865,0
{consumergroup=__strimzi-topic-operator-kstreams},1648490870,0
{consumergroup=__strimzi-topic-operator-kstreams},1648490875,0
{consumergroup=__strimzi-topic-operator-kstreams},1648490880,0
{consumergroup=__strimzi-topic-operator-kstreams},1648490885,0
{consumergroup=__strimzi-topic-operator-kstreams},1648490890,0
{consumergroup=__strimzi-topic-operator-kstreams},1648490895,0
{consumergroup=__strimzi-topic-operator-kstreams},1648490900,0
{consumergroup=__strimzi-topic-operator-kstreams},1648490905,0
{consumergroup=__strimzi-topic-operator-kstreams},1648490910,0
{consumergroup=__strimzi-topic-operator-kstreams},1648490915,0
{consumergroup=__strimzi-topic-operator-kstreams},1648490920,0
{consumergroup=__strimzi-topic-operator-kstreams},1648490925,0
{consumergroup=__strimzi-topic-operator-kstreams},1648490930,0
{consumergroup=__strimzi-topic-operator-kstreams},1648490935,0
{consumergroup=__strimzi-topic-operator-kstreams},1648490940,0
{consumergroup=__strimzi-topic-operator-kstreams},1648490945,0
{consumergroup=__strimzi-topic-operator-kstreams},1648490950,0
{consumergroup=__strimzi-topic-operator-kstreams},1648490955,0
{consumergroup=__strimzi-topic-operator-kstreams},1648490960,0
{consumergroup=__strimzi-topic-operator-kstreams},1648490965,0
{consumergroup=__strimzi-topic-operator-kstreams},1648490970,0
{consumergroup=__strimzi-topic-operator-kstreams},1648490975,0
{consumergroup=__strimzi-topic-operator-kstreams},1648490980,0
{consumergroup=__strimzi-topic-operator-kstreams},1648490985,0
{consumergroup=__strimzi-topic-operator-kstreams},1648490990,0
{consumergroup=__strimzi-topic-operator-kstreams},1648490995,0
{consumergroup=__strimzi-topic-operator-kstreams},1648491000,0
{consumergroup=__strimzi-topic-operator-kstreams},1648491005,0
{consumergroup=__strimzi-topic-operator-kstreams},1648491010,0
{consumergroup=__strimzi-topic-operator-kstreams},1648491015,0
{consumergroup=__strimzi-topic-operator-kstreams},1648491020,0
{consumergroup=__strimzi-topic-operator-kstreams},1648491025,0
{consumergroup=__strimzi-topic-operator-kstreams},1648491030,0
{consumergroup=__strimzi-topic-operator-kstreams},1648491035,0
{consumergroup=__strimzi-topic-operator-kstreams},1648491040,0
{consumergroup=__strimzi-topic-operator-kstreams},1648491045,0
{consumergroup=__strimzi-topic-operator-kstreams},1648491050,0
{consumergroup=__strimzi-topic-operator-kstreams},1648491055,0
{consumergroup=__strimzi-topic-operator-kstreams},1648491060,0
{consumergroup=__strimzi-topic-operator-kstreams},1648491065,0
{consumergroup=__strimzi-topic-operator-kstreams},1648491070,0
{consumergroup=__strimzi-topic-operator-kstreams},1648491075,0
{consumergroup=__strimzi-topic-operator-kstreams},1648491080,0
{consumergroup=__strimzi-topic-operator-kstreams},1648491085,0
{consumergroup=__strimzi-topic-operator-kstreams},1648491090,0
{consumergroup=__strimzi-topic-operator-kstreams},1648491095,0
{consumergroup=__strimzi-topic-operator-kstreams},1648491100,0
{consumergroup=__strimzi-topic-operator-kstreams},1648491105,0
{consumergroup=__strimzi-topic-operator-kstreams},1648491110,0
{consumergroup=__strimzi-topic-operator-kstreams},1648491115,0
{consumergroup=__strimzi-topic-operator-kstreams},1648491120,0
{consumergroup=__strimzi-topic-operator-kstreams},1648491125,0
{consumergroup=__strimzi-topic-operator-kstreams},1648491130,0
{consumergroup=__strimzi-topic-operator-kstreams},1648491135,0
{consumergroup=__strimzi-topic-operator-kstreams},1648491140,0
{consumergroup=__strimzi-topic-operator-kstreams},1648491145,0
{consumergroup=__strimzi-topic-operator-kstreams},1648491150,0
{consumergroup=__strimzi-topic-operator-kstreams},1648491155,0
{consumergroup=__strimzi-topic-operator-kstreams},1648491160,0
{consumergroup=__strimzi-topic-operator-kstreams},1648491165,0
{consumergroup=__strimzi-topic-operator-kstreams},1648491170,0
{consumergroup=__strimzi-topic-operator-kstreams},1648491175,0
