labels,timestamp,value
{consumergroup=__strimzi-topic-operator-kstreams},1648482558,14
{consumergroup=__strimzi-topic-operator-kstreams},1648482563,14
{consumergroup=__strimzi-topic-operator-kstreams},1648482568,14
{consumergroup=__strimzi-topic-operator-kstreams},1648482573,0
{consumergroup=__strimzi-topic-operator-kstreams},1648482578,0
{consumergroup=__strimzi-topic-operator-kstreams},1648482583,0
{consumergroup=__strimzi-topic-operator-kstreams},1648482588,0
{consumergroup=__strimzi-topic-operator-kstreams},1648482593,0
{consumergroup=__strimzi-topic-operator-kstreams},1648482598,0
{consumergroup=__strimzi-topic-operator-kstreams},1648482603,0
{consumergroup=__strimzi-topic-operator-kstreams},1648482608,0
{consumergroup=__strimzi-topic-operator-kstreams},1648482613,0
{consumergroup=__strimzi-topic-operator-kstreams},1648482618,0
{consumergroup=__strimzi-topic-operator-kstreams},1648482623,0
{consumergroup=__strimzi-topic-operator-kstreams},1648482628,0
{consumergroup=__strimzi-topic-operator-kstreams},1648482633,0
{consumergroup=__strimzi-topic-operator-kstreams},1648482638,0
{consumergroup=__strimzi-topic-operator-kstreams},1648482643,0
{consumergroup=__strimzi-topic-operator-kstreams},1648482648,0
{consumergroup=__strimzi-topic-operator-kstreams},1648482653,0
{consumergroup=__strimzi-topic-operator-kstreams},1648482658,0
{consumergroup=__strimzi-topic-operator-kstreams},1648482663,0
{consumergroup=__strimzi-topic-operator-kstreams},1648482668,0
{consumergroup=__strimzi-topic-operator-kstreams},1648482673,0
{consumergroup=__strimzi-topic-operator-kstreams},1648482678,0
{consumergroup=__strimzi-topic-operator-kstreams},1648482683,0
{consumergroup=__strimzi-topic-operator-kstreams},1648482688,0
{consumergroup=__strimzi-topic-operator-kstreams},1648482693,0
{consumergroup=__strimzi-topic-operator-kstreams},1648482698,0
{consumergroup=__strimzi-topic-operator-kstreams},1648482703,0
{consumergroup=__strimzi-topic-operator-kstreams},1648482708,0
{consumergroup=__strimzi-topic-operator-kstreams},1648482713,0
{consumergroup=__strimzi-topic-operator-kstreams},1648482718,0
{consumergroup=__strimzi-topic-operator-kstreams},1648482723,0
{consumergroup=__strimzi-topic-operator-kstreams},1648482728,0
{consumergroup=__strimzi-topic-operator-kstreams},1648482733,0
{consumergroup=__strimzi-topic-operator-kstreams},1648482738,0
{consumergroup=__strimzi-topic-operator-kstreams},1648482743,0
{consumergroup=__strimzi-topic-operator-kstreams},1648482748,0
{consumergroup=__strimzi-topic-operator-kstreams},1648482753,0
{consumergroup=__strimzi-topic-operator-kstreams},1648482758,0
{consumergroup=__strimzi-topic-operator-kstreams},1648482763,0
{consumergroup=__strimzi-topic-operator-kstreams},1648482768,0
{consumergroup=__strimzi-topic-operator-kstreams},1648482773,0
{consumergroup=__strimzi-topic-operator-kstreams},1648482778,0
{consumergroup=__strimzi-topic-operator-kstreams},1648482783,0
{consumergroup=__strimzi-topic-operator-kstreams},1648482788,0
{consumergroup=__strimzi-topic-operator-kstreams},1648482793,0
{consumergroup=__strimzi-topic-operator-kstreams},1648482798,0
{consumergroup=__strimzi-topic-operator-kstreams},1648482803,0
{consumergroup=__strimzi-topic-operator-kstreams},1648482808,0
{consumergroup=__strimzi-topic-operator-kstreams},1648482813,0
{consumergroup=__strimzi-topic-operator-kstreams},1648482818,0
{consumergroup=__strimzi-topic-operator-kstreams},1648482823,0
{consumergroup=__strimzi-topic-operator-kstreams},1648482828,0
{consumergroup=__strimzi-topic-operator-kstreams},1648482833,0
{consumergroup=__strimzi-topic-operator-kstreams},1648482838,0
{consumergroup=__strimzi-topic-operator-kstreams},1648482843,0
{consumergroup=__strimzi-topic-operator-kstreams},1648482848,0
{consumergroup=__strimzi-topic-operator-kstreams},1648482853,0
{consumergroup=__strimzi-topic-operator-kstreams},1648482858,0
{consumergroup=__strimzi-topic-operator-kstreams},1648482863,0
{consumergroup=__strimzi-topic-operator-kstreams},1648482868,0
{consumergroup=__strimzi-topic-operator-kstreams},1648482873,0
{consumergroup=__strimzi-topic-operator-kstreams},1648482878,0
{consumergroup=__strimzi-topic-operator-kstreams},1648482883,0
{consumergroup=__strimzi-topic-operator-kstreams},1648482888,0
{consumergroup=__strimzi-topic-operator-kstreams},1648482893,0
{consumergroup=__strimzi-topic-operator-kstreams},1648482898,0
{consumergroup=__strimzi-topic-operator-kstreams},1648482903,0
{consumergroup=__strimzi-topic-operator-kstreams},1648482908,0
{consumergroup=__strimzi-topic-operator-kstreams},1648482913,0
{consumergroup=__strimzi-topic-operator-kstreams},1648482918,0
{consumergroup=__strimzi-topic-operator-kstreams},1648482923,0
{consumergroup=__strimzi-topic-operator-kstreams},1648482928,0
{consumergroup=__strimzi-topic-operator-kstreams},1648482933,0
{consumergroup=__strimzi-topic-operator-kstreams},1648482938,0
{consumergroup=__strimzi-topic-operator-kstreams},1648482943,0
{consumergroup=__strimzi-topic-operator-kstreams},1648482948,0
{consumergroup=__strimzi-topic-operator-kstreams},1648482953,0
{consumergroup=__strimzi-topic-operator-kstreams},1648482958,0
{consumergroup=__strimzi-topic-operator-kstreams},1648482963,0
{consumergroup=__strimzi-topic-operator-kstreams},1648482968,0
{consumergroup=__strimzi-topic-operator-kstreams},1648482973,0
{consumergroup=__strimzi-topic-operator-kstreams},1648482978,0
{consumergroup=__strimzi-topic-operator-kstreams},1648482983,0
{consumergroup=__strimzi-topic-operator-kstreams},1648482988,0
{consumergroup=__strimzi-topic-operator-kstreams},1648482993,0
{consumergroup=__strimzi-topic-operator-kstreams},1648482998,0
{consumergroup=__strimzi-topic-operator-kstreams},1648483003,0
{consumergroup=__strimzi-topic-operator-kstreams},1648483008,0
{consumergroup=__strimzi-topic-operator-kstreams},1648483013,0
{consumergroup=__strimzi-topic-operator-kstreams},1648483018,0
{consumergroup=__strimzi-topic-operator-kstreams},1648483023,0
{consumergroup=__strimzi-topic-operator-kstreams},1648483028,0
{consumergroup=__strimzi-topic-operator-kstreams},1648483033,0
{consumergroup=__strimzi-topic-operator-kstreams},1648483038,0
{consumergroup=__strimzi-topic-operator-kstreams},1648483043,0
{consumergroup=__strimzi-topic-operator-kstreams},1648483048,0
