labels,timestamp,value
{consumergroup=__strimzi-topic-operator-kstreams},1648513379,0
{consumergroup=__strimzi-topic-operator-kstreams},1648513384,0
{consumergroup=__strimzi-topic-operator-kstreams},1648513389,0
{consumergroup=__strimzi-topic-operator-kstreams},1648513394,0
{consumergroup=__strimzi-topic-operator-kstreams},1648513399,0
{consumergroup=__strimzi-topic-operator-kstreams},1648513404,0
{consumergroup=__strimzi-topic-operator-kstreams},1648513409,0
{consumergroup=__strimzi-topic-operator-kstreams},1648513414,0
{consumergroup=__strimzi-topic-operator-kstreams},1648513419,0
{consumergroup=__strimzi-topic-operator-kstreams},1648513424,0
{consumergroup=__strimzi-topic-operator-kstreams},1648513429,0
{consumergroup=__strimzi-topic-operator-kstreams},1648513434,0
{consumergroup=__strimzi-topic-operator-kstreams},1648513439,0
{consumergroup=__strimzi-topic-operator-kstreams},1648513444,0
{consumergroup=__strimzi-topic-operator-kstreams},1648513449,0
{consumergroup=__strimzi-topic-operator-kstreams},1648513454,0
{consumergroup=__strimzi-topic-operator-kstreams},1648513459,0
{consumergroup=__strimzi-topic-operator-kstreams},1648513464,0
{consumergroup=__strimzi-topic-operator-kstreams},1648513469,0
{consumergroup=__strimzi-topic-operator-kstreams},1648513474,0
{consumergroup=__strimzi-topic-operator-kstreams},1648513479,0
{consumergroup=__strimzi-topic-operator-kstreams},1648513484,1
{consumergroup=__strimzi-topic-operator-kstreams},1648513489,1
{consumergroup=__strimzi-topic-operator-kstreams},1648513494,1
{consumergroup=__strimzi-topic-operator-kstreams},1648513499,1
{consumergroup=__strimzi-topic-operator-kstreams},1648513504,1
{consumergroup=__strimzi-topic-operator-kstreams},1648513509,1
{consumergroup=__strimzi-topic-operator-kstreams},1648513514,0
{consumergroup=__strimzi-topic-operator-kstreams},1648513519,0
{consumergroup=__strimzi-topic-operator-kstreams},1648513524,0
{consumergroup=__strimzi-topic-operator-kstreams},1648513529,0
{consumergroup=__strimzi-topic-operator-kstreams},1648513534,0
{consumergroup=__strimzi-topic-operator-kstreams},1648513539,0
{consumergroup=__strimzi-topic-operator-kstreams},1648513544,0
{consumergroup=__strimzi-topic-operator-kstreams},1648513549,0
{consumergroup=__strimzi-topic-operator-kstreams},1648513554,0
{consumergroup=__strimzi-topic-operator-kstreams},1648513559,0
{consumergroup=__strimzi-topic-operator-kstreams},1648513564,0
{consumergroup=__strimzi-topic-operator-kstreams},1648513569,0
{consumergroup=__strimzi-topic-operator-kstreams},1648513574,0
{consumergroup=__strimzi-topic-operator-kstreams},1648513579,0
{consumergroup=__strimzi-topic-operator-kstreams},1648513584,0
{consumergroup=__strimzi-topic-operator-kstreams},1648513589,0
{consumergroup=__strimzi-topic-operator-kstreams},1648513594,0
{consumergroup=__strimzi-topic-operator-kstreams},1648513599,0
{consumergroup=__strimzi-topic-operator-kstreams},1648513604,0
{consumergroup=__strimzi-topic-operator-kstreams},1648513609,0
{consumergroup=__strimzi-topic-operator-kstreams},1648513614,0
{consumergroup=__strimzi-topic-operator-kstreams},1648513619,0
{consumergroup=__strimzi-topic-operator-kstreams},1648513624,0
{consumergroup=__strimzi-topic-operator-kstreams},1648513629,0
{consumergroup=__strimzi-topic-operator-kstreams},1648513634,0
{consumergroup=__strimzi-topic-operator-kstreams},1648513639,0
{consumergroup=__strimzi-topic-operator-kstreams},1648513644,0
{consumergroup=__strimzi-topic-operator-kstreams},1648513649,0
{consumergroup=__strimzi-topic-operator-kstreams},1648513654,0
{consumergroup=__strimzi-topic-operator-kstreams},1648513659,0
{consumergroup=__strimzi-topic-operator-kstreams},1648513664,0
{consumergroup=__strimzi-topic-operator-kstreams},1648513669,0
{consumergroup=__strimzi-topic-operator-kstreams},1648513674,0
{consumergroup=__strimzi-topic-operator-kstreams},1648513679,0
{consumergroup=__strimzi-topic-operator-kstreams},1648513684,0
{consumergroup=__strimzi-topic-operator-kstreams},1648513689,0
{consumergroup=__strimzi-topic-operator-kstreams},1648513694,0
{consumergroup=__strimzi-topic-operator-kstreams},1648513699,0
{consumergroup=__strimzi-topic-operator-kstreams},1648513704,0
{consumergroup=__strimzi-topic-operator-kstreams},1648513709,0
{consumergroup=__strimzi-topic-operator-kstreams},1648513714,0
{consumergroup=__strimzi-topic-operator-kstreams},1648513719,0
{consumergroup=__strimzi-topic-operator-kstreams},1648513724,0
{consumergroup=__strimzi-topic-operator-kstreams},1648513729,0
{consumergroup=__strimzi-topic-operator-kstreams},1648513734,0
{consumergroup=__strimzi-topic-operator-kstreams},1648513739,0
{consumergroup=__strimzi-topic-operator-kstreams},1648513744,0
{consumergroup=__strimzi-topic-operator-kstreams},1648513749,0
{consumergroup=__strimzi-topic-operator-kstreams},1648513754,0
{consumergroup=__strimzi-topic-operator-kstreams},1648513759,0
{consumergroup=__strimzi-topic-operator-kstreams},1648513764,0
{consumergroup=__strimzi-topic-operator-kstreams},1648513769,0
{consumergroup=__strimzi-topic-operator-kstreams},1648513774,0
{consumergroup=__strimzi-topic-operator-kstreams},1648513779,0
{consumergroup=__strimzi-topic-operator-kstreams},1648513784,0
{consumergroup=__strimzi-topic-operator-kstreams},1648513789,0
{consumergroup=__strimzi-topic-operator-kstreams},1648513794,0
{consumergroup=__strimzi-topic-operator-kstreams},1648513799,0
{consumergroup=__strimzi-topic-operator-kstreams},1648513804,0
{consumergroup=__strimzi-topic-operator-kstreams},1648513809,0
{consumergroup=__strimzi-topic-operator-kstreams},1648513814,0
{consumergroup=__strimzi-topic-operator-kstreams},1648513819,0
{consumergroup=__strimzi-topic-operator-kstreams},1648513824,0
{consumergroup=__strimzi-topic-operator-kstreams},1648513829,0
{consumergroup=__strimzi-topic-operator-kstreams},1648513834,0
{consumergroup=__strimzi-topic-operator-kstreams},1648513839,0
{consumergroup=__strimzi-topic-operator-kstreams},1648513844,0
{consumergroup=__strimzi-topic-operator-kstreams},1648513849,0
{consumergroup=__strimzi-topic-operator-kstreams},1648513854,0
{consumergroup=__strimzi-topic-operator-kstreams},1648513859,0
{consumergroup=__strimzi-topic-operator-kstreams},1648513864,0
{consumergroup=__strimzi-topic-operator-kstreams},1648513869,0
