labels,timestamp,value
{consumergroup=__strimzi-topic-operator-kstreams},1648516081,18
{consumergroup=__strimzi-topic-operator-kstreams},1648516086,18
{consumergroup=__strimzi-topic-operator-kstreams},1648516091,18
{consumergroup=__strimzi-topic-operator-kstreams},1648516096,0
{consumergroup=__strimzi-topic-operator-kstreams},1648516101,0
{consumergroup=__strimzi-topic-operator-kstreams},1648516106,0
{consumergroup=__strimzi-topic-operator-kstreams},1648516111,0
{consumergroup=__strimzi-topic-operator-kstreams},1648516116,0
{consumergroup=__strimzi-topic-operator-kstreams},1648516121,0
{consumergroup=__strimzi-topic-operator-kstreams},1648516126,0
{consumergroup=__strimzi-topic-operator-kstreams},1648516131,0
{consumergroup=__strimzi-topic-operator-kstreams},1648516136,0
{consumergroup=__strimzi-topic-operator-kstreams},1648516141,1
{consumergroup=__strimzi-topic-operator-kstreams},1648516146,1
{consumergroup=__strimzi-topic-operator-kstreams},1648516151,1
{consumergroup=__strimzi-topic-operator-kstreams},1648516156,0
{consumergroup=__strimzi-topic-operator-kstreams},1648516161,0
{consumergroup=__strimzi-topic-operator-kstreams},1648516166,0
{consumergroup=__strimzi-topic-operator-kstreams},1648516171,0
{consumergroup=__strimzi-topic-operator-kstreams},1648516176,0
{consumergroup=__strimzi-topic-operator-kstreams},1648516181,0
{consumergroup=__strimzi-topic-operator-kstreams},1648516186,0
{consumergroup=__strimzi-topic-operator-kstreams},1648516191,0
{consumergroup=__strimzi-topic-operator-kstreams},1648516196,0
{consumergroup=__strimzi-topic-operator-kstreams},1648516201,0
{consumergroup=__strimzi-topic-operator-kstreams},1648516206,0
{consumergroup=__strimzi-topic-operator-kstreams},1648516211,0
{consumergroup=__strimzi-topic-operator-kstreams},1648516216,0
{consumergroup=__strimzi-topic-operator-kstreams},1648516221,0
{consumergroup=__strimzi-topic-operator-kstreams},1648516226,0
{consumergroup=__strimzi-topic-operator-kstreams},1648516231,0
{consumergroup=__strimzi-topic-operator-kstreams},1648516236,0
{consumergroup=__strimzi-topic-operator-kstreams},1648516241,0
{consumergroup=__strimzi-topic-operator-kstreams},1648516246,0
{consumergroup=__strimzi-topic-operator-kstreams},1648516251,0
{consumergroup=__strimzi-topic-operator-kstreams},1648516256,0
{consumergroup=__strimzi-topic-operator-kstreams},1648516261,0
{consumergroup=__strimzi-topic-operator-kstreams},1648516266,0
{consumergroup=__strimzi-topic-operator-kstreams},1648516271,0
{consumergroup=__strimzi-topic-operator-kstreams},1648516276,0
{consumergroup=__strimzi-topic-operator-kstreams},1648516281,0
{consumergroup=__strimzi-topic-operator-kstreams},1648516286,0
{consumergroup=__strimzi-topic-operator-kstreams},1648516291,0
{consumergroup=__strimzi-topic-operator-kstreams},1648516296,0
{consumergroup=__strimzi-topic-operator-kstreams},1648516301,0
{consumergroup=__strimzi-topic-operator-kstreams},1648516306,0
{consumergroup=__strimzi-topic-operator-kstreams},1648516311,0
{consumergroup=__strimzi-topic-operator-kstreams},1648516316,0
{consumergroup=__strimzi-topic-operator-kstreams},1648516321,0
{consumergroup=__strimzi-topic-operator-kstreams},1648516326,0
{consumergroup=__strimzi-topic-operator-kstreams},1648516331,0
{consumergroup=__strimzi-topic-operator-kstreams},1648516336,0
{consumergroup=__strimzi-topic-operator-kstreams},1648516341,0
{consumergroup=__strimzi-topic-operator-kstreams},1648516346,0
{consumergroup=__strimzi-topic-operator-kstreams},1648516351,0
{consumergroup=__strimzi-topic-operator-kstreams},1648516356,0
{consumergroup=__strimzi-topic-operator-kstreams},1648516361,0
{consumergroup=__strimzi-topic-operator-kstreams},1648516366,0
{consumergroup=__strimzi-topic-operator-kstreams},1648516371,0
{consumergroup=__strimzi-topic-operator-kstreams},1648516376,0
{consumergroup=__strimzi-topic-operator-kstreams},1648516381,0
{consumergroup=__strimzi-topic-operator-kstreams},1648516386,0
{consumergroup=__strimzi-topic-operator-kstreams},1648516391,0
{consumergroup=__strimzi-topic-operator-kstreams},1648516396,0
{consumergroup=__strimzi-topic-operator-kstreams},1648516401,0
{consumergroup=__strimzi-topic-operator-kstreams},1648516406,0
{consumergroup=__strimzi-topic-operator-kstreams},1648516411,0
{consumergroup=__strimzi-topic-operator-kstreams},1648516416,0
{consumergroup=__strimzi-topic-operator-kstreams},1648516421,0
{consumergroup=__strimzi-topic-operator-kstreams},1648516426,0
{consumergroup=__strimzi-topic-operator-kstreams},1648516431,0
{consumergroup=__strimzi-topic-operator-kstreams},1648516436,0
{consumergroup=__strimzi-topic-operator-kstreams},1648516441,0
{consumergroup=__strimzi-topic-operator-kstreams},1648516446,0
{consumergroup=__strimzi-topic-operator-kstreams},1648516451,0
{consumergroup=__strimzi-topic-operator-kstreams},1648516456,0
{consumergroup=__strimzi-topic-operator-kstreams},1648516461,0
{consumergroup=__strimzi-topic-operator-kstreams},1648516466,0
{consumergroup=__strimzi-topic-operator-kstreams},1648516471,0
{consumergroup=__strimzi-topic-operator-kstreams},1648516476,0
{consumergroup=__strimzi-topic-operator-kstreams},1648516481,0
{consumergroup=__strimzi-topic-operator-kstreams},1648516486,0
{consumergroup=__strimzi-topic-operator-kstreams},1648516491,0
{consumergroup=__strimzi-topic-operator-kstreams},1648516496,0
{consumergroup=__strimzi-topic-operator-kstreams},1648516501,0
{consumergroup=__strimzi-topic-operator-kstreams},1648516506,0
{consumergroup=__strimzi-topic-operator-kstreams},1648516511,0
{consumergroup=__strimzi-topic-operator-kstreams},1648516516,0
{consumergroup=__strimzi-topic-operator-kstreams},1648516521,0
{consumergroup=__strimzi-topic-operator-kstreams},1648516526,0
{consumergroup=__strimzi-topic-operator-kstreams},1648516531,0
{consumergroup=__strimzi-topic-operator-kstreams},1648516536,0
{consumergroup=__strimzi-topic-operator-kstreams},1648516541,0
{consumergroup=__strimzi-topic-operator-kstreams},1648516546,0
{consumergroup=__strimzi-topic-operator-kstreams},1648516551,0
{consumergroup=__strimzi-topic-operator-kstreams},1648516556,0
{consumergroup=__strimzi-topic-operator-kstreams},1648516561,0
{consumergroup=__strimzi-topic-operator-kstreams},1648516566,0
