labels,timestamp,value
{consumergroup=__strimzi-topic-operator-kstreams},1648487984,17
{consumergroup=__strimzi-topic-operator-kstreams},1648487989,17
{consumergroup=__strimzi-topic-operator-kstreams},1648487994,17
{consumergroup=__strimzi-topic-operator-kstreams},1648487999,0
{consumergroup=__strimzi-topic-operator-kstreams},1648488004,0
{consumergroup=__strimzi-topic-operator-kstreams},1648488009,0
{consumergroup=__strimzi-topic-operator-kstreams},1648488014,0
{consumergroup=__strimzi-topic-operator-kstreams},1648488019,0
{consumergroup=__strimzi-topic-operator-kstreams},1648488024,0
{consumergroup=__strimzi-topic-operator-kstreams},1648488029,0
{consumergroup=__strimzi-topic-operator-kstreams},1648488034,0
{consumergroup=__strimzi-topic-operator-kstreams},1648488039,0
{consumergroup=__strimzi-topic-operator-kstreams},1648488044,0
{consumergroup=__strimzi-topic-operator-kstreams},1648488049,0
{consumergroup=__strimzi-topic-operator-kstreams},1648488054,0
{consumergroup=__strimzi-topic-operator-kstreams},1648488059,0
{consumergroup=__strimzi-topic-operator-kstreams},1648488064,0
{consumergroup=__strimzi-topic-operator-kstreams},1648488069,0
{consumergroup=__strimzi-topic-operator-kstreams},1648488074,0
{consumergroup=__strimzi-topic-operator-kstreams},1648488079,0
{consumergroup=__strimzi-topic-operator-kstreams},1648488084,0
{consumergroup=__strimzi-topic-operator-kstreams},1648488089,0
{consumergroup=__strimzi-topic-operator-kstreams},1648488094,0
{consumergroup=__strimzi-topic-operator-kstreams},1648488099,0
{consumergroup=__strimzi-topic-operator-kstreams},1648488104,0
{consumergroup=__strimzi-topic-operator-kstreams},1648488109,0
{consumergroup=__strimzi-topic-operator-kstreams},1648488114,0
{consumergroup=__strimzi-topic-operator-kstreams},1648488119,0
{consumergroup=__strimzi-topic-operator-kstreams},1648488124,0
{consumergroup=__strimzi-topic-operator-kstreams},1648488129,0
{consumergroup=__strimzi-topic-operator-kstreams},1648488134,0
{consumergroup=__strimzi-topic-operator-kstreams},1648488139,0
{consumergroup=__strimzi-topic-operator-kstreams},1648488144,0
{consumergroup=__strimzi-topic-operator-kstreams},1648488149,0
{consumergroup=__strimzi-topic-operator-kstreams},1648488154,0
{consumergroup=__strimzi-topic-operator-kstreams},1648488159,0
{consumergroup=__strimzi-topic-operator-kstreams},1648488164,0
{consumergroup=__strimzi-topic-operator-kstreams},1648488169,0
{consumergroup=__strimzi-topic-operator-kstreams},1648488174,0
{consumergroup=__strimzi-topic-operator-kstreams},1648488179,0
{consumergroup=__strimzi-topic-operator-kstreams},1648488184,0
{consumergroup=__strimzi-topic-operator-kstreams},1648488189,0
{consumergroup=__strimzi-topic-operator-kstreams},1648488194,0
{consumergroup=__strimzi-topic-operator-kstreams},1648488199,0
{consumergroup=__strimzi-topic-operator-kstreams},1648488204,0
{consumergroup=__strimzi-topic-operator-kstreams},1648488209,0
{consumergroup=__strimzi-topic-operator-kstreams},1648488214,0
{consumergroup=__strimzi-topic-operator-kstreams},1648488219,0
{consumergroup=__strimzi-topic-operator-kstreams},1648488224,0
{consumergroup=__strimzi-topic-operator-kstreams},1648488229,0
{consumergroup=__strimzi-topic-operator-kstreams},1648488234,0
{consumergroup=__strimzi-topic-operator-kstreams},1648488239,0
{consumergroup=__strimzi-topic-operator-kstreams},1648488244,0
{consumergroup=__strimzi-topic-operator-kstreams},1648488249,0
{consumergroup=__strimzi-topic-operator-kstreams},1648488254,0
{consumergroup=__strimzi-topic-operator-kstreams},1648488259,0
{consumergroup=__strimzi-topic-operator-kstreams},1648488264,0
{consumergroup=__strimzi-topic-operator-kstreams},1648488269,0
{consumergroup=__strimzi-topic-operator-kstreams},1648488274,0
{consumergroup=__strimzi-topic-operator-kstreams},1648488279,0
{consumergroup=__strimzi-topic-operator-kstreams},1648488284,0
{consumergroup=__strimzi-topic-operator-kstreams},1648488289,0
{consumergroup=__strimzi-topic-operator-kstreams},1648488294,0
{consumergroup=__strimzi-topic-operator-kstreams},1648488299,0
{consumergroup=__strimzi-topic-operator-kstreams},1648488304,0
{consumergroup=__strimzi-topic-operator-kstreams},1648488309,0
{consumergroup=__strimzi-topic-operator-kstreams},1648488314,0
{consumergroup=__strimzi-topic-operator-kstreams},1648488319,0
{consumergroup=__strimzi-topic-operator-kstreams},1648488324,0
{consumergroup=__strimzi-topic-operator-kstreams},1648488329,0
{consumergroup=__strimzi-topic-operator-kstreams},1648488334,0
{consumergroup=__strimzi-topic-operator-kstreams},1648488339,0
{consumergroup=__strimzi-topic-operator-kstreams},1648488344,0
{consumergroup=__strimzi-topic-operator-kstreams},1648488349,0
{consumergroup=__strimzi-topic-operator-kstreams},1648488354,0
{consumergroup=__strimzi-topic-operator-kstreams},1648488359,0
{consumergroup=__strimzi-topic-operator-kstreams},1648488364,0
{consumergroup=__strimzi-topic-operator-kstreams},1648488369,0
{consumergroup=__strimzi-topic-operator-kstreams},1648488374,0
{consumergroup=__strimzi-topic-operator-kstreams},1648488379,0
{consumergroup=__strimzi-topic-operator-kstreams},1648488384,0
{consumergroup=__strimzi-topic-operator-kstreams},1648488389,0
{consumergroup=__strimzi-topic-operator-kstreams},1648488394,0
{consumergroup=__strimzi-topic-operator-kstreams},1648488399,0
{consumergroup=__strimzi-topic-operator-kstreams},1648488404,0
{consumergroup=__strimzi-topic-operator-kstreams},1648488409,0
{consumergroup=__strimzi-topic-operator-kstreams},1648488414,0
{consumergroup=__strimzi-topic-operator-kstreams},1648488419,0
{consumergroup=__strimzi-topic-operator-kstreams},1648488424,0
{consumergroup=__strimzi-topic-operator-kstreams},1648488429,0
{consumergroup=__strimzi-topic-operator-kstreams},1648488434,0
{consumergroup=__strimzi-topic-operator-kstreams},1648488439,0
{consumergroup=__strimzi-topic-operator-kstreams},1648488444,0
{consumergroup=__strimzi-topic-operator-kstreams},1648488449,0
{consumergroup=__strimzi-topic-operator-kstreams},1648488454,0
{consumergroup=__strimzi-topic-operator-kstreams},1648488459,0
{consumergroup=__strimzi-topic-operator-kstreams},1648488464,0
{consumergroup=__strimzi-topic-operator-kstreams},1648488469,0
