labels,timestamp,value
{consumergroup=__strimzi-topic-operator-kstreams},1648498806,17
{consumergroup=__strimzi-topic-operator-kstreams},1648498811,17
{consumergroup=__strimzi-topic-operator-kstreams},1648498816,17
{consumergroup=__strimzi-topic-operator-kstreams},1648498821,0
{consumergroup=__strimzi-topic-operator-kstreams},1648498826,0
{consumergroup=__strimzi-topic-operator-kstreams},1648498831,0
{consumergroup=__strimzi-topic-operator-kstreams},1648498836,0
{consumergroup=__strimzi-topic-operator-kstreams},1648498841,0
{consumergroup=__strimzi-topic-operator-kstreams},1648498846,0
{consumergroup=__strimzi-topic-operator-kstreams},1648498851,0
{consumergroup=__strimzi-topic-operator-kstreams},1648498856,0
{consumergroup=__strimzi-topic-operator-kstreams},1648498861,0
{consumergroup=__strimzi-topic-operator-kstreams},1648498866,0
{consumergroup=__strimzi-topic-operator-kstreams},1648498871,0
{consumergroup=__strimzi-topic-operator-kstreams},1648498876,0
{consumergroup=__strimzi-topic-operator-kstreams},1648498881,0
{consumergroup=__strimzi-topic-operator-kstreams},1648498886,0
{consumergroup=__strimzi-topic-operator-kstreams},1648498891,0
{consumergroup=__strimzi-topic-operator-kstreams},1648498896,0
{consumergroup=__strimzi-topic-operator-kstreams},1648498901,0
{consumergroup=__strimzi-topic-operator-kstreams},1648498906,0
{consumergroup=__strimzi-topic-operator-kstreams},1648498911,0
{consumergroup=__strimzi-topic-operator-kstreams},1648498916,0
{consumergroup=__strimzi-topic-operator-kstreams},1648498921,0
{consumergroup=__strimzi-topic-operator-kstreams},1648498926,0
{consumergroup=__strimzi-topic-operator-kstreams},1648498931,0
{consumergroup=__strimzi-topic-operator-kstreams},1648498936,0
{consumergroup=__strimzi-topic-operator-kstreams},1648498941,0
{consumergroup=__strimzi-topic-operator-kstreams},1648498946,0
{consumergroup=__strimzi-topic-operator-kstreams},1648498951,0
{consumergroup=__strimzi-topic-operator-kstreams},1648498956,0
{consumergroup=__strimzi-topic-operator-kstreams},1648498961,0
{consumergroup=__strimzi-topic-operator-kstreams},1648498966,0
{consumergroup=__strimzi-topic-operator-kstreams},1648498971,0
{consumergroup=__strimzi-topic-operator-kstreams},1648498976,0
{consumergroup=__strimzi-topic-operator-kstreams},1648498981,0
{consumergroup=__strimzi-topic-operator-kstreams},1648498986,0
{consumergroup=__strimzi-topic-operator-kstreams},1648498991,0
{consumergroup=__strimzi-topic-operator-kstreams},1648498996,0
{consumergroup=__strimzi-topic-operator-kstreams},1648499001,0
{consumergroup=__strimzi-topic-operator-kstreams},1648499006,0
{consumergroup=__strimzi-topic-operator-kstreams},1648499011,0
{consumergroup=__strimzi-topic-operator-kstreams},1648499016,0
{consumergroup=__strimzi-topic-operator-kstreams},1648499021,0
{consumergroup=__strimzi-topic-operator-kstreams},1648499026,0
{consumergroup=__strimzi-topic-operator-kstreams},1648499031,0
{consumergroup=__strimzi-topic-operator-kstreams},1648499036,0
{consumergroup=__strimzi-topic-operator-kstreams},1648499041,0
{consumergroup=__strimzi-topic-operator-kstreams},1648499046,0
{consumergroup=__strimzi-topic-operator-kstreams},1648499051,0
{consumergroup=__strimzi-topic-operator-kstreams},1648499056,0
{consumergroup=__strimzi-topic-operator-kstreams},1648499061,0
{consumergroup=__strimzi-topic-operator-kstreams},1648499066,0
{consumergroup=__strimzi-topic-operator-kstreams},1648499071,0
{consumergroup=__strimzi-topic-operator-kstreams},1648499076,0
{consumergroup=__strimzi-topic-operator-kstreams},1648499081,0
{consumergroup=__strimzi-topic-operator-kstreams},1648499086,0
{consumergroup=__strimzi-topic-operator-kstreams},1648499091,0
{consumergroup=__strimzi-topic-operator-kstreams},1648499096,0
{consumergroup=__strimzi-topic-operator-kstreams},1648499101,0
{consumergroup=__strimzi-topic-operator-kstreams},1648499106,0
{consumergroup=__strimzi-topic-operator-kstreams},1648499111,0
{consumergroup=__strimzi-topic-operator-kstreams},1648499116,0
{consumergroup=__strimzi-topic-operator-kstreams},1648499121,0
{consumergroup=__strimzi-topic-operator-kstreams},1648499126,0
{consumergroup=__strimzi-topic-operator-kstreams},1648499131,0
{consumergroup=__strimzi-topic-operator-kstreams},1648499136,0
{consumergroup=__strimzi-topic-operator-kstreams},1648499141,0
{consumergroup=__strimzi-topic-operator-kstreams},1648499146,0
{consumergroup=__strimzi-topic-operator-kstreams},1648499151,0
{consumergroup=__strimzi-topic-operator-kstreams},1648499156,0
{consumergroup=__strimzi-topic-operator-kstreams},1648499161,0
{consumergroup=__strimzi-topic-operator-kstreams},1648499166,0
{consumergroup=__strimzi-topic-operator-kstreams},1648499171,0
{consumergroup=__strimzi-topic-operator-kstreams},1648499176,0
{consumergroup=__strimzi-topic-operator-kstreams},1648499181,0
{consumergroup=__strimzi-topic-operator-kstreams},1648499186,0
{consumergroup=__strimzi-topic-operator-kstreams},1648499191,0
{consumergroup=__strimzi-topic-operator-kstreams},1648499196,0
{consumergroup=__strimzi-topic-operator-kstreams},1648499201,0
{consumergroup=__strimzi-topic-operator-kstreams},1648499206,0
{consumergroup=__strimzi-topic-operator-kstreams},1648499211,0
{consumergroup=__strimzi-topic-operator-kstreams},1648499216,0
{consumergroup=__strimzi-topic-operator-kstreams},1648499221,0
{consumergroup=__strimzi-topic-operator-kstreams},1648499226,0
{consumergroup=__strimzi-topic-operator-kstreams},1648499231,0
{consumergroup=__strimzi-topic-operator-kstreams},1648499236,0
{consumergroup=__strimzi-topic-operator-kstreams},1648499241,0
{consumergroup=__strimzi-topic-operator-kstreams},1648499246,0
{consumergroup=__strimzi-topic-operator-kstreams},1648499251,0
{consumergroup=__strimzi-topic-operator-kstreams},1648499256,0
{consumergroup=__strimzi-topic-operator-kstreams},1648499261,0
{consumergroup=__strimzi-topic-operator-kstreams},1648499266,0
{consumergroup=__strimzi-topic-operator-kstreams},1648499271,0
{consumergroup=__strimzi-topic-operator-kstreams},1648499276,0
{consumergroup=__strimzi-topic-operator-kstreams},1648499281,0
{consumergroup=__strimzi-topic-operator-kstreams},1648499286,0
{consumergroup=__strimzi-topic-operator-kstreams},1648499291,0
{consumergroup=__strimzi-topic-operator-kstreams},1648499296,0
