labels,timestamp,value
{consumergroup=__strimzi-topic-operator-kstreams},1648491230,14
{consumergroup=__strimzi-topic-operator-kstreams},1648491235,14
{consumergroup=__strimzi-topic-operator-kstreams},1648491240,14
{consumergroup=__strimzi-topic-operator-kstreams},1648491245,0
{consumergroup=__strimzi-topic-operator-kstreams},1648491250,0
{consumergroup=__strimzi-topic-operator-kstreams},1648491255,0
{consumergroup=__strimzi-topic-operator-kstreams},1648491260,0
{consumergroup=__strimzi-topic-operator-kstreams},1648491265,0
{consumergroup=__strimzi-topic-operator-kstreams},1648491270,0
{consumergroup=__strimzi-topic-operator-kstreams},1648491275,0
{consumergroup=__strimzi-topic-operator-kstreams},1648491280,0
{consumergroup=__strimzi-topic-operator-kstreams},1648491285,0
{consumergroup=__strimzi-topic-operator-kstreams},1648491290,0
{consumergroup=__strimzi-topic-operator-kstreams},1648491295,0
{consumergroup=__strimzi-topic-operator-kstreams},1648491300,0
{consumergroup=__strimzi-topic-operator-kstreams},1648491305,0
{consumergroup=__strimzi-topic-operator-kstreams},1648491310,0
{consumergroup=__strimzi-topic-operator-kstreams},1648491315,0
{consumergroup=__strimzi-topic-operator-kstreams},1648491320,0
{consumergroup=__strimzi-topic-operator-kstreams},1648491325,0
{consumergroup=__strimzi-topic-operator-kstreams},1648491330,0
{consumergroup=__strimzi-topic-operator-kstreams},1648491335,0
{consumergroup=__strimzi-topic-operator-kstreams},1648491340,0
{consumergroup=__strimzi-topic-operator-kstreams},1648491345,0
{consumergroup=__strimzi-topic-operator-kstreams},1648491350,0
{consumergroup=__strimzi-topic-operator-kstreams},1648491355,0
{consumergroup=__strimzi-topic-operator-kstreams},1648491360,0
{consumergroup=__strimzi-topic-operator-kstreams},1648491365,0
{consumergroup=__strimzi-topic-operator-kstreams},1648491370,0
{consumergroup=__strimzi-topic-operator-kstreams},1648491375,0
{consumergroup=__strimzi-topic-operator-kstreams},1648491380,0
{consumergroup=__strimzi-topic-operator-kstreams},1648491385,0
{consumergroup=__strimzi-topic-operator-kstreams},1648491390,0
{consumergroup=__strimzi-topic-operator-kstreams},1648491395,0
{consumergroup=__strimzi-topic-operator-kstreams},1648491400,0
{consumergroup=__strimzi-topic-operator-kstreams},1648491405,0
{consumergroup=__strimzi-topic-operator-kstreams},1648491410,0
{consumergroup=__strimzi-topic-operator-kstreams},1648491415,0
{consumergroup=__strimzi-topic-operator-kstreams},1648491420,0
{consumergroup=__strimzi-topic-operator-kstreams},1648491425,0
{consumergroup=__strimzi-topic-operator-kstreams},1648491430,0
{consumergroup=__strimzi-topic-operator-kstreams},1648491435,0
{consumergroup=__strimzi-topic-operator-kstreams},1648491440,0
{consumergroup=__strimzi-topic-operator-kstreams},1648491445,0
{consumergroup=__strimzi-topic-operator-kstreams},1648491450,0
{consumergroup=__strimzi-topic-operator-kstreams},1648491455,0
{consumergroup=__strimzi-topic-operator-kstreams},1648491460,0
{consumergroup=__strimzi-topic-operator-kstreams},1648491465,0
{consumergroup=__strimzi-topic-operator-kstreams},1648491470,0
{consumergroup=__strimzi-topic-operator-kstreams},1648491475,0
{consumergroup=__strimzi-topic-operator-kstreams},1648491480,0
{consumergroup=__strimzi-topic-operator-kstreams},1648491485,0
{consumergroup=__strimzi-topic-operator-kstreams},1648491490,0
{consumergroup=__strimzi-topic-operator-kstreams},1648491495,0
{consumergroup=__strimzi-topic-operator-kstreams},1648491500,0
{consumergroup=__strimzi-topic-operator-kstreams},1648491505,0
{consumergroup=__strimzi-topic-operator-kstreams},1648491510,0
{consumergroup=__strimzi-topic-operator-kstreams},1648491515,0
{consumergroup=__strimzi-topic-operator-kstreams},1648491520,0
{consumergroup=__strimzi-topic-operator-kstreams},1648491525,0
{consumergroup=__strimzi-topic-operator-kstreams},1648491530,0
{consumergroup=__strimzi-topic-operator-kstreams},1648491535,0
{consumergroup=__strimzi-topic-operator-kstreams},1648491540,0
{consumergroup=__strimzi-topic-operator-kstreams},1648491545,0
{consumergroup=__strimzi-topic-operator-kstreams},1648491550,0
{consumergroup=__strimzi-topic-operator-kstreams},1648491555,0
{consumergroup=__strimzi-topic-operator-kstreams},1648491560,0
{consumergroup=__strimzi-topic-operator-kstreams},1648491565,0
{consumergroup=__strimzi-topic-operator-kstreams},1648491570,0
{consumergroup=__strimzi-topic-operator-kstreams},1648491575,0
{consumergroup=__strimzi-topic-operator-kstreams},1648491580,0
{consumergroup=__strimzi-topic-operator-kstreams},1648491585,0
{consumergroup=__strimzi-topic-operator-kstreams},1648491590,0
{consumergroup=__strimzi-topic-operator-kstreams},1648491595,0
{consumergroup=__strimzi-topic-operator-kstreams},1648491600,0
{consumergroup=__strimzi-topic-operator-kstreams},1648491605,0
{consumergroup=__strimzi-topic-operator-kstreams},1648491610,0
{consumergroup=__strimzi-topic-operator-kstreams},1648491615,0
{consumergroup=__strimzi-topic-operator-kstreams},1648491620,0
{consumergroup=__strimzi-topic-operator-kstreams},1648491625,0
{consumergroup=__strimzi-topic-operator-kstreams},1648491630,0
{consumergroup=__strimzi-topic-operator-kstreams},1648491635,0
{consumergroup=__strimzi-topic-operator-kstreams},1648491640,0
{consumergroup=__strimzi-topic-operator-kstreams},1648491645,0
{consumergroup=__strimzi-topic-operator-kstreams},1648491650,0
{consumergroup=__strimzi-topic-operator-kstreams},1648491655,0
{consumergroup=__strimzi-topic-operator-kstreams},1648491660,0
{consumergroup=__strimzi-topic-operator-kstreams},1648491665,0
{consumergroup=__strimzi-topic-operator-kstreams},1648491670,0
{consumergroup=__strimzi-topic-operator-kstreams},1648491675,0
{consumergroup=__strimzi-topic-operator-kstreams},1648491680,0
{consumergroup=__strimzi-topic-operator-kstreams},1648491685,0
{consumergroup=__strimzi-topic-operator-kstreams},1648491690,0
{consumergroup=__strimzi-topic-operator-kstreams},1648491695,0
{consumergroup=__strimzi-topic-operator-kstreams},1648491700,0
{consumergroup=__strimzi-topic-operator-kstreams},1648491705,0
{consumergroup=__strimzi-topic-operator-kstreams},1648491710,0
{consumergroup=__strimzi-topic-operator-kstreams},1648491715,0
{consumergroup=__strimzi-topic-operator-kstreams},1648491720,0
