labels,timestamp,value
{consumergroup=__strimzi-topic-operator-kstreams},1648503649,24
{consumergroup=__strimzi-topic-operator-kstreams},1648503654,24
{consumergroup=__strimzi-topic-operator-kstreams},1648503659,24
{consumergroup=__strimzi-topic-operator-kstreams},1648503664,0
{consumergroup=__strimzi-topic-operator-kstreams},1648503669,0
{consumergroup=__strimzi-topic-operator-kstreams},1648503674,0
{consumergroup=__strimzi-topic-operator-kstreams},1648503679,0
{consumergroup=__strimzi-topic-operator-kstreams},1648503684,0
{consumergroup=__strimzi-topic-operator-kstreams},1648503689,0
{consumergroup=__strimzi-topic-operator-kstreams},1648503694,0
{consumergroup=__strimzi-topic-operator-kstreams},1648503699,0
{consumergroup=__strimzi-topic-operator-kstreams},1648503704,0
{consumergroup=__strimzi-topic-operator-kstreams},1648503709,0
{consumergroup=__strimzi-topic-operator-kstreams},1648503714,0
{consumergroup=__strimzi-topic-operator-kstreams},1648503719,0
{consumergroup=__strimzi-topic-operator-kstreams},1648503724,0
{consumergroup=__strimzi-topic-operator-kstreams},1648503729,0
{consumergroup=__strimzi-topic-operator-kstreams},1648503734,0
{consumergroup=__strimzi-topic-operator-kstreams},1648503739,0
{consumergroup=__strimzi-topic-operator-kstreams},1648503744,0
{consumergroup=__strimzi-topic-operator-kstreams},1648503749,0
{consumergroup=__strimzi-topic-operator-kstreams},1648503754,0
{consumergroup=__strimzi-topic-operator-kstreams},1648503759,0
{consumergroup=__strimzi-topic-operator-kstreams},1648503764,0
{consumergroup=__strimzi-topic-operator-kstreams},1648503769,0
{consumergroup=__strimzi-topic-operator-kstreams},1648503774,0
{consumergroup=__strimzi-topic-operator-kstreams},1648503779,0
{consumergroup=__strimzi-topic-operator-kstreams},1648503784,0
{consumergroup=__strimzi-topic-operator-kstreams},1648503789,0
{consumergroup=__strimzi-topic-operator-kstreams},1648503794,0
{consumergroup=__strimzi-topic-operator-kstreams},1648503799,0
{consumergroup=__strimzi-topic-operator-kstreams},1648503804,0
{consumergroup=__strimzi-topic-operator-kstreams},1648503809,0
{consumergroup=__strimzi-topic-operator-kstreams},1648503814,0
{consumergroup=__strimzi-topic-operator-kstreams},1648503819,0
{consumergroup=__strimzi-topic-operator-kstreams},1648503824,0
{consumergroup=__strimzi-topic-operator-kstreams},1648503829,0
{consumergroup=__strimzi-topic-operator-kstreams},1648503834,0
{consumergroup=__strimzi-topic-operator-kstreams},1648503839,0
{consumergroup=__strimzi-topic-operator-kstreams},1648503844,0
{consumergroup=__strimzi-topic-operator-kstreams},1648503849,0
{consumergroup=__strimzi-topic-operator-kstreams},1648503854,0
{consumergroup=__strimzi-topic-operator-kstreams},1648503859,0
{consumergroup=__strimzi-topic-operator-kstreams},1648503864,0
{consumergroup=__strimzi-topic-operator-kstreams},1648503869,0
{consumergroup=__strimzi-topic-operator-kstreams},1648503874,0
{consumergroup=__strimzi-topic-operator-kstreams},1648503879,0
{consumergroup=__strimzi-topic-operator-kstreams},1648503884,0
{consumergroup=__strimzi-topic-operator-kstreams},1648503889,0
{consumergroup=__strimzi-topic-operator-kstreams},1648503894,0
{consumergroup=__strimzi-topic-operator-kstreams},1648503899,0
{consumergroup=__strimzi-topic-operator-kstreams},1648503904,0
{consumergroup=__strimzi-topic-operator-kstreams},1648503909,0
{consumergroup=__strimzi-topic-operator-kstreams},1648503914,0
{consumergroup=__strimzi-topic-operator-kstreams},1648503919,0
{consumergroup=__strimzi-topic-operator-kstreams},1648503924,0
{consumergroup=__strimzi-topic-operator-kstreams},1648503929,0
{consumergroup=__strimzi-topic-operator-kstreams},1648503934,0
{consumergroup=__strimzi-topic-operator-kstreams},1648503939,0
{consumergroup=__strimzi-topic-operator-kstreams},1648503944,0
{consumergroup=__strimzi-topic-operator-kstreams},1648503949,0
{consumergroup=__strimzi-topic-operator-kstreams},1648503954,0
{consumergroup=__strimzi-topic-operator-kstreams},1648503959,0
{consumergroup=__strimzi-topic-operator-kstreams},1648503964,0
{consumergroup=__strimzi-topic-operator-kstreams},1648503969,0
{consumergroup=__strimzi-topic-operator-kstreams},1648503974,0
{consumergroup=__strimzi-topic-operator-kstreams},1648503979,0
{consumergroup=__strimzi-topic-operator-kstreams},1648503984,0
{consumergroup=__strimzi-topic-operator-kstreams},1648503989,0
{consumergroup=__strimzi-topic-operator-kstreams},1648503994,0
{consumergroup=__strimzi-topic-operator-kstreams},1648503999,0
{consumergroup=__strimzi-topic-operator-kstreams},1648504004,0
{consumergroup=__strimzi-topic-operator-kstreams},1648504009,0
{consumergroup=__strimzi-topic-operator-kstreams},1648504014,0
{consumergroup=__strimzi-topic-operator-kstreams},1648504019,0
{consumergroup=__strimzi-topic-operator-kstreams},1648504024,0
{consumergroup=__strimzi-topic-operator-kstreams},1648504029,0
{consumergroup=__strimzi-topic-operator-kstreams},1648504034,0
{consumergroup=__strimzi-topic-operator-kstreams},1648504039,0
{consumergroup=__strimzi-topic-operator-kstreams},1648504044,0
{consumergroup=__strimzi-topic-operator-kstreams},1648504049,0
{consumergroup=__strimzi-topic-operator-kstreams},1648504054,0
{consumergroup=__strimzi-topic-operator-kstreams},1648504059,0
{consumergroup=__strimzi-topic-operator-kstreams},1648504064,0
{consumergroup=__strimzi-topic-operator-kstreams},1648504069,0
{consumergroup=__strimzi-topic-operator-kstreams},1648504074,0
{consumergroup=__strimzi-topic-operator-kstreams},1648504079,0
{consumergroup=__strimzi-topic-operator-kstreams},1648504084,0
{consumergroup=__strimzi-topic-operator-kstreams},1648504089,0
{consumergroup=__strimzi-topic-operator-kstreams},1648504094,0
{consumergroup=__strimzi-topic-operator-kstreams},1648504099,0
{consumergroup=__strimzi-topic-operator-kstreams},1648504104,0
{consumergroup=__strimzi-topic-operator-kstreams},1648504109,0
{consumergroup=__strimzi-topic-operator-kstreams},1648504114,0
{consumergroup=__strimzi-topic-operator-kstreams},1648504119,0
{consumergroup=__strimzi-topic-operator-kstreams},1648504124,0
{consumergroup=__strimzi-topic-operator-kstreams},1648504129,0
{consumergroup=__strimzi-topic-operator-kstreams},1648504134,0
{consumergroup=__strimzi-topic-operator-kstreams},1648504139,0
