labels,timestamp,value
{consumergroup=__strimzi-topic-operator-kstreams},1648511747,18
{consumergroup=__strimzi-topic-operator-kstreams},1648511752,18
{consumergroup=__strimzi-topic-operator-kstreams},1648511757,18
{consumergroup=__strimzi-topic-operator-kstreams},1648511762,0
{consumergroup=__strimzi-topic-operator-kstreams},1648511767,0
{consumergroup=__strimzi-topic-operator-kstreams},1648511772,0
{consumergroup=__strimzi-topic-operator-kstreams},1648511777,0
{consumergroup=__strimzi-topic-operator-kstreams},1648511782,0
{consumergroup=__strimzi-topic-operator-kstreams},1648511787,0
{consumergroup=__strimzi-topic-operator-kstreams},1648511792,0
{consumergroup=__strimzi-topic-operator-kstreams},1648511797,0
{consumergroup=__strimzi-topic-operator-kstreams},1648511802,0
{consumergroup=__strimzi-topic-operator-kstreams},1648511807,0
{consumergroup=__strimzi-topic-operator-kstreams},1648511812,0
{consumergroup=__strimzi-topic-operator-kstreams},1648511817,0
{consumergroup=__strimzi-topic-operator-kstreams},1648511822,0
{consumergroup=__strimzi-topic-operator-kstreams},1648511827,0
{consumergroup=__strimzi-topic-operator-kstreams},1648511832,0
{consumergroup=__strimzi-topic-operator-kstreams},1648511837,0
{consumergroup=__strimzi-topic-operator-kstreams},1648511842,0
{consumergroup=__strimzi-topic-operator-kstreams},1648511847,0
{consumergroup=__strimzi-topic-operator-kstreams},1648511852,0
{consumergroup=__strimzi-topic-operator-kstreams},1648511857,0
{consumergroup=__strimzi-topic-operator-kstreams},1648511862,0
{consumergroup=__strimzi-topic-operator-kstreams},1648511867,0
{consumergroup=__strimzi-topic-operator-kstreams},1648511872,0
{consumergroup=__strimzi-topic-operator-kstreams},1648511877,0
{consumergroup=__strimzi-topic-operator-kstreams},1648511882,0
{consumergroup=__strimzi-topic-operator-kstreams},1648511887,0
{consumergroup=__strimzi-topic-operator-kstreams},1648511892,0
{consumergroup=__strimzi-topic-operator-kstreams},1648511897,0
{consumergroup=__strimzi-topic-operator-kstreams},1648511902,0
{consumergroup=__strimzi-topic-operator-kstreams},1648511907,0
{consumergroup=__strimzi-topic-operator-kstreams},1648511912,0
{consumergroup=__strimzi-topic-operator-kstreams},1648511917,0
{consumergroup=__strimzi-topic-operator-kstreams},1648511922,0
{consumergroup=__strimzi-topic-operator-kstreams},1648511927,0
{consumergroup=__strimzi-topic-operator-kstreams},1648511932,0
{consumergroup=__strimzi-topic-operator-kstreams},1648511937,0
{consumergroup=__strimzi-topic-operator-kstreams},1648511942,0
{consumergroup=__strimzi-topic-operator-kstreams},1648511947,0
{consumergroup=__strimzi-topic-operator-kstreams},1648511952,0
{consumergroup=__strimzi-topic-operator-kstreams},1648511957,0
{consumergroup=__strimzi-topic-operator-kstreams},1648511962,0
{consumergroup=__strimzi-topic-operator-kstreams},1648511967,0
{consumergroup=__strimzi-topic-operator-kstreams},1648511972,0
{consumergroup=__strimzi-topic-operator-kstreams},1648511977,0
{consumergroup=__strimzi-topic-operator-kstreams},1648511982,0
{consumergroup=__strimzi-topic-operator-kstreams},1648511987,0
{consumergroup=__strimzi-topic-operator-kstreams},1648511992,0
{consumergroup=__strimzi-topic-operator-kstreams},1648511997,0
{consumergroup=__strimzi-topic-operator-kstreams},1648512002,0
{consumergroup=__strimzi-topic-operator-kstreams},1648512007,0
{consumergroup=__strimzi-topic-operator-kstreams},1648512012,0
{consumergroup=__strimzi-topic-operator-kstreams},1648512017,0
{consumergroup=__strimzi-topic-operator-kstreams},1648512022,0
{consumergroup=__strimzi-topic-operator-kstreams},1648512027,0
{consumergroup=__strimzi-topic-operator-kstreams},1648512032,0
{consumergroup=__strimzi-topic-operator-kstreams},1648512037,0
{consumergroup=__strimzi-topic-operator-kstreams},1648512042,0
{consumergroup=__strimzi-topic-operator-kstreams},1648512047,0
{consumergroup=__strimzi-topic-operator-kstreams},1648512052,0
{consumergroup=__strimzi-topic-operator-kstreams},1648512057,0
{consumergroup=__strimzi-topic-operator-kstreams},1648512062,0
{consumergroup=__strimzi-topic-operator-kstreams},1648512067,0
{consumergroup=__strimzi-topic-operator-kstreams},1648512072,0
{consumergroup=__strimzi-topic-operator-kstreams},1648512077,0
{consumergroup=__strimzi-topic-operator-kstreams},1648512082,0
{consumergroup=__strimzi-topic-operator-kstreams},1648512087,0
{consumergroup=__strimzi-topic-operator-kstreams},1648512092,0
{consumergroup=__strimzi-topic-operator-kstreams},1648512097,0
{consumergroup=__strimzi-topic-operator-kstreams},1648512102,0
{consumergroup=__strimzi-topic-operator-kstreams},1648512107,0
{consumergroup=__strimzi-topic-operator-kstreams},1648512112,0
{consumergroup=__strimzi-topic-operator-kstreams},1648512117,0
{consumergroup=__strimzi-topic-operator-kstreams},1648512122,0
{consumergroup=__strimzi-topic-operator-kstreams},1648512127,0
{consumergroup=__strimzi-topic-operator-kstreams},1648512132,0
{consumergroup=__strimzi-topic-operator-kstreams},1648512137,0
{consumergroup=__strimzi-topic-operator-kstreams},1648512142,0
{consumergroup=__strimzi-topic-operator-kstreams},1648512147,0
{consumergroup=__strimzi-topic-operator-kstreams},1648512152,0
{consumergroup=__strimzi-topic-operator-kstreams},1648512157,0
{consumergroup=__strimzi-topic-operator-kstreams},1648512162,0
{consumergroup=__strimzi-topic-operator-kstreams},1648512167,0
{consumergroup=__strimzi-topic-operator-kstreams},1648512172,0
{consumergroup=__strimzi-topic-operator-kstreams},1648512177,0
{consumergroup=__strimzi-topic-operator-kstreams},1648512182,0
{consumergroup=__strimzi-topic-operator-kstreams},1648512187,0
{consumergroup=__strimzi-topic-operator-kstreams},1648512192,0
{consumergroup=__strimzi-topic-operator-kstreams},1648512197,0
{consumergroup=__strimzi-topic-operator-kstreams},1648512202,0
{consumergroup=__strimzi-topic-operator-kstreams},1648512207,0
{consumergroup=__strimzi-topic-operator-kstreams},1648512212,0
{consumergroup=__strimzi-topic-operator-kstreams},1648512217,0
{consumergroup=__strimzi-topic-operator-kstreams},1648512222,0
{consumergroup=__strimzi-topic-operator-kstreams},1648512227,0
{consumergroup=__strimzi-topic-operator-kstreams},1648512232,0
{consumergroup=__strimzi-topic-operator-kstreams},1648512237,0
