labels,timestamp,value
{consumergroup=__strimzi-topic-operator-kstreams},1648483636,8
{consumergroup=__strimzi-topic-operator-kstreams},1648483641,8
{consumergroup=__strimzi-topic-operator-kstreams},1648483646,8
{consumergroup=__strimzi-topic-operator-kstreams},1648483651,9
{consumergroup=__strimzi-topic-operator-kstreams},1648483656,9
{consumergroup=__strimzi-topic-operator-kstreams},1648483661,9
{consumergroup=__strimzi-topic-operator-kstreams},1648483666,0
{consumergroup=__strimzi-topic-operator-kstreams},1648483671,0
{consumergroup=__strimzi-topic-operator-kstreams},1648483676,0
{consumergroup=__strimzi-topic-operator-kstreams},1648483681,0
{consumergroup=__strimzi-topic-operator-kstreams},1648483686,0
{consumergroup=__strimzi-topic-operator-kstreams},1648483691,0
{consumergroup=__strimzi-topic-operator-kstreams},1648483696,0
{consumergroup=__strimzi-topic-operator-kstreams},1648483701,0
{consumergroup=__strimzi-topic-operator-kstreams},1648483706,0
{consumergroup=__strimzi-topic-operator-kstreams},1648483711,0
{consumergroup=__strimzi-topic-operator-kstreams},1648483716,0
{consumergroup=__strimzi-topic-operator-kstreams},1648483721,0
{consumergroup=__strimzi-topic-operator-kstreams},1648483726,0
{consumergroup=__strimzi-topic-operator-kstreams},1648483731,0
{consumergroup=__strimzi-topic-operator-kstreams},1648483736,0
{consumergroup=__strimzi-topic-operator-kstreams},1648483741,0
{consumergroup=__strimzi-topic-operator-kstreams},1648483746,0
{consumergroup=__strimzi-topic-operator-kstreams},1648483751,0
{consumergroup=__strimzi-topic-operator-kstreams},1648483756,0
{consumergroup=__strimzi-topic-operator-kstreams},1648483761,0
{consumergroup=__strimzi-topic-operator-kstreams},1648483766,0
{consumergroup=__strimzi-topic-operator-kstreams},1648483771,0
{consumergroup=__strimzi-topic-operator-kstreams},1648483776,0
{consumergroup=__strimzi-topic-operator-kstreams},1648483781,0
{consumergroup=__strimzi-topic-operator-kstreams},1648483786,0
{consumergroup=__strimzi-topic-operator-kstreams},1648483791,0
{consumergroup=__strimzi-topic-operator-kstreams},1648483796,0
{consumergroup=__strimzi-topic-operator-kstreams},1648483801,0
{consumergroup=__strimzi-topic-operator-kstreams},1648483806,0
{consumergroup=__strimzi-topic-operator-kstreams},1648483811,0
{consumergroup=__strimzi-topic-operator-kstreams},1648483816,0
{consumergroup=__strimzi-topic-operator-kstreams},1648483821,0
{consumergroup=__strimzi-topic-operator-kstreams},1648483826,0
{consumergroup=__strimzi-topic-operator-kstreams},1648483831,0
{consumergroup=__strimzi-topic-operator-kstreams},1648483836,0
{consumergroup=__strimzi-topic-operator-kstreams},1648483841,0
{consumergroup=__strimzi-topic-operator-kstreams},1648483846,0
{consumergroup=__strimzi-topic-operator-kstreams},1648483851,0
{consumergroup=__strimzi-topic-operator-kstreams},1648483856,0
{consumergroup=__strimzi-topic-operator-kstreams},1648483861,0
{consumergroup=__strimzi-topic-operator-kstreams},1648483866,0
{consumergroup=__strimzi-topic-operator-kstreams},1648483871,0
{consumergroup=__strimzi-topic-operator-kstreams},1648483876,0
{consumergroup=__strimzi-topic-operator-kstreams},1648483881,0
{consumergroup=__strimzi-topic-operator-kstreams},1648483886,0
{consumergroup=__strimzi-topic-operator-kstreams},1648483891,0
{consumergroup=__strimzi-topic-operator-kstreams},1648483896,0
{consumergroup=__strimzi-topic-operator-kstreams},1648483901,0
{consumergroup=__strimzi-topic-operator-kstreams},1648483906,0
{consumergroup=__strimzi-topic-operator-kstreams},1648483911,0
{consumergroup=__strimzi-topic-operator-kstreams},1648483916,0
{consumergroup=__strimzi-topic-operator-kstreams},1648483921,0
{consumergroup=__strimzi-topic-operator-kstreams},1648483926,0
{consumergroup=__strimzi-topic-operator-kstreams},1648483931,0
{consumergroup=__strimzi-topic-operator-kstreams},1648483936,0
{consumergroup=__strimzi-topic-operator-kstreams},1648483941,0
{consumergroup=__strimzi-topic-operator-kstreams},1648483946,0
{consumergroup=__strimzi-topic-operator-kstreams},1648483951,0
{consumergroup=__strimzi-topic-operator-kstreams},1648483956,0
{consumergroup=__strimzi-topic-operator-kstreams},1648483961,0
{consumergroup=__strimzi-topic-operator-kstreams},1648483966,0
{consumergroup=__strimzi-topic-operator-kstreams},1648483971,0
{consumergroup=__strimzi-topic-operator-kstreams},1648483976,0
{consumergroup=__strimzi-topic-operator-kstreams},1648483981,0
{consumergroup=__strimzi-topic-operator-kstreams},1648483986,0
{consumergroup=__strimzi-topic-operator-kstreams},1648483991,0
{consumergroup=__strimzi-topic-operator-kstreams},1648483996,0
{consumergroup=__strimzi-topic-operator-kstreams},1648484001,0
{consumergroup=__strimzi-topic-operator-kstreams},1648484006,0
{consumergroup=__strimzi-topic-operator-kstreams},1648484011,0
{consumergroup=__strimzi-topic-operator-kstreams},1648484016,0
{consumergroup=__strimzi-topic-operator-kstreams},1648484021,0
{consumergroup=__strimzi-topic-operator-kstreams},1648484026,0
{consumergroup=__strimzi-topic-operator-kstreams},1648484031,0
{consumergroup=__strimzi-topic-operator-kstreams},1648484036,0
{consumergroup=__strimzi-topic-operator-kstreams},1648484041,0
{consumergroup=__strimzi-topic-operator-kstreams},1648484046,0
{consumergroup=__strimzi-topic-operator-kstreams},1648484051,0
{consumergroup=__strimzi-topic-operator-kstreams},1648484056,0
{consumergroup=__strimzi-topic-operator-kstreams},1648484061,0
{consumergroup=__strimzi-topic-operator-kstreams},1648484066,0
{consumergroup=__strimzi-topic-operator-kstreams},1648484071,0
{consumergroup=__strimzi-topic-operator-kstreams},1648484076,0
{consumergroup=__strimzi-topic-operator-kstreams},1648484081,0
{consumergroup=__strimzi-topic-operator-kstreams},1648484086,0
{consumergroup=__strimzi-topic-operator-kstreams},1648484091,0
{consumergroup=__strimzi-topic-operator-kstreams},1648484096,0
{consumergroup=__strimzi-topic-operator-kstreams},1648484101,0
{consumergroup=__strimzi-topic-operator-kstreams},1648484106,0
{consumergroup=__strimzi-topic-operator-kstreams},1648484111,0
{consumergroup=__strimzi-topic-operator-kstreams},1648484116,0
{consumergroup=__strimzi-topic-operator-kstreams},1648484121,0
{consumergroup=__strimzi-topic-operator-kstreams},1648484126,0
{consumergroup=__strimzi-topic-operator-kstreams},1648484131,0
