labels,timestamp,value
{consumergroup=__strimzi-topic-operator-kstreams},1648499325,0
{consumergroup=__strimzi-topic-operator-kstreams},1648499335,12
{consumergroup=__strimzi-topic-operator-kstreams},1648499340,12
{consumergroup=__strimzi-topic-operator-kstreams},1648499345,12
{consumergroup=__strimzi-topic-operator-kstreams},1648499350,12
{consumergroup=__strimzi-topic-operator-kstreams},1648499355,12
{consumergroup=__strimzi-topic-operator-kstreams},1648499360,12
{consumergroup=__strimzi-topic-operator-kstreams},1648499365,0
{consumergroup=__strimzi-topic-operator-kstreams},1648499370,0
{consumergroup=__strimzi-topic-operator-kstreams},1648499375,0
{consumergroup=__strimzi-topic-operator-kstreams},1648499380,0
{consumergroup=__strimzi-topic-operator-kstreams},1648499385,0
{consumergroup=__strimzi-topic-operator-kstreams},1648499390,0
{consumergroup=__strimzi-topic-operator-kstreams},1648499395,0
{consumergroup=__strimzi-topic-operator-kstreams},1648499400,0
{consumergroup=__strimzi-topic-operator-kstreams},1648499405,0
{consumergroup=__strimzi-topic-operator-kstreams},1648499410,1
{consumergroup=__strimzi-topic-operator-kstreams},1648499415,1
{consumergroup=__strimzi-topic-operator-kstreams},1648499420,1
{consumergroup=__strimzi-topic-operator-kstreams},1648499425,0
{consumergroup=__strimzi-topic-operator-kstreams},1648499430,0
{consumergroup=__strimzi-topic-operator-kstreams},1648499435,0
{consumergroup=__strimzi-topic-operator-kstreams},1648499440,0
{consumergroup=__strimzi-topic-operator-kstreams},1648499445,0
{consumergroup=__strimzi-topic-operator-kstreams},1648499450,0
{consumergroup=__strimzi-topic-operator-kstreams},1648499455,0
{consumergroup=__strimzi-topic-operator-kstreams},1648499460,0
{consumergroup=__strimzi-topic-operator-kstreams},1648499465,0
{consumergroup=__strimzi-topic-operator-kstreams},1648499470,0
{consumergroup=__strimzi-topic-operator-kstreams},1648499475,0
{consumergroup=__strimzi-topic-operator-kstreams},1648499480,0
{consumergroup=__strimzi-topic-operator-kstreams},1648499485,0
{consumergroup=__strimzi-topic-operator-kstreams},1648499490,0
{consumergroup=__strimzi-topic-operator-kstreams},1648499495,0
{consumergroup=__strimzi-topic-operator-kstreams},1648499500,0
{consumergroup=__strimzi-topic-operator-kstreams},1648499505,0
{consumergroup=__strimzi-topic-operator-kstreams},1648499510,0
{consumergroup=__strimzi-topic-operator-kstreams},1648499515,0
{consumergroup=__strimzi-topic-operator-kstreams},1648499520,0
{consumergroup=__strimzi-topic-operator-kstreams},1648499525,0
{consumergroup=__strimzi-topic-operator-kstreams},1648499530,0
{consumergroup=__strimzi-topic-operator-kstreams},1648499535,0
{consumergroup=__strimzi-topic-operator-kstreams},1648499540,0
{consumergroup=__strimzi-topic-operator-kstreams},1648499545,0
{consumergroup=__strimzi-topic-operator-kstreams},1648499550,0
{consumergroup=__strimzi-topic-operator-kstreams},1648499555,0
{consumergroup=__strimzi-topic-operator-kstreams},1648499560,0
{consumergroup=__strimzi-topic-operator-kstreams},1648499565,0
{consumergroup=__strimzi-topic-operator-kstreams},1648499570,0
{consumergroup=__strimzi-topic-operator-kstreams},1648499575,0
{consumergroup=__strimzi-topic-operator-kstreams},1648499580,0
{consumergroup=__strimzi-topic-operator-kstreams},1648499585,0
{consumergroup=__strimzi-topic-operator-kstreams},1648499590,0
{consumergroup=__strimzi-topic-operator-kstreams},1648499595,0
{consumergroup=__strimzi-topic-operator-kstreams},1648499600,0
{consumergroup=__strimzi-topic-operator-kstreams},1648499605,0
{consumergroup=__strimzi-topic-operator-kstreams},1648499610,0
{consumergroup=__strimzi-topic-operator-kstreams},1648499615,0
{consumergroup=__strimzi-topic-operator-kstreams},1648499620,0
{consumergroup=__strimzi-topic-operator-kstreams},1648499625,0
{consumergroup=__strimzi-topic-operator-kstreams},1648499630,0
{consumergroup=__strimzi-topic-operator-kstreams},1648499635,0
{consumergroup=__strimzi-topic-operator-kstreams},1648499640,0
{consumergroup=__strimzi-topic-operator-kstreams},1648499645,0
{consumergroup=__strimzi-topic-operator-kstreams},1648499650,0
{consumergroup=__strimzi-topic-operator-kstreams},1648499655,0
{consumergroup=__strimzi-topic-operator-kstreams},1648499660,0
{consumergroup=__strimzi-topic-operator-kstreams},1648499665,0
{consumergroup=__strimzi-topic-operator-kstreams},1648499670,0
{consumergroup=__strimzi-topic-operator-kstreams},1648499675,0
{consumergroup=__strimzi-topic-operator-kstreams},1648499680,0
{consumergroup=__strimzi-topic-operator-kstreams},1648499685,0
{consumergroup=__strimzi-topic-operator-kstreams},1648499690,0
{consumergroup=__strimzi-topic-operator-kstreams},1648499695,0
{consumergroup=__strimzi-topic-operator-kstreams},1648499700,0
{consumergroup=__strimzi-topic-operator-kstreams},1648499705,0
{consumergroup=__strimzi-topic-operator-kstreams},1648499710,0
{consumergroup=__strimzi-topic-operator-kstreams},1648499715,0
{consumergroup=__strimzi-topic-operator-kstreams},1648499720,0
{consumergroup=__strimzi-topic-operator-kstreams},1648499725,0
{consumergroup=__strimzi-topic-operator-kstreams},1648499730,0
{consumergroup=__strimzi-topic-operator-kstreams},1648499735,0
{consumergroup=__strimzi-topic-operator-kstreams},1648499740,0
{consumergroup=__strimzi-topic-operator-kstreams},1648499745,0
{consumergroup=__strimzi-topic-operator-kstreams},1648499750,0
{consumergroup=__strimzi-topic-operator-kstreams},1648499755,0
{consumergroup=__strimzi-topic-operator-kstreams},1648499760,0
{consumergroup=__strimzi-topic-operator-kstreams},1648499765,0
{consumergroup=__strimzi-topic-operator-kstreams},1648499770,0
{consumergroup=__strimzi-topic-operator-kstreams},1648499775,0
{consumergroup=__strimzi-topic-operator-kstreams},1648499780,0
{consumergroup=__strimzi-topic-operator-kstreams},1648499785,0
{consumergroup=__strimzi-topic-operator-kstreams},1648499790,0
{consumergroup=__strimzi-topic-operator-kstreams},1648499795,0
{consumergroup=__strimzi-topic-operator-kstreams},1648499800,0
{consumergroup=__strimzi-topic-operator-kstreams},1648499805,0
{consumergroup=__strimzi-topic-operator-kstreams},1648499810,0
{consumergroup=__strimzi-topic-operator-kstreams},1648499815,0
{consumergroup=__strimzi-topic-operator-kstreams},1648499820,0
{consumergroup=__strimzi-topic-operator-kstreams},1648499825,0
{consumergroup=__strimzi-topic-operator-kstreams},1648499830,0
