labels,timestamp,value
{},1649155370,0
{},1649155375,0
{},1649155380,0
{},1649155385,0
{},1649155390,0
{},1649155395,0
{},1649155400,0
{},1649155405,0
{},1649155410,0
{},1649155415,0
{},1649155420,0
{},1649155425,0
{},1649155430,0
{},1649155435,0
{},1649155440,0
