labels,timestamp,value
{},1649164271,0
{},1649164276,0
{},1649164281,0
{},1649164286,0
{},1649164291,0
{},1649164296,0
{},1649164301,0
{},1649164306,0
{},1649164311,0
{},1649164316,0
{},1649164321,0
{},1649164326,0
{},1649164331,0
{},1649164336,0
