labels,timestamp,value
{consumergroup=__strimzi-topic-operator-kstreams},1649164276,10
{consumergroup=__strimzi-topic-operator-kstreams},1649164281,10
{consumergroup=__strimzi-topic-operator-kstreams},1649164286,10
{consumergroup=__strimzi-topic-operator-kstreams},1649164291,10
{consumergroup=__strimzi-topic-operator-kstreams},1649164296,10
{consumergroup=__strimzi-topic-operator-kstreams},1649164301,10
{consumergroup=__strimzi-topic-operator-kstreams},1649164306,0
{consumergroup=__strimzi-topic-operator-kstreams},1649164311,0
{consumergroup=__strimzi-topic-operator-kstreams},1649164316,0
{consumergroup=__strimzi-topic-operator-kstreams},1649164321,0
{consumergroup=__strimzi-topic-operator-kstreams},1649164326,0
{consumergroup=__strimzi-topic-operator-kstreams},1649164331,0
{consumergroup=__strimzi-topic-operator-kstreams},1649164336,0
{consumergroup=__strimzi-topic-operator-kstreams},1649164341,0
{consumergroup=__strimzi-topic-operator-kstreams},1649164346,0
{consumergroup=__strimzi-topic-operator-kstreams},1649164351,0
{consumergroup=__strimzi-topic-operator-kstreams},1649164356,0
{consumergroup=__strimzi-topic-operator-kstreams},1649164361,0
{consumergroup=__strimzi-topic-operator-kstreams},1649164366,0
{consumergroup=__strimzi-topic-operator-kstreams},1649164371,0
{consumergroup=__strimzi-topic-operator-kstreams},1649164376,0
{consumergroup=__strimzi-topic-operator-kstreams},1649164381,0
{consumergroup=__strimzi-topic-operator-kstreams},1649164386,0
{consumergroup=__strimzi-topic-operator-kstreams},1649164391,0
{consumergroup=__strimzi-topic-operator-kstreams},1649164396,0
{consumergroup=__strimzi-topic-operator-kstreams},1649164401,0
{consumergroup=__strimzi-topic-operator-kstreams},1649164406,0
{consumergroup=__strimzi-topic-operator-kstreams},1649164411,0
{consumergroup=__strimzi-topic-operator-kstreams},1649164416,0
{consumergroup=__strimzi-topic-operator-kstreams},1649164421,0
{consumergroup=__strimzi-topic-operator-kstreams},1649164426,0
{consumergroup=__strimzi-topic-operator-kstreams},1649164431,0
{consumergroup=__strimzi-topic-operator-kstreams},1649164436,0
{consumergroup=__strimzi-topic-operator-kstreams},1649164441,0
{consumergroup=__strimzi-topic-operator-kstreams},1649164446,0
{consumergroup=__strimzi-topic-operator-kstreams},1649164451,0
{consumergroup=__strimzi-topic-operator-kstreams},1649164456,0
{consumergroup=__strimzi-topic-operator-kstreams},1649164461,0
{consumergroup=__strimzi-topic-operator-kstreams},1649164466,0
{consumergroup=__strimzi-topic-operator-kstreams},1649164471,0
{consumergroup=__strimzi-topic-operator-kstreams},1649164476,0
{consumergroup=__strimzi-topic-operator-kstreams},1649164481,0
{consumergroup=__strimzi-topic-operator-kstreams},1649164486,0
{consumergroup=__strimzi-topic-operator-kstreams},1649164491,0
{consumergroup=__strimzi-topic-operator-kstreams},1649164496,0
{consumergroup=__strimzi-topic-operator-kstreams},1649164501,0
{consumergroup=__strimzi-topic-operator-kstreams},1649164506,0
{consumergroup=__strimzi-topic-operator-kstreams},1649164511,0
{consumergroup=__strimzi-topic-operator-kstreams},1649164516,0
{consumergroup=__strimzi-topic-operator-kstreams},1649164521,0
{consumergroup=__strimzi-topic-operator-kstreams},1649164526,0
{consumergroup=__strimzi-topic-operator-kstreams},1649164531,0
{consumergroup=__strimzi-topic-operator-kstreams},1649164536,0
{consumergroup=__strimzi-topic-operator-kstreams},1649164541,0
{consumergroup=__strimzi-topic-operator-kstreams},1649164546,0
{consumergroup=__strimzi-topic-operator-kstreams},1649164551,0
{consumergroup=__strimzi-topic-operator-kstreams},1649164556,0
{consumergroup=__strimzi-topic-operator-kstreams},1649164561,0
{consumergroup=__strimzi-topic-operator-kstreams},1649164566,0
{consumergroup=__strimzi-topic-operator-kstreams},1649164571,0
{consumergroup=__strimzi-topic-operator-kstreams},1649164576,0
{consumergroup=__strimzi-topic-operator-kstreams},1649164581,0
{consumergroup=__strimzi-topic-operator-kstreams},1649164586,0
{consumergroup=__strimzi-topic-operator-kstreams},1649164591,0
