labels,timestamp,value
{consumergroup=__strimzi-topic-operator-kstreams},1649156962,0
{consumergroup=__strimzi-topic-operator-kstreams},1649156967,0
{consumergroup=__strimzi-topic-operator-kstreams},1649156972,0
{consumergroup=__strimzi-topic-operator-kstreams},1649156977,3
{consumergroup=__strimzi-topic-operator-kstreams},1649156982,3
{consumergroup=__strimzi-topic-operator-kstreams},1649156987,3
{consumergroup=__strimzi-topic-operator-kstreams},1649156992,0
{consumergroup=__strimzi-topic-operator-kstreams},1649156997,0
{consumergroup=__strimzi-topic-operator-kstreams},1649157002,0
{consumergroup=__strimzi-topic-operator-kstreams},1649157007,0
{consumergroup=__strimzi-topic-operator-kstreams},1649157012,0
{consumergroup=__strimzi-topic-operator-kstreams},1649157017,0
{consumergroup=__strimzi-topic-operator-kstreams},1649157022,0
{consumergroup=__strimzi-topic-operator-kstreams},1649157027,0
{consumergroup=__strimzi-topic-operator-kstreams},1649157032,0
{consumergroup=__strimzi-topic-operator-kstreams},1649157037,0
{consumergroup=__strimzi-topic-operator-kstreams},1649157042,0
{consumergroup=__strimzi-topic-operator-kstreams},1649157047,0
{consumergroup=__strimzi-topic-operator-kstreams},1649157052,0
{consumergroup=__strimzi-topic-operator-kstreams},1649157057,0
{consumergroup=__strimzi-topic-operator-kstreams},1649157062,0
{consumergroup=__strimzi-topic-operator-kstreams},1649157067,0
{consumergroup=__strimzi-topic-operator-kstreams},1649157072,0
{consumergroup=__strimzi-topic-operator-kstreams},1649157077,0
{consumergroup=__strimzi-topic-operator-kstreams},1649157082,0
{consumergroup=__strimzi-topic-operator-kstreams},1649157087,0
{consumergroup=__strimzi-topic-operator-kstreams},1649157092,0
{consumergroup=__strimzi-topic-operator-kstreams},1649157097,0
{consumergroup=__strimzi-topic-operator-kstreams},1649157102,0
{consumergroup=__strimzi-topic-operator-kstreams},1649157107,0
{consumergroup=__strimzi-topic-operator-kstreams},1649157112,0
{consumergroup=__strimzi-topic-operator-kstreams},1649157117,0
{consumergroup=__strimzi-topic-operator-kstreams},1649157122,0
{consumergroup=__strimzi-topic-operator-kstreams},1649157127,0
{consumergroup=__strimzi-topic-operator-kstreams},1649157132,0
{consumergroup=__strimzi-topic-operator-kstreams},1649157137,0
{consumergroup=__strimzi-topic-operator-kstreams},1649157142,0
{consumergroup=__strimzi-topic-operator-kstreams},1649157147,0
{consumergroup=__strimzi-topic-operator-kstreams},1649157152,0
{consumergroup=__strimzi-topic-operator-kstreams},1649157157,0
{consumergroup=__strimzi-topic-operator-kstreams},1649157162,0
{consumergroup=__strimzi-topic-operator-kstreams},1649157167,0
{consumergroup=__strimzi-topic-operator-kstreams},1649157172,0
{consumergroup=__strimzi-topic-operator-kstreams},1649157177,0
{consumergroup=__strimzi-topic-operator-kstreams},1649157182,0
{consumergroup=__strimzi-topic-operator-kstreams},1649157187,0
{consumergroup=__strimzi-topic-operator-kstreams},1649157192,0
{consumergroup=__strimzi-topic-operator-kstreams},1649157197,0
{consumergroup=__strimzi-topic-operator-kstreams},1649157202,0
{consumergroup=__strimzi-topic-operator-kstreams},1649157207,0
{consumergroup=__strimzi-topic-operator-kstreams},1649157212,0
{consumergroup=__strimzi-topic-operator-kstreams},1649157217,0
{consumergroup=__strimzi-topic-operator-kstreams},1649157222,0
{consumergroup=__strimzi-topic-operator-kstreams},1649157227,0
{consumergroup=__strimzi-topic-operator-kstreams},1649157232,0
{consumergroup=__strimzi-topic-operator-kstreams},1649157237,0
{consumergroup=__strimzi-topic-operator-kstreams},1649157242,0
{consumergroup=__strimzi-topic-operator-kstreams},1649157247,0
{consumergroup=__strimzi-topic-operator-kstreams},1649157252,0
{consumergroup=__strimzi-topic-operator-kstreams},1649157257,0
{consumergroup=__strimzi-topic-operator-kstreams},1649157262,0
{consumergroup=__strimzi-topic-operator-kstreams},1649157267,0
{consumergroup=__strimzi-topic-operator-kstreams},1649157272,0
