labels,timestamp,value
{consumergroup=__strimzi-topic-operator-kstreams},1649175958,9
{consumergroup=__strimzi-topic-operator-kstreams},1649175963,9
{consumergroup=__strimzi-topic-operator-kstreams},1649175968,9
{consumergroup=__strimzi-topic-operator-kstreams},1649175973,0
{consumergroup=__strimzi-topic-operator-kstreams},1649175978,0
{consumergroup=__strimzi-topic-operator-kstreams},1649175983,0
{consumergroup=__strimzi-topic-operator-kstreams},1649175988,0
{consumergroup=__strimzi-topic-operator-kstreams},1649175993,0
{consumergroup=__strimzi-topic-operator-kstreams},1649175998,0
{consumergroup=__strimzi-topic-operator-kstreams},1649176003,0
{consumergroup=__strimzi-topic-operator-kstreams},1649176008,0
{consumergroup=__strimzi-topic-operator-kstreams},1649176013,0
{consumergroup=__strimzi-topic-operator-kstreams},1649176018,0
{consumergroup=__strimzi-topic-operator-kstreams},1649176023,0
{consumergroup=__strimzi-topic-operator-kstreams},1649176028,0
{consumergroup=__strimzi-topic-operator-kstreams},1649176033,0
{consumergroup=__strimzi-topic-operator-kstreams},1649176038,0
{consumergroup=__strimzi-topic-operator-kstreams},1649176043,0
{consumergroup=__strimzi-topic-operator-kstreams},1649176048,0
{consumergroup=__strimzi-topic-operator-kstreams},1649176053,0
{consumergroup=__strimzi-topic-operator-kstreams},1649176058,0
{consumergroup=__strimzi-topic-operator-kstreams},1649176063,0
{consumergroup=__strimzi-topic-operator-kstreams},1649176068,0
{consumergroup=__strimzi-topic-operator-kstreams},1649176073,0
{consumergroup=__strimzi-topic-operator-kstreams},1649176078,3
{consumergroup=__strimzi-topic-operator-kstreams},1649176083,3
{consumergroup=__strimzi-topic-operator-kstreams},1649176088,3
{consumergroup=__strimzi-topic-operator-kstreams},1649176093,0
{consumergroup=__strimzi-topic-operator-kstreams},1649176098,0
{consumergroup=__strimzi-topic-operator-kstreams},1649176103,0
{consumergroup=__strimzi-topic-operator-kstreams},1649176108,0
{consumergroup=__strimzi-topic-operator-kstreams},1649176113,0
{consumergroup=__strimzi-topic-operator-kstreams},1649176118,0
{consumergroup=__strimzi-topic-operator-kstreams},1649176123,0
{consumergroup=__strimzi-topic-operator-kstreams},1649176128,0
{consumergroup=__strimzi-topic-operator-kstreams},1649176133,0
{consumergroup=__strimzi-topic-operator-kstreams},1649176138,0
{consumergroup=__strimzi-topic-operator-kstreams},1649176143,0
{consumergroup=__strimzi-topic-operator-kstreams},1649176148,0
{consumergroup=__strimzi-topic-operator-kstreams},1649176153,0
{consumergroup=__strimzi-topic-operator-kstreams},1649176158,0
{consumergroup=__strimzi-topic-operator-kstreams},1649176163,0
{consumergroup=__strimzi-topic-operator-kstreams},1649176168,0
{consumergroup=__strimzi-topic-operator-kstreams},1649176173,0
{consumergroup=__strimzi-topic-operator-kstreams},1649176178,0
{consumergroup=__strimzi-topic-operator-kstreams},1649176183,0
{consumergroup=__strimzi-topic-operator-kstreams},1649176188,0
{consumergroup=__strimzi-topic-operator-kstreams},1649176193,0
{consumergroup=__strimzi-topic-operator-kstreams},1649176198,0
{consumergroup=__strimzi-topic-operator-kstreams},1649176203,0
{consumergroup=__strimzi-topic-operator-kstreams},1649176208,0
{consumergroup=__strimzi-topic-operator-kstreams},1649176213,0
{consumergroup=__strimzi-topic-operator-kstreams},1649176218,0
{consumergroup=__strimzi-topic-operator-kstreams},1649176223,0
{consumergroup=__strimzi-topic-operator-kstreams},1649176228,0
{consumergroup=__strimzi-topic-operator-kstreams},1649176233,0
{consumergroup=__strimzi-topic-operator-kstreams},1649176238,0
{consumergroup=__strimzi-topic-operator-kstreams},1649176243,0
{consumergroup=__strimzi-topic-operator-kstreams},1649176248,0
{consumergroup=__strimzi-topic-operator-kstreams},1649176253,0
{consumergroup=__strimzi-topic-operator-kstreams},1649176258,0
{consumergroup=__strimzi-topic-operator-kstreams},1649176263,0
{consumergroup=__strimzi-topic-operator-kstreams},1649176268,0
{consumergroup=__strimzi-topic-operator-kstreams},1649176273,0
{consumergroup=__strimzi-topic-operator-kstreams},1649176278,0
{consumergroup=__strimzi-topic-operator-kstreams},1649176283,0
{consumergroup=__strimzi-topic-operator-kstreams},1649176288,0
{consumergroup=__strimzi-topic-operator-kstreams},1649176293,0
{consumergroup=__strimzi-topic-operator-kstreams},1649176298,0
{consumergroup=__strimzi-topic-operator-kstreams},1649176303,0
{consumergroup=__strimzi-topic-operator-kstreams},1649176308,0
{consumergroup=__strimzi-topic-operator-kstreams},1649176313,0
{consumergroup=__strimzi-topic-operator-kstreams},1649176318,0
{consumergroup=__strimzi-topic-operator-kstreams},1649176323,0
{consumergroup=__strimzi-topic-operator-kstreams},1649176328,0
{consumergroup=__strimzi-topic-operator-kstreams},1649176333,0
{consumergroup=__strimzi-topic-operator-kstreams},1649176338,0
{consumergroup=__strimzi-topic-operator-kstreams},1649176343,0
{consumergroup=__strimzi-topic-operator-kstreams},1649176348,0
{consumergroup=__strimzi-topic-operator-kstreams},1649176353,0
{consumergroup=__strimzi-topic-operator-kstreams},1649176358,0
{consumergroup=__strimzi-topic-operator-kstreams},1649176363,0
{consumergroup=__strimzi-topic-operator-kstreams},1649176368,0
{consumergroup=__strimzi-topic-operator-kstreams},1649176373,0
{consumergroup=__strimzi-topic-operator-kstreams},1649176378,0
{consumergroup=__strimzi-topic-operator-kstreams},1649176383,0
{consumergroup=__strimzi-topic-operator-kstreams},1649176388,0
{consumergroup=__strimzi-topic-operator-kstreams},1649176393,0
{consumergroup=__strimzi-topic-operator-kstreams},1649176398,0
{consumergroup=__strimzi-topic-operator-kstreams},1649176403,0
{consumergroup=__strimzi-topic-operator-kstreams},1649176408,0
{consumergroup=__strimzi-topic-operator-kstreams},1649176413,0
{consumergroup=__strimzi-topic-operator-kstreams},1649176418,0
{consumergroup=__strimzi-topic-operator-kstreams},1649176423,0
{consumergroup=__strimzi-topic-operator-kstreams},1649176428,0
{consumergroup=__strimzi-topic-operator-kstreams},1649176433,0
{consumergroup=__strimzi-topic-operator-kstreams},1649176438,0
{consumergroup=__strimzi-topic-operator-kstreams},1649176443,0
