labels,timestamp,value
{consumergroup=__strimzi-topic-operator-kstreams},1649207592,8
{consumergroup=__strimzi-topic-operator-kstreams},1649207597,8
{consumergroup=__strimzi-topic-operator-kstreams},1649207602,8
{consumergroup=__strimzi-topic-operator-kstreams},1649207607,8
{consumergroup=__strimzi-topic-operator-kstreams},1649207612,8
{consumergroup=__strimzi-topic-operator-kstreams},1649207617,8
{consumergroup=__strimzi-topic-operator-kstreams},1649207622,0
{consumergroup=__strimzi-topic-operator-kstreams},1649207627,0
{consumergroup=__strimzi-topic-operator-kstreams},1649207632,0
{consumergroup=__strimzi-topic-operator-kstreams},1649207637,0
{consumergroup=__strimzi-topic-operator-kstreams},1649207642,0
{consumergroup=__strimzi-topic-operator-kstreams},1649207647,0
{consumergroup=__strimzi-topic-operator-kstreams},1649207652,0
{consumergroup=__strimzi-topic-operator-kstreams},1649207657,0
{consumergroup=__strimzi-topic-operator-kstreams},1649207662,0
{consumergroup=__strimzi-topic-operator-kstreams},1649207667,0
{consumergroup=__strimzi-topic-operator-kstreams},1649207672,0
{consumergroup=__strimzi-topic-operator-kstreams},1649207677,0
{consumergroup=__strimzi-topic-operator-kstreams},1649207682,3
{consumergroup=__strimzi-topic-operator-kstreams},1649207687,3
{consumergroup=__strimzi-topic-operator-kstreams},1649207692,3
{consumergroup=__strimzi-topic-operator-kstreams},1649207697,3
{consumergroup=__strimzi-topic-operator-kstreams},1649207702,3
{consumergroup=__strimzi-topic-operator-kstreams},1649207707,3
{consumergroup=__strimzi-topic-operator-kstreams},1649207712,0
{consumergroup=__strimzi-topic-operator-kstreams},1649207717,0
{consumergroup=__strimzi-topic-operator-kstreams},1649207722,0
{consumergroup=__strimzi-topic-operator-kstreams},1649207727,0
{consumergroup=__strimzi-topic-operator-kstreams},1649207732,0
{consumergroup=__strimzi-topic-operator-kstreams},1649207737,0
{consumergroup=__strimzi-topic-operator-kstreams},1649207742,0
{consumergroup=__strimzi-topic-operator-kstreams},1649207747,0
{consumergroup=__strimzi-topic-operator-kstreams},1649207752,0
{consumergroup=__strimzi-topic-operator-kstreams},1649207757,0
{consumergroup=__strimzi-topic-operator-kstreams},1649207762,0
{consumergroup=__strimzi-topic-operator-kstreams},1649207767,0
{consumergroup=__strimzi-topic-operator-kstreams},1649207772,0
{consumergroup=__strimzi-topic-operator-kstreams},1649207777,0
{consumergroup=__strimzi-topic-operator-kstreams},1649207782,0
{consumergroup=__strimzi-topic-operator-kstreams},1649207787,0
{consumergroup=__strimzi-topic-operator-kstreams},1649207792,0
{consumergroup=__strimzi-topic-operator-kstreams},1649207797,0
{consumergroup=__strimzi-topic-operator-kstreams},1649207802,0
{consumergroup=__strimzi-topic-operator-kstreams},1649207807,0
{consumergroup=__strimzi-topic-operator-kstreams},1649207812,0
{consumergroup=__strimzi-topic-operator-kstreams},1649207817,0
{consumergroup=__strimzi-topic-operator-kstreams},1649207822,0
{consumergroup=__strimzi-topic-operator-kstreams},1649207827,0
{consumergroup=__strimzi-topic-operator-kstreams},1649207832,0
{consumergroup=__strimzi-topic-operator-kstreams},1649207837,0
{consumergroup=__strimzi-topic-operator-kstreams},1649207842,0
{consumergroup=__strimzi-topic-operator-kstreams},1649207847,0
{consumergroup=__strimzi-topic-operator-kstreams},1649207852,0
{consumergroup=__strimzi-topic-operator-kstreams},1649207857,0
{consumergroup=__strimzi-topic-operator-kstreams},1649207862,0
{consumergroup=__strimzi-topic-operator-kstreams},1649207867,0
{consumergroup=__strimzi-topic-operator-kstreams},1649207872,0
{consumergroup=__strimzi-topic-operator-kstreams},1649207877,0
{consumergroup=__strimzi-topic-operator-kstreams},1649207882,0
{consumergroup=__strimzi-topic-operator-kstreams},1649207887,0
{consumergroup=__strimzi-topic-operator-kstreams},1649207892,0
{consumergroup=__strimzi-topic-operator-kstreams},1649207897,0
{consumergroup=__strimzi-topic-operator-kstreams},1649207902,0
{consumergroup=__strimzi-topic-operator-kstreams},1649207907,0
{consumergroup=__strimzi-topic-operator-kstreams},1649207912,0
{consumergroup=__strimzi-topic-operator-kstreams},1649207917,0
{consumergroup=__strimzi-topic-operator-kstreams},1649207922,0
{consumergroup=__strimzi-topic-operator-kstreams},1649207927,0
{consumergroup=__strimzi-topic-operator-kstreams},1649207932,0
{consumergroup=__strimzi-topic-operator-kstreams},1649207937,0
{consumergroup=__strimzi-topic-operator-kstreams},1649207942,0
{consumergroup=__strimzi-topic-operator-kstreams},1649207947,0
{consumergroup=__strimzi-topic-operator-kstreams},1649207952,0
{consumergroup=__strimzi-topic-operator-kstreams},1649207957,0
{consumergroup=__strimzi-topic-operator-kstreams},1649207962,0
{consumergroup=__strimzi-topic-operator-kstreams},1649207967,0
{consumergroup=__strimzi-topic-operator-kstreams},1649207972,0
{consumergroup=__strimzi-topic-operator-kstreams},1649207977,0
{consumergroup=__strimzi-topic-operator-kstreams},1649207982,0
{consumergroup=__strimzi-topic-operator-kstreams},1649207987,0
{consumergroup=__strimzi-topic-operator-kstreams},1649207992,0
{consumergroup=__strimzi-topic-operator-kstreams},1649207997,0
{consumergroup=__strimzi-topic-operator-kstreams},1649208002,0
{consumergroup=__strimzi-topic-operator-kstreams},1649208007,0
{consumergroup=__strimzi-topic-operator-kstreams},1649208012,0
{consumergroup=__strimzi-topic-operator-kstreams},1649208017,0
{consumergroup=__strimzi-topic-operator-kstreams},1649208022,0
{consumergroup=__strimzi-topic-operator-kstreams},1649208027,0
{consumergroup=__strimzi-topic-operator-kstreams},1649208032,0
{consumergroup=__strimzi-topic-operator-kstreams},1649208037,0
{consumergroup=__strimzi-topic-operator-kstreams},1649208042,0
{consumergroup=__strimzi-topic-operator-kstreams},1649208047,0
{consumergroup=__strimzi-topic-operator-kstreams},1649208052,0
{consumergroup=__strimzi-topic-operator-kstreams},1649208057,0
{consumergroup=__strimzi-topic-operator-kstreams},1649208062,0
{consumergroup=__strimzi-topic-operator-kstreams},1649208067,0
{consumergroup=__strimzi-topic-operator-kstreams},1649208072,0
{consumergroup=__strimzi-topic-operator-kstreams},1649208077,0
{consumergroup=__strimzi-topic-operator-kstreams},1649208082,0
