labels,timestamp,value
{},1649191801,0
{},1649191806,0
{},1649191811,0
{},1649191816,0
{},1649191821,0
{},1649191826,0
{},1649191831,0
{},1649191836,0
{},1649191841,0
{},1649191846,0
{},1649191851,0
{},1649191856,0
{},1649191861,0
{},1649191866,0
{},1649191871,0
