labels,timestamp,value
{},1649204795,0
{},1649204800,0
{},1649204805,0
{},1649204810,0
{},1649204815,0
{},1649204820,0
{},1649204825,0
{},1649204830,0
{},1649204835,0
{},1649204840,0
{},1649204845,0
{},1649204850,0
{},1649204855,0
{},1649204860,0
