labels,timestamp,value
{},1649181003,0
{},1649181008,0
{},1649181013,0
{},1649181018,0
{},1649181023,0
{},1649181028,0
{},1649181033,0
{},1649181038,0
{},1649181043,0
{},1649181048,0
{},1649181053,0
{},1649181058,0
{},1649181063,0
{},1649181068,0
