labels,timestamp,value
{},1649177627,0
{},1649177632,0
{},1649177637,0
{},1649177642,0
{},1649177647,0
{},1649177652,0
{},1649177657,0
{},1649177662,0
{},1649177667,0
{},1649177672,0
{},1649177677,0
{},1649177682,0
{},1649177687,0
{},1649177692,0
