labels,timestamp,value
{},1649175943,0
{},1649175948,0
{},1649175953,0
{},1649175958,0
{},1649175963,0
{},1649175968,0
{},1649175973,0
{},1649175978,0
{},1649175983,0
{},1649175988,0
{},1649175993,0
{},1649175998,0
{},1649176003,0
{},1649176008,0
{},1649176013,0
