labels,timestamp,value
{consumergroup=__strimzi-topic-operator-kstreams},1649209302,0
{consumergroup=__strimzi-topic-operator-kstreams},1649209307,0
{consumergroup=__strimzi-topic-operator-kstreams},1649209312,0
{consumergroup=__strimzi-topic-operator-kstreams},1649209317,1
{consumergroup=__strimzi-topic-operator-kstreams},1649209322,1
{consumergroup=__strimzi-topic-operator-kstreams},1649209327,1
{consumergroup=__strimzi-topic-operator-kstreams},1649209332,0
{consumergroup=__strimzi-topic-operator-kstreams},1649209337,0
{consumergroup=__strimzi-topic-operator-kstreams},1649209342,0
{consumergroup=__strimzi-topic-operator-kstreams},1649209347,0
{consumergroup=__strimzi-topic-operator-kstreams},1649209352,0
{consumergroup=__strimzi-topic-operator-kstreams},1649209357,0
{consumergroup=__strimzi-topic-operator-kstreams},1649209362,0
{consumergroup=__strimzi-topic-operator-kstreams},1649209367,0
{consumergroup=__strimzi-topic-operator-kstreams},1649209372,0
{consumergroup=__strimzi-topic-operator-kstreams},1649209377,0
{consumergroup=__strimzi-topic-operator-kstreams},1649209382,0
{consumergroup=__strimzi-topic-operator-kstreams},1649209387,0
{consumergroup=__strimzi-topic-operator-kstreams},1649209392,0
{consumergroup=__strimzi-topic-operator-kstreams},1649209397,0
{consumergroup=__strimzi-topic-operator-kstreams},1649209402,0
{consumergroup=__strimzi-topic-operator-kstreams},1649209407,0
{consumergroup=__strimzi-topic-operator-kstreams},1649209412,0
{consumergroup=__strimzi-topic-operator-kstreams},1649209417,0
{consumergroup=__strimzi-topic-operator-kstreams},1649209422,0
{consumergroup=__strimzi-topic-operator-kstreams},1649209427,0
{consumergroup=__strimzi-topic-operator-kstreams},1649209432,0
{consumergroup=__strimzi-topic-operator-kstreams},1649209437,0
{consumergroup=__strimzi-topic-operator-kstreams},1649209442,0
{consumergroup=__strimzi-topic-operator-kstreams},1649209447,0
{consumergroup=__strimzi-topic-operator-kstreams},1649209452,0
{consumergroup=__strimzi-topic-operator-kstreams},1649209457,0
{consumergroup=__strimzi-topic-operator-kstreams},1649209462,0
{consumergroup=__strimzi-topic-operator-kstreams},1649209467,0
{consumergroup=__strimzi-topic-operator-kstreams},1649209472,0
{consumergroup=__strimzi-topic-operator-kstreams},1649209477,0
{consumergroup=__strimzi-topic-operator-kstreams},1649209482,0
{consumergroup=__strimzi-topic-operator-kstreams},1649209487,0
{consumergroup=__strimzi-topic-operator-kstreams},1649209492,0
{consumergroup=__strimzi-topic-operator-kstreams},1649209497,0
{consumergroup=__strimzi-topic-operator-kstreams},1649209502,0
{consumergroup=__strimzi-topic-operator-kstreams},1649209507,0
{consumergroup=__strimzi-topic-operator-kstreams},1649209512,0
{consumergroup=__strimzi-topic-operator-kstreams},1649209517,0
{consumergroup=__strimzi-topic-operator-kstreams},1649209522,0
{consumergroup=__strimzi-topic-operator-kstreams},1649209527,0
{consumergroup=__strimzi-topic-operator-kstreams},1649209532,0
{consumergroup=__strimzi-topic-operator-kstreams},1649209537,0
{consumergroup=__strimzi-topic-operator-kstreams},1649209542,0
{consumergroup=__strimzi-topic-operator-kstreams},1649209547,0
{consumergroup=__strimzi-topic-operator-kstreams},1649209552,0
{consumergroup=__strimzi-topic-operator-kstreams},1649209557,0
{consumergroup=__strimzi-topic-operator-kstreams},1649209562,0
{consumergroup=__strimzi-topic-operator-kstreams},1649209567,0
{consumergroup=__strimzi-topic-operator-kstreams},1649209572,0
{consumergroup=__strimzi-topic-operator-kstreams},1649209577,0
{consumergroup=__strimzi-topic-operator-kstreams},1649209582,0
{consumergroup=__strimzi-topic-operator-kstreams},1649209587,0
{consumergroup=__strimzi-topic-operator-kstreams},1649209592,0
{consumergroup=__strimzi-topic-operator-kstreams},1649209597,0
{consumergroup=__strimzi-topic-operator-kstreams},1649209602,0
{consumergroup=__strimzi-topic-operator-kstreams},1649209607,0
{consumergroup=__strimzi-topic-operator-kstreams},1649209612,0
{consumergroup=__strimzi-topic-operator-kstreams},1649209617,0
{consumergroup=__strimzi-topic-operator-kstreams},1649209622,0
{consumergroup=__strimzi-topic-operator-kstreams},1649209627,0
{consumergroup=__strimzi-topic-operator-kstreams},1649209632,0
{consumergroup=__strimzi-topic-operator-kstreams},1649209637,0
{consumergroup=__strimzi-topic-operator-kstreams},1649209642,0
{consumergroup=__strimzi-topic-operator-kstreams},1649209647,0
{consumergroup=__strimzi-topic-operator-kstreams},1649209652,0
{consumergroup=__strimzi-topic-operator-kstreams},1649209657,0
{consumergroup=__strimzi-topic-operator-kstreams},1649209662,0
{consumergroup=__strimzi-topic-operator-kstreams},1649209667,0
{consumergroup=__strimzi-topic-operator-kstreams},1649209672,0
{consumergroup=__strimzi-topic-operator-kstreams},1649209677,0
{consumergroup=__strimzi-topic-operator-kstreams},1649209682,0
{consumergroup=__strimzi-topic-operator-kstreams},1649209687,0
{consumergroup=__strimzi-topic-operator-kstreams},1649209692,0
{consumergroup=__strimzi-topic-operator-kstreams},1649209697,0
{consumergroup=__strimzi-topic-operator-kstreams},1649209702,0
{consumergroup=__strimzi-topic-operator-kstreams},1649209707,0
{consumergroup=__strimzi-topic-operator-kstreams},1649209712,0
{consumergroup=__strimzi-topic-operator-kstreams},1649209717,0
{consumergroup=__strimzi-topic-operator-kstreams},1649209722,0
{consumergroup=__strimzi-topic-operator-kstreams},1649209727,0
{consumergroup=__strimzi-topic-operator-kstreams},1649209732,0
{consumergroup=__strimzi-topic-operator-kstreams},1649209737,0
{consumergroup=__strimzi-topic-operator-kstreams},1649209742,0
{consumergroup=__strimzi-topic-operator-kstreams},1649209747,0
{consumergroup=__strimzi-topic-operator-kstreams},1649209752,0
{consumergroup=__strimzi-topic-operator-kstreams},1649209757,0
{consumergroup=__strimzi-topic-operator-kstreams},1649209762,0
{consumergroup=__strimzi-topic-operator-kstreams},1649209767,0
{consumergroup=__strimzi-topic-operator-kstreams},1649209772,0
{consumergroup=__strimzi-topic-operator-kstreams},1649209777,0
{consumergroup=__strimzi-topic-operator-kstreams},1649209782,0
{consumergroup=__strimzi-topic-operator-kstreams},1649209787,0
{consumergroup=__strimzi-topic-operator-kstreams},1649209792,0
