labels,timestamp,value
{},1649173672,0
{},1649173677,0
{},1649173682,0
{},1649173687,0
{},1649173692,0
{},1649173697,0
{},1649173702,0
{},1649173707,0
{},1649173712,0
{},1649173717,0
{},1649173722,0
{},1649173727,0
{},1649173732,0
{},1649173737,0
{},1649173742,0
{},1649173747,0
