labels,timestamp,value
{},1649182141,0
{},1649182146,0
{},1649182151,0
{},1649182156,0
{},1649182161,0
{},1649182166,0
{},1649182171,0
{},1649182176,0
{},1649182181,0
{},1649182186,0
{},1649182191,0
{},1649182196,0
{},1649182201,0
{},1649182206,0
