labels,timestamp,value
{consumergroup=__strimzi-topic-operator-kstreams},1649196893,8
{consumergroup=__strimzi-topic-operator-kstreams},1649196898,8
{consumergroup=__strimzi-topic-operator-kstreams},1649196903,8
{consumergroup=__strimzi-topic-operator-kstreams},1649196908,0
{consumergroup=__strimzi-topic-operator-kstreams},1649196913,0
{consumergroup=__strimzi-topic-operator-kstreams},1649196918,0
{consumergroup=__strimzi-topic-operator-kstreams},1649196923,0
{consumergroup=__strimzi-topic-operator-kstreams},1649196928,0
{consumergroup=__strimzi-topic-operator-kstreams},1649196933,0
{consumergroup=__strimzi-topic-operator-kstreams},1649196938,0
{consumergroup=__strimzi-topic-operator-kstreams},1649196943,0
{consumergroup=__strimzi-topic-operator-kstreams},1649196948,0
{consumergroup=__strimzi-topic-operator-kstreams},1649196953,0
{consumergroup=__strimzi-topic-operator-kstreams},1649196958,0
{consumergroup=__strimzi-topic-operator-kstreams},1649196963,0
{consumergroup=__strimzi-topic-operator-kstreams},1649196968,0
{consumergroup=__strimzi-topic-operator-kstreams},1649196973,0
{consumergroup=__strimzi-topic-operator-kstreams},1649196978,0
{consumergroup=__strimzi-topic-operator-kstreams},1649196983,3
{consumergroup=__strimzi-topic-operator-kstreams},1649196988,3
{consumergroup=__strimzi-topic-operator-kstreams},1649196993,3
{consumergroup=__strimzi-topic-operator-kstreams},1649196998,0
{consumergroup=__strimzi-topic-operator-kstreams},1649197003,0
{consumergroup=__strimzi-topic-operator-kstreams},1649197008,0
{consumergroup=__strimzi-topic-operator-kstreams},1649197013,0
{consumergroup=__strimzi-topic-operator-kstreams},1649197018,0
{consumergroup=__strimzi-topic-operator-kstreams},1649197023,0
{consumergroup=__strimzi-topic-operator-kstreams},1649197028,0
{consumergroup=__strimzi-topic-operator-kstreams},1649197033,0
{consumergroup=__strimzi-topic-operator-kstreams},1649197038,0
{consumergroup=__strimzi-topic-operator-kstreams},1649197043,0
{consumergroup=__strimzi-topic-operator-kstreams},1649197048,0
{consumergroup=__strimzi-topic-operator-kstreams},1649197053,0
{consumergroup=__strimzi-topic-operator-kstreams},1649197058,0
{consumergroup=__strimzi-topic-operator-kstreams},1649197063,0
{consumergroup=__strimzi-topic-operator-kstreams},1649197068,0
{consumergroup=__strimzi-topic-operator-kstreams},1649197073,0
{consumergroup=__strimzi-topic-operator-kstreams},1649197078,0
{consumergroup=__strimzi-topic-operator-kstreams},1649197083,0
{consumergroup=__strimzi-topic-operator-kstreams},1649197088,0
{consumergroup=__strimzi-topic-operator-kstreams},1649197093,0
{consumergroup=__strimzi-topic-operator-kstreams},1649197098,0
{consumergroup=__strimzi-topic-operator-kstreams},1649197103,0
{consumergroup=__strimzi-topic-operator-kstreams},1649197108,0
{consumergroup=__strimzi-topic-operator-kstreams},1649197113,0
{consumergroup=__strimzi-topic-operator-kstreams},1649197118,0
{consumergroup=__strimzi-topic-operator-kstreams},1649197123,0
{consumergroup=__strimzi-topic-operator-kstreams},1649197128,0
{consumergroup=__strimzi-topic-operator-kstreams},1649197133,0
{consumergroup=__strimzi-topic-operator-kstreams},1649197138,0
{consumergroup=__strimzi-topic-operator-kstreams},1649197143,0
{consumergroup=__strimzi-topic-operator-kstreams},1649197148,0
{consumergroup=__strimzi-topic-operator-kstreams},1649197153,0
{consumergroup=__strimzi-topic-operator-kstreams},1649197158,0
{consumergroup=__strimzi-topic-operator-kstreams},1649197163,0
{consumergroup=__strimzi-topic-operator-kstreams},1649197168,0
{consumergroup=__strimzi-topic-operator-kstreams},1649197173,0
{consumergroup=__strimzi-topic-operator-kstreams},1649197178,0
{consumergroup=__strimzi-topic-operator-kstreams},1649197183,0
{consumergroup=__strimzi-topic-operator-kstreams},1649197188,0
{consumergroup=__strimzi-topic-operator-kstreams},1649197193,0
{consumergroup=__strimzi-topic-operator-kstreams},1649197198,0
{consumergroup=__strimzi-topic-operator-kstreams},1649197203,0
{consumergroup=__strimzi-topic-operator-kstreams},1649197208,0
{consumergroup=__strimzi-topic-operator-kstreams},1649197213,0
{consumergroup=__strimzi-topic-operator-kstreams},1649197218,0
{consumergroup=__strimzi-topic-operator-kstreams},1649197223,0
{consumergroup=__strimzi-topic-operator-kstreams},1649197228,0
{consumergroup=__strimzi-topic-operator-kstreams},1649197233,0
{consumergroup=__strimzi-topic-operator-kstreams},1649197238,0
{consumergroup=__strimzi-topic-operator-kstreams},1649197243,0
{consumergroup=__strimzi-topic-operator-kstreams},1649197248,0
{consumergroup=__strimzi-topic-operator-kstreams},1649197253,0
{consumergroup=__strimzi-topic-operator-kstreams},1649197258,0
{consumergroup=__strimzi-topic-operator-kstreams},1649197263,0
{consumergroup=__strimzi-topic-operator-kstreams},1649197268,0
{consumergroup=__strimzi-topic-operator-kstreams},1649197273,0
{consumergroup=__strimzi-topic-operator-kstreams},1649197278,0
{consumergroup=__strimzi-topic-operator-kstreams},1649197283,0
{consumergroup=__strimzi-topic-operator-kstreams},1649197288,0
{consumergroup=__strimzi-topic-operator-kstreams},1649197293,0
{consumergroup=__strimzi-topic-operator-kstreams},1649197298,0
{consumergroup=__strimzi-topic-operator-kstreams},1649197303,0
{consumergroup=__strimzi-topic-operator-kstreams},1649197308,0
{consumergroup=__strimzi-topic-operator-kstreams},1649197313,0
{consumergroup=__strimzi-topic-operator-kstreams},1649197318,0
{consumergroup=__strimzi-topic-operator-kstreams},1649197323,0
{consumergroup=__strimzi-topic-operator-kstreams},1649197328,0
{consumergroup=__strimzi-topic-operator-kstreams},1649197333,0
{consumergroup=__strimzi-topic-operator-kstreams},1649197338,0
{consumergroup=__strimzi-topic-operator-kstreams},1649197343,0
{consumergroup=__strimzi-topic-operator-kstreams},1649197348,0
{consumergroup=__strimzi-topic-operator-kstreams},1649197353,0
{consumergroup=__strimzi-topic-operator-kstreams},1649197358,0
{consumergroup=__strimzi-topic-operator-kstreams},1649197363,0
{consumergroup=__strimzi-topic-operator-kstreams},1649197368,0
{consumergroup=__strimzi-topic-operator-kstreams},1649197373,0
{consumergroup=__strimzi-topic-operator-kstreams},1649197378,0
