labels,timestamp,value
{},1649180460,0
{},1649180465,0
{},1649180470,0
{},1649180475,0
{},1649180480,0
{},1649180485,0
{},1649180490,0
{},1649180495,0
{},1649180500,0
{},1649180505,0
{},1649180510,0
{},1649180515,0
{},1649180520,0
{},1649180525,0
{},1649180530,0
