labels,timestamp,value
{consumergroup=__strimzi-topic-operator-kstreams},1649210440,11
{consumergroup=__strimzi-topic-operator-kstreams},1649210445,11
{consumergroup=__strimzi-topic-operator-kstreams},1649210450,11
{consumergroup=__strimzi-topic-operator-kstreams},1649210455,1
{consumergroup=__strimzi-topic-operator-kstreams},1649210460,1
{consumergroup=__strimzi-topic-operator-kstreams},1649210465,1
{consumergroup=__strimzi-topic-operator-kstreams},1649210470,1
{consumergroup=__strimzi-topic-operator-kstreams},1649210475,1
{consumergroup=__strimzi-topic-operator-kstreams},1649210480,1
{consumergroup=__strimzi-topic-operator-kstreams},1649210485,0
{consumergroup=__strimzi-topic-operator-kstreams},1649210490,0
{consumergroup=__strimzi-topic-operator-kstreams},1649210495,0
{consumergroup=__strimzi-topic-operator-kstreams},1649210500,0
{consumergroup=__strimzi-topic-operator-kstreams},1649210505,0
{consumergroup=__strimzi-topic-operator-kstreams},1649210510,0
{consumergroup=__strimzi-topic-operator-kstreams},1649210515,0
{consumergroup=__strimzi-topic-operator-kstreams},1649210520,0
{consumergroup=__strimzi-topic-operator-kstreams},1649210525,0
{consumergroup=__strimzi-topic-operator-kstreams},1649210530,0
{consumergroup=__strimzi-topic-operator-kstreams},1649210535,0
{consumergroup=__strimzi-topic-operator-kstreams},1649210540,0
{consumergroup=__strimzi-topic-operator-kstreams},1649210545,0
{consumergroup=__strimzi-topic-operator-kstreams},1649210550,0
{consumergroup=__strimzi-topic-operator-kstreams},1649210555,0
{consumergroup=__strimzi-topic-operator-kstreams},1649210560,0
{consumergroup=__strimzi-topic-operator-kstreams},1649210565,0
{consumergroup=__strimzi-topic-operator-kstreams},1649210570,0
{consumergroup=__strimzi-topic-operator-kstreams},1649210575,0
{consumergroup=__strimzi-topic-operator-kstreams},1649210580,0
{consumergroup=__strimzi-topic-operator-kstreams},1649210585,0
{consumergroup=__strimzi-topic-operator-kstreams},1649210590,0
{consumergroup=__strimzi-topic-operator-kstreams},1649210595,0
{consumergroup=__strimzi-topic-operator-kstreams},1649210600,0
{consumergroup=__strimzi-topic-operator-kstreams},1649210605,0
{consumergroup=__strimzi-topic-operator-kstreams},1649210610,0
{consumergroup=__strimzi-topic-operator-kstreams},1649210615,0
{consumergroup=__strimzi-topic-operator-kstreams},1649210620,0
{consumergroup=__strimzi-topic-operator-kstreams},1649210625,0
{consumergroup=__strimzi-topic-operator-kstreams},1649210630,0
{consumergroup=__strimzi-topic-operator-kstreams},1649210635,0
{consumergroup=__strimzi-topic-operator-kstreams},1649210640,0
{consumergroup=__strimzi-topic-operator-kstreams},1649210645,0
{consumergroup=__strimzi-topic-operator-kstreams},1649210650,0
{consumergroup=__strimzi-topic-operator-kstreams},1649210655,0
{consumergroup=__strimzi-topic-operator-kstreams},1649210660,0
{consumergroup=__strimzi-topic-operator-kstreams},1649210665,0
{consumergroup=__strimzi-topic-operator-kstreams},1649210670,0
{consumergroup=__strimzi-topic-operator-kstreams},1649210675,0
{consumergroup=__strimzi-topic-operator-kstreams},1649210680,0
{consumergroup=__strimzi-topic-operator-kstreams},1649210685,0
{consumergroup=__strimzi-topic-operator-kstreams},1649210690,0
{consumergroup=__strimzi-topic-operator-kstreams},1649210695,0
{consumergroup=__strimzi-topic-operator-kstreams},1649210700,0
{consumergroup=__strimzi-topic-operator-kstreams},1649210705,0
{consumergroup=__strimzi-topic-operator-kstreams},1649210710,0
{consumergroup=__strimzi-topic-operator-kstreams},1649210715,0
{consumergroup=__strimzi-topic-operator-kstreams},1649210720,0
{consumergroup=__strimzi-topic-operator-kstreams},1649210725,0
{consumergroup=__strimzi-topic-operator-kstreams},1649210730,0
{consumergroup=__strimzi-topic-operator-kstreams},1649210735,0
{consumergroup=__strimzi-topic-operator-kstreams},1649210740,0
{consumergroup=__strimzi-topic-operator-kstreams},1649210745,0
{consumergroup=__strimzi-topic-operator-kstreams},1649210750,0
{consumergroup=__strimzi-topic-operator-kstreams},1649210755,0
{consumergroup=__strimzi-topic-operator-kstreams},1649210760,0
{consumergroup=__strimzi-topic-operator-kstreams},1649210765,0
{consumergroup=__strimzi-topic-operator-kstreams},1649210770,0
{consumergroup=__strimzi-topic-operator-kstreams},1649210775,0
{consumergroup=__strimzi-topic-operator-kstreams},1649210780,0
{consumergroup=__strimzi-topic-operator-kstreams},1649210785,0
{consumergroup=__strimzi-topic-operator-kstreams},1649210790,0
{consumergroup=__strimzi-topic-operator-kstreams},1649210795,0
{consumergroup=__strimzi-topic-operator-kstreams},1649210800,0
{consumergroup=__strimzi-topic-operator-kstreams},1649210805,0
{consumergroup=__strimzi-topic-operator-kstreams},1649210810,0
{consumergroup=__strimzi-topic-operator-kstreams},1649210815,0
{consumergroup=__strimzi-topic-operator-kstreams},1649210820,0
{consumergroup=__strimzi-topic-operator-kstreams},1649210825,0
{consumergroup=__strimzi-topic-operator-kstreams},1649210830,0
{consumergroup=__strimzi-topic-operator-kstreams},1649210835,0
{consumergroup=__strimzi-topic-operator-kstreams},1649210840,0
{consumergroup=__strimzi-topic-operator-kstreams},1649210845,0
{consumergroup=__strimzi-topic-operator-kstreams},1649210850,0
{consumergroup=__strimzi-topic-operator-kstreams},1649210855,0
{consumergroup=__strimzi-topic-operator-kstreams},1649210860,0
{consumergroup=__strimzi-topic-operator-kstreams},1649210865,0
{consumergroup=__strimzi-topic-operator-kstreams},1649210870,0
{consumergroup=__strimzi-topic-operator-kstreams},1649210875,0
{consumergroup=__strimzi-topic-operator-kstreams},1649210880,0
{consumergroup=__strimzi-topic-operator-kstreams},1649210885,0
{consumergroup=__strimzi-topic-operator-kstreams},1649210890,0
{consumergroup=__strimzi-topic-operator-kstreams},1649210895,0
{consumergroup=__strimzi-topic-operator-kstreams},1649210900,0
{consumergroup=__strimzi-topic-operator-kstreams},1649210905,0
{consumergroup=__strimzi-topic-operator-kstreams},1649210910,0
{consumergroup=__strimzi-topic-operator-kstreams},1649210915,0
{consumergroup=__strimzi-topic-operator-kstreams},1649210920,0
{consumergroup=__strimzi-topic-operator-kstreams},1649210925,0
{consumergroup=__strimzi-topic-operator-kstreams},1649210930,0
