labels,timestamp,value
{consumergroup=__strimzi-topic-operator-kstreams},1649184983,11
{consumergroup=__strimzi-topic-operator-kstreams},1649184988,11
{consumergroup=__strimzi-topic-operator-kstreams},1649184993,11
{consumergroup=__strimzi-topic-operator-kstreams},1649184998,1
{consumergroup=__strimzi-topic-operator-kstreams},1649185003,1
{consumergroup=__strimzi-topic-operator-kstreams},1649185008,1
{consumergroup=__strimzi-topic-operator-kstreams},1649185013,1
{consumergroup=__strimzi-topic-operator-kstreams},1649185018,1
{consumergroup=__strimzi-topic-operator-kstreams},1649185023,1
{consumergroup=__strimzi-topic-operator-kstreams},1649185028,0
{consumergroup=__strimzi-topic-operator-kstreams},1649185033,0
{consumergroup=__strimzi-topic-operator-kstreams},1649185038,0
{consumergroup=__strimzi-topic-operator-kstreams},1649185043,0
{consumergroup=__strimzi-topic-operator-kstreams},1649185048,0
{consumergroup=__strimzi-topic-operator-kstreams},1649185053,0
{consumergroup=__strimzi-topic-operator-kstreams},1649185058,0
{consumergroup=__strimzi-topic-operator-kstreams},1649185063,0
{consumergroup=__strimzi-topic-operator-kstreams},1649185068,0
{consumergroup=__strimzi-topic-operator-kstreams},1649185073,0
{consumergroup=__strimzi-topic-operator-kstreams},1649185078,0
{consumergroup=__strimzi-topic-operator-kstreams},1649185083,0
{consumergroup=__strimzi-topic-operator-kstreams},1649185088,2
{consumergroup=__strimzi-topic-operator-kstreams},1649185093,2
{consumergroup=__strimzi-topic-operator-kstreams},1649185098,2
{consumergroup=__strimzi-topic-operator-kstreams},1649185103,2
{consumergroup=__strimzi-topic-operator-kstreams},1649185108,2
{consumergroup=__strimzi-topic-operator-kstreams},1649185113,2
{consumergroup=__strimzi-topic-operator-kstreams},1649185118,0
{consumergroup=__strimzi-topic-operator-kstreams},1649185123,0
{consumergroup=__strimzi-topic-operator-kstreams},1649185128,0
{consumergroup=__strimzi-topic-operator-kstreams},1649185133,0
{consumergroup=__strimzi-topic-operator-kstreams},1649185138,0
{consumergroup=__strimzi-topic-operator-kstreams},1649185143,0
{consumergroup=__strimzi-topic-operator-kstreams},1649185148,0
{consumergroup=__strimzi-topic-operator-kstreams},1649185153,0
{consumergroup=__strimzi-topic-operator-kstreams},1649185158,0
{consumergroup=__strimzi-topic-operator-kstreams},1649185163,0
{consumergroup=__strimzi-topic-operator-kstreams},1649185168,0
{consumergroup=__strimzi-topic-operator-kstreams},1649185173,0
{consumergroup=__strimzi-topic-operator-kstreams},1649185178,0
{consumergroup=__strimzi-topic-operator-kstreams},1649185183,0
{consumergroup=__strimzi-topic-operator-kstreams},1649185188,0
{consumergroup=__strimzi-topic-operator-kstreams},1649185193,0
{consumergroup=__strimzi-topic-operator-kstreams},1649185198,0
{consumergroup=__strimzi-topic-operator-kstreams},1649185203,0
{consumergroup=__strimzi-topic-operator-kstreams},1649185208,0
{consumergroup=__strimzi-topic-operator-kstreams},1649185213,0
{consumergroup=__strimzi-topic-operator-kstreams},1649185218,0
{consumergroup=__strimzi-topic-operator-kstreams},1649185223,0
{consumergroup=__strimzi-topic-operator-kstreams},1649185228,0
{consumergroup=__strimzi-topic-operator-kstreams},1649185233,0
{consumergroup=__strimzi-topic-operator-kstreams},1649185238,0
{consumergroup=__strimzi-topic-operator-kstreams},1649185243,0
{consumergroup=__strimzi-topic-operator-kstreams},1649185248,0
{consumergroup=__strimzi-topic-operator-kstreams},1649185253,0
{consumergroup=__strimzi-topic-operator-kstreams},1649185258,0
{consumergroup=__strimzi-topic-operator-kstreams},1649185263,0
{consumergroup=__strimzi-topic-operator-kstreams},1649185268,0
{consumergroup=__strimzi-topic-operator-kstreams},1649185273,0
{consumergroup=__strimzi-topic-operator-kstreams},1649185278,0
{consumergroup=__strimzi-topic-operator-kstreams},1649185283,0
{consumergroup=__strimzi-topic-operator-kstreams},1649185288,0
{consumergroup=__strimzi-topic-operator-kstreams},1649185293,0
{consumergroup=__strimzi-topic-operator-kstreams},1649185298,0
{consumergroup=__strimzi-topic-operator-kstreams},1649185303,0
{consumergroup=__strimzi-topic-operator-kstreams},1649185308,0
{consumergroup=__strimzi-topic-operator-kstreams},1649185313,0
{consumergroup=__strimzi-topic-operator-kstreams},1649185318,0
{consumergroup=__strimzi-topic-operator-kstreams},1649185323,0
{consumergroup=__strimzi-topic-operator-kstreams},1649185328,0
{consumergroup=__strimzi-topic-operator-kstreams},1649185333,0
{consumergroup=__strimzi-topic-operator-kstreams},1649185338,0
{consumergroup=__strimzi-topic-operator-kstreams},1649185343,0
{consumergroup=__strimzi-topic-operator-kstreams},1649185348,0
{consumergroup=__strimzi-topic-operator-kstreams},1649185353,0
{consumergroup=__strimzi-topic-operator-kstreams},1649185358,0
{consumergroup=__strimzi-topic-operator-kstreams},1649185363,0
{consumergroup=__strimzi-topic-operator-kstreams},1649185368,0
{consumergroup=__strimzi-topic-operator-kstreams},1649185373,0
{consumergroup=__strimzi-topic-operator-kstreams},1649185378,0
{consumergroup=__strimzi-topic-operator-kstreams},1649185383,0
{consumergroup=__strimzi-topic-operator-kstreams},1649185388,0
{consumergroup=__strimzi-topic-operator-kstreams},1649185393,0
{consumergroup=__strimzi-topic-operator-kstreams},1649185398,0
{consumergroup=__strimzi-topic-operator-kstreams},1649185403,0
{consumergroup=__strimzi-topic-operator-kstreams},1649185408,0
{consumergroup=__strimzi-topic-operator-kstreams},1649185413,0
{consumergroup=__strimzi-topic-operator-kstreams},1649185418,0
{consumergroup=__strimzi-topic-operator-kstreams},1649185423,0
{consumergroup=__strimzi-topic-operator-kstreams},1649185428,0
{consumergroup=__strimzi-topic-operator-kstreams},1649185433,0
{consumergroup=__strimzi-topic-operator-kstreams},1649185438,0
{consumergroup=__strimzi-topic-operator-kstreams},1649185443,0
{consumergroup=__strimzi-topic-operator-kstreams},1649185448,0
{consumergroup=__strimzi-topic-operator-kstreams},1649185453,0
{consumergroup=__strimzi-topic-operator-kstreams},1649185458,0
{consumergroup=__strimzi-topic-operator-kstreams},1649185463,0
{consumergroup=__strimzi-topic-operator-kstreams},1649185468,0
{consumergroup=__strimzi-topic-operator-kstreams},1649185473,0
{consumergroup=__strimzi-topic-operator-kstreams},1649185478,0
