labels,timestamp,value
{},1649292966,0
{},1649292971,0
{},1649292976,0
{},1649292981,0
{},1649292986,0
{},1649292991,0
{},1649292996,0
{},1649293001,0
{},1649293006,0
{},1649293011,0
{},1649293016,0
{},1649293021,0
{},1649293026,0
{},1649293031,0
