labels,timestamp,value
{consumergroup=__strimzi-topic-operator-kstreams},1649297501,3
{consumergroup=__strimzi-topic-operator-kstreams},1649297506,3
{consumergroup=__strimzi-topic-operator-kstreams},1649297511,3
{consumergroup=__strimzi-topic-operator-kstreams},1649297516,0
{consumergroup=__strimzi-topic-operator-kstreams},1649297521,0
{consumergroup=__strimzi-topic-operator-kstreams},1649297526,0
{consumergroup=__strimzi-topic-operator-kstreams},1649297531,1
{consumergroup=__strimzi-topic-operator-kstreams},1649297536,1
{consumergroup=__strimzi-topic-operator-kstreams},1649297541,1
{consumergroup=__strimzi-topic-operator-kstreams},1649297546,0
{consumergroup=__strimzi-topic-operator-kstreams},1649297551,0
{consumergroup=__strimzi-topic-operator-kstreams},1649297556,0
{consumergroup=__strimzi-topic-operator-kstreams},1649297561,0
{consumergroup=__strimzi-topic-operator-kstreams},1649297566,0
{consumergroup=__strimzi-topic-operator-kstreams},1649297571,0
{consumergroup=__strimzi-topic-operator-kstreams},1649297576,0
{consumergroup=__strimzi-topic-operator-kstreams},1649297581,0
{consumergroup=__strimzi-topic-operator-kstreams},1649297586,0
{consumergroup=__strimzi-topic-operator-kstreams},1649297591,2
{consumergroup=__strimzi-topic-operator-kstreams},1649297596,2
{consumergroup=__strimzi-topic-operator-kstreams},1649297601,2
{consumergroup=__strimzi-topic-operator-kstreams},1649297606,0
{consumergroup=__strimzi-topic-operator-kstreams},1649297611,0
{consumergroup=__strimzi-topic-operator-kstreams},1649297616,0
{consumergroup=__strimzi-topic-operator-kstreams},1649297621,0
{consumergroup=__strimzi-topic-operator-kstreams},1649297626,0
{consumergroup=__strimzi-topic-operator-kstreams},1649297631,0
{consumergroup=__strimzi-topic-operator-kstreams},1649297636,0
{consumergroup=__strimzi-topic-operator-kstreams},1649297641,0
{consumergroup=__strimzi-topic-operator-kstreams},1649297646,0
{consumergroup=__strimzi-topic-operator-kstreams},1649297651,0
{consumergroup=__strimzi-topic-operator-kstreams},1649297656,0
{consumergroup=__strimzi-topic-operator-kstreams},1649297661,0
{consumergroup=__strimzi-topic-operator-kstreams},1649297666,0
{consumergroup=__strimzi-topic-operator-kstreams},1649297671,0
{consumergroup=__strimzi-topic-operator-kstreams},1649297676,0
{consumergroup=__strimzi-topic-operator-kstreams},1649297681,0
{consumergroup=__strimzi-topic-operator-kstreams},1649297686,0
{consumergroup=__strimzi-topic-operator-kstreams},1649297691,0
{consumergroup=__strimzi-topic-operator-kstreams},1649297696,0
{consumergroup=__strimzi-topic-operator-kstreams},1649297701,0
{consumergroup=__strimzi-topic-operator-kstreams},1649297706,0
{consumergroup=__strimzi-topic-operator-kstreams},1649297711,0
{consumergroup=__strimzi-topic-operator-kstreams},1649297716,0
{consumergroup=__strimzi-topic-operator-kstreams},1649297721,0
{consumergroup=__strimzi-topic-operator-kstreams},1649297726,0
{consumergroup=__strimzi-topic-operator-kstreams},1649297731,0
{consumergroup=__strimzi-topic-operator-kstreams},1649297736,0
{consumergroup=__strimzi-topic-operator-kstreams},1649297741,0
{consumergroup=__strimzi-topic-operator-kstreams},1649297746,0
{consumergroup=__strimzi-topic-operator-kstreams},1649297751,0
{consumergroup=__strimzi-topic-operator-kstreams},1649297756,0
{consumergroup=__strimzi-topic-operator-kstreams},1649297761,0
{consumergroup=__strimzi-topic-operator-kstreams},1649297766,0
{consumergroup=__strimzi-topic-operator-kstreams},1649297771,0
{consumergroup=__strimzi-topic-operator-kstreams},1649297776,0
{consumergroup=__strimzi-topic-operator-kstreams},1649297781,0
{consumergroup=__strimzi-topic-operator-kstreams},1649297786,0
{consumergroup=__strimzi-topic-operator-kstreams},1649297791,0
{consumergroup=__strimzi-topic-operator-kstreams},1649297796,0
{consumergroup=__strimzi-topic-operator-kstreams},1649297801,0
{consumergroup=__strimzi-topic-operator-kstreams},1649297806,0
{consumergroup=__strimzi-topic-operator-kstreams},1649297811,0
{consumergroup=__strimzi-topic-operator-kstreams},1649297816,0
{consumergroup=__strimzi-topic-operator-kstreams},1649297821,0
{consumergroup=__strimzi-topic-operator-kstreams},1649297826,0
{consumergroup=__strimzi-topic-operator-kstreams},1649297831,0
{consumergroup=__strimzi-topic-operator-kstreams},1649297836,0
{consumergroup=__strimzi-topic-operator-kstreams},1649297841,0
{consumergroup=__strimzi-topic-operator-kstreams},1649297846,0
{consumergroup=__strimzi-topic-operator-kstreams},1649297851,0
{consumergroup=__strimzi-topic-operator-kstreams},1649297856,0
{consumergroup=__strimzi-topic-operator-kstreams},1649297861,0
{consumergroup=__strimzi-topic-operator-kstreams},1649297866,0
{consumergroup=__strimzi-topic-operator-kstreams},1649297871,0
{consumergroup=__strimzi-topic-operator-kstreams},1649297876,0
{consumergroup=__strimzi-topic-operator-kstreams},1649297881,0
{consumergroup=__strimzi-topic-operator-kstreams},1649297886,0
{consumergroup=__strimzi-topic-operator-kstreams},1649297891,0
{consumergroup=__strimzi-topic-operator-kstreams},1649297896,0
{consumergroup=__strimzi-topic-operator-kstreams},1649297901,0
{consumergroup=__strimzi-topic-operator-kstreams},1649297906,0
{consumergroup=__strimzi-topic-operator-kstreams},1649297911,0
{consumergroup=__strimzi-topic-operator-kstreams},1649297916,0
{consumergroup=__strimzi-topic-operator-kstreams},1649297921,0
{consumergroup=__strimzi-topic-operator-kstreams},1649297926,0
{consumergroup=__strimzi-topic-operator-kstreams},1649297931,0
{consumergroup=__strimzi-topic-operator-kstreams},1649297936,0
{consumergroup=__strimzi-topic-operator-kstreams},1649297941,0
{consumergroup=__strimzi-topic-operator-kstreams},1649297946,0
{consumergroup=__strimzi-topic-operator-kstreams},1649297951,0
{consumergroup=__strimzi-topic-operator-kstreams},1649297956,0
{consumergroup=__strimzi-topic-operator-kstreams},1649297961,0
{consumergroup=__strimzi-topic-operator-kstreams},1649297966,0
{consumergroup=__strimzi-topic-operator-kstreams},1649297971,0
{consumergroup=__strimzi-topic-operator-kstreams},1649297976,0
{consumergroup=__strimzi-topic-operator-kstreams},1649297981,0
{consumergroup=__strimzi-topic-operator-kstreams},1649297986,0
{consumergroup=__strimzi-topic-operator-kstreams},1649297991,0
{consumergroup=__strimzi-topic-operator-kstreams},1649297996,0
