labels,timestamp,value
{},1649253976,0
{},1649253981,0
{},1649253986,0
{},1649253991,0
{},1649253996,0
{},1649254001,0
{},1649254006,0
{},1649254011,0
{},1649254016,0
{},1649254021,0
{},1649254026,0
{},1649254031,0
{},1649254036,0
{},1649254041,0
