labels,timestamp,value
{},1649243824,0
{},1649243829,0
{},1649243834,0
{},1649243839,0
{},1649243844,0
{},1649243849,0
{},1649243854,0
{},1649243859,0
{},1649243864,0
{},1649243869,0
{},1649243874,0
{},1649243879,0
{},1649243884,0
{},1649243889,0
{},1649243894,0
