labels,timestamp,value
{consumergroup=__strimzi-topic-operator-kstreams},1649275507,8
{consumergroup=__strimzi-topic-operator-kstreams},1649275512,8
{consumergroup=__strimzi-topic-operator-kstreams},1649275517,8
{consumergroup=__strimzi-topic-operator-kstreams},1649275522,0
{consumergroup=__strimzi-topic-operator-kstreams},1649275527,0
{consumergroup=__strimzi-topic-operator-kstreams},1649275532,0
{consumergroup=__strimzi-topic-operator-kstreams},1649275537,0
{consumergroup=__strimzi-topic-operator-kstreams},1649275542,0
{consumergroup=__strimzi-topic-operator-kstreams},1649275547,0
{consumergroup=__strimzi-topic-operator-kstreams},1649275552,0
{consumergroup=__strimzi-topic-operator-kstreams},1649275557,0
{consumergroup=__strimzi-topic-operator-kstreams},1649275562,0
{consumergroup=__strimzi-topic-operator-kstreams},1649275567,0
{consumergroup=__strimzi-topic-operator-kstreams},1649275572,0
{consumergroup=__strimzi-topic-operator-kstreams},1649275577,0
{consumergroup=__strimzi-topic-operator-kstreams},1649275582,0
{consumergroup=__strimzi-topic-operator-kstreams},1649275587,0
{consumergroup=__strimzi-topic-operator-kstreams},1649275592,0
{consumergroup=__strimzi-topic-operator-kstreams},1649275597,2
{consumergroup=__strimzi-topic-operator-kstreams},1649275602,2
{consumergroup=__strimzi-topic-operator-kstreams},1649275607,2
{consumergroup=__strimzi-topic-operator-kstreams},1649275612,0
{consumergroup=__strimzi-topic-operator-kstreams},1649275617,0
{consumergroup=__strimzi-topic-operator-kstreams},1649275622,0
{consumergroup=__strimzi-topic-operator-kstreams},1649275627,0
{consumergroup=__strimzi-topic-operator-kstreams},1649275632,0
{consumergroup=__strimzi-topic-operator-kstreams},1649275637,0
{consumergroup=__strimzi-topic-operator-kstreams},1649275642,0
{consumergroup=__strimzi-topic-operator-kstreams},1649275647,0
{consumergroup=__strimzi-topic-operator-kstreams},1649275652,0
{consumergroup=__strimzi-topic-operator-kstreams},1649275657,0
{consumergroup=__strimzi-topic-operator-kstreams},1649275662,0
{consumergroup=__strimzi-topic-operator-kstreams},1649275667,0
{consumergroup=__strimzi-topic-operator-kstreams},1649275672,0
{consumergroup=__strimzi-topic-operator-kstreams},1649275677,0
{consumergroup=__strimzi-topic-operator-kstreams},1649275682,0
{consumergroup=__strimzi-topic-operator-kstreams},1649275687,0
{consumergroup=__strimzi-topic-operator-kstreams},1649275692,0
{consumergroup=__strimzi-topic-operator-kstreams},1649275697,0
{consumergroup=__strimzi-topic-operator-kstreams},1649275702,0
{consumergroup=__strimzi-topic-operator-kstreams},1649275707,0
{consumergroup=__strimzi-topic-operator-kstreams},1649275712,0
{consumergroup=__strimzi-topic-operator-kstreams},1649275717,0
{consumergroup=__strimzi-topic-operator-kstreams},1649275722,0
{consumergroup=__strimzi-topic-operator-kstreams},1649275727,0
{consumergroup=__strimzi-topic-operator-kstreams},1649275732,0
{consumergroup=__strimzi-topic-operator-kstreams},1649275737,0
{consumergroup=__strimzi-topic-operator-kstreams},1649275742,0
{consumergroup=__strimzi-topic-operator-kstreams},1649275747,0
{consumergroup=__strimzi-topic-operator-kstreams},1649275752,0
{consumergroup=__strimzi-topic-operator-kstreams},1649275757,0
{consumergroup=__strimzi-topic-operator-kstreams},1649275762,0
{consumergroup=__strimzi-topic-operator-kstreams},1649275767,0
{consumergroup=__strimzi-topic-operator-kstreams},1649275772,0
{consumergroup=__strimzi-topic-operator-kstreams},1649275777,0
{consumergroup=__strimzi-topic-operator-kstreams},1649275782,0
{consumergroup=__strimzi-topic-operator-kstreams},1649275787,0
{consumergroup=__strimzi-topic-operator-kstreams},1649275792,0
{consumergroup=__strimzi-topic-operator-kstreams},1649275797,0
{consumergroup=__strimzi-topic-operator-kstreams},1649275802,0
{consumergroup=__strimzi-topic-operator-kstreams},1649275807,0
{consumergroup=__strimzi-topic-operator-kstreams},1649275812,0
{consumergroup=__strimzi-topic-operator-kstreams},1649275817,0
{consumergroup=__strimzi-topic-operator-kstreams},1649275822,0
{consumergroup=__strimzi-topic-operator-kstreams},1649275827,0
{consumergroup=__strimzi-topic-operator-kstreams},1649275832,0
{consumergroup=__strimzi-topic-operator-kstreams},1649275837,0
{consumergroup=__strimzi-topic-operator-kstreams},1649275842,0
{consumergroup=__strimzi-topic-operator-kstreams},1649275847,0
{consumergroup=__strimzi-topic-operator-kstreams},1649275852,0
{consumergroup=__strimzi-topic-operator-kstreams},1649275857,0
{consumergroup=__strimzi-topic-operator-kstreams},1649275862,0
{consumergroup=__strimzi-topic-operator-kstreams},1649275867,0
{consumergroup=__strimzi-topic-operator-kstreams},1649275872,0
{consumergroup=__strimzi-topic-operator-kstreams},1649275877,0
{consumergroup=__strimzi-topic-operator-kstreams},1649275882,0
{consumergroup=__strimzi-topic-operator-kstreams},1649275887,0
{consumergroup=__strimzi-topic-operator-kstreams},1649275892,0
{consumergroup=__strimzi-topic-operator-kstreams},1649275897,0
{consumergroup=__strimzi-topic-operator-kstreams},1649275902,0
{consumergroup=__strimzi-topic-operator-kstreams},1649275907,0
{consumergroup=__strimzi-topic-operator-kstreams},1649275912,0
{consumergroup=__strimzi-topic-operator-kstreams},1649275917,0
{consumergroup=__strimzi-topic-operator-kstreams},1649275922,0
{consumergroup=__strimzi-topic-operator-kstreams},1649275927,0
{consumergroup=__strimzi-topic-operator-kstreams},1649275932,0
{consumergroup=__strimzi-topic-operator-kstreams},1649275937,0
{consumergroup=__strimzi-topic-operator-kstreams},1649275942,0
{consumergroup=__strimzi-topic-operator-kstreams},1649275947,0
{consumergroup=__strimzi-topic-operator-kstreams},1649275952,0
{consumergroup=__strimzi-topic-operator-kstreams},1649275957,0
{consumergroup=__strimzi-topic-operator-kstreams},1649275962,0
{consumergroup=__strimzi-topic-operator-kstreams},1649275967,0
{consumergroup=__strimzi-topic-operator-kstreams},1649275972,0
{consumergroup=__strimzi-topic-operator-kstreams},1649275977,0
{consumergroup=__strimzi-topic-operator-kstreams},1649275982,0
{consumergroup=__strimzi-topic-operator-kstreams},1649275987,0
