labels,timestamp,value
{},1649290706,0
{},1649290711,0
{},1649290716,0
{},1649290721,0
{},1649290726,0
{},1649290731,0
{},1649290736,0
{},1649290741,0
{},1649290746,0
{},1649290751,0
{},1649290756,0
{},1649290761,0
{},1649290766,0
{},1649290771,0
