labels,timestamp,value
{consumergroup=__strimzi-topic-operator-kstreams},1649291854,0
{consumergroup=__strimzi-topic-operator-kstreams},1649291859,0
{consumergroup=__strimzi-topic-operator-kstreams},1649291864,0
{consumergroup=__strimzi-topic-operator-kstreams},1649291869,0
{consumergroup=__strimzi-topic-operator-kstreams},1649291874,0
{consumergroup=__strimzi-topic-operator-kstreams},1649291879,0
{consumergroup=__strimzi-topic-operator-kstreams},1649291884,0
{consumergroup=__strimzi-topic-operator-kstreams},1649291889,0
{consumergroup=__strimzi-topic-operator-kstreams},1649291894,0
{consumergroup=__strimzi-topic-operator-kstreams},1649291899,0
{consumergroup=__strimzi-topic-operator-kstreams},1649291904,0
{consumergroup=__strimzi-topic-operator-kstreams},1649291909,0
{consumergroup=__strimzi-topic-operator-kstreams},1649291914,0
{consumergroup=__strimzi-topic-operator-kstreams},1649291919,0
{consumergroup=__strimzi-topic-operator-kstreams},1649291924,0
{consumergroup=__strimzi-topic-operator-kstreams},1649291929,0
{consumergroup=__strimzi-topic-operator-kstreams},1649291934,0
{consumergroup=__strimzi-topic-operator-kstreams},1649291939,0
{consumergroup=__strimzi-topic-operator-kstreams},1649291944,0
{consumergroup=__strimzi-topic-operator-kstreams},1649291949,0
{consumergroup=__strimzi-topic-operator-kstreams},1649291954,0
{consumergroup=__strimzi-topic-operator-kstreams},1649291959,0
{consumergroup=__strimzi-topic-operator-kstreams},1649291964,0
{consumergroup=__strimzi-topic-operator-kstreams},1649291969,0
{consumergroup=__strimzi-topic-operator-kstreams},1649291974,0
{consumergroup=__strimzi-topic-operator-kstreams},1649291979,0
{consumergroup=__strimzi-topic-operator-kstreams},1649291984,0
{consumergroup=__strimzi-topic-operator-kstreams},1649291989,0
{consumergroup=__strimzi-topic-operator-kstreams},1649291994,0
{consumergroup=__strimzi-topic-operator-kstreams},1649291999,0
{consumergroup=__strimzi-topic-operator-kstreams},1649292004,0
{consumergroup=__strimzi-topic-operator-kstreams},1649292009,0
{consumergroup=__strimzi-topic-operator-kstreams},1649292014,0
{consumergroup=__strimzi-topic-operator-kstreams},1649292019,0
{consumergroup=__strimzi-topic-operator-kstreams},1649292024,0
{consumergroup=__strimzi-topic-operator-kstreams},1649292029,0
{consumergroup=__strimzi-topic-operator-kstreams},1649292034,0
{consumergroup=__strimzi-topic-operator-kstreams},1649292039,0
{consumergroup=__strimzi-topic-operator-kstreams},1649292044,0
{consumergroup=__strimzi-topic-operator-kstreams},1649292049,0
{consumergroup=__strimzi-topic-operator-kstreams},1649292054,0
{consumergroup=__strimzi-topic-operator-kstreams},1649292059,0
{consumergroup=__strimzi-topic-operator-kstreams},1649292064,0
{consumergroup=__strimzi-topic-operator-kstreams},1649292069,0
{consumergroup=__strimzi-topic-operator-kstreams},1649292074,0
{consumergroup=__strimzi-topic-operator-kstreams},1649292079,0
{consumergroup=__strimzi-topic-operator-kstreams},1649292084,0
{consumergroup=__strimzi-topic-operator-kstreams},1649292089,0
{consumergroup=__strimzi-topic-operator-kstreams},1649292094,0
{consumergroup=__strimzi-topic-operator-kstreams},1649292099,0
{consumergroup=__strimzi-topic-operator-kstreams},1649292104,0
{consumergroup=__strimzi-topic-operator-kstreams},1649292109,0
{consumergroup=__strimzi-topic-operator-kstreams},1649292114,0
{consumergroup=__strimzi-topic-operator-kstreams},1649292119,0
{consumergroup=__strimzi-topic-operator-kstreams},1649292124,0
{consumergroup=__strimzi-topic-operator-kstreams},1649292129,0
{consumergroup=__strimzi-topic-operator-kstreams},1649292134,0
{consumergroup=__strimzi-topic-operator-kstreams},1649292139,0
{consumergroup=__strimzi-topic-operator-kstreams},1649292144,0
{consumergroup=__strimzi-topic-operator-kstreams},1649292149,0
{consumergroup=__strimzi-topic-operator-kstreams},1649292154,0
{consumergroup=__strimzi-topic-operator-kstreams},1649292159,0
{consumergroup=__strimzi-topic-operator-kstreams},1649292164,0
{consumergroup=__strimzi-topic-operator-kstreams},1649292169,0
{consumergroup=__strimzi-topic-operator-kstreams},1649292174,0
{consumergroup=__strimzi-topic-operator-kstreams},1649292179,0
{consumergroup=__strimzi-topic-operator-kstreams},1649292184,0
{consumergroup=__strimzi-topic-operator-kstreams},1649292189,0
{consumergroup=__strimzi-topic-operator-kstreams},1649292194,0
{consumergroup=__strimzi-topic-operator-kstreams},1649292199,0
{consumergroup=__strimzi-topic-operator-kstreams},1649292204,0
{consumergroup=__strimzi-topic-operator-kstreams},1649292209,0
{consumergroup=__strimzi-topic-operator-kstreams},1649292214,0
{consumergroup=__strimzi-topic-operator-kstreams},1649292219,0
{consumergroup=__strimzi-topic-operator-kstreams},1649292224,0
{consumergroup=__strimzi-topic-operator-kstreams},1649292229,0
{consumergroup=__strimzi-topic-operator-kstreams},1649292234,0
{consumergroup=__strimzi-topic-operator-kstreams},1649292239,0
{consumergroup=__strimzi-topic-operator-kstreams},1649292244,0
{consumergroup=__strimzi-topic-operator-kstreams},1649292249,0
{consumergroup=__strimzi-topic-operator-kstreams},1649292254,0
{consumergroup=__strimzi-topic-operator-kstreams},1649292259,0
{consumergroup=__strimzi-topic-operator-kstreams},1649292264,0
{consumergroup=__strimzi-topic-operator-kstreams},1649292269,0
{consumergroup=__strimzi-topic-operator-kstreams},1649292274,0
{consumergroup=__strimzi-topic-operator-kstreams},1649292279,0
{consumergroup=__strimzi-topic-operator-kstreams},1649292284,0
{consumergroup=__strimzi-topic-operator-kstreams},1649292289,0
{consumergroup=__strimzi-topic-operator-kstreams},1649292294,0
{consumergroup=__strimzi-topic-operator-kstreams},1649292299,0
{consumergroup=__strimzi-topic-operator-kstreams},1649292304,0
{consumergroup=__strimzi-topic-operator-kstreams},1649292309,0
{consumergroup=__strimzi-topic-operator-kstreams},1649292314,0
{consumergroup=__strimzi-topic-operator-kstreams},1649292319,0
{consumergroup=__strimzi-topic-operator-kstreams},1649292324,0
{consumergroup=__strimzi-topic-operator-kstreams},1649292329,0
{consumergroup=__strimzi-topic-operator-kstreams},1649292334,0
{consumergroup=__strimzi-topic-operator-kstreams},1649292339,0
