labels,timestamp,value
{},1649286749,0
{},1649286754,0
{},1649286759,0
{},1649286764,0
{},1649286769,0
{},1649286774,0
{},1649286779,0
{},1649286784,0
{},1649286789,0
{},1649286794,0
{},1649286799,0
{},1649286804,0
{},1649286809,0
{},1649286814,0
