labels,timestamp,value
{consumergroup=__strimzi-topic-operator-kstreams},1649251162,3
{consumergroup=__strimzi-topic-operator-kstreams},1649251167,3
{consumergroup=__strimzi-topic-operator-kstreams},1649251172,3
{consumergroup=__strimzi-topic-operator-kstreams},1649251177,11
{consumergroup=__strimzi-topic-operator-kstreams},1649251182,11
{consumergroup=__strimzi-topic-operator-kstreams},1649251187,11
{consumergroup=__strimzi-topic-operator-kstreams},1649251192,0
{consumergroup=__strimzi-topic-operator-kstreams},1649251197,0
{consumergroup=__strimzi-topic-operator-kstreams},1649251202,0
{consumergroup=__strimzi-topic-operator-kstreams},1649251207,0
{consumergroup=__strimzi-topic-operator-kstreams},1649251212,0
{consumergroup=__strimzi-topic-operator-kstreams},1649251217,0
{consumergroup=__strimzi-topic-operator-kstreams},1649251222,0
{consumergroup=__strimzi-topic-operator-kstreams},1649251227,0
{consumergroup=__strimzi-topic-operator-kstreams},1649251232,0
{consumergroup=__strimzi-topic-operator-kstreams},1649251237,0
{consumergroup=__strimzi-topic-operator-kstreams},1649251242,0
{consumergroup=__strimzi-topic-operator-kstreams},1649251247,0
{consumergroup=__strimzi-topic-operator-kstreams},1649251252,0
{consumergroup=__strimzi-topic-operator-kstreams},1649251257,0
{consumergroup=__strimzi-topic-operator-kstreams},1649251262,0
{consumergroup=__strimzi-topic-operator-kstreams},1649251267,0
{consumergroup=__strimzi-topic-operator-kstreams},1649251272,0
{consumergroup=__strimzi-topic-operator-kstreams},1649251277,0
{consumergroup=__strimzi-topic-operator-kstreams},1649251282,0
{consumergroup=__strimzi-topic-operator-kstreams},1649251287,0
{consumergroup=__strimzi-topic-operator-kstreams},1649251292,0
{consumergroup=__strimzi-topic-operator-kstreams},1649251297,0
{consumergroup=__strimzi-topic-operator-kstreams},1649251302,0
{consumergroup=__strimzi-topic-operator-kstreams},1649251307,0
{consumergroup=__strimzi-topic-operator-kstreams},1649251312,0
{consumergroup=__strimzi-topic-operator-kstreams},1649251317,0
{consumergroup=__strimzi-topic-operator-kstreams},1649251322,0
{consumergroup=__strimzi-topic-operator-kstreams},1649251327,0
{consumergroup=__strimzi-topic-operator-kstreams},1649251332,0
{consumergroup=__strimzi-topic-operator-kstreams},1649251337,0
{consumergroup=__strimzi-topic-operator-kstreams},1649251342,0
{consumergroup=__strimzi-topic-operator-kstreams},1649251347,0
{consumergroup=__strimzi-topic-operator-kstreams},1649251352,0
{consumergroup=__strimzi-topic-operator-kstreams},1649251357,0
{consumergroup=__strimzi-topic-operator-kstreams},1649251362,0
{consumergroup=__strimzi-topic-operator-kstreams},1649251367,0
{consumergroup=__strimzi-topic-operator-kstreams},1649251372,0
{consumergroup=__strimzi-topic-operator-kstreams},1649251377,0
{consumergroup=__strimzi-topic-operator-kstreams},1649251382,0
{consumergroup=__strimzi-topic-operator-kstreams},1649251387,0
{consumergroup=__strimzi-topic-operator-kstreams},1649251392,0
{consumergroup=__strimzi-topic-operator-kstreams},1649251397,0
{consumergroup=__strimzi-topic-operator-kstreams},1649251402,0
{consumergroup=__strimzi-topic-operator-kstreams},1649251407,0
{consumergroup=__strimzi-topic-operator-kstreams},1649251412,0
{consumergroup=__strimzi-topic-operator-kstreams},1649251417,0
{consumergroup=__strimzi-topic-operator-kstreams},1649251422,0
{consumergroup=__strimzi-topic-operator-kstreams},1649251427,0
{consumergroup=__strimzi-topic-operator-kstreams},1649251432,0
{consumergroup=__strimzi-topic-operator-kstreams},1649251437,0
{consumergroup=__strimzi-topic-operator-kstreams},1649251442,0
{consumergroup=__strimzi-topic-operator-kstreams},1649251447,0
{consumergroup=__strimzi-topic-operator-kstreams},1649251452,0
{consumergroup=__strimzi-topic-operator-kstreams},1649251457,0
{consumergroup=__strimzi-topic-operator-kstreams},1649251462,0
{consumergroup=__strimzi-topic-operator-kstreams},1649251467,0
{consumergroup=__strimzi-topic-operator-kstreams},1649251472,0
{consumergroup=__strimzi-topic-operator-kstreams},1649251477,0
{consumergroup=__strimzi-topic-operator-kstreams},1649251482,0
{consumergroup=__strimzi-topic-operator-kstreams},1649251487,0
{consumergroup=__strimzi-topic-operator-kstreams},1649251492,0
{consumergroup=__strimzi-topic-operator-kstreams},1649251497,0
{consumergroup=__strimzi-topic-operator-kstreams},1649251502,0
{consumergroup=__strimzi-topic-operator-kstreams},1649251507,0
{consumergroup=__strimzi-topic-operator-kstreams},1649251512,0
{consumergroup=__strimzi-topic-operator-kstreams},1649251517,0
{consumergroup=__strimzi-topic-operator-kstreams},1649251522,0
{consumergroup=__strimzi-topic-operator-kstreams},1649251527,0
{consumergroup=__strimzi-topic-operator-kstreams},1649251532,0
{consumergroup=__strimzi-topic-operator-kstreams},1649251537,0
{consumergroup=__strimzi-topic-operator-kstreams},1649251542,0
{consumergroup=__strimzi-topic-operator-kstreams},1649251547,0
{consumergroup=__strimzi-topic-operator-kstreams},1649251552,0
{consumergroup=__strimzi-topic-operator-kstreams},1649251557,0
{consumergroup=__strimzi-topic-operator-kstreams},1649251562,0
{consumergroup=__strimzi-topic-operator-kstreams},1649251567,0
{consumergroup=__strimzi-topic-operator-kstreams},1649251572,0
{consumergroup=__strimzi-topic-operator-kstreams},1649251577,0
{consumergroup=__strimzi-topic-operator-kstreams},1649251582,0
{consumergroup=__strimzi-topic-operator-kstreams},1649251587,0
{consumergroup=__strimzi-topic-operator-kstreams},1649251592,0
{consumergroup=__strimzi-topic-operator-kstreams},1649251597,0
{consumergroup=__strimzi-topic-operator-kstreams},1649251602,0
{consumergroup=__strimzi-topic-operator-kstreams},1649251607,0
{consumergroup=__strimzi-topic-operator-kstreams},1649251612,0
{consumergroup=__strimzi-topic-operator-kstreams},1649251617,0
{consumergroup=__strimzi-topic-operator-kstreams},1649251622,0
{consumergroup=__strimzi-topic-operator-kstreams},1649251627,0
{consumergroup=__strimzi-topic-operator-kstreams},1649251632,0
{consumergroup=__strimzi-topic-operator-kstreams},1649251637,0
{consumergroup=__strimzi-topic-operator-kstreams},1649251642,0
{consumergroup=__strimzi-topic-operator-kstreams},1649251647,0
{consumergroup=__strimzi-topic-operator-kstreams},1649251652,0
{consumergroup=__strimzi-topic-operator-kstreams},1649251657,0
