labels,timestamp,value
{consumergroup=__strimzi-topic-operator-kstreams},1649281678,3
{consumergroup=__strimzi-topic-operator-kstreams},1649281683,3
{consumergroup=__strimzi-topic-operator-kstreams},1649281688,3
{consumergroup=__strimzi-topic-operator-kstreams},1649281693,1
{consumergroup=__strimzi-topic-operator-kstreams},1649281698,1
{consumergroup=__strimzi-topic-operator-kstreams},1649281703,1
{consumergroup=__strimzi-topic-operator-kstreams},1649281708,1
{consumergroup=__strimzi-topic-operator-kstreams},1649281713,1
{consumergroup=__strimzi-topic-operator-kstreams},1649281718,1
{consumergroup=__strimzi-topic-operator-kstreams},1649281723,3
{consumergroup=__strimzi-topic-operator-kstreams},1649281728,3
{consumergroup=__strimzi-topic-operator-kstreams},1649281733,3
{consumergroup=__strimzi-topic-operator-kstreams},1649281738,3
{consumergroup=__strimzi-topic-operator-kstreams},1649281743,3
{consumergroup=__strimzi-topic-operator-kstreams},1649281748,3
{consumergroup=__strimzi-topic-operator-kstreams},1649281753,0
{consumergroup=__strimzi-topic-operator-kstreams},1649281758,0
{consumergroup=__strimzi-topic-operator-kstreams},1649281763,0
{consumergroup=__strimzi-topic-operator-kstreams},1649281768,0
{consumergroup=__strimzi-topic-operator-kstreams},1649281773,0
{consumergroup=__strimzi-topic-operator-kstreams},1649281778,0
{consumergroup=__strimzi-topic-operator-kstreams},1649281783,0
{consumergroup=__strimzi-topic-operator-kstreams},1649281788,0
{consumergroup=__strimzi-topic-operator-kstreams},1649281793,0
{consumergroup=__strimzi-topic-operator-kstreams},1649281798,0
{consumergroup=__strimzi-topic-operator-kstreams},1649281803,0
{consumergroup=__strimzi-topic-operator-kstreams},1649281808,0
{consumergroup=__strimzi-topic-operator-kstreams},1649281813,0
{consumergroup=__strimzi-topic-operator-kstreams},1649281818,0
{consumergroup=__strimzi-topic-operator-kstreams},1649281823,0
{consumergroup=__strimzi-topic-operator-kstreams},1649281828,0
{consumergroup=__strimzi-topic-operator-kstreams},1649281833,0
{consumergroup=__strimzi-topic-operator-kstreams},1649281838,0
{consumergroup=__strimzi-topic-operator-kstreams},1649281843,0
{consumergroup=__strimzi-topic-operator-kstreams},1649281848,0
{consumergroup=__strimzi-topic-operator-kstreams},1649281853,0
{consumergroup=__strimzi-topic-operator-kstreams},1649281858,0
{consumergroup=__strimzi-topic-operator-kstreams},1649281863,0
{consumergroup=__strimzi-topic-operator-kstreams},1649281868,0
{consumergroup=__strimzi-topic-operator-kstreams},1649281873,0
{consumergroup=__strimzi-topic-operator-kstreams},1649281878,0
{consumergroup=__strimzi-topic-operator-kstreams},1649281883,0
{consumergroup=__strimzi-topic-operator-kstreams},1649281888,0
{consumergroup=__strimzi-topic-operator-kstreams},1649281893,0
{consumergroup=__strimzi-topic-operator-kstreams},1649281898,0
{consumergroup=__strimzi-topic-operator-kstreams},1649281903,0
{consumergroup=__strimzi-topic-operator-kstreams},1649281908,0
{consumergroup=__strimzi-topic-operator-kstreams},1649281913,0
{consumergroup=__strimzi-topic-operator-kstreams},1649281918,0
{consumergroup=__strimzi-topic-operator-kstreams},1649281923,0
{consumergroup=__strimzi-topic-operator-kstreams},1649281928,0
{consumergroup=__strimzi-topic-operator-kstreams},1649281933,0
{consumergroup=__strimzi-topic-operator-kstreams},1649281938,0
{consumergroup=__strimzi-topic-operator-kstreams},1649281943,0
{consumergroup=__strimzi-topic-operator-kstreams},1649281948,0
{consumergroup=__strimzi-topic-operator-kstreams},1649281953,0
{consumergroup=__strimzi-topic-operator-kstreams},1649281958,0
{consumergroup=__strimzi-topic-operator-kstreams},1649281963,0
{consumergroup=__strimzi-topic-operator-kstreams},1649281968,0
{consumergroup=__strimzi-topic-operator-kstreams},1649281973,0
{consumergroup=__strimzi-topic-operator-kstreams},1649281978,0
{consumergroup=__strimzi-topic-operator-kstreams},1649281983,0
{consumergroup=__strimzi-topic-operator-kstreams},1649281988,0
{consumergroup=__strimzi-topic-operator-kstreams},1649281993,0
{consumergroup=__strimzi-topic-operator-kstreams},1649281998,0
{consumergroup=__strimzi-topic-operator-kstreams},1649282003,0
{consumergroup=__strimzi-topic-operator-kstreams},1649282008,0
{consumergroup=__strimzi-topic-operator-kstreams},1649282013,0
{consumergroup=__strimzi-topic-operator-kstreams},1649282018,0
{consumergroup=__strimzi-topic-operator-kstreams},1649282023,0
{consumergroup=__strimzi-topic-operator-kstreams},1649282028,0
{consumergroup=__strimzi-topic-operator-kstreams},1649282033,0
{consumergroup=__strimzi-topic-operator-kstreams},1649282038,0
{consumergroup=__strimzi-topic-operator-kstreams},1649282043,0
{consumergroup=__strimzi-topic-operator-kstreams},1649282048,0
{consumergroup=__strimzi-topic-operator-kstreams},1649282053,0
{consumergroup=__strimzi-topic-operator-kstreams},1649282058,0
{consumergroup=__strimzi-topic-operator-kstreams},1649282063,0
{consumergroup=__strimzi-topic-operator-kstreams},1649282068,0
{consumergroup=__strimzi-topic-operator-kstreams},1649282073,0
{consumergroup=__strimzi-topic-operator-kstreams},1649282078,0
{consumergroup=__strimzi-topic-operator-kstreams},1649282083,0
{consumergroup=__strimzi-topic-operator-kstreams},1649282088,0
{consumergroup=__strimzi-topic-operator-kstreams},1649282093,0
{consumergroup=__strimzi-topic-operator-kstreams},1649282098,0
{consumergroup=__strimzi-topic-operator-kstreams},1649282103,0
{consumergroup=__strimzi-topic-operator-kstreams},1649282108,0
{consumergroup=__strimzi-topic-operator-kstreams},1649282113,0
{consumergroup=__strimzi-topic-operator-kstreams},1649282118,0
{consumergroup=__strimzi-topic-operator-kstreams},1649282123,0
{consumergroup=__strimzi-topic-operator-kstreams},1649282128,0
{consumergroup=__strimzi-topic-operator-kstreams},1649282133,0
{consumergroup=__strimzi-topic-operator-kstreams},1649282138,0
{consumergroup=__strimzi-topic-operator-kstreams},1649282143,0
{consumergroup=__strimzi-topic-operator-kstreams},1649282148,0
{consumergroup=__strimzi-topic-operator-kstreams},1649282153,0
{consumergroup=__strimzi-topic-operator-kstreams},1649282158,0
{consumergroup=__strimzi-topic-operator-kstreams},1649282163,0
{consumergroup=__strimzi-topic-operator-kstreams},1649282168,0
{consumergroup=__strimzi-topic-operator-kstreams},1649282173,0
{consumergroup=__strimzi-topic-operator-kstreams},1649282178,0
