labels,timestamp,value
{consumergroup=__strimzi-topic-operator-kstreams},1649270429,11
{consumergroup=__strimzi-topic-operator-kstreams},1649270434,11
{consumergroup=__strimzi-topic-operator-kstreams},1649270439,11
{consumergroup=__strimzi-topic-operator-kstreams},1649270444,0
{consumergroup=__strimzi-topic-operator-kstreams},1649270449,0
{consumergroup=__strimzi-topic-operator-kstreams},1649270454,0
{consumergroup=__strimzi-topic-operator-kstreams},1649270459,0
{consumergroup=__strimzi-topic-operator-kstreams},1649270464,0
{consumergroup=__strimzi-topic-operator-kstreams},1649270469,0
{consumergroup=__strimzi-topic-operator-kstreams},1649270474,0
{consumergroup=__strimzi-topic-operator-kstreams},1649270479,0
{consumergroup=__strimzi-topic-operator-kstreams},1649270484,0
{consumergroup=__strimzi-topic-operator-kstreams},1649270489,0
{consumergroup=__strimzi-topic-operator-kstreams},1649270494,0
{consumergroup=__strimzi-topic-operator-kstreams},1649270499,0
{consumergroup=__strimzi-topic-operator-kstreams},1649270504,0
{consumergroup=__strimzi-topic-operator-kstreams},1649270509,0
{consumergroup=__strimzi-topic-operator-kstreams},1649270514,0
{consumergroup=__strimzi-topic-operator-kstreams},1649270519,0
{consumergroup=__strimzi-topic-operator-kstreams},1649270524,0
{consumergroup=__strimzi-topic-operator-kstreams},1649270529,0
{consumergroup=__strimzi-topic-operator-kstreams},1649270534,3
{consumergroup=__strimzi-topic-operator-kstreams},1649270539,3
{consumergroup=__strimzi-topic-operator-kstreams},1649270544,3
{consumergroup=__strimzi-topic-operator-kstreams},1649270549,3
{consumergroup=__strimzi-topic-operator-kstreams},1649270554,3
{consumergroup=__strimzi-topic-operator-kstreams},1649270559,3
{consumergroup=__strimzi-topic-operator-kstreams},1649270564,0
{consumergroup=__strimzi-topic-operator-kstreams},1649270569,0
{consumergroup=__strimzi-topic-operator-kstreams},1649270574,0
{consumergroup=__strimzi-topic-operator-kstreams},1649270579,0
{consumergroup=__strimzi-topic-operator-kstreams},1649270584,0
{consumergroup=__strimzi-topic-operator-kstreams},1649270589,0
{consumergroup=__strimzi-topic-operator-kstreams},1649270594,0
{consumergroup=__strimzi-topic-operator-kstreams},1649270599,0
{consumergroup=__strimzi-topic-operator-kstreams},1649270604,0
{consumergroup=__strimzi-topic-operator-kstreams},1649270609,0
{consumergroup=__strimzi-topic-operator-kstreams},1649270614,0
{consumergroup=__strimzi-topic-operator-kstreams},1649270619,0
{consumergroup=__strimzi-topic-operator-kstreams},1649270624,0
{consumergroup=__strimzi-topic-operator-kstreams},1649270629,0
{consumergroup=__strimzi-topic-operator-kstreams},1649270634,0
{consumergroup=__strimzi-topic-operator-kstreams},1649270639,0
{consumergroup=__strimzi-topic-operator-kstreams},1649270644,0
{consumergroup=__strimzi-topic-operator-kstreams},1649270649,0
{consumergroup=__strimzi-topic-operator-kstreams},1649270654,0
{consumergroup=__strimzi-topic-operator-kstreams},1649270659,0
{consumergroup=__strimzi-topic-operator-kstreams},1649270664,0
{consumergroup=__strimzi-topic-operator-kstreams},1649270669,0
{consumergroup=__strimzi-topic-operator-kstreams},1649270674,0
{consumergroup=__strimzi-topic-operator-kstreams},1649270679,0
{consumergroup=__strimzi-topic-operator-kstreams},1649270684,0
{consumergroup=__strimzi-topic-operator-kstreams},1649270689,0
{consumergroup=__strimzi-topic-operator-kstreams},1649270694,0
{consumergroup=__strimzi-topic-operator-kstreams},1649270699,0
{consumergroup=__strimzi-topic-operator-kstreams},1649270704,0
{consumergroup=__strimzi-topic-operator-kstreams},1649270709,0
{consumergroup=__strimzi-topic-operator-kstreams},1649270714,0
{consumergroup=__strimzi-topic-operator-kstreams},1649270719,0
{consumergroup=__strimzi-topic-operator-kstreams},1649270724,0
{consumergroup=__strimzi-topic-operator-kstreams},1649270729,0
{consumergroup=__strimzi-topic-operator-kstreams},1649270734,0
{consumergroup=__strimzi-topic-operator-kstreams},1649270739,0
{consumergroup=__strimzi-topic-operator-kstreams},1649270744,0
{consumergroup=__strimzi-topic-operator-kstreams},1649270749,0
{consumergroup=__strimzi-topic-operator-kstreams},1649270754,0
{consumergroup=__strimzi-topic-operator-kstreams},1649270759,0
{consumergroup=__strimzi-topic-operator-kstreams},1649270764,0
{consumergroup=__strimzi-topic-operator-kstreams},1649270769,0
{consumergroup=__strimzi-topic-operator-kstreams},1649270774,0
{consumergroup=__strimzi-topic-operator-kstreams},1649270779,0
{consumergroup=__strimzi-topic-operator-kstreams},1649270784,0
{consumergroup=__strimzi-topic-operator-kstreams},1649270789,0
{consumergroup=__strimzi-topic-operator-kstreams},1649270794,0
{consumergroup=__strimzi-topic-operator-kstreams},1649270799,0
{consumergroup=__strimzi-topic-operator-kstreams},1649270804,0
{consumergroup=__strimzi-topic-operator-kstreams},1649270809,0
{consumergroup=__strimzi-topic-operator-kstreams},1649270814,0
{consumergroup=__strimzi-topic-operator-kstreams},1649270819,0
{consumergroup=__strimzi-topic-operator-kstreams},1649270824,0
{consumergroup=__strimzi-topic-operator-kstreams},1649270829,0
{consumergroup=__strimzi-topic-operator-kstreams},1649270834,0
{consumergroup=__strimzi-topic-operator-kstreams},1649270839,0
{consumergroup=__strimzi-topic-operator-kstreams},1649270844,0
{consumergroup=__strimzi-topic-operator-kstreams},1649270849,0
{consumergroup=__strimzi-topic-operator-kstreams},1649270854,0
{consumergroup=__strimzi-topic-operator-kstreams},1649270859,0
{consumergroup=__strimzi-topic-operator-kstreams},1649270864,0
{consumergroup=__strimzi-topic-operator-kstreams},1649270869,0
{consumergroup=__strimzi-topic-operator-kstreams},1649270874,0
{consumergroup=__strimzi-topic-operator-kstreams},1649270879,0
{consumergroup=__strimzi-topic-operator-kstreams},1649270884,0
{consumergroup=__strimzi-topic-operator-kstreams},1649270889,0
{consumergroup=__strimzi-topic-operator-kstreams},1649270894,0
{consumergroup=__strimzi-topic-operator-kstreams},1649270899,0
{consumergroup=__strimzi-topic-operator-kstreams},1649270904,0
{consumergroup=__strimzi-topic-operator-kstreams},1649270909,0
{consumergroup=__strimzi-topic-operator-kstreams},1649270914,0
{consumergroup=__strimzi-topic-operator-kstreams},1649270919,0
