labels,timestamp,value
{consumergroup=__strimzi-topic-operator-kstreams},1650357884,0
{consumergroup=__strimzi-topic-operator-kstreams},1650357889,0
{consumergroup=__strimzi-topic-operator-kstreams},1650357894,0
{consumergroup=__strimzi-topic-operator-kstreams},1650357899,0
{consumergroup=__strimzi-topic-operator-kstreams},1650357904,0
{consumergroup=__strimzi-topic-operator-kstreams},1650357909,0
{consumergroup=__strimzi-topic-operator-kstreams},1650357914,0
{consumergroup=__strimzi-topic-operator-kstreams},1650357919,0
{consumergroup=__strimzi-topic-operator-kstreams},1650357924,0
{consumergroup=__strimzi-topic-operator-kstreams},1650357929,0
{consumergroup=__strimzi-topic-operator-kstreams},1650357934,0
{consumergroup=__strimzi-topic-operator-kstreams},1650357939,0
{consumergroup=__strimzi-topic-operator-kstreams},1650357944,0
{consumergroup=__strimzi-topic-operator-kstreams},1650357949,0
{consumergroup=__strimzi-topic-operator-kstreams},1650357954,0
{consumergroup=__strimzi-topic-operator-kstreams},1650357959,0
{consumergroup=__strimzi-topic-operator-kstreams},1650357964,0
{consumergroup=__strimzi-topic-operator-kstreams},1650357969,0
{consumergroup=__strimzi-topic-operator-kstreams},1650357974,0
{consumergroup=__strimzi-topic-operator-kstreams},1650357979,0
{consumergroup=__strimzi-topic-operator-kstreams},1650357984,0
{consumergroup=__strimzi-topic-operator-kstreams},1650357989,0
{consumergroup=__strimzi-topic-operator-kstreams},1650357994,0
{consumergroup=__strimzi-topic-operator-kstreams},1650357999,0
{consumergroup=__strimzi-topic-operator-kstreams},1650358004,0
{consumergroup=__strimzi-topic-operator-kstreams},1650358009,0
{consumergroup=__strimzi-topic-operator-kstreams},1650358014,0
{consumergroup=__strimzi-topic-operator-kstreams},1650358019,0
{consumergroup=__strimzi-topic-operator-kstreams},1650358024,0
{consumergroup=__strimzi-topic-operator-kstreams},1650358029,0
{consumergroup=__strimzi-topic-operator-kstreams},1650358034,0
{consumergroup=__strimzi-topic-operator-kstreams},1650358039,0
{consumergroup=__strimzi-topic-operator-kstreams},1650358044,0
{consumergroup=__strimzi-topic-operator-kstreams},1650358049,0
{consumergroup=__strimzi-topic-operator-kstreams},1650358054,0
{consumergroup=__strimzi-topic-operator-kstreams},1650358059,0
{consumergroup=__strimzi-topic-operator-kstreams},1650358064,0
{consumergroup=__strimzi-topic-operator-kstreams},1650358069,0
{consumergroup=__strimzi-topic-operator-kstreams},1650358074,0
{consumergroup=__strimzi-topic-operator-kstreams},1650358079,0
{consumergroup=__strimzi-topic-operator-kstreams},1650358084,0
{consumergroup=__strimzi-topic-operator-kstreams},1650358089,0
{consumergroup=__strimzi-topic-operator-kstreams},1650358094,0
{consumergroup=__strimzi-topic-operator-kstreams},1650358099,0
{consumergroup=__strimzi-topic-operator-kstreams},1650358104,0
{consumergroup=__strimzi-topic-operator-kstreams},1650358109,0
{consumergroup=__strimzi-topic-operator-kstreams},1650358114,0
{consumergroup=__strimzi-topic-operator-kstreams},1650358119,0
{consumergroup=__strimzi-topic-operator-kstreams},1650358124,0
{consumergroup=__strimzi-topic-operator-kstreams},1650358129,0
