labels,timestamp,value
{consumergroup=__strimzi-topic-operator-kstreams},1650358208,0
{consumergroup=__strimzi-topic-operator-kstreams},1650358213,0
{consumergroup=__strimzi-topic-operator-kstreams},1650358218,0
{consumergroup=__strimzi-topic-operator-kstreams},1650358223,0
{consumergroup=__strimzi-topic-operator-kstreams},1650358228,0
{consumergroup=__strimzi-topic-operator-kstreams},1650358233,0
{consumergroup=__strimzi-topic-operator-kstreams},1650358238,0
{consumergroup=__strimzi-topic-operator-kstreams},1650358243,0
{consumergroup=__strimzi-topic-operator-kstreams},1650358248,0
{consumergroup=__strimzi-topic-operator-kstreams},1650358253,0
{consumergroup=__strimzi-topic-operator-kstreams},1650358258,0
{consumergroup=__strimzi-topic-operator-kstreams},1650358263,0
{consumergroup=__strimzi-topic-operator-kstreams},1650358268,0
{consumergroup=__strimzi-topic-operator-kstreams},1650358273,0
{consumergroup=__strimzi-topic-operator-kstreams},1650358278,0
{consumergroup=__strimzi-topic-operator-kstreams},1650358283,0
{consumergroup=__strimzi-topic-operator-kstreams},1650358288,0
{consumergroup=__strimzi-topic-operator-kstreams},1650358293,0
{consumergroup=__strimzi-topic-operator-kstreams},1650358298,0
{consumergroup=__strimzi-topic-operator-kstreams},1650358303,0
{consumergroup=__strimzi-topic-operator-kstreams},1650358308,0
{consumergroup=__strimzi-topic-operator-kstreams},1650358313,0
{consumergroup=__strimzi-topic-operator-kstreams},1650358318,0
{consumergroup=__strimzi-topic-operator-kstreams},1650358323,0
{consumergroup=__strimzi-topic-operator-kstreams},1650358328,0
{consumergroup=__strimzi-topic-operator-kstreams},1650358333,0
{consumergroup=__strimzi-topic-operator-kstreams},1650358338,0
{consumergroup=__strimzi-topic-operator-kstreams},1650358343,0
{consumergroup=__strimzi-topic-operator-kstreams},1650358348,0
{consumergroup=__strimzi-topic-operator-kstreams},1650358353,0
{consumergroup=__strimzi-topic-operator-kstreams},1650358358,0
{consumergroup=__strimzi-topic-operator-kstreams},1650358363,0
{consumergroup=__strimzi-topic-operator-kstreams},1650358368,0
{consumergroup=__strimzi-topic-operator-kstreams},1650358373,0
{consumergroup=__strimzi-topic-operator-kstreams},1650358378,0
{consumergroup=__strimzi-topic-operator-kstreams},1650358383,0
{consumergroup=__strimzi-topic-operator-kstreams},1650358388,0
{consumergroup=__strimzi-topic-operator-kstreams},1650358393,0
{consumergroup=__strimzi-topic-operator-kstreams},1650358398,0
{consumergroup=__strimzi-topic-operator-kstreams},1650358403,0
{consumergroup=__strimzi-topic-operator-kstreams},1650358408,0
{consumergroup=__strimzi-topic-operator-kstreams},1650358413,0
{consumergroup=__strimzi-topic-operator-kstreams},1650358418,0
{consumergroup=__strimzi-topic-operator-kstreams},1650358423,0
{consumergroup=__strimzi-topic-operator-kstreams},1650358428,0
{consumergroup=__strimzi-topic-operator-kstreams},1650358433,0
{consumergroup=__strimzi-topic-operator-kstreams},1650358438,0
{consumergroup=__strimzi-topic-operator-kstreams},1650358443,0
{consumergroup=__strimzi-topic-operator-kstreams},1650358448,0
{consumergroup=__strimzi-topic-operator-kstreams},1650358453,0
{consumergroup=__strimzi-topic-operator-kstreams},1650358458,0
