labels,timestamp,value
{consumergroup=__strimzi-topic-operator-kstreams},1650383564,0
{consumergroup=__strimzi-topic-operator-kstreams},1650383569,0
{consumergroup=__strimzi-topic-operator-kstreams},1650383574,0
{consumergroup=__strimzi-topic-operator-kstreams},1650383579,8
{consumergroup=__strimzi-topic-operator-kstreams},1650383584,8
{consumergroup=__strimzi-topic-operator-kstreams},1650383589,8
{consumergroup=__strimzi-topic-operator-kstreams},1650383594,8
{consumergroup=__strimzi-topic-operator-kstreams},1650383599,8
{consumergroup=__strimzi-topic-operator-kstreams},1650383604,8
{consumergroup=__strimzi-topic-operator-kstreams},1650383609,0
{consumergroup=__strimzi-topic-operator-kstreams},1650383614,0
{consumergroup=__strimzi-topic-operator-kstreams},1650383619,0
{consumergroup=__strimzi-topic-operator-kstreams},1650383624,0
{consumergroup=__strimzi-topic-operator-kstreams},1650383629,0
{consumergroup=__strimzi-topic-operator-kstreams},1650383634,0
{consumergroup=__strimzi-topic-operator-kstreams},1650383639,0
{consumergroup=__strimzi-topic-operator-kstreams},1650383644,0
{consumergroup=__strimzi-topic-operator-kstreams},1650383649,0
{consumergroup=__strimzi-topic-operator-kstreams},1650383654,0
{consumergroup=__strimzi-topic-operator-kstreams},1650383659,0
{consumergroup=__strimzi-topic-operator-kstreams},1650383664,0
{consumergroup=__strimzi-topic-operator-kstreams},1650383669,0
{consumergroup=__strimzi-topic-operator-kstreams},1650383674,0
{consumergroup=__strimzi-topic-operator-kstreams},1650383679,0
{consumergroup=__strimzi-topic-operator-kstreams},1650383684,0
{consumergroup=__strimzi-topic-operator-kstreams},1650383689,0
{consumergroup=__strimzi-topic-operator-kstreams},1650383694,0
{consumergroup=__strimzi-topic-operator-kstreams},1650383699,0
{consumergroup=__strimzi-topic-operator-kstreams},1650383704,0
{consumergroup=__strimzi-topic-operator-kstreams},1650383709,0
{consumergroup=__strimzi-topic-operator-kstreams},1650383714,0
{consumergroup=__strimzi-topic-operator-kstreams},1650383719,0
{consumergroup=__strimzi-topic-operator-kstreams},1650383724,0
{consumergroup=__strimzi-topic-operator-kstreams},1650383729,0
{consumergroup=__strimzi-topic-operator-kstreams},1650383734,0
{consumergroup=__strimzi-topic-operator-kstreams},1650383739,0
{consumergroup=__strimzi-topic-operator-kstreams},1650383744,0
{consumergroup=__strimzi-topic-operator-kstreams},1650383749,0
{consumergroup=__strimzi-topic-operator-kstreams},1650383754,0
{consumergroup=__strimzi-topic-operator-kstreams},1650383759,0
{consumergroup=__strimzi-topic-operator-kstreams},1650383764,0
{consumergroup=__strimzi-topic-operator-kstreams},1650383769,0
{consumergroup=__strimzi-topic-operator-kstreams},1650383774,0
{consumergroup=__strimzi-topic-operator-kstreams},1650383779,0
{consumergroup=__strimzi-topic-operator-kstreams},1650383784,0
{consumergroup=__strimzi-topic-operator-kstreams},1650383789,0
{consumergroup=__strimzi-topic-operator-kstreams},1650383794,0
{consumergroup=__strimzi-topic-operator-kstreams},1650383799,0
{consumergroup=__strimzi-topic-operator-kstreams},1650383804,0
{consumergroup=__strimzi-topic-operator-kstreams},1650383809,0
{consumergroup=__strimzi-topic-operator-kstreams},1650383814,0
{consumergroup=__strimzi-topic-operator-kstreams},1650383819,0
{consumergroup=__strimzi-topic-operator-kstreams},1650383824,0
{consumergroup=__strimzi-topic-operator-kstreams},1650383829,0
{consumergroup=__strimzi-topic-operator-kstreams},1650383834,0
{consumergroup=__strimzi-topic-operator-kstreams},1650383839,0
{consumergroup=__strimzi-topic-operator-kstreams},1650383844,0
{consumergroup=__strimzi-topic-operator-kstreams},1650383849,0
{consumergroup=__strimzi-topic-operator-kstreams},1650383854,0
{consumergroup=__strimzi-topic-operator-kstreams},1650383859,0
{consumergroup=__strimzi-topic-operator-kstreams},1650383864,0
{consumergroup=__strimzi-topic-operator-kstreams},1650383869,0
{consumergroup=__strimzi-topic-operator-kstreams},1650383874,0
{consumergroup=__strimzi-topic-operator-kstreams},1650383879,0
{consumergroup=__strimzi-topic-operator-kstreams},1650383884,0
{consumergroup=__strimzi-topic-operator-kstreams},1650383889,0
{consumergroup=__strimzi-topic-operator-kstreams},1650383894,0
{consumergroup=__strimzi-topic-operator-kstreams},1650383899,0
{consumergroup=__strimzi-topic-operator-kstreams},1650383904,0
{consumergroup=__strimzi-topic-operator-kstreams},1650383909,0
{consumergroup=__strimzi-topic-operator-kstreams},1650383914,0
{consumergroup=__strimzi-topic-operator-kstreams},1650383919,0
{consumergroup=__strimzi-topic-operator-kstreams},1650383924,0
{consumergroup=__strimzi-topic-operator-kstreams},1650383929,0
{consumergroup=__strimzi-topic-operator-kstreams},1650383934,0
{consumergroup=__strimzi-topic-operator-kstreams},1650383939,0
{consumergroup=__strimzi-topic-operator-kstreams},1650383944,0
{consumergroup=__strimzi-topic-operator-kstreams},1650383949,0
{consumergroup=__strimzi-topic-operator-kstreams},1650383954,0
{consumergroup=__strimzi-topic-operator-kstreams},1650383959,0
{consumergroup=__strimzi-topic-operator-kstreams},1650383964,0
{consumergroup=__strimzi-topic-operator-kstreams},1650383969,0
{consumergroup=__strimzi-topic-operator-kstreams},1650383974,0
{consumergroup=__strimzi-topic-operator-kstreams},1650383979,0
{consumergroup=__strimzi-topic-operator-kstreams},1650383984,0
{consumergroup=__strimzi-topic-operator-kstreams},1650383989,0
{consumergroup=__strimzi-topic-operator-kstreams},1650383994,0
{consumergroup=__strimzi-topic-operator-kstreams},1650383999,0
{consumergroup=__strimzi-topic-operator-kstreams},1650384004,0
{consumergroup=__strimzi-topic-operator-kstreams},1650384009,0
{consumergroup=__strimzi-topic-operator-kstreams},1650384014,0
{consumergroup=__strimzi-topic-operator-kstreams},1650384019,0
{consumergroup=__strimzi-topic-operator-kstreams},1650384024,0
{consumergroup=__strimzi-topic-operator-kstreams},1650384029,0
{consumergroup=__strimzi-topic-operator-kstreams},1650384034,0
{consumergroup=__strimzi-topic-operator-kstreams},1650384039,0
{consumergroup=__strimzi-topic-operator-kstreams},1650384044,0
{consumergroup=__strimzi-topic-operator-kstreams},1650384049,0
{consumergroup=__strimzi-topic-operator-kstreams},1650384054,0
{consumergroup=__strimzi-topic-operator-kstreams},1650384059,0
{consumergroup=__strimzi-topic-operator-kstreams},1650384064,0
