labels,timestamp,value
{consumergroup=__strimzi-topic-operator-kstreams},1650396684,0
{consumergroup=__strimzi-topic-operator-kstreams},1650396689,0
{consumergroup=__strimzi-topic-operator-kstreams},1650396694,0
{consumergroup=__strimzi-topic-operator-kstreams},1650396699,0
{consumergroup=__strimzi-topic-operator-kstreams},1650396704,0
{consumergroup=__strimzi-topic-operator-kstreams},1650396709,0
{consumergroup=__strimzi-topic-operator-kstreams},1650396714,0
{consumergroup=__strimzi-topic-operator-kstreams},1650396719,0
{consumergroup=__strimzi-topic-operator-kstreams},1650396724,0
{consumergroup=__strimzi-topic-operator-kstreams},1650396729,0
{consumergroup=__strimzi-topic-operator-kstreams},1650396734,0
{consumergroup=__strimzi-topic-operator-kstreams},1650396739,0
{consumergroup=__strimzi-topic-operator-kstreams},1650396744,0
{consumergroup=__strimzi-topic-operator-kstreams},1650396749,0
{consumergroup=__strimzi-topic-operator-kstreams},1650396754,0
{consumergroup=__strimzi-topic-operator-kstreams},1650396759,0
{consumergroup=__strimzi-topic-operator-kstreams},1650396764,0
{consumergroup=__strimzi-topic-operator-kstreams},1650396769,0
{consumergroup=__strimzi-topic-operator-kstreams},1650396774,0
{consumergroup=__strimzi-topic-operator-kstreams},1650396779,0
{consumergroup=__strimzi-topic-operator-kstreams},1650396784,0
{consumergroup=__strimzi-topic-operator-kstreams},1650396789,0
{consumergroup=__strimzi-topic-operator-kstreams},1650396794,0
{consumergroup=__strimzi-topic-operator-kstreams},1650396799,0
{consumergroup=__strimzi-topic-operator-kstreams},1650396804,0
{consumergroup=__strimzi-topic-operator-kstreams},1650396809,0
{consumergroup=__strimzi-topic-operator-kstreams},1650396814,0
{consumergroup=__strimzi-topic-operator-kstreams},1650396819,0
{consumergroup=__strimzi-topic-operator-kstreams},1650396824,0
{consumergroup=__strimzi-topic-operator-kstreams},1650396829,0
{consumergroup=__strimzi-topic-operator-kstreams},1650396834,0
{consumergroup=__strimzi-topic-operator-kstreams},1650396839,0
{consumergroup=__strimzi-topic-operator-kstreams},1650396844,0
{consumergroup=__strimzi-topic-operator-kstreams},1650396849,0
{consumergroup=__strimzi-topic-operator-kstreams},1650396854,0
{consumergroup=__strimzi-topic-operator-kstreams},1650396859,0
{consumergroup=__strimzi-topic-operator-kstreams},1650396864,0
{consumergroup=__strimzi-topic-operator-kstreams},1650396869,0
{consumergroup=__strimzi-topic-operator-kstreams},1650396874,0
{consumergroup=__strimzi-topic-operator-kstreams},1650396879,0
{consumergroup=__strimzi-topic-operator-kstreams},1650396884,0
{consumergroup=__strimzi-topic-operator-kstreams},1650396889,0
{consumergroup=__strimzi-topic-operator-kstreams},1650396894,0
{consumergroup=__strimzi-topic-operator-kstreams},1650396899,0
{consumergroup=__strimzi-topic-operator-kstreams},1650396904,0
{consumergroup=__strimzi-topic-operator-kstreams},1650396909,0
{consumergroup=__strimzi-topic-operator-kstreams},1650396914,0
{consumergroup=__strimzi-topic-operator-kstreams},1650396919,0
{consumergroup=__strimzi-topic-operator-kstreams},1650396924,0
{consumergroup=__strimzi-topic-operator-kstreams},1650396929,0
{consumergroup=__strimzi-topic-operator-kstreams},1650396934,0
{consumergroup=__strimzi-topic-operator-kstreams},1650396939,0
{consumergroup=__strimzi-topic-operator-kstreams},1650396944,0
{consumergroup=__strimzi-topic-operator-kstreams},1650396949,0
{consumergroup=__strimzi-topic-operator-kstreams},1650396954,0
{consumergroup=__strimzi-topic-operator-kstreams},1650396959,0
{consumergroup=__strimzi-topic-operator-kstreams},1650396964,0
{consumergroup=__strimzi-topic-operator-kstreams},1650396969,0
{consumergroup=__strimzi-topic-operator-kstreams},1650396974,0
{consumergroup=__strimzi-topic-operator-kstreams},1650396979,0
{consumergroup=__strimzi-topic-operator-kstreams},1650396984,0
{consumergroup=__strimzi-topic-operator-kstreams},1650396989,0
{consumergroup=__strimzi-topic-operator-kstreams},1650396994,0
{consumergroup=__strimzi-topic-operator-kstreams},1650396999,0
{consumergroup=__strimzi-topic-operator-kstreams},1650397004,0
{consumergroup=__strimzi-topic-operator-kstreams},1650397009,0
{consumergroup=__strimzi-topic-operator-kstreams},1650397014,0
{consumergroup=__strimzi-topic-operator-kstreams},1650397019,0
{consumergroup=__strimzi-topic-operator-kstreams},1650397024,0
{consumergroup=__strimzi-topic-operator-kstreams},1650397029,0
{consumergroup=__strimzi-topic-operator-kstreams},1650397034,0
{consumergroup=__strimzi-topic-operator-kstreams},1650397039,0
{consumergroup=__strimzi-topic-operator-kstreams},1650397044,0
{consumergroup=__strimzi-topic-operator-kstreams},1650397049,0
{consumergroup=__strimzi-topic-operator-kstreams},1650397054,0
{consumergroup=__strimzi-topic-operator-kstreams},1650397059,0
{consumergroup=__strimzi-topic-operator-kstreams},1650397064,0
{consumergroup=__strimzi-topic-operator-kstreams},1650397069,0
{consumergroup=__strimzi-topic-operator-kstreams},1650397074,0
{consumergroup=__strimzi-topic-operator-kstreams},1650397079,0
{consumergroup=__strimzi-topic-operator-kstreams},1650397084,0
{consumergroup=__strimzi-topic-operator-kstreams},1650397089,0
{consumergroup=__strimzi-topic-operator-kstreams},1650397094,0
{consumergroup=__strimzi-topic-operator-kstreams},1650397099,0
{consumergroup=__strimzi-topic-operator-kstreams},1650397104,0
{consumergroup=__strimzi-topic-operator-kstreams},1650397109,0
{consumergroup=__strimzi-topic-operator-kstreams},1650397114,0
{consumergroup=__strimzi-topic-operator-kstreams},1650397119,0
{consumergroup=__strimzi-topic-operator-kstreams},1650397124,0
{consumergroup=__strimzi-topic-operator-kstreams},1650397129,0
{consumergroup=__strimzi-topic-operator-kstreams},1650397134,0
{consumergroup=__strimzi-topic-operator-kstreams},1650397139,0
{consumergroup=__strimzi-topic-operator-kstreams},1650397144,0
{consumergroup=__strimzi-topic-operator-kstreams},1650397149,0
{consumergroup=__strimzi-topic-operator-kstreams},1650397154,0
{consumergroup=__strimzi-topic-operator-kstreams},1650397159,0
{consumergroup=__strimzi-topic-operator-kstreams},1650397164,0
{consumergroup=__strimzi-topic-operator-kstreams},1650397169,0
