labels,timestamp,value
{consumergroup=__strimzi-topic-operator-kstreams},1650401141,7
{consumergroup=__strimzi-topic-operator-kstreams},1650401146,7
{consumergroup=__strimzi-topic-operator-kstreams},1650401151,7
{consumergroup=__strimzi-topic-operator-kstreams},1650401156,8
{consumergroup=__strimzi-topic-operator-kstreams},1650401161,8
{consumergroup=__strimzi-topic-operator-kstreams},1650401166,8
{consumergroup=__strimzi-topic-operator-kstreams},1650401171,0
{consumergroup=__strimzi-topic-operator-kstreams},1650401176,0
{consumergroup=__strimzi-topic-operator-kstreams},1650401181,0
{consumergroup=__strimzi-topic-operator-kstreams},1650401186,0
{consumergroup=__strimzi-topic-operator-kstreams},1650401191,0
{consumergroup=__strimzi-topic-operator-kstreams},1650401196,0
{consumergroup=__strimzi-topic-operator-kstreams},1650401201,0
{consumergroup=__strimzi-topic-operator-kstreams},1650401206,0
{consumergroup=__strimzi-topic-operator-kstreams},1650401211,0
{consumergroup=__strimzi-topic-operator-kstreams},1650401216,0
{consumergroup=__strimzi-topic-operator-kstreams},1650401221,0
{consumergroup=__strimzi-topic-operator-kstreams},1650401226,0
{consumergroup=__strimzi-topic-operator-kstreams},1650401231,0
{consumergroup=__strimzi-topic-operator-kstreams},1650401236,0
{consumergroup=__strimzi-topic-operator-kstreams},1650401241,0
{consumergroup=__strimzi-topic-operator-kstreams},1650401246,0
{consumergroup=__strimzi-topic-operator-kstreams},1650401251,0
{consumergroup=__strimzi-topic-operator-kstreams},1650401256,0
{consumergroup=__strimzi-topic-operator-kstreams},1650401261,0
{consumergroup=__strimzi-topic-operator-kstreams},1650401266,0
{consumergroup=__strimzi-topic-operator-kstreams},1650401271,0
{consumergroup=__strimzi-topic-operator-kstreams},1650401276,0
{consumergroup=__strimzi-topic-operator-kstreams},1650401281,0
{consumergroup=__strimzi-topic-operator-kstreams},1650401286,0
{consumergroup=__strimzi-topic-operator-kstreams},1650401291,0
{consumergroup=__strimzi-topic-operator-kstreams},1650401296,0
{consumergroup=__strimzi-topic-operator-kstreams},1650401301,0
{consumergroup=__strimzi-topic-operator-kstreams},1650401306,0
{consumergroup=__strimzi-topic-operator-kstreams},1650401311,0
{consumergroup=__strimzi-topic-operator-kstreams},1650401316,0
{consumergroup=__strimzi-topic-operator-kstreams},1650401321,0
{consumergroup=__strimzi-topic-operator-kstreams},1650401326,0
{consumergroup=__strimzi-topic-operator-kstreams},1650401331,0
{consumergroup=__strimzi-topic-operator-kstreams},1650401336,0
{consumergroup=__strimzi-topic-operator-kstreams},1650401341,0
{consumergroup=__strimzi-topic-operator-kstreams},1650401346,0
{consumergroup=__strimzi-topic-operator-kstreams},1650401351,0
{consumergroup=__strimzi-topic-operator-kstreams},1650401356,0
{consumergroup=__strimzi-topic-operator-kstreams},1650401361,0
{consumergroup=__strimzi-topic-operator-kstreams},1650401366,0
{consumergroup=__strimzi-topic-operator-kstreams},1650401371,0
{consumergroup=__strimzi-topic-operator-kstreams},1650401376,0
{consumergroup=__strimzi-topic-operator-kstreams},1650401381,0
{consumergroup=__strimzi-topic-operator-kstreams},1650401386,0
{consumergroup=__strimzi-topic-operator-kstreams},1650401391,0
{consumergroup=__strimzi-topic-operator-kstreams},1650401396,0
{consumergroup=__strimzi-topic-operator-kstreams},1650401401,0
{consumergroup=__strimzi-topic-operator-kstreams},1650401406,0
{consumergroup=__strimzi-topic-operator-kstreams},1650401411,0
{consumergroup=__strimzi-topic-operator-kstreams},1650401416,0
{consumergroup=__strimzi-topic-operator-kstreams},1650401421,0
{consumergroup=__strimzi-topic-operator-kstreams},1650401426,0
{consumergroup=__strimzi-topic-operator-kstreams},1650401431,0
{consumergroup=__strimzi-topic-operator-kstreams},1650401436,0
{consumergroup=__strimzi-topic-operator-kstreams},1650401441,0
{consumergroup=__strimzi-topic-operator-kstreams},1650401446,0
{consumergroup=__strimzi-topic-operator-kstreams},1650401451,0
{consumergroup=__strimzi-topic-operator-kstreams},1650401456,0
{consumergroup=__strimzi-topic-operator-kstreams},1650401461,0
{consumergroup=__strimzi-topic-operator-kstreams},1650401466,0
{consumergroup=__strimzi-topic-operator-kstreams},1650401471,0
{consumergroup=__strimzi-topic-operator-kstreams},1650401476,0
{consumergroup=__strimzi-topic-operator-kstreams},1650401481,0
{consumergroup=__strimzi-topic-operator-kstreams},1650401486,0
{consumergroup=__strimzi-topic-operator-kstreams},1650401491,0
{consumergroup=__strimzi-topic-operator-kstreams},1650401496,0
{consumergroup=__strimzi-topic-operator-kstreams},1650401501,0
{consumergroup=__strimzi-topic-operator-kstreams},1650401506,0
{consumergroup=__strimzi-topic-operator-kstreams},1650401511,0
{consumergroup=__strimzi-topic-operator-kstreams},1650401516,0
{consumergroup=__strimzi-topic-operator-kstreams},1650401521,0
{consumergroup=__strimzi-topic-operator-kstreams},1650401526,0
{consumergroup=__strimzi-topic-operator-kstreams},1650401531,0
{consumergroup=__strimzi-topic-operator-kstreams},1650401536,0
{consumergroup=__strimzi-topic-operator-kstreams},1650401541,0
{consumergroup=__strimzi-topic-operator-kstreams},1650401546,0
{consumergroup=__strimzi-topic-operator-kstreams},1650401551,0
{consumergroup=__strimzi-topic-operator-kstreams},1650401556,0
{consumergroup=__strimzi-topic-operator-kstreams},1650401561,0
{consumergroup=__strimzi-topic-operator-kstreams},1650401566,0
{consumergroup=__strimzi-topic-operator-kstreams},1650401571,0
{consumergroup=__strimzi-topic-operator-kstreams},1650401576,0
{consumergroup=__strimzi-topic-operator-kstreams},1650401581,0
{consumergroup=__strimzi-topic-operator-kstreams},1650401586,0
{consumergroup=__strimzi-topic-operator-kstreams},1650401591,0
{consumergroup=__strimzi-topic-operator-kstreams},1650401596,0
{consumergroup=__strimzi-topic-operator-kstreams},1650401601,0
{consumergroup=__strimzi-topic-operator-kstreams},1650401606,0
{consumergroup=__strimzi-topic-operator-kstreams},1650401611,0
{consumergroup=__strimzi-topic-operator-kstreams},1650401616,0
{consumergroup=__strimzi-topic-operator-kstreams},1650401621,0
{consumergroup=__strimzi-topic-operator-kstreams},1650401626,0
{consumergroup=__strimzi-topic-operator-kstreams},1650401631,0
{consumergroup=__strimzi-topic-operator-kstreams},1650401636,0
