labels,timestamp,value
{consumergroup=__strimzi-topic-operator-kstreams},1650436507,5
{consumergroup=__strimzi-topic-operator-kstreams},1650436512,5
{consumergroup=__strimzi-topic-operator-kstreams},1650436517,5
{consumergroup=__strimzi-topic-operator-kstreams},1650436522,0
{consumergroup=__strimzi-topic-operator-kstreams},1650436527,0
{consumergroup=__strimzi-topic-operator-kstreams},1650436532,0
{consumergroup=__strimzi-topic-operator-kstreams},1650436537,0
{consumergroup=__strimzi-topic-operator-kstreams},1650436542,0
{consumergroup=__strimzi-topic-operator-kstreams},1650436547,0
{consumergroup=__strimzi-topic-operator-kstreams},1650436552,0
{consumergroup=__strimzi-topic-operator-kstreams},1650436557,0
{consumergroup=__strimzi-topic-operator-kstreams},1650436562,0
{consumergroup=__strimzi-topic-operator-kstreams},1650436567,0
{consumergroup=__strimzi-topic-operator-kstreams},1650436572,0
{consumergroup=__strimzi-topic-operator-kstreams},1650436577,0
{consumergroup=__strimzi-topic-operator-kstreams},1650436582,0
{consumergroup=__strimzi-topic-operator-kstreams},1650436587,0
{consumergroup=__strimzi-topic-operator-kstreams},1650436592,0
{consumergroup=__strimzi-topic-operator-kstreams},1650436597,0
{consumergroup=__strimzi-topic-operator-kstreams},1650436602,0
{consumergroup=__strimzi-topic-operator-kstreams},1650436607,0
{consumergroup=__strimzi-topic-operator-kstreams},1650436612,0
{consumergroup=__strimzi-topic-operator-kstreams},1650436617,0
{consumergroup=__strimzi-topic-operator-kstreams},1650436622,0
{consumergroup=__strimzi-topic-operator-kstreams},1650436627,0
{consumergroup=__strimzi-topic-operator-kstreams},1650436632,0
{consumergroup=__strimzi-topic-operator-kstreams},1650436637,0
{consumergroup=__strimzi-topic-operator-kstreams},1650436642,0
{consumergroup=__strimzi-topic-operator-kstreams},1650436647,0
{consumergroup=__strimzi-topic-operator-kstreams},1650436652,0
{consumergroup=__strimzi-topic-operator-kstreams},1650436657,0
{consumergroup=__strimzi-topic-operator-kstreams},1650436662,0
{consumergroup=__strimzi-topic-operator-kstreams},1650436667,0
{consumergroup=__strimzi-topic-operator-kstreams},1650436672,0
{consumergroup=__strimzi-topic-operator-kstreams},1650436677,0
{consumergroup=__strimzi-topic-operator-kstreams},1650436682,0
{consumergroup=__strimzi-topic-operator-kstreams},1650436687,0
{consumergroup=__strimzi-topic-operator-kstreams},1650436692,0
{consumergroup=__strimzi-topic-operator-kstreams},1650436697,0
{consumergroup=__strimzi-topic-operator-kstreams},1650436702,0
{consumergroup=__strimzi-topic-operator-kstreams},1650436707,0
{consumergroup=__strimzi-topic-operator-kstreams},1650436712,0
{consumergroup=__strimzi-topic-operator-kstreams},1650436717,0
{consumergroup=__strimzi-topic-operator-kstreams},1650436722,0
{consumergroup=__strimzi-topic-operator-kstreams},1650436727,0
{consumergroup=__strimzi-topic-operator-kstreams},1650436732,0
{consumergroup=__strimzi-topic-operator-kstreams},1650436737,0
{consumergroup=__strimzi-topic-operator-kstreams},1650436742,0
{consumergroup=__strimzi-topic-operator-kstreams},1650436747,0
{consumergroup=__strimzi-topic-operator-kstreams},1650436752,0
{consumergroup=__strimzi-topic-operator-kstreams},1650436757,0
{consumergroup=__strimzi-topic-operator-kstreams},1650436762,0
{consumergroup=__strimzi-topic-operator-kstreams},1650436767,0
{consumergroup=__strimzi-topic-operator-kstreams},1650436772,0
{consumergroup=__strimzi-topic-operator-kstreams},1650436777,0
{consumergroup=__strimzi-topic-operator-kstreams},1650436782,0
{consumergroup=__strimzi-topic-operator-kstreams},1650436787,0
{consumergroup=__strimzi-topic-operator-kstreams},1650436792,0
{consumergroup=__strimzi-topic-operator-kstreams},1650436797,0
{consumergroup=__strimzi-topic-operator-kstreams},1650436802,0
{consumergroup=__strimzi-topic-operator-kstreams},1650436807,0
{consumergroup=__strimzi-topic-operator-kstreams},1650436812,0
{consumergroup=__strimzi-topic-operator-kstreams},1650436817,0
{consumergroup=__strimzi-topic-operator-kstreams},1650436822,0
{consumergroup=__strimzi-topic-operator-kstreams},1650436827,0
{consumergroup=__strimzi-topic-operator-kstreams},1650436832,0
{consumergroup=__strimzi-topic-operator-kstreams},1650436837,0
{consumergroup=__strimzi-topic-operator-kstreams},1650436842,0
{consumergroup=__strimzi-topic-operator-kstreams},1650436847,0
{consumergroup=__strimzi-topic-operator-kstreams},1650436852,0
{consumergroup=__strimzi-topic-operator-kstreams},1650436857,0
{consumergroup=__strimzi-topic-operator-kstreams},1650436862,0
{consumergroup=__strimzi-topic-operator-kstreams},1650436867,0
{consumergroup=__strimzi-topic-operator-kstreams},1650436872,0
{consumergroup=__strimzi-topic-operator-kstreams},1650436877,0
{consumergroup=__strimzi-topic-operator-kstreams},1650436882,0
{consumergroup=__strimzi-topic-operator-kstreams},1650436887,0
{consumergroup=__strimzi-topic-operator-kstreams},1650436892,0
{consumergroup=__strimzi-topic-operator-kstreams},1650436897,0
{consumergroup=__strimzi-topic-operator-kstreams},1650436902,0
{consumergroup=__strimzi-topic-operator-kstreams},1650436907,0
{consumergroup=__strimzi-topic-operator-kstreams},1650436912,0
{consumergroup=__strimzi-topic-operator-kstreams},1650436917,0
{consumergroup=__strimzi-topic-operator-kstreams},1650436922,0
{consumergroup=__strimzi-topic-operator-kstreams},1650436927,0
{consumergroup=__strimzi-topic-operator-kstreams},1650436932,0
{consumergroup=__strimzi-topic-operator-kstreams},1650436937,0
{consumergroup=__strimzi-topic-operator-kstreams},1650436942,0
{consumergroup=__strimzi-topic-operator-kstreams},1650436947,0
{consumergroup=__strimzi-topic-operator-kstreams},1650436952,0
{consumergroup=__strimzi-topic-operator-kstreams},1650436957,0
{consumergroup=__strimzi-topic-operator-kstreams},1650436962,0
{consumergroup=__strimzi-topic-operator-kstreams},1650436967,0
{consumergroup=__strimzi-topic-operator-kstreams},1650436972,0
{consumergroup=__strimzi-topic-operator-kstreams},1650436977,0
{consumergroup=__strimzi-topic-operator-kstreams},1650436982,0
{consumergroup=__strimzi-topic-operator-kstreams},1650436987,0
{consumergroup=__strimzi-topic-operator-kstreams},1650436992,0
{consumergroup=__strimzi-topic-operator-kstreams},1650436997,0
{consumergroup=__strimzi-topic-operator-kstreams},1650437002,0
