labels,timestamp,value
{consumergroup=__strimzi-topic-operator-kstreams},1650440979,8
{consumergroup=__strimzi-topic-operator-kstreams},1650440984,8
{consumergroup=__strimzi-topic-operator-kstreams},1650440989,8
{consumergroup=__strimzi-topic-operator-kstreams},1650440994,0
{consumergroup=__strimzi-topic-operator-kstreams},1650440999,0
{consumergroup=__strimzi-topic-operator-kstreams},1650441004,0
{consumergroup=__strimzi-topic-operator-kstreams},1650441009,0
{consumergroup=__strimzi-topic-operator-kstreams},1650441014,0
{consumergroup=__strimzi-topic-operator-kstreams},1650441019,0
{consumergroup=__strimzi-topic-operator-kstreams},1650441024,0
{consumergroup=__strimzi-topic-operator-kstreams},1650441029,0
{consumergroup=__strimzi-topic-operator-kstreams},1650441034,0
{consumergroup=__strimzi-topic-operator-kstreams},1650441039,0
{consumergroup=__strimzi-topic-operator-kstreams},1650441044,0
{consumergroup=__strimzi-topic-operator-kstreams},1650441049,0
{consumergroup=__strimzi-topic-operator-kstreams},1650441054,0
{consumergroup=__strimzi-topic-operator-kstreams},1650441059,0
{consumergroup=__strimzi-topic-operator-kstreams},1650441064,0
{consumergroup=__strimzi-topic-operator-kstreams},1650441069,0
{consumergroup=__strimzi-topic-operator-kstreams},1650441074,0
{consumergroup=__strimzi-topic-operator-kstreams},1650441079,0
{consumergroup=__strimzi-topic-operator-kstreams},1650441084,0
{consumergroup=__strimzi-topic-operator-kstreams},1650441089,0
{consumergroup=__strimzi-topic-operator-kstreams},1650441094,0
{consumergroup=__strimzi-topic-operator-kstreams},1650441099,0
{consumergroup=__strimzi-topic-operator-kstreams},1650441104,0
{consumergroup=__strimzi-topic-operator-kstreams},1650441109,0
{consumergroup=__strimzi-topic-operator-kstreams},1650441114,0
{consumergroup=__strimzi-topic-operator-kstreams},1650441119,0
{consumergroup=__strimzi-topic-operator-kstreams},1650441124,0
{consumergroup=__strimzi-topic-operator-kstreams},1650441129,0
{consumergroup=__strimzi-topic-operator-kstreams},1650441134,0
{consumergroup=__strimzi-topic-operator-kstreams},1650441139,0
{consumergroup=__strimzi-topic-operator-kstreams},1650441144,0
{consumergroup=__strimzi-topic-operator-kstreams},1650441149,0
{consumergroup=__strimzi-topic-operator-kstreams},1650441154,0
{consumergroup=__strimzi-topic-operator-kstreams},1650441159,0
{consumergroup=__strimzi-topic-operator-kstreams},1650441164,0
{consumergroup=__strimzi-topic-operator-kstreams},1650441169,0
{consumergroup=__strimzi-topic-operator-kstreams},1650441174,0
{consumergroup=__strimzi-topic-operator-kstreams},1650441179,0
{consumergroup=__strimzi-topic-operator-kstreams},1650441184,0
{consumergroup=__strimzi-topic-operator-kstreams},1650441189,0
{consumergroup=__strimzi-topic-operator-kstreams},1650441194,0
{consumergroup=__strimzi-topic-operator-kstreams},1650441199,0
{consumergroup=__strimzi-topic-operator-kstreams},1650441204,0
{consumergroup=__strimzi-topic-operator-kstreams},1650441209,0
{consumergroup=__strimzi-topic-operator-kstreams},1650441214,0
{consumergroup=__strimzi-topic-operator-kstreams},1650441219,0
{consumergroup=__strimzi-topic-operator-kstreams},1650441224,0
{consumergroup=__strimzi-topic-operator-kstreams},1650441229,0
{consumergroup=__strimzi-topic-operator-kstreams},1650441234,0
{consumergroup=__strimzi-topic-operator-kstreams},1650441239,0
{consumergroup=__strimzi-topic-operator-kstreams},1650441244,0
{consumergroup=__strimzi-topic-operator-kstreams},1650441249,0
{consumergroup=__strimzi-topic-operator-kstreams},1650441254,0
{consumergroup=__strimzi-topic-operator-kstreams},1650441259,0
{consumergroup=__strimzi-topic-operator-kstreams},1650441264,0
{consumergroup=__strimzi-topic-operator-kstreams},1650441269,0
{consumergroup=__strimzi-topic-operator-kstreams},1650441274,0
{consumergroup=__strimzi-topic-operator-kstreams},1650441279,0
{consumergroup=__strimzi-topic-operator-kstreams},1650441284,0
{consumergroup=__strimzi-topic-operator-kstreams},1650441289,0
{consumergroup=__strimzi-topic-operator-kstreams},1650441294,0
{consumergroup=__strimzi-topic-operator-kstreams},1650441299,0
{consumergroup=__strimzi-topic-operator-kstreams},1650441304,0
{consumergroup=__strimzi-topic-operator-kstreams},1650441309,0
{consumergroup=__strimzi-topic-operator-kstreams},1650441314,0
{consumergroup=__strimzi-topic-operator-kstreams},1650441319,0
{consumergroup=__strimzi-topic-operator-kstreams},1650441324,0
{consumergroup=__strimzi-topic-operator-kstreams},1650441329,0
{consumergroup=__strimzi-topic-operator-kstreams},1650441334,0
{consumergroup=__strimzi-topic-operator-kstreams},1650441339,0
{consumergroup=__strimzi-topic-operator-kstreams},1650441344,0
{consumergroup=__strimzi-topic-operator-kstreams},1650441349,0
{consumergroup=__strimzi-topic-operator-kstreams},1650441354,0
{consumergroup=__strimzi-topic-operator-kstreams},1650441359,0
{consumergroup=__strimzi-topic-operator-kstreams},1650441364,0
{consumergroup=__strimzi-topic-operator-kstreams},1650441369,0
{consumergroup=__strimzi-topic-operator-kstreams},1650441374,0
{consumergroup=__strimzi-topic-operator-kstreams},1650441379,0
{consumergroup=__strimzi-topic-operator-kstreams},1650441384,0
{consumergroup=__strimzi-topic-operator-kstreams},1650441389,0
{consumergroup=__strimzi-topic-operator-kstreams},1650441394,0
{consumergroup=__strimzi-topic-operator-kstreams},1650441399,0
{consumergroup=__strimzi-topic-operator-kstreams},1650441404,0
{consumergroup=__strimzi-topic-operator-kstreams},1650441409,0
{consumergroup=__strimzi-topic-operator-kstreams},1650441414,0
{consumergroup=__strimzi-topic-operator-kstreams},1650441419,0
{consumergroup=__strimzi-topic-operator-kstreams},1650441424,0
{consumergroup=__strimzi-topic-operator-kstreams},1650441429,0
{consumergroup=__strimzi-topic-operator-kstreams},1650441434,0
{consumergroup=__strimzi-topic-operator-kstreams},1650441439,0
{consumergroup=__strimzi-topic-operator-kstreams},1650441444,0
{consumergroup=__strimzi-topic-operator-kstreams},1650441449,0
{consumergroup=__strimzi-topic-operator-kstreams},1650441454,0
{consumergroup=__strimzi-topic-operator-kstreams},1650441459,0
{consumergroup=__strimzi-topic-operator-kstreams},1650441464,0
