labels,timestamp,value
{consumergroup=__strimzi-topic-operator-kstreams},1650393916,0
{consumergroup=__strimzi-topic-operator-kstreams},1650393921,0
{consumergroup=__strimzi-topic-operator-kstreams},1650393926,0
{consumergroup=__strimzi-topic-operator-kstreams},1650393931,0
{consumergroup=__strimzi-topic-operator-kstreams},1650393936,0
{consumergroup=__strimzi-topic-operator-kstreams},1650393941,0
{consumergroup=__strimzi-topic-operator-kstreams},1650393946,0
{consumergroup=__strimzi-topic-operator-kstreams},1650393951,0
{consumergroup=__strimzi-topic-operator-kstreams},1650393956,0
{consumergroup=__strimzi-topic-operator-kstreams},1650393961,0
{consumergroup=__strimzi-topic-operator-kstreams},1650393966,0
{consumergroup=__strimzi-topic-operator-kstreams},1650393971,0
{consumergroup=__strimzi-topic-operator-kstreams},1650393976,0
{consumergroup=__strimzi-topic-operator-kstreams},1650393981,0
{consumergroup=__strimzi-topic-operator-kstreams},1650393986,0
{consumergroup=__strimzi-topic-operator-kstreams},1650393991,0
{consumergroup=__strimzi-topic-operator-kstreams},1650393996,0
{consumergroup=__strimzi-topic-operator-kstreams},1650394001,0
{consumergroup=__strimzi-topic-operator-kstreams},1650394006,0
{consumergroup=__strimzi-topic-operator-kstreams},1650394011,0
{consumergroup=__strimzi-topic-operator-kstreams},1650394016,0
{consumergroup=__strimzi-topic-operator-kstreams},1650394021,0
{consumergroup=__strimzi-topic-operator-kstreams},1650394026,0
{consumergroup=__strimzi-topic-operator-kstreams},1650394031,0
{consumergroup=__strimzi-topic-operator-kstreams},1650394036,0
{consumergroup=__strimzi-topic-operator-kstreams},1650394041,0
{consumergroup=__strimzi-topic-operator-kstreams},1650394046,0
{consumergroup=__strimzi-topic-operator-kstreams},1650394051,0
{consumergroup=__strimzi-topic-operator-kstreams},1650394056,0
{consumergroup=__strimzi-topic-operator-kstreams},1650394061,0
{consumergroup=__strimzi-topic-operator-kstreams},1650394066,0
{consumergroup=__strimzi-topic-operator-kstreams},1650394071,0
{consumergroup=__strimzi-topic-operator-kstreams},1650394076,0
{consumergroup=__strimzi-topic-operator-kstreams},1650394081,0
{consumergroup=__strimzi-topic-operator-kstreams},1650394086,0
{consumergroup=__strimzi-topic-operator-kstreams},1650394091,0
{consumergroup=__strimzi-topic-operator-kstreams},1650394096,0
{consumergroup=__strimzi-topic-operator-kstreams},1650394101,0
{consumergroup=__strimzi-topic-operator-kstreams},1650394106,0
{consumergroup=__strimzi-topic-operator-kstreams},1650394111,0
{consumergroup=__strimzi-topic-operator-kstreams},1650394116,0
{consumergroup=__strimzi-topic-operator-kstreams},1650394121,0
{consumergroup=__strimzi-topic-operator-kstreams},1650394126,0
{consumergroup=__strimzi-topic-operator-kstreams},1650394131,0
{consumergroup=__strimzi-topic-operator-kstreams},1650394136,0
{consumergroup=__strimzi-topic-operator-kstreams},1650394141,0
{consumergroup=__strimzi-topic-operator-kstreams},1650394146,0
{consumergroup=__strimzi-topic-operator-kstreams},1650394151,0
{consumergroup=__strimzi-topic-operator-kstreams},1650394156,0
{consumergroup=__strimzi-topic-operator-kstreams},1650394161,0
{consumergroup=__strimzi-topic-operator-kstreams},1650394166,0
{consumergroup=__strimzi-topic-operator-kstreams},1650394171,0
{consumergroup=__strimzi-topic-operator-kstreams},1650394176,0
{consumergroup=__strimzi-topic-operator-kstreams},1650394181,0
{consumergroup=__strimzi-topic-operator-kstreams},1650394186,0
{consumergroup=__strimzi-topic-operator-kstreams},1650394191,0
{consumergroup=__strimzi-topic-operator-kstreams},1650394196,0
{consumergroup=__strimzi-topic-operator-kstreams},1650394201,0
{consumergroup=__strimzi-topic-operator-kstreams},1650394206,0
{consumergroup=__strimzi-topic-operator-kstreams},1650394211,0
{consumergroup=__strimzi-topic-operator-kstreams},1650394216,0
{consumergroup=__strimzi-topic-operator-kstreams},1650394221,0
{consumergroup=__strimzi-topic-operator-kstreams},1650394226,0
{consumergroup=__strimzi-topic-operator-kstreams},1650394231,0
{consumergroup=__strimzi-topic-operator-kstreams},1650394236,0
{consumergroup=__strimzi-topic-operator-kstreams},1650394241,0
{consumergroup=__strimzi-topic-operator-kstreams},1650394246,0
{consumergroup=__strimzi-topic-operator-kstreams},1650394251,0
{consumergroup=__strimzi-topic-operator-kstreams},1650394256,0
{consumergroup=__strimzi-topic-operator-kstreams},1650394261,0
{consumergroup=__strimzi-topic-operator-kstreams},1650394266,0
{consumergroup=__strimzi-topic-operator-kstreams},1650394271,0
{consumergroup=__strimzi-topic-operator-kstreams},1650394276,0
{consumergroup=__strimzi-topic-operator-kstreams},1650394281,0
{consumergroup=__strimzi-topic-operator-kstreams},1650394286,0
{consumergroup=__strimzi-topic-operator-kstreams},1650394291,0
{consumergroup=__strimzi-topic-operator-kstreams},1650394296,0
{consumergroup=__strimzi-topic-operator-kstreams},1650394301,0
{consumergroup=__strimzi-topic-operator-kstreams},1650394306,0
{consumergroup=__strimzi-topic-operator-kstreams},1650394311,0
{consumergroup=__strimzi-topic-operator-kstreams},1650394316,0
{consumergroup=__strimzi-topic-operator-kstreams},1650394321,0
{consumergroup=__strimzi-topic-operator-kstreams},1650394326,0
{consumergroup=__strimzi-topic-operator-kstreams},1650394331,0
{consumergroup=__strimzi-topic-operator-kstreams},1650394336,0
{consumergroup=__strimzi-topic-operator-kstreams},1650394341,0
{consumergroup=__strimzi-topic-operator-kstreams},1650394346,0
{consumergroup=__strimzi-topic-operator-kstreams},1650394351,0
{consumergroup=__strimzi-topic-operator-kstreams},1650394356,0
{consumergroup=__strimzi-topic-operator-kstreams},1650394361,0
{consumergroup=__strimzi-topic-operator-kstreams},1650394366,0
{consumergroup=__strimzi-topic-operator-kstreams},1650394371,0
{consumergroup=__strimzi-topic-operator-kstreams},1650394376,0
{consumergroup=__strimzi-topic-operator-kstreams},1650394381,0
{consumergroup=__strimzi-topic-operator-kstreams},1650394386,0
{consumergroup=__strimzi-topic-operator-kstreams},1650394391,0
{consumergroup=__strimzi-topic-operator-kstreams},1650394396,0
{consumergroup=__strimzi-topic-operator-kstreams},1650394401,0
