labels,timestamp,value
{consumergroup=__strimzi-topic-operator-kstreams},1650400010,2
{consumergroup=__strimzi-topic-operator-kstreams},1650400015,2
{consumergroup=__strimzi-topic-operator-kstreams},1650400020,2
{consumergroup=__strimzi-topic-operator-kstreams},1650400025,0
{consumergroup=__strimzi-topic-operator-kstreams},1650400030,0
{consumergroup=__strimzi-topic-operator-kstreams},1650400035,0
{consumergroup=__strimzi-topic-operator-kstreams},1650400040,0
{consumergroup=__strimzi-topic-operator-kstreams},1650400045,0
{consumergroup=__strimzi-topic-operator-kstreams},1650400050,0
{consumergroup=__strimzi-topic-operator-kstreams},1650400055,0
{consumergroup=__strimzi-topic-operator-kstreams},1650400060,0
{consumergroup=__strimzi-topic-operator-kstreams},1650400065,0
{consumergroup=__strimzi-topic-operator-kstreams},1650400070,0
{consumergroup=__strimzi-topic-operator-kstreams},1650400075,0
{consumergroup=__strimzi-topic-operator-kstreams},1650400080,0
{consumergroup=__strimzi-topic-operator-kstreams},1650400085,0
{consumergroup=__strimzi-topic-operator-kstreams},1650400090,0
{consumergroup=__strimzi-topic-operator-kstreams},1650400095,0
{consumergroup=__strimzi-topic-operator-kstreams},1650400100,0
{consumergroup=__strimzi-topic-operator-kstreams},1650400105,0
{consumergroup=__strimzi-topic-operator-kstreams},1650400110,0
{consumergroup=__strimzi-topic-operator-kstreams},1650400115,0
{consumergroup=__strimzi-topic-operator-kstreams},1650400120,0
{consumergroup=__strimzi-topic-operator-kstreams},1650400125,0
{consumergroup=__strimzi-topic-operator-kstreams},1650400130,0
{consumergroup=__strimzi-topic-operator-kstreams},1650400135,0
{consumergroup=__strimzi-topic-operator-kstreams},1650400140,0
{consumergroup=__strimzi-topic-operator-kstreams},1650400145,0
{consumergroup=__strimzi-topic-operator-kstreams},1650400150,0
{consumergroup=__strimzi-topic-operator-kstreams},1650400155,0
{consumergroup=__strimzi-topic-operator-kstreams},1650400160,0
{consumergroup=__strimzi-topic-operator-kstreams},1650400165,0
{consumergroup=__strimzi-topic-operator-kstreams},1650400170,0
{consumergroup=__strimzi-topic-operator-kstreams},1650400175,0
{consumergroup=__strimzi-topic-operator-kstreams},1650400180,0
{consumergroup=__strimzi-topic-operator-kstreams},1650400185,0
{consumergroup=__strimzi-topic-operator-kstreams},1650400190,0
{consumergroup=__strimzi-topic-operator-kstreams},1650400195,0
{consumergroup=__strimzi-topic-operator-kstreams},1650400200,0
{consumergroup=__strimzi-topic-operator-kstreams},1650400205,0
{consumergroup=__strimzi-topic-operator-kstreams},1650400210,0
{consumergroup=__strimzi-topic-operator-kstreams},1650400215,0
{consumergroup=__strimzi-topic-operator-kstreams},1650400220,0
{consumergroup=__strimzi-topic-operator-kstreams},1650400225,0
{consumergroup=__strimzi-topic-operator-kstreams},1650400230,0
{consumergroup=__strimzi-topic-operator-kstreams},1650400235,0
{consumergroup=__strimzi-topic-operator-kstreams},1650400240,0
{consumergroup=__strimzi-topic-operator-kstreams},1650400245,0
{consumergroup=__strimzi-topic-operator-kstreams},1650400250,0
{consumergroup=__strimzi-topic-operator-kstreams},1650400255,0
{consumergroup=__strimzi-topic-operator-kstreams},1650400260,0
{consumergroup=__strimzi-topic-operator-kstreams},1650400265,0
{consumergroup=__strimzi-topic-operator-kstreams},1650400270,0
{consumergroup=__strimzi-topic-operator-kstreams},1650400275,0
{consumergroup=__strimzi-topic-operator-kstreams},1650400280,0
{consumergroup=__strimzi-topic-operator-kstreams},1650400285,0
{consumergroup=__strimzi-topic-operator-kstreams},1650400290,0
{consumergroup=__strimzi-topic-operator-kstreams},1650400295,0
{consumergroup=__strimzi-topic-operator-kstreams},1650400300,0
{consumergroup=__strimzi-topic-operator-kstreams},1650400305,0
{consumergroup=__strimzi-topic-operator-kstreams},1650400310,0
{consumergroup=__strimzi-topic-operator-kstreams},1650400315,0
{consumergroup=__strimzi-topic-operator-kstreams},1650400320,0
{consumergroup=__strimzi-topic-operator-kstreams},1650400325,0
{consumergroup=__strimzi-topic-operator-kstreams},1650400330,0
{consumergroup=__strimzi-topic-operator-kstreams},1650400335,0
{consumergroup=__strimzi-topic-operator-kstreams},1650400340,0
{consumergroup=__strimzi-topic-operator-kstreams},1650400345,0
{consumergroup=__strimzi-topic-operator-kstreams},1650400350,0
{consumergroup=__strimzi-topic-operator-kstreams},1650400355,0
{consumergroup=__strimzi-topic-operator-kstreams},1650400360,0
{consumergroup=__strimzi-topic-operator-kstreams},1650400365,0
{consumergroup=__strimzi-topic-operator-kstreams},1650400370,0
{consumergroup=__strimzi-topic-operator-kstreams},1650400375,0
{consumergroup=__strimzi-topic-operator-kstreams},1650400380,0
{consumergroup=__strimzi-topic-operator-kstreams},1650400385,0
{consumergroup=__strimzi-topic-operator-kstreams},1650400390,0
{consumergroup=__strimzi-topic-operator-kstreams},1650400395,0
{consumergroup=__strimzi-topic-operator-kstreams},1650400400,0
{consumergroup=__strimzi-topic-operator-kstreams},1650400405,0
{consumergroup=__strimzi-topic-operator-kstreams},1650400410,0
{consumergroup=__strimzi-topic-operator-kstreams},1650400415,0
{consumergroup=__strimzi-topic-operator-kstreams},1650400420,0
{consumergroup=__strimzi-topic-operator-kstreams},1650400425,0
{consumergroup=__strimzi-topic-operator-kstreams},1650400430,0
{consumergroup=__strimzi-topic-operator-kstreams},1650400435,0
{consumergroup=__strimzi-topic-operator-kstreams},1650400440,0
{consumergroup=__strimzi-topic-operator-kstreams},1650400445,0
{consumergroup=__strimzi-topic-operator-kstreams},1650400450,0
{consumergroup=__strimzi-topic-operator-kstreams},1650400455,0
{consumergroup=__strimzi-topic-operator-kstreams},1650400460,0
{consumergroup=__strimzi-topic-operator-kstreams},1650400465,0
{consumergroup=__strimzi-topic-operator-kstreams},1650400470,0
{consumergroup=__strimzi-topic-operator-kstreams},1650400475,0
{consumergroup=__strimzi-topic-operator-kstreams},1650400480,0
{consumergroup=__strimzi-topic-operator-kstreams},1650400485,0
{consumergroup=__strimzi-topic-operator-kstreams},1650400490,0
{consumergroup=__strimzi-topic-operator-kstreams},1650400495,0
{consumergroup=__strimzi-topic-operator-kstreams},1650400500,0
{consumergroup=__strimzi-topic-operator-kstreams},1650400505,0
{consumergroup=__strimzi-topic-operator-kstreams},1650400510,0
