labels,timestamp,value
{consumergroup=__strimzi-topic-operator-kstreams},1650415485,0
{consumergroup=__strimzi-topic-operator-kstreams},1650415490,0
{consumergroup=__strimzi-topic-operator-kstreams},1650415495,0
{consumergroup=__strimzi-topic-operator-kstreams},1650415500,8
{consumergroup=__strimzi-topic-operator-kstreams},1650415505,8
{consumergroup=__strimzi-topic-operator-kstreams},1650415510,8
{consumergroup=__strimzi-topic-operator-kstreams},1650415515,0
{consumergroup=__strimzi-topic-operator-kstreams},1650415520,0
{consumergroup=__strimzi-topic-operator-kstreams},1650415525,0
{consumergroup=__strimzi-topic-operator-kstreams},1650415530,0
{consumergroup=__strimzi-topic-operator-kstreams},1650415535,0
{consumergroup=__strimzi-topic-operator-kstreams},1650415540,0
{consumergroup=__strimzi-topic-operator-kstreams},1650415545,0
{consumergroup=__strimzi-topic-operator-kstreams},1650415550,0
{consumergroup=__strimzi-topic-operator-kstreams},1650415555,0
{consumergroup=__strimzi-topic-operator-kstreams},1650415560,0
{consumergroup=__strimzi-topic-operator-kstreams},1650415565,0
{consumergroup=__strimzi-topic-operator-kstreams},1650415570,0
{consumergroup=__strimzi-topic-operator-kstreams},1650415575,0
{consumergroup=__strimzi-topic-operator-kstreams},1650415580,0
{consumergroup=__strimzi-topic-operator-kstreams},1650415585,0
{consumergroup=__strimzi-topic-operator-kstreams},1650415590,0
{consumergroup=__strimzi-topic-operator-kstreams},1650415595,0
{consumergroup=__strimzi-topic-operator-kstreams},1650415600,0
{consumergroup=__strimzi-topic-operator-kstreams},1650415605,0
{consumergroup=__strimzi-topic-operator-kstreams},1650415610,0
{consumergroup=__strimzi-topic-operator-kstreams},1650415615,0
{consumergroup=__strimzi-topic-operator-kstreams},1650415620,0
{consumergroup=__strimzi-topic-operator-kstreams},1650415625,0
{consumergroup=__strimzi-topic-operator-kstreams},1650415630,0
{consumergroup=__strimzi-topic-operator-kstreams},1650415635,0
{consumergroup=__strimzi-topic-operator-kstreams},1650415640,0
{consumergroup=__strimzi-topic-operator-kstreams},1650415645,0
{consumergroup=__strimzi-topic-operator-kstreams},1650415650,0
{consumergroup=__strimzi-topic-operator-kstreams},1650415655,0
{consumergroup=__strimzi-topic-operator-kstreams},1650415660,0
{consumergroup=__strimzi-topic-operator-kstreams},1650415665,0
{consumergroup=__strimzi-topic-operator-kstreams},1650415670,0
{consumergroup=__strimzi-topic-operator-kstreams},1650415675,0
{consumergroup=__strimzi-topic-operator-kstreams},1650415680,0
{consumergroup=__strimzi-topic-operator-kstreams},1650415685,0
{consumergroup=__strimzi-topic-operator-kstreams},1650415690,0
{consumergroup=__strimzi-topic-operator-kstreams},1650415695,0
{consumergroup=__strimzi-topic-operator-kstreams},1650415700,0
{consumergroup=__strimzi-topic-operator-kstreams},1650415705,0
{consumergroup=__strimzi-topic-operator-kstreams},1650415710,0
{consumergroup=__strimzi-topic-operator-kstreams},1650415715,0
{consumergroup=__strimzi-topic-operator-kstreams},1650415720,0
{consumergroup=__strimzi-topic-operator-kstreams},1650415725,0
{consumergroup=__strimzi-topic-operator-kstreams},1650415730,0
{consumergroup=__strimzi-topic-operator-kstreams},1650415735,0
{consumergroup=__strimzi-topic-operator-kstreams},1650415740,0
{consumergroup=__strimzi-topic-operator-kstreams},1650415745,0
{consumergroup=__strimzi-topic-operator-kstreams},1650415750,0
{consumergroup=__strimzi-topic-operator-kstreams},1650415755,0
{consumergroup=__strimzi-topic-operator-kstreams},1650415760,0
{consumergroup=__strimzi-topic-operator-kstreams},1650415765,0
{consumergroup=__strimzi-topic-operator-kstreams},1650415770,0
{consumergroup=__strimzi-topic-operator-kstreams},1650415775,0
{consumergroup=__strimzi-topic-operator-kstreams},1650415780,0
{consumergroup=__strimzi-topic-operator-kstreams},1650415785,0
{consumergroup=__strimzi-topic-operator-kstreams},1650415790,0
{consumergroup=__strimzi-topic-operator-kstreams},1650415795,0
{consumergroup=__strimzi-topic-operator-kstreams},1650415800,0
{consumergroup=__strimzi-topic-operator-kstreams},1650415805,0
{consumergroup=__strimzi-topic-operator-kstreams},1650415810,0
{consumergroup=__strimzi-topic-operator-kstreams},1650415815,0
{consumergroup=__strimzi-topic-operator-kstreams},1650415820,0
{consumergroup=__strimzi-topic-operator-kstreams},1650415825,0
{consumergroup=__strimzi-topic-operator-kstreams},1650415830,0
{consumergroup=__strimzi-topic-operator-kstreams},1650415835,0
{consumergroup=__strimzi-topic-operator-kstreams},1650415840,0
{consumergroup=__strimzi-topic-operator-kstreams},1650415845,0
{consumergroup=__strimzi-topic-operator-kstreams},1650415850,0
{consumergroup=__strimzi-topic-operator-kstreams},1650415855,0
{consumergroup=__strimzi-topic-operator-kstreams},1650415860,0
{consumergroup=__strimzi-topic-operator-kstreams},1650415865,0
{consumergroup=__strimzi-topic-operator-kstreams},1650415870,0
{consumergroup=__strimzi-topic-operator-kstreams},1650415875,0
{consumergroup=__strimzi-topic-operator-kstreams},1650415880,0
{consumergroup=__strimzi-topic-operator-kstreams},1650415885,0
{consumergroup=__strimzi-topic-operator-kstreams},1650415890,0
{consumergroup=__strimzi-topic-operator-kstreams},1650415895,0
{consumergroup=__strimzi-topic-operator-kstreams},1650415900,0
{consumergroup=__strimzi-topic-operator-kstreams},1650415905,0
{consumergroup=__strimzi-topic-operator-kstreams},1650415910,0
{consumergroup=__strimzi-topic-operator-kstreams},1650415915,0
{consumergroup=__strimzi-topic-operator-kstreams},1650415920,0
{consumergroup=__strimzi-topic-operator-kstreams},1650415925,0
{consumergroup=__strimzi-topic-operator-kstreams},1650415930,0
{consumergroup=__strimzi-topic-operator-kstreams},1650415935,0
{consumergroup=__strimzi-topic-operator-kstreams},1650415940,0
{consumergroup=__strimzi-topic-operator-kstreams},1650415945,0
{consumergroup=__strimzi-topic-operator-kstreams},1650415950,0
{consumergroup=__strimzi-topic-operator-kstreams},1650415955,0
{consumergroup=__strimzi-topic-operator-kstreams},1650415960,0
{consumergroup=__strimzi-topic-operator-kstreams},1650415965,0
{consumergroup=__strimzi-topic-operator-kstreams},1650415970,0
{consumergroup=__strimzi-topic-operator-kstreams},1650415975,0
{consumergroup=__strimzi-topic-operator-kstreams},1650415980,0
