labels,timestamp,value
{consumergroup=__strimzi-topic-operator-kstreams},1650400581,8
{consumergroup=__strimzi-topic-operator-kstreams},1650400586,8
{consumergroup=__strimzi-topic-operator-kstreams},1650400591,8
{consumergroup=__strimzi-topic-operator-kstreams},1650400596,0
{consumergroup=__strimzi-topic-operator-kstreams},1650400601,0
{consumergroup=__strimzi-topic-operator-kstreams},1650400606,0
{consumergroup=__strimzi-topic-operator-kstreams},1650400611,0
{consumergroup=__strimzi-topic-operator-kstreams},1650400616,0
{consumergroup=__strimzi-topic-operator-kstreams},1650400621,0
{consumergroup=__strimzi-topic-operator-kstreams},1650400626,0
{consumergroup=__strimzi-topic-operator-kstreams},1650400631,0
{consumergroup=__strimzi-topic-operator-kstreams},1650400636,0
{consumergroup=__strimzi-topic-operator-kstreams},1650400641,0
{consumergroup=__strimzi-topic-operator-kstreams},1650400646,0
{consumergroup=__strimzi-topic-operator-kstreams},1650400651,0
{consumergroup=__strimzi-topic-operator-kstreams},1650400656,0
{consumergroup=__strimzi-topic-operator-kstreams},1650400661,0
{consumergroup=__strimzi-topic-operator-kstreams},1650400666,0
{consumergroup=__strimzi-topic-operator-kstreams},1650400671,0
{consumergroup=__strimzi-topic-operator-kstreams},1650400676,0
{consumergroup=__strimzi-topic-operator-kstreams},1650400681,0
{consumergroup=__strimzi-topic-operator-kstreams},1650400686,0
{consumergroup=__strimzi-topic-operator-kstreams},1650400691,0
{consumergroup=__strimzi-topic-operator-kstreams},1650400696,0
{consumergroup=__strimzi-topic-operator-kstreams},1650400701,0
{consumergroup=__strimzi-topic-operator-kstreams},1650400706,0
{consumergroup=__strimzi-topic-operator-kstreams},1650400711,0
{consumergroup=__strimzi-topic-operator-kstreams},1650400716,0
{consumergroup=__strimzi-topic-operator-kstreams},1650400721,0
{consumergroup=__strimzi-topic-operator-kstreams},1650400726,0
{consumergroup=__strimzi-topic-operator-kstreams},1650400731,0
{consumergroup=__strimzi-topic-operator-kstreams},1650400736,0
{consumergroup=__strimzi-topic-operator-kstreams},1650400741,0
{consumergroup=__strimzi-topic-operator-kstreams},1650400746,0
{consumergroup=__strimzi-topic-operator-kstreams},1650400751,0
{consumergroup=__strimzi-topic-operator-kstreams},1650400756,0
{consumergroup=__strimzi-topic-operator-kstreams},1650400761,0
{consumergroup=__strimzi-topic-operator-kstreams},1650400766,0
{consumergroup=__strimzi-topic-operator-kstreams},1650400771,0
{consumergroup=__strimzi-topic-operator-kstreams},1650400776,0
{consumergroup=__strimzi-topic-operator-kstreams},1650400781,0
{consumergroup=__strimzi-topic-operator-kstreams},1650400786,0
{consumergroup=__strimzi-topic-operator-kstreams},1650400791,0
{consumergroup=__strimzi-topic-operator-kstreams},1650400796,0
{consumergroup=__strimzi-topic-operator-kstreams},1650400801,0
{consumergroup=__strimzi-topic-operator-kstreams},1650400806,0
{consumergroup=__strimzi-topic-operator-kstreams},1650400811,0
{consumergroup=__strimzi-topic-operator-kstreams},1650400816,0
{consumergroup=__strimzi-topic-operator-kstreams},1650400821,0
{consumergroup=__strimzi-topic-operator-kstreams},1650400826,0
{consumergroup=__strimzi-topic-operator-kstreams},1650400831,0
{consumergroup=__strimzi-topic-operator-kstreams},1650400836,0
{consumergroup=__strimzi-topic-operator-kstreams},1650400841,0
{consumergroup=__strimzi-topic-operator-kstreams},1650400846,0
{consumergroup=__strimzi-topic-operator-kstreams},1650400851,0
{consumergroup=__strimzi-topic-operator-kstreams},1650400856,0
{consumergroup=__strimzi-topic-operator-kstreams},1650400861,0
{consumergroup=__strimzi-topic-operator-kstreams},1650400866,0
{consumergroup=__strimzi-topic-operator-kstreams},1650400871,0
{consumergroup=__strimzi-topic-operator-kstreams},1650400876,0
{consumergroup=__strimzi-topic-operator-kstreams},1650400881,0
{consumergroup=__strimzi-topic-operator-kstreams},1650400886,0
{consumergroup=__strimzi-topic-operator-kstreams},1650400891,0
{consumergroup=__strimzi-topic-operator-kstreams},1650400896,0
{consumergroup=__strimzi-topic-operator-kstreams},1650400901,0
{consumergroup=__strimzi-topic-operator-kstreams},1650400906,0
{consumergroup=__strimzi-topic-operator-kstreams},1650400911,0
{consumergroup=__strimzi-topic-operator-kstreams},1650400916,0
{consumergroup=__strimzi-topic-operator-kstreams},1650400921,0
{consumergroup=__strimzi-topic-operator-kstreams},1650400926,0
{consumergroup=__strimzi-topic-operator-kstreams},1650400931,0
{consumergroup=__strimzi-topic-operator-kstreams},1650400936,0
{consumergroup=__strimzi-topic-operator-kstreams},1650400941,0
{consumergroup=__strimzi-topic-operator-kstreams},1650400946,0
{consumergroup=__strimzi-topic-operator-kstreams},1650400951,0
{consumergroup=__strimzi-topic-operator-kstreams},1650400956,0
{consumergroup=__strimzi-topic-operator-kstreams},1650400961,0
{consumergroup=__strimzi-topic-operator-kstreams},1650400966,0
{consumergroup=__strimzi-topic-operator-kstreams},1650400971,0
{consumergroup=__strimzi-topic-operator-kstreams},1650400976,0
{consumergroup=__strimzi-topic-operator-kstreams},1650400981,0
{consumergroup=__strimzi-topic-operator-kstreams},1650400986,0
{consumergroup=__strimzi-topic-operator-kstreams},1650400991,0
{consumergroup=__strimzi-topic-operator-kstreams},1650400996,0
{consumergroup=__strimzi-topic-operator-kstreams},1650401001,0
{consumergroup=__strimzi-topic-operator-kstreams},1650401006,0
{consumergroup=__strimzi-topic-operator-kstreams},1650401011,0
{consumergroup=__strimzi-topic-operator-kstreams},1650401016,0
{consumergroup=__strimzi-topic-operator-kstreams},1650401021,0
{consumergroup=__strimzi-topic-operator-kstreams},1650401026,0
{consumergroup=__strimzi-topic-operator-kstreams},1650401031,0
{consumergroup=__strimzi-topic-operator-kstreams},1650401036,0
{consumergroup=__strimzi-topic-operator-kstreams},1650401041,0
{consumergroup=__strimzi-topic-operator-kstreams},1650401046,0
{consumergroup=__strimzi-topic-operator-kstreams},1650401051,0
{consumergroup=__strimzi-topic-operator-kstreams},1650401056,0
{consumergroup=__strimzi-topic-operator-kstreams},1650401061,0
{consumergroup=__strimzi-topic-operator-kstreams},1650401066,0
{consumergroup=__strimzi-topic-operator-kstreams},1650401071,0
