labels,timestamp,value
{consumergroup=__strimzi-topic-operator-kstreams},1650403935,0
{consumergroup=__strimzi-topic-operator-kstreams},1650403940,0
{consumergroup=__strimzi-topic-operator-kstreams},1650403945,0
{consumergroup=__strimzi-topic-operator-kstreams},1650403950,0
{consumergroup=__strimzi-topic-operator-kstreams},1650403955,0
{consumergroup=__strimzi-topic-operator-kstreams},1650403960,0
{consumergroup=__strimzi-topic-operator-kstreams},1650403965,0
{consumergroup=__strimzi-topic-operator-kstreams},1650403970,0
{consumergroup=__strimzi-topic-operator-kstreams},1650403975,0
{consumergroup=__strimzi-topic-operator-kstreams},1650403980,0
{consumergroup=__strimzi-topic-operator-kstreams},1650403985,0
{consumergroup=__strimzi-topic-operator-kstreams},1650403990,0
{consumergroup=__strimzi-topic-operator-kstreams},1650403995,0
{consumergroup=__strimzi-topic-operator-kstreams},1650404000,0
{consumergroup=__strimzi-topic-operator-kstreams},1650404005,0
{consumergroup=__strimzi-topic-operator-kstreams},1650404010,0
{consumergroup=__strimzi-topic-operator-kstreams},1650404015,0
{consumergroup=__strimzi-topic-operator-kstreams},1650404020,0
{consumergroup=__strimzi-topic-operator-kstreams},1650404025,0
{consumergroup=__strimzi-topic-operator-kstreams},1650404030,0
{consumergroup=__strimzi-topic-operator-kstreams},1650404035,0
{consumergroup=__strimzi-topic-operator-kstreams},1650404040,0
{consumergroup=__strimzi-topic-operator-kstreams},1650404045,0
{consumergroup=__strimzi-topic-operator-kstreams},1650404050,0
{consumergroup=__strimzi-topic-operator-kstreams},1650404055,0
{consumergroup=__strimzi-topic-operator-kstreams},1650404060,0
{consumergroup=__strimzi-topic-operator-kstreams},1650404065,0
{consumergroup=__strimzi-topic-operator-kstreams},1650404070,0
{consumergroup=__strimzi-topic-operator-kstreams},1650404075,0
{consumergroup=__strimzi-topic-operator-kstreams},1650404080,0
{consumergroup=__strimzi-topic-operator-kstreams},1650404085,0
{consumergroup=__strimzi-topic-operator-kstreams},1650404090,0
{consumergroup=__strimzi-topic-operator-kstreams},1650404095,0
{consumergroup=__strimzi-topic-operator-kstreams},1650404100,0
{consumergroup=__strimzi-topic-operator-kstreams},1650404105,0
{consumergroup=__strimzi-topic-operator-kstreams},1650404110,0
{consumergroup=__strimzi-topic-operator-kstreams},1650404115,0
{consumergroup=__strimzi-topic-operator-kstreams},1650404120,0
{consumergroup=__strimzi-topic-operator-kstreams},1650404125,0
{consumergroup=__strimzi-topic-operator-kstreams},1650404130,0
{consumergroup=__strimzi-topic-operator-kstreams},1650404135,0
{consumergroup=__strimzi-topic-operator-kstreams},1650404140,0
{consumergroup=__strimzi-topic-operator-kstreams},1650404145,0
{consumergroup=__strimzi-topic-operator-kstreams},1650404150,0
{consumergroup=__strimzi-topic-operator-kstreams},1650404155,0
{consumergroup=__strimzi-topic-operator-kstreams},1650404160,0
{consumergroup=__strimzi-topic-operator-kstreams},1650404165,0
{consumergroup=__strimzi-topic-operator-kstreams},1650404170,0
{consumergroup=__strimzi-topic-operator-kstreams},1650404175,0
{consumergroup=__strimzi-topic-operator-kstreams},1650404180,0
{consumergroup=__strimzi-topic-operator-kstreams},1650404185,0
{consumergroup=__strimzi-topic-operator-kstreams},1650404190,0
{consumergroup=__strimzi-topic-operator-kstreams},1650404195,0
{consumergroup=__strimzi-topic-operator-kstreams},1650404200,0
{consumergroup=__strimzi-topic-operator-kstreams},1650404205,0
{consumergroup=__strimzi-topic-operator-kstreams},1650404210,0
{consumergroup=__strimzi-topic-operator-kstreams},1650404215,0
{consumergroup=__strimzi-topic-operator-kstreams},1650404220,0
{consumergroup=__strimzi-topic-operator-kstreams},1650404225,0
{consumergroup=__strimzi-topic-operator-kstreams},1650404230,0
{consumergroup=__strimzi-topic-operator-kstreams},1650404235,0
{consumergroup=__strimzi-topic-operator-kstreams},1650404240,0
{consumergroup=__strimzi-topic-operator-kstreams},1650404245,0
{consumergroup=__strimzi-topic-operator-kstreams},1650404250,0
{consumergroup=__strimzi-topic-operator-kstreams},1650404255,0
{consumergroup=__strimzi-topic-operator-kstreams},1650404260,0
{consumergroup=__strimzi-topic-operator-kstreams},1650404265,0
{consumergroup=__strimzi-topic-operator-kstreams},1650404270,0
{consumergroup=__strimzi-topic-operator-kstreams},1650404275,0
{consumergroup=__strimzi-topic-operator-kstreams},1650404280,0
{consumergroup=__strimzi-topic-operator-kstreams},1650404285,0
{consumergroup=__strimzi-topic-operator-kstreams},1650404290,0
{consumergroup=__strimzi-topic-operator-kstreams},1650404295,0
{consumergroup=__strimzi-topic-operator-kstreams},1650404300,0
{consumergroup=__strimzi-topic-operator-kstreams},1650404305,0
{consumergroup=__strimzi-topic-operator-kstreams},1650404310,0
{consumergroup=__strimzi-topic-operator-kstreams},1650404315,0
{consumergroup=__strimzi-topic-operator-kstreams},1650404320,0
{consumergroup=__strimzi-topic-operator-kstreams},1650404325,0
{consumergroup=__strimzi-topic-operator-kstreams},1650404330,0
{consumergroup=__strimzi-topic-operator-kstreams},1650404335,0
{consumergroup=__strimzi-topic-operator-kstreams},1650404340,0
{consumergroup=__strimzi-topic-operator-kstreams},1650404345,0
{consumergroup=__strimzi-topic-operator-kstreams},1650404350,0
{consumergroup=__strimzi-topic-operator-kstreams},1650404355,0
{consumergroup=__strimzi-topic-operator-kstreams},1650404360,0
{consumergroup=__strimzi-topic-operator-kstreams},1650404365,0
{consumergroup=__strimzi-topic-operator-kstreams},1650404370,0
{consumergroup=__strimzi-topic-operator-kstreams},1650404375,0
{consumergroup=__strimzi-topic-operator-kstreams},1650404380,0
{consumergroup=__strimzi-topic-operator-kstreams},1650404385,0
{consumergroup=__strimzi-topic-operator-kstreams},1650404390,0
{consumergroup=__strimzi-topic-operator-kstreams},1650404395,0
{consumergroup=__strimzi-topic-operator-kstreams},1650404400,0
{consumergroup=__strimzi-topic-operator-kstreams},1650404405,0
{consumergroup=__strimzi-topic-operator-kstreams},1650404410,0
{consumergroup=__strimzi-topic-operator-kstreams},1650404415,0
{consumergroup=__strimzi-topic-operator-kstreams},1650404420,0
