labels,timestamp,value
{consumergroup=__strimzi-topic-operator-kstreams},1650381193,0
{consumergroup=__strimzi-topic-operator-kstreams},1650381198,0
{consumergroup=__strimzi-topic-operator-kstreams},1650381203,0
{consumergroup=__strimzi-topic-operator-kstreams},1650381208,8
{consumergroup=__strimzi-topic-operator-kstreams},1650381213,8
{consumergroup=__strimzi-topic-operator-kstreams},1650381218,8
{consumergroup=__strimzi-topic-operator-kstreams},1650381223,0
{consumergroup=__strimzi-topic-operator-kstreams},1650381228,0
{consumergroup=__strimzi-topic-operator-kstreams},1650381233,0
{consumergroup=__strimzi-topic-operator-kstreams},1650381238,0
{consumergroup=__strimzi-topic-operator-kstreams},1650381243,0
{consumergroup=__strimzi-topic-operator-kstreams},1650381248,0
{consumergroup=__strimzi-topic-operator-kstreams},1650381253,0
{consumergroup=__strimzi-topic-operator-kstreams},1650381258,0
{consumergroup=__strimzi-topic-operator-kstreams},1650381263,0
{consumergroup=__strimzi-topic-operator-kstreams},1650381268,0
{consumergroup=__strimzi-topic-operator-kstreams},1650381273,0
{consumergroup=__strimzi-topic-operator-kstreams},1650381278,0
{consumergroup=__strimzi-topic-operator-kstreams},1650381283,0
{consumergroup=__strimzi-topic-operator-kstreams},1650381288,0
{consumergroup=__strimzi-topic-operator-kstreams},1650381293,0
{consumergroup=__strimzi-topic-operator-kstreams},1650381298,0
{consumergroup=__strimzi-topic-operator-kstreams},1650381303,0
{consumergroup=__strimzi-topic-operator-kstreams},1650381308,0
{consumergroup=__strimzi-topic-operator-kstreams},1650381313,0
{consumergroup=__strimzi-topic-operator-kstreams},1650381318,0
{consumergroup=__strimzi-topic-operator-kstreams},1650381323,0
{consumergroup=__strimzi-topic-operator-kstreams},1650381328,0
{consumergroup=__strimzi-topic-operator-kstreams},1650381333,0
{consumergroup=__strimzi-topic-operator-kstreams},1650381338,0
{consumergroup=__strimzi-topic-operator-kstreams},1650381343,0
{consumergroup=__strimzi-topic-operator-kstreams},1650381348,0
{consumergroup=__strimzi-topic-operator-kstreams},1650381353,0
{consumergroup=__strimzi-topic-operator-kstreams},1650381358,0
{consumergroup=__strimzi-topic-operator-kstreams},1650381363,0
{consumergroup=__strimzi-topic-operator-kstreams},1650381368,0
{consumergroup=__strimzi-topic-operator-kstreams},1650381373,0
{consumergroup=__strimzi-topic-operator-kstreams},1650381378,0
{consumergroup=__strimzi-topic-operator-kstreams},1650381383,0
{consumergroup=__strimzi-topic-operator-kstreams},1650381388,0
{consumergroup=__strimzi-topic-operator-kstreams},1650381393,0
{consumergroup=__strimzi-topic-operator-kstreams},1650381398,0
{consumergroup=__strimzi-topic-operator-kstreams},1650381403,0
{consumergroup=__strimzi-topic-operator-kstreams},1650381408,0
{consumergroup=__strimzi-topic-operator-kstreams},1650381413,0
{consumergroup=__strimzi-topic-operator-kstreams},1650381418,0
{consumergroup=__strimzi-topic-operator-kstreams},1650381423,0
{consumergroup=__strimzi-topic-operator-kstreams},1650381428,0
{consumergroup=__strimzi-topic-operator-kstreams},1650381433,0
{consumergroup=__strimzi-topic-operator-kstreams},1650381438,0
{consumergroup=__strimzi-topic-operator-kstreams},1650381443,0
{consumergroup=__strimzi-topic-operator-kstreams},1650381448,0
{consumergroup=__strimzi-topic-operator-kstreams},1650381453,0
