labels,timestamp,value
{consumergroup=__strimzi-topic-operator-kstreams},1650423240,8
{consumergroup=__strimzi-topic-operator-kstreams},1650423245,8
{consumergroup=__strimzi-topic-operator-kstreams},1650423250,8
{consumergroup=__strimzi-topic-operator-kstreams},1650423255,0
{consumergroup=__strimzi-topic-operator-kstreams},1650423260,0
{consumergroup=__strimzi-topic-operator-kstreams},1650423265,0
{consumergroup=__strimzi-topic-operator-kstreams},1650423270,0
{consumergroup=__strimzi-topic-operator-kstreams},1650423275,0
{consumergroup=__strimzi-topic-operator-kstreams},1650423280,0
{consumergroup=__strimzi-topic-operator-kstreams},1650423285,0
{consumergroup=__strimzi-topic-operator-kstreams},1650423290,0
{consumergroup=__strimzi-topic-operator-kstreams},1650423295,0
{consumergroup=__strimzi-topic-operator-kstreams},1650423300,0
{consumergroup=__strimzi-topic-operator-kstreams},1650423305,0
{consumergroup=__strimzi-topic-operator-kstreams},1650423310,0
{consumergroup=__strimzi-topic-operator-kstreams},1650423315,0
{consumergroup=__strimzi-topic-operator-kstreams},1650423320,0
{consumergroup=__strimzi-topic-operator-kstreams},1650423325,0
{consumergroup=__strimzi-topic-operator-kstreams},1650423330,0
{consumergroup=__strimzi-topic-operator-kstreams},1650423335,0
{consumergroup=__strimzi-topic-operator-kstreams},1650423340,0
{consumergroup=__strimzi-topic-operator-kstreams},1650423345,0
{consumergroup=__strimzi-topic-operator-kstreams},1650423350,0
{consumergroup=__strimzi-topic-operator-kstreams},1650423355,0
{consumergroup=__strimzi-topic-operator-kstreams},1650423360,0
{consumergroup=__strimzi-topic-operator-kstreams},1650423365,0
{consumergroup=__strimzi-topic-operator-kstreams},1650423370,0
{consumergroup=__strimzi-topic-operator-kstreams},1650423375,0
{consumergroup=__strimzi-topic-operator-kstreams},1650423380,0
{consumergroup=__strimzi-topic-operator-kstreams},1650423385,0
{consumergroup=__strimzi-topic-operator-kstreams},1650423390,0
{consumergroup=__strimzi-topic-operator-kstreams},1650423395,0
{consumergroup=__strimzi-topic-operator-kstreams},1650423400,0
{consumergroup=__strimzi-topic-operator-kstreams},1650423405,0
{consumergroup=__strimzi-topic-operator-kstreams},1650423410,0
{consumergroup=__strimzi-topic-operator-kstreams},1650423415,0
{consumergroup=__strimzi-topic-operator-kstreams},1650423420,0
{consumergroup=__strimzi-topic-operator-kstreams},1650423425,0
{consumergroup=__strimzi-topic-operator-kstreams},1650423430,0
{consumergroup=__strimzi-topic-operator-kstreams},1650423435,0
{consumergroup=__strimzi-topic-operator-kstreams},1650423440,0
{consumergroup=__strimzi-topic-operator-kstreams},1650423445,0
{consumergroup=__strimzi-topic-operator-kstreams},1650423450,0
{consumergroup=__strimzi-topic-operator-kstreams},1650423455,0
{consumergroup=__strimzi-topic-operator-kstreams},1650423460,0
{consumergroup=__strimzi-topic-operator-kstreams},1650423465,0
{consumergroup=__strimzi-topic-operator-kstreams},1650423470,0
{consumergroup=__strimzi-topic-operator-kstreams},1650423475,0
{consumergroup=__strimzi-topic-operator-kstreams},1650423480,0
{consumergroup=__strimzi-topic-operator-kstreams},1650423485,0
{consumergroup=__strimzi-topic-operator-kstreams},1650423490,0
{consumergroup=__strimzi-topic-operator-kstreams},1650423495,0
{consumergroup=__strimzi-topic-operator-kstreams},1650423500,0
{consumergroup=__strimzi-topic-operator-kstreams},1650423505,0
{consumergroup=__strimzi-topic-operator-kstreams},1650423510,0
{consumergroup=__strimzi-topic-operator-kstreams},1650423515,0
{consumergroup=__strimzi-topic-operator-kstreams},1650423520,0
{consumergroup=__strimzi-topic-operator-kstreams},1650423525,0
{consumergroup=__strimzi-topic-operator-kstreams},1650423530,0
{consumergroup=__strimzi-topic-operator-kstreams},1650423535,0
{consumergroup=__strimzi-topic-operator-kstreams},1650423540,0
{consumergroup=__strimzi-topic-operator-kstreams},1650423545,0
{consumergroup=__strimzi-topic-operator-kstreams},1650423550,0
{consumergroup=__strimzi-topic-operator-kstreams},1650423555,0
{consumergroup=__strimzi-topic-operator-kstreams},1650423560,0
{consumergroup=__strimzi-topic-operator-kstreams},1650423565,0
{consumergroup=__strimzi-topic-operator-kstreams},1650423570,0
{consumergroup=__strimzi-topic-operator-kstreams},1650423575,0
{consumergroup=__strimzi-topic-operator-kstreams},1650423580,0
{consumergroup=__strimzi-topic-operator-kstreams},1650423585,0
{consumergroup=__strimzi-topic-operator-kstreams},1650423590,0
{consumergroup=__strimzi-topic-operator-kstreams},1650423595,0
{consumergroup=__strimzi-topic-operator-kstreams},1650423600,0
{consumergroup=__strimzi-topic-operator-kstreams},1650423605,0
{consumergroup=__strimzi-topic-operator-kstreams},1650423610,0
{consumergroup=__strimzi-topic-operator-kstreams},1650423615,0
{consumergroup=__strimzi-topic-operator-kstreams},1650423620,0
{consumergroup=__strimzi-topic-operator-kstreams},1650423625,0
{consumergroup=__strimzi-topic-operator-kstreams},1650423630,0
{consumergroup=__strimzi-topic-operator-kstreams},1650423635,0
{consumergroup=__strimzi-topic-operator-kstreams},1650423640,0
{consumergroup=__strimzi-topic-operator-kstreams},1650423645,0
{consumergroup=__strimzi-topic-operator-kstreams},1650423650,0
{consumergroup=__strimzi-topic-operator-kstreams},1650423655,0
{consumergroup=__strimzi-topic-operator-kstreams},1650423660,0
{consumergroup=__strimzi-topic-operator-kstreams},1650423665,0
{consumergroup=__strimzi-topic-operator-kstreams},1650423670,0
{consumergroup=__strimzi-topic-operator-kstreams},1650423675,0
{consumergroup=__strimzi-topic-operator-kstreams},1650423680,0
{consumergroup=__strimzi-topic-operator-kstreams},1650423685,0
{consumergroup=__strimzi-topic-operator-kstreams},1650423690,0
{consumergroup=__strimzi-topic-operator-kstreams},1650423695,0
{consumergroup=__strimzi-topic-operator-kstreams},1650423700,0
{consumergroup=__strimzi-topic-operator-kstreams},1650423705,0
{consumergroup=__strimzi-topic-operator-kstreams},1650423710,0
{consumergroup=__strimzi-topic-operator-kstreams},1650423715,0
{consumergroup=__strimzi-topic-operator-kstreams},1650423720,0
{consumergroup=__strimzi-topic-operator-kstreams},1650423725,0
