labels,timestamp,value
{consumergroup=__strimzi-topic-operator-kstreams},1650360738,2
{consumergroup=__strimzi-topic-operator-kstreams},1650360743,2
{consumergroup=__strimzi-topic-operator-kstreams},1650360748,2
{consumergroup=__strimzi-topic-operator-kstreams},1650360753,8
{consumergroup=__strimzi-topic-operator-kstreams},1650360758,8
{consumergroup=__strimzi-topic-operator-kstreams},1650360763,8
{consumergroup=__strimzi-topic-operator-kstreams},1650360768,0
{consumergroup=__strimzi-topic-operator-kstreams},1650360773,0
{consumergroup=__strimzi-topic-operator-kstreams},1650360778,0
{consumergroup=__strimzi-topic-operator-kstreams},1650360783,0
{consumergroup=__strimzi-topic-operator-kstreams},1650360788,0
{consumergroup=__strimzi-topic-operator-kstreams},1650360793,0
{consumergroup=__strimzi-topic-operator-kstreams},1650360798,0
{consumergroup=__strimzi-topic-operator-kstreams},1650360803,0
{consumergroup=__strimzi-topic-operator-kstreams},1650360808,0
{consumergroup=__strimzi-topic-operator-kstreams},1650360813,0
{consumergroup=__strimzi-topic-operator-kstreams},1650360818,0
{consumergroup=__strimzi-topic-operator-kstreams},1650360823,0
{consumergroup=__strimzi-topic-operator-kstreams},1650360828,0
{consumergroup=__strimzi-topic-operator-kstreams},1650360833,0
{consumergroup=__strimzi-topic-operator-kstreams},1650360838,0
{consumergroup=__strimzi-topic-operator-kstreams},1650360843,0
{consumergroup=__strimzi-topic-operator-kstreams},1650360848,0
{consumergroup=__strimzi-topic-operator-kstreams},1650360853,0
{consumergroup=__strimzi-topic-operator-kstreams},1650360858,0
{consumergroup=__strimzi-topic-operator-kstreams},1650360863,0
{consumergroup=__strimzi-topic-operator-kstreams},1650360868,0
{consumergroup=__strimzi-topic-operator-kstreams},1650360873,0
{consumergroup=__strimzi-topic-operator-kstreams},1650360878,0
{consumergroup=__strimzi-topic-operator-kstreams},1650360883,0
{consumergroup=__strimzi-topic-operator-kstreams},1650360888,0
{consumergroup=__strimzi-topic-operator-kstreams},1650360893,0
{consumergroup=__strimzi-topic-operator-kstreams},1650360898,0
{consumergroup=__strimzi-topic-operator-kstreams},1650360903,0
{consumergroup=__strimzi-topic-operator-kstreams},1650360908,0
{consumergroup=__strimzi-topic-operator-kstreams},1650360913,0
{consumergroup=__strimzi-topic-operator-kstreams},1650360918,0
{consumergroup=__strimzi-topic-operator-kstreams},1650360923,0
{consumergroup=__strimzi-topic-operator-kstreams},1650360928,0
{consumergroup=__strimzi-topic-operator-kstreams},1650360933,0
{consumergroup=__strimzi-topic-operator-kstreams},1650360938,0
{consumergroup=__strimzi-topic-operator-kstreams},1650360943,0
{consumergroup=__strimzi-topic-operator-kstreams},1650360948,0
{consumergroup=__strimzi-topic-operator-kstreams},1650360953,0
{consumergroup=__strimzi-topic-operator-kstreams},1650360958,0
{consumergroup=__strimzi-topic-operator-kstreams},1650360963,0
{consumergroup=__strimzi-topic-operator-kstreams},1650360968,0
{consumergroup=__strimzi-topic-operator-kstreams},1650360973,0
{consumergroup=__strimzi-topic-operator-kstreams},1650360978,0
{consumergroup=__strimzi-topic-operator-kstreams},1650360983,0
{consumergroup=__strimzi-topic-operator-kstreams},1650360988,0
{consumergroup=__strimzi-topic-operator-kstreams},1650360993,0
