labels,timestamp,value
{consumergroup=__strimzi-topic-operator-kstreams},1650361608,0
{consumergroup=__strimzi-topic-operator-kstreams},1650361613,0
{consumergroup=__strimzi-topic-operator-kstreams},1650361618,0
{consumergroup=__strimzi-topic-operator-kstreams},1650361623,8
{consumergroup=__strimzi-topic-operator-kstreams},1650361628,8
{consumergroup=__strimzi-topic-operator-kstreams},1650361633,8
{consumergroup=__strimzi-topic-operator-kstreams},1650361638,0
{consumergroup=__strimzi-topic-operator-kstreams},1650361643,0
{consumergroup=__strimzi-topic-operator-kstreams},1650361648,0
{consumergroup=__strimzi-topic-operator-kstreams},1650361653,0
{consumergroup=__strimzi-topic-operator-kstreams},1650361658,0
{consumergroup=__strimzi-topic-operator-kstreams},1650361663,0
{consumergroup=__strimzi-topic-operator-kstreams},1650361668,0
{consumergroup=__strimzi-topic-operator-kstreams},1650361673,0
{consumergroup=__strimzi-topic-operator-kstreams},1650361678,0
{consumergroup=__strimzi-topic-operator-kstreams},1650361683,0
{consumergroup=__strimzi-topic-operator-kstreams},1650361688,0
{consumergroup=__strimzi-topic-operator-kstreams},1650361693,0
{consumergroup=__strimzi-topic-operator-kstreams},1650361698,0
{consumergroup=__strimzi-topic-operator-kstreams},1650361703,0
{consumergroup=__strimzi-topic-operator-kstreams},1650361708,0
{consumergroup=__strimzi-topic-operator-kstreams},1650361713,0
{consumergroup=__strimzi-topic-operator-kstreams},1650361718,0
{consumergroup=__strimzi-topic-operator-kstreams},1650361723,0
{consumergroup=__strimzi-topic-operator-kstreams},1650361728,0
{consumergroup=__strimzi-topic-operator-kstreams},1650361733,0
{consumergroup=__strimzi-topic-operator-kstreams},1650361738,0
{consumergroup=__strimzi-topic-operator-kstreams},1650361743,0
{consumergroup=__strimzi-topic-operator-kstreams},1650361748,0
{consumergroup=__strimzi-topic-operator-kstreams},1650361753,0
{consumergroup=__strimzi-topic-operator-kstreams},1650361758,0
{consumergroup=__strimzi-topic-operator-kstreams},1650361763,0
{consumergroup=__strimzi-topic-operator-kstreams},1650361768,0
{consumergroup=__strimzi-topic-operator-kstreams},1650361773,0
{consumergroup=__strimzi-topic-operator-kstreams},1650361778,0
{consumergroup=__strimzi-topic-operator-kstreams},1650361783,0
{consumergroup=__strimzi-topic-operator-kstreams},1650361788,0
{consumergroup=__strimzi-topic-operator-kstreams},1650361793,0
{consumergroup=__strimzi-topic-operator-kstreams},1650361798,0
{consumergroup=__strimzi-topic-operator-kstreams},1650361803,0
{consumergroup=__strimzi-topic-operator-kstreams},1650361808,0
{consumergroup=__strimzi-topic-operator-kstreams},1650361813,0
{consumergroup=__strimzi-topic-operator-kstreams},1650361818,0
{consumergroup=__strimzi-topic-operator-kstreams},1650361823,0
{consumergroup=__strimzi-topic-operator-kstreams},1650361828,0
{consumergroup=__strimzi-topic-operator-kstreams},1650361833,0
{consumergroup=__strimzi-topic-operator-kstreams},1650361838,0
{consumergroup=__strimzi-topic-operator-kstreams},1650361843,0
{consumergroup=__strimzi-topic-operator-kstreams},1650361848,0
{consumergroup=__strimzi-topic-operator-kstreams},1650361853,0
{consumergroup=__strimzi-topic-operator-kstreams},1650361858,0
{consumergroup=__strimzi-topic-operator-kstreams},1650361863,0
{consumergroup=__strimzi-topic-operator-kstreams},1650361868,0
