labels,timestamp,value
{consumergroup=__strimzi-topic-operator-kstreams},1650363486,0
{consumergroup=__strimzi-topic-operator-kstreams},1650363491,0
{consumergroup=__strimzi-topic-operator-kstreams},1650363496,0
{consumergroup=__strimzi-topic-operator-kstreams},1650363501,8
{consumergroup=__strimzi-topic-operator-kstreams},1650363506,8
{consumergroup=__strimzi-topic-operator-kstreams},1650363511,8
{consumergroup=__strimzi-topic-operator-kstreams},1650363516,0
{consumergroup=__strimzi-topic-operator-kstreams},1650363521,0
{consumergroup=__strimzi-topic-operator-kstreams},1650363526,0
{consumergroup=__strimzi-topic-operator-kstreams},1650363531,0
{consumergroup=__strimzi-topic-operator-kstreams},1650363536,0
{consumergroup=__strimzi-topic-operator-kstreams},1650363541,0
{consumergroup=__strimzi-topic-operator-kstreams},1650363546,0
{consumergroup=__strimzi-topic-operator-kstreams},1650363551,0
{consumergroup=__strimzi-topic-operator-kstreams},1650363556,0
{consumergroup=__strimzi-topic-operator-kstreams},1650363561,0
{consumergroup=__strimzi-topic-operator-kstreams},1650363566,0
{consumergroup=__strimzi-topic-operator-kstreams},1650363571,0
{consumergroup=__strimzi-topic-operator-kstreams},1650363576,0
{consumergroup=__strimzi-topic-operator-kstreams},1650363581,0
{consumergroup=__strimzi-topic-operator-kstreams},1650363586,0
{consumergroup=__strimzi-topic-operator-kstreams},1650363591,0
{consumergroup=__strimzi-topic-operator-kstreams},1650363596,0
{consumergroup=__strimzi-topic-operator-kstreams},1650363601,0
{consumergroup=__strimzi-topic-operator-kstreams},1650363606,0
{consumergroup=__strimzi-topic-operator-kstreams},1650363611,0
{consumergroup=__strimzi-topic-operator-kstreams},1650363616,0
{consumergroup=__strimzi-topic-operator-kstreams},1650363621,0
{consumergroup=__strimzi-topic-operator-kstreams},1650363626,0
{consumergroup=__strimzi-topic-operator-kstreams},1650363631,0
{consumergroup=__strimzi-topic-operator-kstreams},1650363636,0
{consumergroup=__strimzi-topic-operator-kstreams},1650363641,0
{consumergroup=__strimzi-topic-operator-kstreams},1650363646,0
{consumergroup=__strimzi-topic-operator-kstreams},1650363651,0
{consumergroup=__strimzi-topic-operator-kstreams},1650363656,0
{consumergroup=__strimzi-topic-operator-kstreams},1650363661,0
{consumergroup=__strimzi-topic-operator-kstreams},1650363666,0
{consumergroup=__strimzi-topic-operator-kstreams},1650363671,0
{consumergroup=__strimzi-topic-operator-kstreams},1650363676,0
{consumergroup=__strimzi-topic-operator-kstreams},1650363681,0
{consumergroup=__strimzi-topic-operator-kstreams},1650363686,0
{consumergroup=__strimzi-topic-operator-kstreams},1650363691,0
{consumergroup=__strimzi-topic-operator-kstreams},1650363696,0
{consumergroup=__strimzi-topic-operator-kstreams},1650363701,0
{consumergroup=__strimzi-topic-operator-kstreams},1650363706,0
{consumergroup=__strimzi-topic-operator-kstreams},1650363711,0
{consumergroup=__strimzi-topic-operator-kstreams},1650363716,0
{consumergroup=__strimzi-topic-operator-kstreams},1650363721,0
{consumergroup=__strimzi-topic-operator-kstreams},1650363726,0
{consumergroup=__strimzi-topic-operator-kstreams},1650363731,0
{consumergroup=__strimzi-topic-operator-kstreams},1650363736,0
{consumergroup=__strimzi-topic-operator-kstreams},1650363741,0
