labels,timestamp,value
{consumergroup=__strimzi-topic-operator-kstreams},1650368496,0
{consumergroup=__strimzi-topic-operator-kstreams},1650368501,0
{consumergroup=__strimzi-topic-operator-kstreams},1650368506,0
{consumergroup=__strimzi-topic-operator-kstreams},1650368511,0
{consumergroup=__strimzi-topic-operator-kstreams},1650368516,0
{consumergroup=__strimzi-topic-operator-kstreams},1650368521,0
{consumergroup=__strimzi-topic-operator-kstreams},1650368526,0
{consumergroup=__strimzi-topic-operator-kstreams},1650368531,0
{consumergroup=__strimzi-topic-operator-kstreams},1650368536,0
{consumergroup=__strimzi-topic-operator-kstreams},1650368541,0
{consumergroup=__strimzi-topic-operator-kstreams},1650368546,0
{consumergroup=__strimzi-topic-operator-kstreams},1650368551,0
{consumergroup=__strimzi-topic-operator-kstreams},1650368556,0
{consumergroup=__strimzi-topic-operator-kstreams},1650368561,0
{consumergroup=__strimzi-topic-operator-kstreams},1650368566,0
{consumergroup=__strimzi-topic-operator-kstreams},1650368571,0
{consumergroup=__strimzi-topic-operator-kstreams},1650368576,0
{consumergroup=__strimzi-topic-operator-kstreams},1650368581,0
{consumergroup=__strimzi-topic-operator-kstreams},1650368586,0
{consumergroup=__strimzi-topic-operator-kstreams},1650368591,0
{consumergroup=__strimzi-topic-operator-kstreams},1650368596,0
{consumergroup=__strimzi-topic-operator-kstreams},1650368601,0
{consumergroup=__strimzi-topic-operator-kstreams},1650368606,0
{consumergroup=__strimzi-topic-operator-kstreams},1650368611,0
{consumergroup=__strimzi-topic-operator-kstreams},1650368616,0
{consumergroup=__strimzi-topic-operator-kstreams},1650368621,0
{consumergroup=__strimzi-topic-operator-kstreams},1650368626,0
{consumergroup=__strimzi-topic-operator-kstreams},1650368631,0
{consumergroup=__strimzi-topic-operator-kstreams},1650368636,0
{consumergroup=__strimzi-topic-operator-kstreams},1650368641,0
{consumergroup=__strimzi-topic-operator-kstreams},1650368646,0
{consumergroup=__strimzi-topic-operator-kstreams},1650368651,0
{consumergroup=__strimzi-topic-operator-kstreams},1650368656,0
{consumergroup=__strimzi-topic-operator-kstreams},1650368661,0
{consumergroup=__strimzi-topic-operator-kstreams},1650368666,0
{consumergroup=__strimzi-topic-operator-kstreams},1650368671,0
{consumergroup=__strimzi-topic-operator-kstreams},1650368676,0
{consumergroup=__strimzi-topic-operator-kstreams},1650368681,0
{consumergroup=__strimzi-topic-operator-kstreams},1650368686,0
{consumergroup=__strimzi-topic-operator-kstreams},1650368691,0
{consumergroup=__strimzi-topic-operator-kstreams},1650368696,0
{consumergroup=__strimzi-topic-operator-kstreams},1650368701,0
{consumergroup=__strimzi-topic-operator-kstreams},1650368706,0
{consumergroup=__strimzi-topic-operator-kstreams},1650368711,0
{consumergroup=__strimzi-topic-operator-kstreams},1650368716,0
{consumergroup=__strimzi-topic-operator-kstreams},1650368721,0
{consumergroup=__strimzi-topic-operator-kstreams},1650368726,0
{consumergroup=__strimzi-topic-operator-kstreams},1650368731,0
{consumergroup=__strimzi-topic-operator-kstreams},1650368736,0
{consumergroup=__strimzi-topic-operator-kstreams},1650368741,0
