labels,timestamp,value
{consumergroup=__strimzi-topic-operator-kstreams},1650486100,8
{consumergroup=__strimzi-topic-operator-kstreams},1650486105,8
{consumergroup=__strimzi-topic-operator-kstreams},1650486110,8
{consumergroup=__strimzi-topic-operator-kstreams},1650486115,8
{consumergroup=__strimzi-topic-operator-kstreams},1650486120,8
{consumergroup=__strimzi-topic-operator-kstreams},1650486125,8
{consumergroup=__strimzi-topic-operator-kstreams},1650486130,0
{consumergroup=__strimzi-topic-operator-kstreams},1650486135,0
{consumergroup=__strimzi-topic-operator-kstreams},1650486140,0
{consumergroup=__strimzi-topic-operator-kstreams},1650486145,0
{consumergroup=__strimzi-topic-operator-kstreams},1650486150,0
{consumergroup=__strimzi-topic-operator-kstreams},1650486155,0
{consumergroup=__strimzi-topic-operator-kstreams},1650486160,0
{consumergroup=__strimzi-topic-operator-kstreams},1650486165,0
{consumergroup=__strimzi-topic-operator-kstreams},1650486170,0
{consumergroup=__strimzi-topic-operator-kstreams},1650486175,0
{consumergroup=__strimzi-topic-operator-kstreams},1650486180,0
{consumergroup=__strimzi-topic-operator-kstreams},1650486185,0
{consumergroup=__strimzi-topic-operator-kstreams},1650486190,0
{consumergroup=__strimzi-topic-operator-kstreams},1650486195,0
{consumergroup=__strimzi-topic-operator-kstreams},1650486200,0
{consumergroup=__strimzi-topic-operator-kstreams},1650486205,0
{consumergroup=__strimzi-topic-operator-kstreams},1650486210,0
{consumergroup=__strimzi-topic-operator-kstreams},1650486215,0
{consumergroup=__strimzi-topic-operator-kstreams},1650486220,0
{consumergroup=__strimzi-topic-operator-kstreams},1650486225,0
{consumergroup=__strimzi-topic-operator-kstreams},1650486230,0
{consumergroup=__strimzi-topic-operator-kstreams},1650486235,0
{consumergroup=__strimzi-topic-operator-kstreams},1650486240,0
{consumergroup=__strimzi-topic-operator-kstreams},1650486245,0
{consumergroup=__strimzi-topic-operator-kstreams},1650486250,0
{consumergroup=__strimzi-topic-operator-kstreams},1650486255,0
{consumergroup=__strimzi-topic-operator-kstreams},1650486260,0
{consumergroup=__strimzi-topic-operator-kstreams},1650486265,0
{consumergroup=__strimzi-topic-operator-kstreams},1650486270,0
{consumergroup=__strimzi-topic-operator-kstreams},1650486275,0
{consumergroup=__strimzi-topic-operator-kstreams},1650486280,0
{consumergroup=__strimzi-topic-operator-kstreams},1650486285,0
{consumergroup=__strimzi-topic-operator-kstreams},1650486290,0
{consumergroup=__strimzi-topic-operator-kstreams},1650486295,0
{consumergroup=__strimzi-topic-operator-kstreams},1650486300,0
{consumergroup=__strimzi-topic-operator-kstreams},1650486305,0
{consumergroup=__strimzi-topic-operator-kstreams},1650486310,0
{consumergroup=__strimzi-topic-operator-kstreams},1650486315,0
{consumergroup=__strimzi-topic-operator-kstreams},1650486320,0
{consumergroup=__strimzi-topic-operator-kstreams},1650486325,0
{consumergroup=__strimzi-topic-operator-kstreams},1650486330,0
{consumergroup=__strimzi-topic-operator-kstreams},1650486335,0
{consumergroup=__strimzi-topic-operator-kstreams},1650486340,0
{consumergroup=__strimzi-topic-operator-kstreams},1650486345,0
