labels,timestamp,value
{consumergroup=__strimzi-topic-operator-kstreams},1650370983,2
{consumergroup=__strimzi-topic-operator-kstreams},1650370988,2
{consumergroup=__strimzi-topic-operator-kstreams},1650370993,2
{consumergroup=__strimzi-topic-operator-kstreams},1650370998,0
{consumergroup=__strimzi-topic-operator-kstreams},1650371003,0
{consumergroup=__strimzi-topic-operator-kstreams},1650371008,0
{consumergroup=__strimzi-topic-operator-kstreams},1650371013,0
{consumergroup=__strimzi-topic-operator-kstreams},1650371018,0
{consumergroup=__strimzi-topic-operator-kstreams},1650371023,0
{consumergroup=__strimzi-topic-operator-kstreams},1650371028,0
{consumergroup=__strimzi-topic-operator-kstreams},1650371033,0
{consumergroup=__strimzi-topic-operator-kstreams},1650371038,0
{consumergroup=__strimzi-topic-operator-kstreams},1650371043,0
{consumergroup=__strimzi-topic-operator-kstreams},1650371048,0
{consumergroup=__strimzi-topic-operator-kstreams},1650371053,0
{consumergroup=__strimzi-topic-operator-kstreams},1650371058,0
{consumergroup=__strimzi-topic-operator-kstreams},1650371063,0
{consumergroup=__strimzi-topic-operator-kstreams},1650371068,0
{consumergroup=__strimzi-topic-operator-kstreams},1650371073,0
{consumergroup=__strimzi-topic-operator-kstreams},1650371078,0
{consumergroup=__strimzi-topic-operator-kstreams},1650371083,0
{consumergroup=__strimzi-topic-operator-kstreams},1650371088,0
{consumergroup=__strimzi-topic-operator-kstreams},1650371093,0
{consumergroup=__strimzi-topic-operator-kstreams},1650371098,0
{consumergroup=__strimzi-topic-operator-kstreams},1650371103,0
{consumergroup=__strimzi-topic-operator-kstreams},1650371108,0
{consumergroup=__strimzi-topic-operator-kstreams},1650371113,0
{consumergroup=__strimzi-topic-operator-kstreams},1650371118,0
{consumergroup=__strimzi-topic-operator-kstreams},1650371123,0
{consumergroup=__strimzi-topic-operator-kstreams},1650371128,0
{consumergroup=__strimzi-topic-operator-kstreams},1650371133,0
{consumergroup=__strimzi-topic-operator-kstreams},1650371138,0
{consumergroup=__strimzi-topic-operator-kstreams},1650371143,0
{consumergroup=__strimzi-topic-operator-kstreams},1650371148,0
{consumergroup=__strimzi-topic-operator-kstreams},1650371153,0
{consumergroup=__strimzi-topic-operator-kstreams},1650371158,0
{consumergroup=__strimzi-topic-operator-kstreams},1650371163,0
{consumergroup=__strimzi-topic-operator-kstreams},1650371168,0
{consumergroup=__strimzi-topic-operator-kstreams},1650371173,0
{consumergroup=__strimzi-topic-operator-kstreams},1650371178,0
{consumergroup=__strimzi-topic-operator-kstreams},1650371183,0
{consumergroup=__strimzi-topic-operator-kstreams},1650371188,0
{consumergroup=__strimzi-topic-operator-kstreams},1650371193,0
{consumergroup=__strimzi-topic-operator-kstreams},1650371198,0
{consumergroup=__strimzi-topic-operator-kstreams},1650371203,0
{consumergroup=__strimzi-topic-operator-kstreams},1650371208,0
{consumergroup=__strimzi-topic-operator-kstreams},1650371213,0
{consumergroup=__strimzi-topic-operator-kstreams},1650371218,0
{consumergroup=__strimzi-topic-operator-kstreams},1650371223,0
{consumergroup=__strimzi-topic-operator-kstreams},1650371228,0
{consumergroup=__strimzi-topic-operator-kstreams},1650371233,0
{consumergroup=__strimzi-topic-operator-kstreams},1650371238,0
{consumergroup=__strimzi-topic-operator-kstreams},1650371243,0
