labels,timestamp,value
{consumergroup=__strimzi-topic-operator-kstreams},1650367550,0
{consumergroup=__strimzi-topic-operator-kstreams},1650367555,0
{consumergroup=__strimzi-topic-operator-kstreams},1650367560,0
{consumergroup=__strimzi-topic-operator-kstreams},1650367565,0
{consumergroup=__strimzi-topic-operator-kstreams},1650367570,0
{consumergroup=__strimzi-topic-operator-kstreams},1650367575,0
{consumergroup=__strimzi-topic-operator-kstreams},1650367580,0
{consumergroup=__strimzi-topic-operator-kstreams},1650367585,0
{consumergroup=__strimzi-topic-operator-kstreams},1650367590,0
{consumergroup=__strimzi-topic-operator-kstreams},1650367595,0
{consumergroup=__strimzi-topic-operator-kstreams},1650367600,0
{consumergroup=__strimzi-topic-operator-kstreams},1650367605,0
{consumergroup=__strimzi-topic-operator-kstreams},1650367610,0
{consumergroup=__strimzi-topic-operator-kstreams},1650367615,0
{consumergroup=__strimzi-topic-operator-kstreams},1650367620,0
{consumergroup=__strimzi-topic-operator-kstreams},1650367625,0
{consumergroup=__strimzi-topic-operator-kstreams},1650367630,0
{consumergroup=__strimzi-topic-operator-kstreams},1650367635,0
{consumergroup=__strimzi-topic-operator-kstreams},1650367640,0
{consumergroup=__strimzi-topic-operator-kstreams},1650367645,0
{consumergroup=__strimzi-topic-operator-kstreams},1650367650,0
{consumergroup=__strimzi-topic-operator-kstreams},1650367655,0
{consumergroup=__strimzi-topic-operator-kstreams},1650367660,0
{consumergroup=__strimzi-topic-operator-kstreams},1650367665,0
{consumergroup=__strimzi-topic-operator-kstreams},1650367670,0
{consumergroup=__strimzi-topic-operator-kstreams},1650367675,0
{consumergroup=__strimzi-topic-operator-kstreams},1650367680,0
{consumergroup=__strimzi-topic-operator-kstreams},1650367685,0
{consumergroup=__strimzi-topic-operator-kstreams},1650367690,0
{consumergroup=__strimzi-topic-operator-kstreams},1650367695,0
{consumergroup=__strimzi-topic-operator-kstreams},1650367700,0
{consumergroup=__strimzi-topic-operator-kstreams},1650367705,0
{consumergroup=__strimzi-topic-operator-kstreams},1650367710,0
{consumergroup=__strimzi-topic-operator-kstreams},1650367715,0
{consumergroup=__strimzi-topic-operator-kstreams},1650367720,0
{consumergroup=__strimzi-topic-operator-kstreams},1650367725,0
{consumergroup=__strimzi-topic-operator-kstreams},1650367730,0
{consumergroup=__strimzi-topic-operator-kstreams},1650367735,0
{consumergroup=__strimzi-topic-operator-kstreams},1650367740,0
{consumergroup=__strimzi-topic-operator-kstreams},1650367745,0
{consumergroup=__strimzi-topic-operator-kstreams},1650367750,0
{consumergroup=__strimzi-topic-operator-kstreams},1650367755,0
{consumergroup=__strimzi-topic-operator-kstreams},1650367760,0
{consumergroup=__strimzi-topic-operator-kstreams},1650367765,0
{consumergroup=__strimzi-topic-operator-kstreams},1650367770,0
{consumergroup=__strimzi-topic-operator-kstreams},1650367775,0
{consumergroup=__strimzi-topic-operator-kstreams},1650367780,0
{consumergroup=__strimzi-topic-operator-kstreams},1650367785,0
{consumergroup=__strimzi-topic-operator-kstreams},1650367790,0
{consumergroup=__strimzi-topic-operator-kstreams},1650367795,0
{consumergroup=__strimzi-topic-operator-kstreams},1650367800,0
{consumergroup=__strimzi-topic-operator-kstreams},1650367805,0
